{
  "page": 195,
  "total_results": 10000,
  "total_pages": 500,
  "results": [
    {
      "id": 1035194,
      "name": "Heida Reed",
      "profile_path": "/rY14D9KQk45r6K3WvwlHZGSStC.jpg",
      "popularity": 9.639,
      "adult": false,
      "known_for_department": "Acting"
    },
    {
      "id": 52908,
      "name": "Collin Chou",
      "profile_path": "/tXZmRt3kp0wknv9jM2WLIf2W7EX.jpg",
      "popularity": 9.639,
      "adult": false,
      "known_for_department": "Acting"
    },
    {
      "id": 1331023,
      "name": "Emilia Jones",
      "profile_path": "/vQHfiR6bSKf7bJcYyDvfUSXlB9Q.jpg",
      "popularity": 9.638,
      "adult": false,
      "known_for_department": "Acting"
    },
    {
      "id": 1009,
      "name": "Randolph Scott",
      "profile_path": "/qM2DNQ7kI9oZqAYfhzgKaGURCnm.jpg",
      "popularity": 9.635,
      "adult": false,
      "known_for_department": "Acting"
    },
    {
      "id": 582130,
      "name": "Kim Ji-won",
      "profile_path": "/1IkKPBM75ZZf9OU2AcK5yBOA4iS.jpg",
      "popularity": 9.634,
      "adult": false,
      "known_for_department": "Acting"
    },
    {
      "id": 76793,
      "name": "Irrfan Khan",
      "profile_path": "/qkA9PpWJRw3rNjVkWfNZdwLvRZx.jpg",
      "popularity": 9.633,
      "adult": false,
      "known_for_department": "Acting"
    },
    {
      "id": 73044,
      "name": "Ikue Otani",
      "profile_path": "/my8LBLQ4MsK4hRz1PAATIqtieaI.jpg",
      "popularity": 9.633,
      "adult": false,
      "known_for_department": "Acting"
    },
    {
      "id": 933558,
      "name": "John Mulaney",
      "profile_path": "/dCvVHa6dI0zcavzzcaN2qNCYcoI.jpg",
      "popularity": 9.632,
      "adult": false,
      "known_for_department": "Acting"
    },
    {
      "id": 17420,
      "name": "Paula Newsome",
      "profile_path": "/7CdlpBKibe9Aya8QzKGU1sfktWA.jpg",
      "popularity": 9.631,
      "adult": false,
      "known_for_department": "Acting"
    },
    {
      "id": 20377,
      "name": "Matthew Knight",
      "profile_path": "/2sINOLMONrjzsaww6uueHvPFNVQ.jpg",
      "popularity": 9.624,
      "adult": false,
      "known_for_department": "Acting"
    },
    {
      "id": 2691047,
      "name": "Melisa Döngel",
      "profile_path": "/qzA0I0gR7DwCG0dK9pde2iTizeM.jpg",
      "popularity": 9.622,
      "adult": false,
      "known_for_department": "Acting"
    },
    {
      "id": 18473,
      "name": "James Badge Dale",
      "profile_path": "/xODHrgxKPNWYATKgZWQJLNhImlZ.jpg",
      "popularity": 9.622,
      "adult": false,
      "known_for_department": "Acting"
    },
    {
      "id": 1102,
      "name": "Elpidia Carrillo",
      "profile_path": "/zYVzGHtODIUs83uOlGnNtBMwLwo.jpg",
      "popularity": 9.622,
      "adult": false,
      "known_for_department": "Acting"
    },
    {
      "id": 1534388,
      "name": "Jacob Ifan",
      "profile_path": "/sKQu1utdNe3Gq5RAqRCbagLiTqs.jpg",
      "popularity": 9.621,
      "adult": false,
      "known_for_department": "Acting"
    },
    {
      "id": 79087,
      "name": "Robin Weigert",
      "profile_path": "/ifGimfhXs7WIyDJMIX8kJtUte88.jpg",
      "popularity": 9.62,
      "adult": false,
      "known_for_department": "Acting"
    },
    {
      "id": 1320545,
      "name": "Pan Chunchun",
      "profile_path": "/6JgBmreX9LHZt3ORn2s39NGaain.jpg",
      "popularity": 9.618,
      "adult": false,
      "known_for_department": "Acting"
    },
    {
      "id": 66431,
      "name": "Jodie Whittaker",
      "profile_path": "/zS6EO1GsfOiuyaa66YqmUPWDX78.jpg",
      "popularity": 9.617,
      "adult": false,
      "known_for_department": "Acting"
    },
    {
      "id": 9138,
      "name": "Gemma Jones",
      "profile_path": "/qpvLa2bfCEbGI83RwDOyIThibQ6.jpg",
      "popularity": 9.617,
      "adult": false,
      "known_for_department": "Acting"
    },
    {
      "id": 1225953,
      "name": "Sterling K. Brown",
      "profile_path": "/vjFATaJfAyBie56J4Qv2DQ9Dyem.jpg",
      "popularity": 9.615,
      "adult": false,
      "known_for_department": "Acting"
    },
    {
      "id": 19968,
      "name": "Royal Dano",
      "profile_path": "/qg2cZRP9jtq3euKBY4FbO9x7Cl9.jpg",
      "popularity": 9.612,
      "adult": false,
      "known_for_department": "Acting"
    }
  ]
}