{
  "page": 386,
  "total_results": 10000,
  "total_pages": 500,
  "results": [
    {
      "id": 5375,
      "name": "Geoffrey Arend",
      "profile_path": "/bpqF3V5lK5GxuIU4VuTaVaztIvw.jpg",
      "popularity": 7.987,
      "adult": false,
      "known_for_department": "Acting"
    },
    {
      "id": 137635,
      "name": "Kirill Käro",
      "profile_path": "/jf820q9BrtBK2MmflUDM7dIB2fM.jpg",
      "popularity": 7.986,
      "adult": false,
      "known_for_department": "Acting"
    },
    {
      "id": 134235,
      "name": "Jake Hoffman",
      "profile_path": "/9K180Isd28lc3X7Puiu8InPdq4x.jpg",
      "popularity": 7.986,
      "adult": false,
      "known_for_department": "Acting"
    },
    {
      "id": 3294,
      "name": "Sharon Small",
      "profile_path": "/yRlVnUrp7yDJet6UGsugQ7EblhD.jpg",
      "popularity": 7.986,
      "adult": false,
      "known_for_department": "Acting"
    },
    {
      "id": 146464,
      "name": "Marco Giallini",
      "profile_path": "/93MB1oXqKTLh0TbkgAo8x98fGbh.jpg",
      "popularity": 7.984,
      "adult": false,
      "known_for_department": "Acting"
    },
    {
      "id": 31162,
      "name": "Daran Norris",
      "profile_path": "/oLaegqPwuEdNNJVqrvcgI6guYsi.jpg",
      "popularity": 7.984,
      "adult": false,
      "known_for_department": "Acting"
    },
    {
      "id": 33411,
      "name": "Tamar Novas",
      "profile_path": "/3MpjB6lxeTUA9EunaV4kAyvOvIG.jpg",
      "popularity": 7.983,
      "adult": false,
      "known_for_department": "Acting"
    },
    {
      "id": 1299,
      "name": "Roald Dahl",
      "profile_path": "/hbYOdJ8KK5aPFX6JioRhMiwbMOf.jpg",
      "popularity": 7.983,
      "adult": false,
      "known_for_department": "Writing"
    },
    {
      "id": 1810108,
      "name": "Jane De Leon",
      "profile_path": "/ojuAk08xNcQqF29qw7KraKRgr8D.jpg",
      "popularity": 7.982,
      "adult": false,
      "known_for_department": "Acting"
    },
    {
      "id": 45101,
      "name": "Harrison Page",
      "profile_path": "/uqoZdiO6ar3hVeX09u9JARVvfkA.jpg",
      "popularity": 7.981,
      "adult": false,
      "known_for_department": "Acting"
    },
    {
      "id": 33011,
      "name": "Rick Zumwalt",
      "profile_path": "/1qqPlFcp1tZNf3EDeFRlqknPbr5.jpg",
      "popularity": 7.981,
      "adult": false,
      "known_for_department": "Acting"
    },
    {
      "id": 1544176,
      "name": "Melanie Minichino",
      "profile_path": "/avh6oLRCYxd8tjnbdSnd7Nqfcvk.jpg",
      "popularity": 7.98,
      "adult": false,
      "known_for_department": "Acting"
    },
    {
      "id": 183538,
      "name": "Barry Sloane",
      "profile_path": "/u3MTyGPwfzNOWSEwA51kKzF2Q22.jpg",
      "popularity": 7.979,
      "adult": false,
      "known_for_department": "Acting"
    },
    {
      "id": 107542,
      "name": "Gard B. Eidsvold",
      "profile_path": "/j5uhW8VGldeEzE9KDcjX5rU7mqC.jpg",
      "popularity": 7.979,
      "adult": false,
      "known_for_department": "Acting"
    },
    {
      "id": 55091,
      "name": "Neil Brown Jr.",
      "profile_path": "/5dZ5OsxXwaecDIlH93dRsF27sVY.jpg",
      "popularity": 7.979,
      "adult": false,
      "known_for_department": "Acting"
    },
    {
      "id": 28511,
      "name": "Luis Zahera",
      "profile_path": "/4WEGXd6pOWHkAUcffJrg42BFPI3.jpg",
      "popularity": 7.979,
      "adult": false,
      "known_for_department": "Acting"
    },
    {
      "id": 41422,
      "name": "Jesse Spencer",
      "profile_path": "/4A86Y3ZkcTUESQ1XMYiA66peQ3M.jpg",
      "popularity": 7.978,
      "adult": false,
      "known_for_department": "Acting"
    },
    {
      "id": 25382,
      "name": "Megalyn Echikunwoke",
      "profile_path": "/6MlcgFphohSBTvOTDMEQwQzs66A.jpg",
      "popularity": 7.978,
      "adult": false,
      "known_for_department": "Acting"
    },
    {
      "id": 2209530,
      "name": "Isabelle Grill",
      "profile_path": "/5g2ytU0fLCRHM20PHwjAAW3IYz2.jpg",
      "popularity": 7.977,
      "adult": false,
      "known_for_department": "Acting"
    },
    {
      "id": 1433475,
      "name": "Jacob Ulrik Lohmann",
      "profile_path": "/iOtISPGzgM7vTKfR3ZQIyYb7uWQ.jpg",
      "popularity": 7.977,
      "adult": false,
      "known_for_department": "Acting"
    }
  ]
}