{
  "page": 74,
  "total_results": 10000,
  "total_pages": 500,
  "results": [
    {
      "id": 8231,
      "name": "Suzanne Pleshette",
      "profile_path": "/vSuO3CnNkoCefZVTpCARNfJPYhr.jpg",
      "popularity": 19.659,
      "adult": false,
      "known_for_department": "Acting"
    },
    {
      "id": 1397812,
      "name": "Fiona Vroom",
      "profile_path": "/lDQOOPQDBDjD0vFIhVcl65HFn0f.jpg",
      "popularity": 19.65,
      "adult": false,
      "known_for_department": "Acting"
    },
    {
      "id": 150698,
      "name": "Song Joong-ki",
      "profile_path": "/kgjb5OppOVTh5tz3hhnfDVnTvDv.jpg",
      "popularity": 19.648,
      "adult": false,
      "known_for_department": "Acting"
    },
    {
      "id": 18331,
      "name": "Nancy Travis",
      "profile_path": "/8NVTIgCYB6H0GrAwNPLwdU92pdt.jpg",
      "popularity": 19.633,
      "adult": false,
      "known_for_department": "Acting"
    },
    {
      "id": 9995,
      "name": "Jami Gertz",
      "profile_path": "/9O3hOr7tPShjmLNupTEdMCfjhK6.jpg",
      "popularity": 19.631,
      "adult": false,
      "known_for_department": "Acting"
    },
    {
      "id": 20402,
      "name": "Julian McMahon",
      "profile_path": "/PirhJFimrT5iK0qru4SzlwLW4G.jpg",
      "popularity": 19.618,
      "adult": false,
      "known_for_department": "Acting"
    },
    {
      "id": 42335,
      "name": "Kathleen Wilhoite",
      "profile_path": "/hyqJJRBN2YtxxO2OeuFW94OpSN6.jpg",
      "popularity": 19.608,
      "adult": false,
      "known_for_department": "Acting"
    },
    {
      "id": 525,
      "name": "Christopher Nolan",
      "profile_path": "/xuAIuYSmsUzKlUMBFGVZaWsY3DZ.jpg",
      "popularity": 19.604,
      "adult": false,
      "known_for_department": "Directing"
    },
    {
      "id": 19838,
      "name": "Marg Helgenberger",
      "profile_path": "/wPfXSAsk1l9Ry2sqN1Ei8GwjI9E.jpg",
      "popularity": 19.6,
      "adult": false,
      "known_for_department": "Acting"
    },
    {
      "id": 12949,
      "name": "Priscilla Presley",
      "profile_path": "/AkHLzziAPK1NVI5lfELYt6u0kRP.jpg",
      "popularity": 19.596,
      "adult": false,
      "known_for_department": "Acting"
    },
    {
      "id": 57136,
      "name": "Ryan Merriman",
      "profile_path": "/rVx3MB8tbt9V5gaIHB4zQQM9N0z.jpg",
      "popularity": 19.583,
      "adult": false,
      "known_for_department": "Acting"
    },
    {
      "id": 3295426,
      "name": "Ayanna Misola",
      "profile_path": "/dkxVPvNEzqUPvxuVak50GzZkWGk.jpg",
      "popularity": 19.581,
      "adult": false,
      "known_for_department": "Acting"
    },
    {
      "id": 1477963,
      "name": "Abigail Winter",
      "profile_path": "/t8QjJCFdlcKpZRpiS6RUjzs3LYb.jpg",
      "popularity": 19.573,
      "adult": false,
      "known_for_department": "Acting"
    },
    {
      "id": 21561,
      "name": "Tim Matheson",
      "profile_path": "/trZ4QaDidCOPNy7HK9cYnmKHkg9.jpg",
      "popularity": 19.57,
      "adult": false,
      "known_for_department": "Acting"
    },
    {
      "id": 1030261,
      "name": "Bérénice Marlohe",
      "profile_path": "/o6geSuiTxUUKIdntoKuaesrmIJ2.jpg",
      "popularity": 19.566,
      "adult": false,
      "known_for_department": "Acting"
    },
    {
      "id": 947,
      "name": "Hans Zimmer",
      "profile_path": "/tpQnDeHY15szIXvpnhlprufz4d.jpg",
      "popularity": 19.562,
      "adult": false,
      "known_for_department": "Sound"
    },
    {
      "id": 592458,
      "name": "Fabrice Josso",
      "profile_path": "/ekxEkHXVX3Fkgq7tQesA7GtDASQ.jpg",
      "popularity": 19.555,
      "adult": false,
      "known_for_department": "Acting"
    },
    {
      "id": 11184,
      "name": "Warwick Davis",
      "profile_path": "/nGorSpUIQWAEErxq8KdDcIF6Q00.jpg",
      "popularity": 19.551,
      "adult": false,
      "known_for_department": "Acting"
    },
    {
      "id": 2229,
      "name": "Catherine Keener",
      "profile_path": "/n4CTwGszs6cwS1wJRlDQ5Mlh7Ex.jpg",
      "popularity": 19.534,
      "adult": false,
      "known_for_department": "Acting"
    },
    {
      "id": 49265,
      "name": "Lindsay Lohan",
      "profile_path": "/y59roEK1QZqoWhWPlzgWVDmJarq.jpg",
      "popularity": 19.511,
      "adult": false,
      "known_for_department": "Acting"
    }
  ]
}