{
  "page": 57,
  "total_results": 10000,
  "total_pages": 500,
  "results": [
    {
      "id": 1817,
      "name": "Linda Cardellini",
      "profile_path": "/bcycvynDprC1rrhBNrnBjn5uOUd.jpg",
      "popularity": 25.503,
      "adult": false,
      "known_for_department": "Acting"
    },
    {
      "id": 29221,
      "name": "Brittany Snow",
      "profile_path": "/vbcVzoIhSScfJ2XQWFVpB9jS7IV.jpg",
      "popularity": 25.491,
      "adult": false,
      "known_for_department": "Acting"
    },
    {
      "id": 74428,
      "name": "Tim McGraw",
      "profile_path": "/prKoPyWZDQYHZeTmFqvMW0EFWDB.jpg",
      "popularity": 25.49,
      "adult": false,
      "known_for_department": "Acting"
    },
    {
      "id": 11115,
      "name": "Peter Serafinowicz",
      "profile_path": "/atXOX0UQzIZkcnpNj1cluBdHwAE.jpg",
      "popularity": 25.483,
      "adult": false,
      "known_for_department": "Acting"
    },
    {
      "id": 11109,
      "name": "Nick Frost",
      "profile_path": "/2CHS4t6miNGLgMQAjhFqb4fFuKS.jpg",
      "popularity": 25.482,
      "adult": false,
      "known_for_department": "Acting"
    },
    {
      "id": 9274,
      "name": "James Brolin",
      "profile_path": "/mBu2Di6GJqX9lOdibz9oNX1n8AR.jpg",
      "popularity": 25.472,
      "adult": false,
      "known_for_department": "Acting"
    },
    {
      "id": 1213278,
      "name": "Eliza Taylor",
      "profile_path": "/igWylWFncQPoJZcmwRsACUYXtyQ.jpg",
      "popularity": 25.459,
      "adult": false,
      "known_for_department": "Acting"
    },
    {
      "id": 1481238,
      "name": "Sophia Lillis",
      "profile_path": "/ohIY9Ye2xwOWUsTc3D18zCI2RO6.jpg",
      "popularity": 25.436,
      "adult": false,
      "known_for_department": "Acting"
    },
    {
      "id": 4273,
      "name": "Charlotte Gainsbourg",
      "profile_path": "/54RgTfNxhiTsaZfmCXWYLeZgMlC.jpg",
      "popularity": 25.436,
      "adult": false,
      "known_for_department": "Acting"
    },
    {
      "id": 28641,
      "name": "Terence Stamp",
      "profile_path": "/8pW8uvDUP6iqSaAe7QUKoc18yh7.jpg",
      "popularity": 25.432,
      "adult": false,
      "known_for_department": "Acting"
    },
    {
      "id": 1711,
      "name": "Mackenzie Crook",
      "profile_path": "/r17GbBnCjJjwUaRM3KY2e8GBjbG.jpg",
      "popularity": 25.417,
      "adult": false,
      "known_for_department": "Acting"
    },
    {
      "id": 2233,
      "name": "Bridget Fonda",
      "profile_path": "/k8ct3vqrs0TOATaDCe0gcu5K0Dz.jpg",
      "popularity": 25.412,
      "adult": false,
      "known_for_department": "Acting"
    },
    {
      "id": 1205278,
      "name": "James Norton",
      "profile_path": "/aZZWaiglevswXeny4fxYlSUjOzC.jpg",
      "popularity": 25.405,
      "adult": false,
      "known_for_department": "Acting"
    },
    {
      "id": 1217003,
      "name": "Dana Barron",
      "profile_path": "/z6HwYRN4h9CpjjyyM3rBc4KYN6D.jpg",
      "popularity": 25.403,
      "adult": false,
      "known_for_department": "Acting"
    },
    {
      "id": 3029776,
      "name": "Thanayut Thakoonauttaya",
      "profile_path": "/3LwwPRtanVnVDje9jHcSBiY3iJK.jpg",
      "popularity": 25.391,
      "adult": false,
      "known_for_department": "Acting"
    },
    {
      "id": 1400939,
      "name": "Jacqueline Byers",
      "profile_path": "/vgj4zlU5sqJ1EzRgUP3ikRwK4lW.jpg",
      "popularity": 25.384,
      "adult": false,
      "known_for_department": "Acting"
    },
    {
      "id": 1619,
      "name": "Chow Yun-fat",
      "profile_path": "/uDPYSiZrW7OZ79qgcgkWefALlXY.jpg",
      "popularity": 25.357,
      "adult": false,
      "known_for_department": "Acting"
    },
    {
      "id": 78871,
      "name": "Wu Jing",
      "profile_path": "/s7DOAkkBII5JuS7CcjaifGnJZlG.jpg",
      "popularity": 25.35,
      "adult": false,
      "known_for_department": "Acting"
    },
    {
      "id": 10767,
      "name": "Barbara Hershey",
      "profile_path": "/6swwfge3HlvyBVRSNwroFtMcgNB.jpg",
      "popularity": 25.347,
      "adult": false,
      "known_for_department": "Acting"
    },
    {
      "id": 10964,
      "name": "Laz Alonso",
      "profile_path": "/nmgOd3X2Xn3jIp9OLCRJzLExRWN.jpg",
      "popularity": 25.332,
      "adult": false,
      "known_for_department": "Acting"
    }
  ]
}