{
  "page": 38,
  "total_results": 10000,
  "total_pages": 500,
  "results": [
    {
      "id": 1238592,
      "name": "Lee Dong-wook",
      "profile_path": "/8Tjp05js8DcumdBnv2QzQTON5pN.jpg",
      "popularity": 28.84,
      "adult": false,
      "known_for_department": "Acting"
    },
    {
      "id": 11870,
      "name": "Christine Baranski",
      "profile_path": "/6R9im8aNYce2Rvnvmeo7jGZjJZQ.jpg",
      "popularity": 28.837,
      "adult": false,
      "known_for_department": "Acting"
    },
    {
      "id": 2545917,
      "name": "Mert Ramazan Demir",
      "profile_path": "/340p9x7W2plNV1khFZfBGi8aIr6.jpg",
      "popularity": 28.836,
      "adult": false,
      "known_for_department": "Acting"
    },
    {
      "id": 3129,
      "name": "Tim Roth",
      "profile_path": "/qSizF2i9gz6c6DbAC5RoIq8sVqX.jpg",
      "popularity": 28.825,
      "adult": false,
      "known_for_department": "Acting"
    },
    {
      "id": 61852,
      "name": "Nicholas Gonzalez",
      "profile_path": "/z4fwpWWZNpqLXOvtFMgc1s3DMB1.jpg",
      "popularity": 28.821,
      "adult": false,
      "known_for_department": "Acting"
    },
    {
      "id": 1331,
      "name": "Hugo Weaving",
      "profile_path": "/lSC8Et0PYi5zeQb3IpPkFje7hgR.jpg",
      "popularity": 28.809,
      "adult": false,
      "known_for_department": "Acting"
    },
    {
      "id": 1625558,
      "name": "Awkwafina",
      "profile_path": "/l5AKkg3H1QhMuXmTTmq1EyjyiRb.jpg",
      "popularity": 28.801,
      "adult": false,
      "known_for_department": "Acting"
    },
    {
      "id": 723,
      "name": "Patrick Swayze",
      "profile_path": "/cjOI4kvoLIec0ZnqXibjSTDfq3y.jpg",
      "popularity": 28.787,
      "adult": false,
      "known_for_department": "Acting"
    },
    {
      "id": 41089,
      "name": "Martin Starr",
      "profile_path": "/gNyCdend3C5gY3ucq42Zt3swfg2.jpg",
      "popularity": 28.785,
      "adult": false,
      "known_for_department": "Acting"
    },
    {
      "id": 37917,
      "name": "Kristen Stewart",
      "profile_path": "/rCU7XhHavFAKatkrC2yFWO4FCXX.jpg",
      "popularity": 28.775,
      "adult": false,
      "known_for_department": "Acting"
    },
    {
      "id": 58224,
      "name": "Jason Sudeikis",
      "profile_path": "/zaxEnovPoqzkBIs5RIxfO9wS47h.jpg",
      "popularity": 28.772,
      "adult": false,
      "known_for_department": "Acting"
    },
    {
      "id": 6913,
      "name": "Ellen Barkin",
      "profile_path": "/9D5brV7m9Tw6Xa2EZZuZ1NlopBo.jpg",
      "popularity": 28.752,
      "adult": false,
      "known_for_department": "Acting"
    },
    {
      "id": 2295,
      "name": "Mickey Rourke",
      "profile_path": "/ztkU5t4kahTEule4ZFzfa0H3bi7.jpg",
      "popularity": 28.732,
      "adult": false,
      "known_for_department": "Acting"
    },
    {
      "id": 568657,
      "name": "Sofia Boutella",
      "profile_path": "/mm3OBNZC32yRm7FGdkF8opVGnb7.jpg",
      "popularity": 28.705,
      "adult": false,
      "known_for_department": "Acting"
    },
    {
      "id": 10989,
      "name": "Rupert Grint",
      "profile_path": "/q2KZZ0ltTEl7Sf8volNFV1JDEP4.jpg",
      "popularity": 28.676,
      "adult": false,
      "known_for_department": "Acting"
    },
    {
      "id": 3810,
      "name": "Javier Bardem",
      "profile_path": "/IShnFg6ijWhpbu29dFBd9PtqQg.jpg",
      "popularity": 28.664,
      "adult": false,
      "known_for_department": "Acting"
    },
    {
      "id": 15217,
      "name": "Zack Snyder",
      "profile_path": "/iD0GDqkvJXDXiNEZej198hjt3Tt.jpg",
      "popularity": 28.652,
      "adult": false,
      "known_for_department": "Directing"
    },
    {
      "id": 956,
      "name": "Guy Ritchie",
      "profile_path": "/9pLUnjMgIEWXi0mlHYzie9cKUTD.jpg",
      "popularity": 28.644,
      "adult": false,
      "known_for_department": "Directing"
    },
    {
      "id": 2978,
      "name": "Max Minghella",
      "profile_path": "/AhVDxsOOoAnwwVBL7ZY8W0mGsYJ.jpg",
      "popularity": 28.622,
      "adult": false,
      "known_for_department": "Acting"
    },
    {
      "id": 26291,
      "name": "Martin Henderson",
      "profile_path": "/dBeMYpC13EZf1q4VT4zwwMxI1NV.jpg",
      "popularity": 28.618,
      "adult": false,
      "known_for_department": "Acting"
    }
  ]
}