{
  "page": 131,
  "total_results": 10000,
  "total_pages": 500,
  "results": [
    {
      "id": 18156,
      "name": "Don Ameche",
      "profile_path": "/bcuX5Rx1G6iqiupBuEr6JyEgyhR.jpg",
      "popularity": 14.731,
      "adult": false,
      "known_for_department": "Acting"
    },
    {
      "id": 3391,
      "name": "Kathleen Turner",
      "profile_path": "/xF6SwVRbVj08woMqFY2FWJQmjtK.jpg",
      "popularity": 14.725,
      "adult": false,
      "known_for_department": "Acting"
    },
    {
      "id": 34027,
      "name": "Stefania Sandrelli",
      "profile_path": "/aPmAstwHeEyN17UDKcSJf4OGBEQ.jpg",
      "popularity": 14.721,
      "adult": false,
      "known_for_department": "Acting"
    },
    {
      "id": 28662,
      "name": "Yunjin Kim",
      "profile_path": "/bsSU6XhcqknXcPTJaWvQYnikEiO.jpg",
      "popularity": 14.721,
      "adult": false,
      "known_for_department": "Acting"
    },
    {
      "id": 1029934,
      "name": "Justice Smith",
      "profile_path": "/3UoUT44XYWoWNsZaqHzN3w48gZL.jpg",
      "popularity": 14.72,
      "adult": false,
      "known_for_department": "Acting"
    },
    {
      "id": 77117,
      "name": "Angus T. Jones",
      "profile_path": "/vvZEvqEslypRrhR266marDwCgi1.jpg",
      "popularity": 14.716,
      "adult": false,
      "known_for_department": "Acting"
    },
    {
      "id": 2121726,
      "name": "Jonas Strand Gravli",
      "profile_path": "/wl1V04jmgUI4a0TzwXrjlFhjlXF.jpg",
      "popularity": 14.715,
      "adult": false,
      "known_for_department": "Acting"
    },
    {
      "id": 1167897,
      "name": "Natasha O'Keeffe",
      "profile_path": "/tOX10C02tSFnOSra8a8rGuA6QZ5.jpg",
      "popularity": 14.714,
      "adult": false,
      "known_for_department": "Acting"
    },
    {
      "id": 31649,
      "name": "Brooke Smith",
      "profile_path": "/bBWxi3qVAC15mzYFE4YgpOjWB5Z.jpg",
      "popularity": 14.711,
      "adult": false,
      "known_for_department": "Acting"
    },
    {
      "id": 1321982,
      "name": "Ryusei Yokohama",
      "profile_path": "/rYEfBHyJ45GPKI0ZTCjukCzONqX.jpg",
      "popularity": 14.709,
      "adult": false,
      "known_for_department": "Acting"
    },
    {
      "id": 78030,
      "name": "Ashley Benson",
      "profile_path": "/8EeEDClttH50DRv4dl74Edi4In7.jpg",
      "popularity": 14.708,
      "adult": false,
      "known_for_department": "Acting"
    },
    {
      "id": 148992,
      "name": "Austin Abrams",
      "profile_path": "/9pSpSAk9NsYC5puqAVsmSK3OSeu.jpg",
      "popularity": 14.706,
      "adult": false,
      "known_for_department": "Acting"
    },
    {
      "id": 109151,
      "name": "Jaime Ray Newman",
      "profile_path": "/2NZqIILL9BW8fSveWDGBDLoMYN8.jpg",
      "popularity": 14.703,
      "adult": false,
      "known_for_department": "Acting"
    },
    {
      "id": 55152,
      "name": "Campbell Scott",
      "profile_path": "/ku0l41bZ27ZSujXURbSp2vXBJ9J.jpg",
      "popularity": 14.702,
      "adult": false,
      "known_for_department": "Acting"
    },
    {
      "id": 1863349,
      "name": "Kim Seon-ho",
      "profile_path": "/1p7xMHRNsrUJacXqOFs1EZqSIvp.jpg",
      "popularity": 14.697,
      "adult": false,
      "known_for_department": "Acting"
    },
    {
      "id": 1133012,
      "name": "Nadia Hilker",
      "profile_path": "/bxYGXSVP9s6vCBLE8Z6Az8MJh9N.jpg",
      "popularity": 14.683,
      "adult": false,
      "known_for_department": "Acting"
    },
    {
      "id": 224180,
      "name": "Viva Bianca",
      "profile_path": "/xpr45JVPE3j0RtPYLQnA9TreiZQ.jpg",
      "popularity": 14.679,
      "adult": false,
      "known_for_department": "Acting"
    },
    {
      "id": 1392541,
      "name": "Mace Coronel",
      "profile_path": "/3RnzXjN3llx0Zo3oV3zLDvr3yIZ.jpg",
      "popularity": 14.678,
      "adult": false,
      "known_for_department": "Acting"
    },
    {
      "id": 1250945,
      "name": "Özcan Deniz",
      "profile_path": "/9D2yddtuU6qqFKa8vzMRg1CPacA.jpg",
      "popularity": 14.677,
      "adult": false,
      "known_for_department": "Acting"
    },
    {
      "id": 210824,
      "name": "Kristen Connolly",
      "profile_path": "/zPXAK1KoQ78lYyBS7nmzbQNVxpl.jpg",
      "popularity": 14.677,
      "adult": false,
      "known_for_department": "Acting"
    }
  ]
}