{
  "page": 216,
  "total_results": 10000,
  "total_pages": 500,
  "results": [
    {
      "id": 4492,
      "name": "Philip Baker Hall",
      "profile_path": "/mC1wmuGSCyIQ7ABkfRe1jJV1FGV.jpg",
      "popularity": 12.137,
      "adult": false,
      "known_for_department": "Acting"
    },
    {
      "id": 94064,
      "name": "Svetlana Khodchenkova",
      "profile_path": "/xldEh62hTjgxcmJPAyDeBnwKFCg.jpg",
      "popularity": 12.135,
      "adult": false,
      "known_for_department": "Acting"
    },
    {
      "id": 78431,
      "name": "Ben Feldman",
      "profile_path": "/neArGlsh50NtcGzUM99Puz6TrFX.jpg",
      "popularity": 12.134,
      "adult": false,
      "known_for_department": "Acting"
    },
    {
      "id": 1318854,
      "name": "Anu Sinisalo",
      "profile_path": "/y5w3qp1ub1LlP9t8YWsbjA2vtbz.jpg",
      "popularity": 12.133,
      "adult": false,
      "known_for_department": "Acting"
    },
    {
      "id": 2762553,
      "name": "Kim Yong-ji",
      "profile_path": "/tW1Pp84uSieixUlKw0iRPiX8UFV.jpg",
      "popularity": 12.131,
      "adult": false,
      "known_for_department": "Acting"
    },
    {
      "id": 19257,
      "name": "Janet Jones",
      "profile_path": "/5EAjtmNjmbAjw5PWWzfxgaXqEka.jpg",
      "popularity": 12.13,
      "adult": false,
      "known_for_department": "Acting"
    },
    {
      "id": 95082,
      "name": "Leo Gordon",
      "profile_path": "/d87PfczbNFTbiu3qktqORlxnkMW.jpg",
      "popularity": 12.127,
      "adult": false,
      "known_for_department": "Acting"
    },
    {
      "id": 1925440,
      "name": "Shelby Simmons",
      "profile_path": "/vwcI9rewcPbesjs21zl0d8lobZO.jpg",
      "popularity": 12.126,
      "adult": false,
      "known_for_department": "Acting"
    },
    {
      "id": 1281498,
      "name": "Mikako Komatsu",
      "profile_path": "/13tQEZ1tLdOmi7oGoRJ4xep1ODQ.jpg",
      "popularity": 12.126,
      "adult": false,
      "known_for_department": "Acting"
    },
    {
      "id": 14731,
      "name": "Henry Silva",
      "profile_path": "/u5hBYTMd8jBgttBExXnKIIP2nct.jpg",
      "popularity": 12.125,
      "adult": false,
      "known_for_department": "Acting"
    },
    {
      "id": 1907847,
      "name": "Risa Hayashi",
      "profile_path": "/yY81MnZxttYDKkRCe5z3LJ9cFR1.jpg",
      "popularity": 12.123,
      "adult": false,
      "known_for_department": "Acting"
    },
    {
      "id": 1784612,
      "name": "Daniela Melchior",
      "profile_path": "/iLO8qrSldSTC1omutFiO9oyIz6m.jpg",
      "popularity": 12.123,
      "adult": false,
      "known_for_department": "Acting"
    },
    {
      "id": 234933,
      "name": "Katie Leung",
      "profile_path": "/ahnrv2ih7f7mqjDjbkiv1v728Ga.jpg",
      "popularity": 12.122,
      "adult": false,
      "known_for_department": "Acting"
    },
    {
      "id": 93407,
      "name": "Aleksei Kravchenko",
      "profile_path": "/o7UD6o30iJ29dTHPCbtOScv9s5E.jpg",
      "popularity": 12.12,
      "adult": false,
      "known_for_department": "Acting"
    },
    {
      "id": 1670,
      "name": "Daniel Mays",
      "profile_path": "/2qmA5mXnhA7Nelu2BTbJTvzq35u.jpg",
      "popularity": 12.12,
      "adult": false,
      "known_for_department": "Acting"
    },
    {
      "id": 17693,
      "name": "Sarah Parish",
      "profile_path": "/5GmD0kvvZH6TOEoIxkzj0U1ItUP.jpg",
      "popularity": 12.118,
      "adult": false,
      "known_for_department": "Acting"
    },
    {
      "id": 7639,
      "name": "Joan Bennett",
      "profile_path": "/c5Gpyh9nypnfjxD3anncDhKEPv5.jpg",
      "popularity": 12.118,
      "adult": false,
      "known_for_department": "Acting"
    },
    {
      "id": 130129,
      "name": "Don Stark",
      "profile_path": "/lkPWvElz5RxR4t4v3hM4SRy5E1j.jpg",
      "popularity": 12.116,
      "adult": false,
      "known_for_department": "Acting"
    },
    {
      "id": 63296,
      "name": "J. C. MacKenzie",
      "profile_path": "/aAy2hzMku50aM2lUYg7yNQYdpMW.jpg",
      "popularity": 12.116,
      "adult": false,
      "known_for_department": "Acting"
    },
    {
      "id": 114601,
      "name": "Carly Chaikin",
      "profile_path": "/qKwgQuSqe3vBmlcyLplXDt6fysW.jpg",
      "popularity": 12.114,
      "adult": false,
      "known_for_department": "Acting"
    }
  ]
}