{
  "page": 439,
  "total_results": 10000,
  "total_pages": 500,
  "results": [
    {
      "id": 36423,
      "name": "Tom Green",
      "profile_path": "/h6vb7yhPOV5tBD9T2pfuUM9COFN.jpg",
      "popularity": 7.532,
      "adult": false,
      "known_for_department": "Acting"
    },
    {
      "id": 2385743,
      "name": "Claire Duburcq",
      "profile_path": "/qS6WwLJb8GlYcIV5Cj16J3RJDE3.jpg",
      "popularity": 7.531,
      "adult": false,
      "known_for_department": "Acting"
    },
    {
      "id": 1225040,
      "name": "Maurice Colbourne",
      "profile_path": "/1agvdjSzvQPkHtD3DLS57IA7S1z.jpg",
      "popularity": 7.531,
      "adult": false,
      "known_for_department": "Acting"
    },
    {
      "id": 84518,
      "name": "Jacob Davich",
      "profile_path": "/A2RY8NBfQaDY5PApXb8HYDfpHja.jpg",
      "popularity": 7.531,
      "adult": false,
      "known_for_department": "Acting"
    },
    {
      "id": 58477,
      "name": "Jonathan Loughran",
      "profile_path": "/jNXgI1GRWJ1qquFkloj484rujAJ.jpg",
      "popularity": 7.531,
      "adult": false,
      "known_for_department": "Acting"
    },
    {
      "id": 1783292,
      "name": "Emilija Baranac",
      "profile_path": "/bofw9vHH3dkmfdy1vUNBdIlVu5w.jpg",
      "popularity": 7.529,
      "adult": false,
      "known_for_department": "Acting"
    },
    {
      "id": 1394332,
      "name": "Shira Haas",
      "profile_path": "/cKwQkJP1kONMMZHkOMSrFi8q7rn.jpg",
      "popularity": 7.529,
      "adult": false,
      "known_for_department": "Acting"
    },
    {
      "id": 9708,
      "name": "Keiji Fujiwara",
      "profile_path": "/hbfBiFiEvD8u3vikl6hUNLKF7Lv.jpg",
      "popularity": 7.529,
      "adult": false,
      "known_for_department": "Acting"
    },
    {
      "id": 1615066,
      "name": "Debs Howard",
      "profile_path": "/98Q0ZFr7MfgDWJr0aTD5M7Gb6MD.jpg",
      "popularity": 7.528,
      "adult": false,
      "known_for_department": "Acting"
    },
    {
      "id": 76130,
      "name": "Brian Bonsall",
      "profile_path": "/zKF4BlqUIX0rL2X1oNkyOXUYQoy.jpg",
      "popularity": 7.528,
      "adult": false,
      "known_for_department": "Acting"
    },
    {
      "id": 964,
      "name": "Eloy Azorín",
      "profile_path": "/xSBOlzQC3NwchCDRuWvPrS1pASB.jpg",
      "popularity": 7.528,
      "adult": false,
      "known_for_department": "Acting"
    },
    {
      "id": 46928,
      "name": "Beth Riesgraf",
      "profile_path": "/hFCMloGRDOJng6F1L41PTO3CBuE.jpg",
      "popularity": 7.527,
      "adult": false,
      "known_for_department": "Acting"
    },
    {
      "id": 38405,
      "name": "John Corbett",
      "profile_path": "/cuCgInCgheBdYaA7xtxbQRHFzIG.jpg",
      "popularity": 7.527,
      "adult": false,
      "known_for_department": "Acting"
    },
    {
      "id": 1316023,
      "name": "Jon Kortajarena",
      "profile_path": "/oxYxGqRBrgbDtjreZms3ojDwJeD.jpg",
      "popularity": 7.526,
      "adult": false,
      "known_for_department": "Acting"
    },
    {
      "id": 1681,
      "name": "Tessyo Genda",
      "profile_path": "/7eJeYv2OCHKAadeFVdabVkpWldo.jpg",
      "popularity": 7.526,
      "adult": false,
      "known_for_department": "Acting"
    },
    {
      "id": 1963248,
      "name": "Doğan Bayraktar",
      "profile_path": "/zJsCLysWOZvOEyQ2GImAu4OThPg.jpg",
      "popularity": 7.525,
      "adult": false,
      "known_for_department": "Acting"
    },
    {
      "id": 1717350,
      "name": "Giovanna Grigio",
      "profile_path": "/c2m5BwxaU1FcopTD3L7iDXjaxpQ.jpg",
      "popularity": 7.525,
      "adult": false,
      "known_for_department": "Acting"
    },
    {
      "id": 1672872,
      "name": "Wang Herun",
      "profile_path": "/exm65PkaftA2KQ1w7grZxXb4paV.jpg",
      "popularity": 7.525,
      "adult": false,
      "known_for_department": "Acting"
    },
    {
      "id": 72482,
      "name": "Krista Kosonen",
      "profile_path": "/7iW2mxbxBgV5sX2y0fSY78lewW4.jpg",
      "popularity": 7.525,
      "adult": false,
      "known_for_department": "Acting"
    },
    {
      "id": 28828,
      "name": "Jana Brejchová",
      "profile_path": "/pzKcET9BrySUrsmF56fnu4bAJHO.jpg",
      "popularity": 7.525,
      "adult": false,
      "known_for_department": "Acting"
    }
  ]
}