{
  "page": 275,
  "total_results": 10000,
  "total_pages": 500,
  "results": [
    {
      "id": 224731,
      "name": "Clara Lago",
      "profile_path": "/r2mKn9aSrq2UDlYXX587xnMc7Ih.jpg",
      "popularity": 9.53,
      "adult": false,
      "known_for_department": "Acting"
    },
    {
      "id": 1281498,
      "name": "Mikako Komatsu",
      "profile_path": "/13tQEZ1tLdOmi7oGoRJ4xep1ODQ.jpg",
      "popularity": 9.527,
      "adult": false,
      "known_for_department": "Acting"
    },
    {
      "id": 50094,
      "name": "Ken Kirzinger",
      "profile_path": "/h9PfH9SP4gO7H7RPEpLvQWLY3zW.jpg",
      "popularity": 9.527,
      "adult": false,
      "known_for_department": "Acting"
    },
    {
      "id": 2458589,
      "name": "Cassandra Naud",
      "profile_path": "/Fw2FlUQGmFC0DGLGEBATXfswHh.jpg",
      "popularity": 9.526,
      "adult": false,
      "known_for_department": "Acting"
    },
    {
      "id": 2027708,
      "name": "Zhang Xincheng",
      "profile_path": "/q4R0gSo9nwd3TUwKF1KWZzmDtga.jpg",
      "popularity": 9.526,
      "adult": false,
      "known_for_department": "Acting"
    },
    {
      "id": 1059584,
      "name": "Kim Ok-vin",
      "profile_path": "/l3fnxyuPbE6YvHjnhyk6ditQONh.jpg",
      "popularity": 9.526,
      "adult": false,
      "known_for_department": "Acting"
    },
    {
      "id": 10884,
      "name": "Will Yun Lee",
      "profile_path": "/zR29E2BHrp6PF7bxD6bVq0nDZXm.jpg",
      "popularity": 9.524,
      "adult": false,
      "known_for_department": "Acting"
    },
    {
      "id": 1820948,
      "name": "Aaron Hilmer",
      "profile_path": "/wVVbhpjsDeC6GI9Pa37qqbuVhZd.jpg",
      "popularity": 9.523,
      "adult": false,
      "known_for_department": "Acting"
    },
    {
      "id": 130644,
      "name": "Kathy Chow",
      "profile_path": "/dnFezR991ruBRKO8Y4CohyNhBSa.jpg",
      "popularity": 9.52,
      "adult": false,
      "known_for_department": "Acting"
    },
    {
      "id": 9140,
      "name": "James Faulkner",
      "profile_path": "/wMDpbctF9cAL5nYnSL6AcXUTG5K.jpg",
      "popularity": 9.52,
      "adult": false,
      "known_for_department": "Acting"
    },
    {
      "id": 2002137,
      "name": "Vince Mattis",
      "profile_path": "/jEjeTlmp0JarQRlqLn6IiRInfVk.jpg",
      "popularity": 9.518,
      "adult": false,
      "known_for_department": "Acting"
    },
    {
      "id": 1070886,
      "name": "Daisy Head",
      "profile_path": "/5DcAwmYWDC7mvxMoceZIzcnpT2L.jpg",
      "popularity": 9.518,
      "adult": false,
      "known_for_department": "Acting"
    },
    {
      "id": 32031,
      "name": "Stephen Bogaert",
      "profile_path": "/snk4elJGQwdV3RN017rFS074XSv.jpg",
      "popularity": 9.516,
      "adult": false,
      "known_for_department": "Acting"
    },
    {
      "id": 13642,
      "name": "Alex Meneses",
      "profile_path": "/4g0n46vw1ejBgxvg8kCBqPYCfzd.jpg",
      "popularity": 9.514,
      "adult": false,
      "known_for_department": "Acting"
    },
    {
      "id": 8535,
      "name": "Gloria Stuart",
      "profile_path": "/9aG7UUX3PWIGGf1KRY5TsBSoNz9.jpg",
      "popularity": 9.514,
      "adult": false,
      "known_for_department": "Acting"
    },
    {
      "id": 1309110,
      "name": "Nanna Blondell",
      "profile_path": "/llxgGKg9MtCu4v7fT93FPvhfZhI.jpg",
      "popularity": 9.513,
      "adult": false,
      "known_for_department": "Acting"
    },
    {
      "id": 65683,
      "name": "Alex Vincent",
      "profile_path": "/6TvXvFBMCuNeg9pzzHZy7An1vkR.jpg",
      "popularity": 9.513,
      "adult": false,
      "known_for_department": "Acting"
    },
    {
      "id": 2091979,
      "name": "Helin Kandemir",
      "profile_path": "/pQ9hy0uvNppsb775vuJOUMxzbZq.jpg",
      "popularity": 9.512,
      "adult": false,
      "known_for_department": "Acting"
    },
    {
      "id": 108209,
      "name": "Sarah Rowland Doroff",
      "profile_path": "/g6WsSKpB8FhaiCeaY9GmN5e2aom.jpg",
      "popularity": 9.512,
      "adult": false,
      "known_for_department": "Acting"
    },
    {
      "id": 1860831,
      "name": "Antonio Marziale",
      "profile_path": "/2UBm56FxtY7saipq5xwuUFAuT6O.jpg",
      "popularity": 9.511,
      "adult": false,
      "known_for_department": "Acting"
    }
  ]
}