{
  "page": 148,
  "total_results": 10000,
  "total_pages": 500,
  "results": [
    {
      "id": 10478,
      "name": "Jeanne Tripplehorn",
      "profile_path": "/q7D9MDnMVc5PAm99853gszHwJy7.jpg",
      "popularity": 14.074,
      "adult": false,
      "known_for_department": "Acting"
    },
    {
      "id": 9186,
      "name": "Chad Lindberg",
      "profile_path": "/pBiIQrPTg55VOpBfdVJqVoEYqBN.jpg",
      "popularity": 11.274,
      "adult": false,
      "known_for_department": "Acting"
    },
    {
      "id": 1772357,
      "name": "Jacky Lai",
      "profile_path": "/os2Mpyuku25ylGrZtXea3QzQbsN.jpg",
      "popularity": 11.673,
      "adult": false,
      "known_for_department": "Acting"
    },
    {
      "id": 209578,
      "name": "Laura Haddock",
      "profile_path": "/6kRUvA7N3pMzznG9PdiqCOvxhGQ.jpg",
      "popularity": 15.272,
      "adult": false,
      "known_for_department": "Acting"
    },
    {
      "id": 32278,
      "name": "Matt Reeves",
      "profile_path": "/cZSKCow6JVlQLgU9doSCnSTB9Pw.jpg",
      "popularity": 13.672,
      "adult": false,
      "known_for_department": "Directing"
    },
    {
      "id": 1350000,
      "name": "Seo Kang-joon",
      "profile_path": "/dIO8Ixj47sL4zjZmIEBa5vZ69wN.jpg",
      "popularity": 15.672,
      "adult": false,
      "known_for_department": "Acting"
    },
    {
      "id": 2551480,
      "name": "Jairo Ordóñez",
      "profile_path": "/fozkafjHkHO9bm0IIwp6g0E9qRq.jpg",
      "popularity": 14.071,
      "adult": false,
      "known_for_department": "Acting"
    },
    {
      "id": 18391,
      "name": "Lee Marvin",
      "profile_path": "/bXVCrjGbGhPg6mgDi9OIrp5jK9b.jpg",
      "popularity": 13.27,
      "adult": false,
      "known_for_department": "Acting"
    },
    {
      "id": 1044952,
      "name": "Kris Van Damme",
      "profile_path": "/4465DC6Fz3RUtOGwD2E4xidFr8z.jpg",
      "popularity": 11.269,
      "adult": false,
      "known_for_department": "Acting"
    },
    {
      "id": 1255540,
      "name": "Allison Williams",
      "profile_path": "/xMCiHNQxxRo5NEcKEjN9JE6bm9i.jpg",
      "popularity": 12.867,
      "adult": false,
      "known_for_department": "Acting"
    },
    {
      "id": 39188,
      "name": "Edward Woodward",
      "profile_path": "/2MWfWJsjCTeeuIRKhcIxj1vzuR6.jpg",
      "popularity": 9.667,
      "adult": false,
      "known_for_department": "Acting"
    },
    {
      "id": 1146738,
      "name": "Neslihan Yeldan",
      "profile_path": "/ooA8zBqzm2QSvcal7s1SN06PyyR.jpg",
      "popularity": 14.867,
      "adult": false,
      "known_for_department": "Acting"
    },
    {
      "id": 54645,
      "name": "Nia Vardalos",
      "profile_path": "/r4lYMYdPSvh7dEqHodIj6yGMNR3.jpg",
      "popularity": 12.066,
      "adult": false,
      "known_for_department": "Acting"
    },
    {
      "id": 1460731,
      "name": "Camille Razat",
      "profile_path": "/KHg73Wl3kiqQCh4O02yXuxwxrE.jpg",
      "popularity": 16.864,
      "adult": false,
      "known_for_department": "Acting"
    },
    {
      "id": 232396,
      "name": "Max Irons",
      "profile_path": "/8TRKWEEQr6GreyrAQ8AWZo4jWjS.jpg",
      "popularity": 10.863,
      "adult": false,
      "known_for_department": "Acting"
    },
    {
      "id": 42276,
      "name": "Rupert Penry-Jones",
      "profile_path": "/4qRzWtQtxjbSZKOrV68hDQWGZgE.jpg",
      "popularity": 14.863,
      "adult": false,
      "known_for_department": "Acting"
    },
    {
      "id": 143596,
      "name": "Niels Schneider",
      "profile_path": "/pKNUOZyMNMmrRVAfmff48ThRpSm.jpg",
      "popularity": 8.924,
      "adult": false,
      "known_for_department": "Acting"
    },
    {
      "id": 566080,
      "name": "Jonas Bloquet",
      "profile_path": "/pzQAv6ghx5hc4gSpxHII0oUzqkL.jpg",
      "popularity": 10.862,
      "adult": false,
      "known_for_department": "Acting"
    },
    {
      "id": 110742,
      "name": "Tika Sumpter",
      "profile_path": "/6Hb9e7jna7nml58cztAvbKgFAPx.jpg",
      "popularity": 12.862,
      "adult": false,
      "known_for_department": "Acting"
    },
    {
      "id": 2294,
      "name": "Robert Rodriguez",
      "profile_path": "/bPqRdLWWwpOT8sBdj9PWOzNgwou.jpg",
      "popularity": 11.662,
      "adult": false,
      "known_for_department": "Directing"
    }
  ]
}