{
  "page": 185,
  "total_results": 10000,
  "total_pages": 500,
  "results": [
    {
      "id": 95706,
      "name": "Laura Donnelly",
      "profile_path": "/osajwo2LqtHSLOrH3E3dTVZHP1Z.jpg",
      "popularity": 11.682,
      "adult": false,
      "known_for_department": "Acting"
    },
    {
      "id": 12812,
      "name": "Lysette Anthony",
      "profile_path": "/x48FYc2hgzcJrqcZhKjp9bzBwOF.jpg",
      "popularity": 11.681,
      "adult": false,
      "known_for_department": "Acting"
    },
    {
      "id": 11023,
      "name": "Shawn Ashmore",
      "profile_path": "/tXA1gFtsp9HWnzlQsaZSoZC8L4r.jpg",
      "popularity": 11.68,
      "adult": false,
      "known_for_department": "Acting"
    },
    {
      "id": 49920,
      "name": "Willow Smith",
      "profile_path": "/jBslm1YIOyoC4aXf6t5XhrHxdfl.jpg",
      "popularity": 11.679,
      "adult": false,
      "known_for_department": "Acting"
    },
    {
      "id": 11492,
      "name": "Clark Gable",
      "profile_path": "/bN06QeVin5gH9u0Lvcqp4df8uT5.jpg",
      "popularity": 11.673,
      "adult": false,
      "known_for_department": "Acting"
    },
    {
      "id": 2177,
      "name": "Lloyd Bridges",
      "profile_path": "/3dUJhLyaOl32mOU9HBpgTniLNJc.jpg",
      "popularity": 11.669,
      "adult": false,
      "known_for_department": "Acting"
    },
    {
      "id": 19549,
      "name": "Greta Garbo",
      "profile_path": "/h5HRAusdjpWNQdzUVGXMoF635L1.jpg",
      "popularity": 11.662,
      "adult": false,
      "known_for_department": "Acting"
    },
    {
      "id": 3822,
      "name": "Ángela Molina",
      "profile_path": "/1O8l73B5bcnBHFSjmIWMfhJZCP8.jpg",
      "popularity": 11.66,
      "adult": false,
      "known_for_department": "Acting"
    },
    {
      "id": 180486,
      "name": "Gina Rodriguez",
      "profile_path": "/4EMA7VtkMobfGpswEclm65xC9s8.jpg",
      "popularity": 11.658,
      "adult": false,
      "known_for_department": "Acting"
    },
    {
      "id": 51684,
      "name": "Mehcad Brooks",
      "profile_path": "/etlE8YdFgYk6Nbe3uRQcc5uF0t2.jpg",
      "popularity": 11.655,
      "adult": false,
      "known_for_department": "Acting"
    },
    {
      "id": 1284,
      "name": "Noah Taylor",
      "profile_path": "/a9VuohmpqbvcYflOpi0F3ck8L2j.jpg",
      "popularity": 11.652,
      "adult": false,
      "known_for_department": "Acting"
    },
    {
      "id": 945130,
      "name": "Chikako Aoyama",
      "profile_path": "/rhhmJ7ejqADcGMgZZ5oR2TAqRv5.jpg",
      "popularity": 11.646,
      "adult": false,
      "known_for_department": "Acting"
    },
    {
      "id": 58370,
      "name": "Amanda Crew",
      "profile_path": "/diGTfFDOAjtfpClK3pJHkQIYhNc.jpg",
      "popularity": 11.644,
      "adult": false,
      "known_for_department": "Acting"
    },
    {
      "id": 158833,
      "name": "Sydney Penny",
      "profile_path": "/ycGcpBnk0OkBebo8nPN1wb8F05t.jpg",
      "popularity": 11.641,
      "adult": false,
      "known_for_department": "Acting"
    },
    {
      "id": 3175111,
      "name": "Mondop Heamtan",
      "profile_path": "/3IUL7S38INoGNkMdC4KJE3dc8bw.jpg",
      "popularity": 11.64,
      "adult": false,
      "known_for_department": "Acting"
    },
    {
      "id": 1001536,
      "name": "Angelique Cabral",
      "profile_path": "/v2N5mPDiUxScgJnNVOgYLvjs39a.jpg",
      "popularity": 11.64,
      "adult": false,
      "known_for_department": "Acting"
    },
    {
      "id": 145499,
      "name": "Beren Saat",
      "profile_path": "/zbXAJppkYJpfxDlxY1aQJXRxvX0.jpg",
      "popularity": 11.637,
      "adult": false,
      "known_for_department": "Acting"
    },
    {
      "id": 925,
      "name": "Paul Guilfoyle",
      "profile_path": "/c7unxeM13lF9pMhZhYwlNsSFjFe.jpg",
      "popularity": 11.635,
      "adult": false,
      "known_for_department": "Acting"
    },
    {
      "id": 1442955,
      "name": "Keith Powers",
      "profile_path": "/weKSlGfDRU3RR883Tv6L22Gg4SE.jpg",
      "popularity": 11.632,
      "adult": false,
      "known_for_department": "Acting"
    },
    {
      "id": 1871926,
      "name": "Show Kasamatsu",
      "profile_path": "/tDASDMyIZQFooUQimqrVCd4rN5I.jpg",
      "popularity": 11.629,
      "adult": false,
      "known_for_department": "Acting"
    }
  ]
}