{
  "page": 292,
  "total_results": 10000,
  "total_pages": 500,
  "results": [
    {
      "id": 1324468,
      "name": "Ryota Osaka",
      "profile_path": "/d2TGy8Qkxe90tGDr9MCXFGkhbPl.jpg",
      "popularity": 8.814,
      "adult": false,
      "known_for_department": "Acting"
    },
    {
      "id": 10073,
      "name": "Karin Dor",
      "profile_path": "/OKzRenG0MDFrvPDIQwzDFTATrx.jpg",
      "popularity": 8.814,
      "adult": false,
      "known_for_department": "Acting"
    },
    {
      "id": 1226195,
      "name": "Rob Stewart",
      "profile_path": "/kzCmiU4CgIOHQNCsjWPa3s3qEir.jpg",
      "popularity": 8.813,
      "adult": false,
      "known_for_department": "Acting"
    },
    {
      "id": 77897,
      "name": "Tyra Banks",
      "profile_path": "/g5Aar3pS2imJowLgk0GVawyggvf.jpg",
      "popularity": 8.813,
      "adult": false,
      "known_for_department": "Acting"
    },
    {
      "id": 1575015,
      "name": "Jeon Soo-jin",
      "profile_path": "/6YJ6ytaBdXUrHqcoEq0f7mUW4ZO.jpg",
      "popularity": 8.812,
      "adult": false,
      "known_for_department": "Acting"
    },
    {
      "id": 1418305,
      "name": "Seda Tosun",
      "profile_path": "/cg72IyeEAqC52XCi0Lwz7WQZ9OW.jpg",
      "popularity": 8.812,
      "adult": false,
      "known_for_department": "Acting"
    },
    {
      "id": 110847,
      "name": "Dayo Wong",
      "profile_path": "/p3vNUTB35GexppsWMBxqpDpeihS.jpg",
      "popularity": 8.81,
      "adult": false,
      "known_for_department": "Acting"
    },
    {
      "id": 1185786,
      "name": "Liu Shishi",
      "profile_path": "/aLtxryp3zrEKvzFFVrh5v8VwknL.jpg",
      "popularity": 8.809,
      "adult": false,
      "known_for_department": "Acting"
    },
    {
      "id": 15566,
      "name": "Sharon Leal",
      "profile_path": "/3dJCnAZDG2ZN7Hxct8UAdPePpuz.jpg",
      "popularity": 8.809,
      "adult": false,
      "known_for_department": "Acting"
    },
    {
      "id": 3101815,
      "name": "Beril Pozam",
      "profile_path": "/vwffklK4yUAedDKGpfjByGDh2re.jpg",
      "popularity": 8.808,
      "adult": false,
      "known_for_department": "Acting"
    },
    {
      "id": 2455272,
      "name": "Jayme Lawson",
      "profile_path": "/rT6ZNBhYZaRMQ6dxCTillClDO4J.jpg",
      "popularity": 8.807,
      "adult": false,
      "known_for_department": "Acting"
    },
    {
      "id": 1420605,
      "name": "Valerie Pachner",
      "profile_path": "/vnBh34dxhXIpGPtlI7hZS57qAnc.jpg",
      "popularity": 8.807,
      "adult": false,
      "known_for_department": "Acting"
    },
    {
      "id": 21369,
      "name": "Gloria Reuben",
      "profile_path": "/7Ttd3nj1M9P8YE9LzCvGZcvPUQR.jpg",
      "popularity": 8.807,
      "adult": false,
      "known_for_department": "Acting"
    },
    {
      "id": 217924,
      "name": "Satomi Korogi",
      "profile_path": "",
      "popularity": 8.804,
      "adult": false,
      "known_for_department": "Acting"
    },
    {
      "id": 928008,
      "name": "Stefan Gödicke",
      "profile_path": "/c2U5DyipIlzvcCf3rJsTx0qmPQ1.jpg",
      "popularity": 8.803,
      "adult": false,
      "known_for_department": "Acting"
    },
    {
      "id": 145396,
      "name": "Kenan Ece",
      "profile_path": "/aJDJfXx2e0PqcghdSCHn9B0MapM.jpg",
      "popularity": 8.803,
      "adult": false,
      "known_for_department": "Acting"
    },
    {
      "id": 457,
      "name": "Albert S. Ruddy",
      "profile_path": "",
      "popularity": 8.803,
      "adult": false,
      "known_for_department": "Production"
    },
    {
      "id": 139577,
      "name": "Valentín Trujillo",
      "profile_path": "/75EZ1smqiI2WmHmJ6zOSlCUkY0M.jpg",
      "popularity": 8.801,
      "adult": false,
      "known_for_department": "Acting"
    },
    {
      "id": 29220,
      "name": "Amanda Bynes",
      "profile_path": "/jr4s2VByipNS3L3E3KK0i2UtDPk.jpg",
      "popularity": 8.801,
      "adult": false,
      "known_for_department": "Acting"
    },
    {
      "id": 64674,
      "name": "Mike Dopud",
      "profile_path": "/qJn6v7auGZjaQhDkIjFqVrAoBIq.jpg",
      "popularity": 8.8,
      "adult": false,
      "known_for_department": "Acting"
    }
  ]
}