{
  "page": 141,
  "total_results": 10000,
  "total_pages": 500,
  "results": [
    {
      "id": 15860,
      "name": "Miguel Ferrer",
      "profile_path": "/n6VZ8OQmozHmnJQRwR55gBH8Tl0.jpg",
      "popularity": 13.667,
      "adult": false,
      "known_for_department": "Acting"
    },
    {
      "id": 998387,
      "name": "Ed Sheeran",
      "profile_path": "/w7zbWC9AV0WfIEl8L38otal7mwS.jpg",
      "popularity": 13.663,
      "adult": false,
      "known_for_department": "Acting"
    },
    {
      "id": 42905,
      "name": "Bill Kelly",
      "profile_path": "/5aa3F5vFv5yQe10pL2snCUrBIpt.jpg",
      "popularity": 13.663,
      "adult": false,
      "known_for_department": "Acting"
    },
    {
      "id": 1475127,
      "name": "Gemma Whelan",
      "profile_path": "/zZe4rOtlksgBDuFkpxnAimGOTDp.jpg",
      "popularity": 13.66,
      "adult": false,
      "known_for_department": "Acting"
    },
    {
      "id": 936,
      "name": "Oliver Reed",
      "profile_path": "/lEApzXRzw7PJFzYNEjpXnWQtSYZ.jpg",
      "popularity": 13.66,
      "adult": false,
      "known_for_department": "Acting"
    },
    {
      "id": 1743933,
      "name": "Ever Anderson",
      "profile_path": "/zGMAFvTCllLv8OaJ8BSEZ81UXuJ.jpg",
      "popularity": 13.659,
      "adult": false,
      "known_for_department": "Acting"
    },
    {
      "id": 14701,
      "name": "Carroll Baker",
      "profile_path": "/fjInIWr1AfNN5uanAs5kW5AqOcB.jpg",
      "popularity": 13.652,
      "adult": false,
      "known_for_department": "Acting"
    },
    {
      "id": 1544194,
      "name": "Mimi Sarkisian",
      "profile_path": "/6yqveUwWG5eid5vdPwZ4pc092kW.jpg",
      "popularity": 13.643,
      "adult": false,
      "known_for_department": "Acting"
    },
    {
      "id": 18792,
      "name": "Delroy Lindo",
      "profile_path": "/kLwUBBmEIdchrLqwsYzgLB2B6q5.jpg",
      "popularity": 13.643,
      "adult": false,
      "known_for_department": "Acting"
    },
    {
      "id": 58123,
      "name": "Bolo Yeung",
      "profile_path": "/daaIoalkkF9BSxIQ7BZvqAYa7h3.jpg",
      "popularity": 13.64,
      "adult": false,
      "known_for_department": "Acting"
    },
    {
      "id": 221098,
      "name": "Anna Camp",
      "profile_path": "/yOGBODtjYsZnQH8p7dZb0S015Pf.jpg",
      "popularity": 13.639,
      "adult": false,
      "known_for_department": "Acting"
    },
    {
      "id": 1325230,
      "name": "Ayumu Murase",
      "profile_path": "/3aGM6KpcCIEKOXP9510tzaKc8uw.jpg",
      "popularity": 13.638,
      "adult": false,
      "known_for_department": "Acting"
    },
    {
      "id": 1215837,
      "name": "Mac Brandt",
      "profile_path": "/u2zRIywRVcih7LsZIsybmbzwmJW.jpg",
      "popularity": 13.636,
      "adult": false,
      "known_for_department": "Acting"
    },
    {
      "id": 41556,
      "name": "Omari Hardwick",
      "profile_path": "/2kROckfySgXMBa2nsCIDoR9R6gg.jpg",
      "popularity": 13.635,
      "adult": false,
      "known_for_department": "Acting"
    },
    {
      "id": 1175759,
      "name": "Jennifer Birmingham Lee",
      "profile_path": "/5jv9AsM2LstosQgIPfyvnb7i4zr.jpg",
      "popularity": 13.634,
      "adult": false,
      "known_for_department": "Acting"
    },
    {
      "id": 128628,
      "name": "Scottie Thompson",
      "profile_path": "/fx7b87WwORTZxzq8qWvPZS78phg.jpg",
      "popularity": 13.634,
      "adult": false,
      "known_for_department": "Acting"
    },
    {
      "id": 1592411,
      "name": "Lokesh Kanagaraj",
      "profile_path": "/rpE5lesCT3G823acZRIOI02o56K.jpg",
      "popularity": 13.633,
      "adult": false,
      "known_for_department": "Writing"
    },
    {
      "id": 24318,
      "name": "Richard Benjamin",
      "profile_path": "/vQG2Do8OZfiLLUpBBwAkzWUzs9T.jpg",
      "popularity": 13.633,
      "adult": false,
      "known_for_department": "Acting"
    },
    {
      "id": 5313,
      "name": "Lena Olin",
      "profile_path": "/tPB3UcKpxgBXrKS1PHDKoKEtFEV.jpg",
      "popularity": 13.629,
      "adult": false,
      "known_for_department": "Acting"
    },
    {
      "id": 16420,
      "name": "Richard Boone",
      "profile_path": "/3jr6nbojJHrDvc0xQFrGOBwXt0M.jpg",
      "popularity": 13.628,
      "adult": false,
      "known_for_department": "Acting"
    }
  ]
}