{
  "page": 161,
  "total_results": 10000,
  "total_pages": 500,
  "results": [
    {
      "id": 32396,
      "name": "Richard Belzer",
      "profile_path": "/jx0b3K4ZjRh8HnuvW3HpnfALTdF.jpg",
      "popularity": 11.452,
      "adult": false,
      "known_for_department": "Acting"
    },
    {
      "id": 1024722,
      "name": "Annalise Basso",
      "profile_path": "/42AgzcbVBh72j0OwP04SkA4MBz2.jpg",
      "popularity": 11.446,
      "adult": false,
      "known_for_department": "Acting"
    },
    {
      "id": 1152,
      "name": "Oliver Stone",
      "profile_path": "/nPFtjueZHmU56boVKXEvAoQOTWf.jpg",
      "popularity": 11.444,
      "adult": false,
      "known_for_department": "Directing"
    },
    {
      "id": 2539470,
      "name": "Wiktoria Filus",
      "profile_path": "/619KfP0hwGKbOIoSmNjuRHQ17uz.jpg",
      "popularity": 11.441,
      "adult": false,
      "known_for_department": "Acting"
    },
    {
      "id": 1630438,
      "name": "Ceci Balagot",
      "profile_path": "/dGTjxYsfR6UIKq7sBwtG6Q6T3FB.jpg",
      "popularity": 11.44,
      "adult": false,
      "known_for_department": "Acting"
    },
    {
      "id": 139868,
      "name": "Ignacio Serricchio",
      "profile_path": "/g8zL6qlTiM941DGDDMhoC9Bq2fu.jpg",
      "popularity": 11.438,
      "adult": false,
      "known_for_department": "Acting"
    },
    {
      "id": 5170,
      "name": "Mike Starr",
      "profile_path": "/hJGhV91dSUiFJ8GwGDTEEri79LX.jpg",
      "popularity": 11.437,
      "adult": false,
      "known_for_department": "Acting"
    },
    {
      "id": 76416,
      "name": "Amanda Walsh",
      "profile_path": "/7UtpYscsKdVIOf38Mos0iVPXkgZ.jpg",
      "popularity": 11.433,
      "adult": false,
      "known_for_department": "Acting"
    },
    {
      "id": 30426,
      "name": "Leonard Whiting",
      "profile_path": "/6n15BZONeae3dodMPB7dgIVEXeC.jpg",
      "popularity": 11.432,
      "adult": false,
      "known_for_department": "Acting"
    },
    {
      "id": 1824301,
      "name": "Freddy Carter",
      "profile_path": "/u4Ibhf8LnRzfuR2IUx6ZQWdWaVv.jpg",
      "popularity": 11.43,
      "adult": false,
      "known_for_department": "Acting"
    },
    {
      "id": 1944274,
      "name": "Drew Scheid",
      "profile_path": "/ztj1zSSOLe5WtpvNVVIP1ir4xqa.jpg",
      "popularity": 11.428,
      "adult": false,
      "known_for_department": "Acting"
    },
    {
      "id": 1797771,
      "name": "Shiva Negar",
      "profile_path": "/jINb3mWUvO5geSsiKSO3jfObWRx.jpg",
      "popularity": 11.428,
      "adult": false,
      "known_for_department": "Acting"
    },
    {
      "id": 1532,
      "name": "Bill Murray",
      "profile_path": "/nnCsJc9x3ZiG3AFyiyc3FPehppy.jpg",
      "popularity": 11.425,
      "adult": false,
      "known_for_department": "Acting"
    },
    {
      "id": 8536,
      "name": "Victor Garber",
      "profile_path": "/FdhXl8qxsKgj22Ip99SRM9jUx1.jpg",
      "popularity": 11.422,
      "adult": false,
      "known_for_department": "Acting"
    },
    {
      "id": 206739,
      "name": "Alexandra Billings",
      "profile_path": "/bHYEiyBlT7nmBRaQNQX2uVPsaLw.jpg",
      "popularity": 11.42,
      "adult": false,
      "known_for_department": "Acting"
    },
    {
      "id": 190895,
      "name": "Sarah Gadon",
      "profile_path": "/lNTuaaBaSxBHYcezJUGuH4lxq9w.jpg",
      "popularity": 11.419,
      "adult": false,
      "known_for_department": "Acting"
    },
    {
      "id": 139502,
      "name": "Im Soo-hyang",
      "profile_path": "/9NJFt3FxgdgcmYEkl2MOHb8Xnms.jpg",
      "popularity": 11.419,
      "adult": false,
      "known_for_department": "Acting"
    },
    {
      "id": 46363,
      "name": "Aya Ueto",
      "profile_path": "/tbUiUmweRnXZ30DnAEvt6ha86sn.jpg",
      "popularity": 11.419,
      "adult": false,
      "known_for_department": "Acting"
    },
    {
      "id": 1232756,
      "name": "Phoebe Dynevor",
      "profile_path": "/5iUWiW5vBajaWA0F3OHKXfd89NS.jpg",
      "popularity": 11.413,
      "adult": false,
      "known_for_department": "Acting"
    },
    {
      "id": 1024395,
      "name": "Ma Dong-seok",
      "profile_path": "/zt1vx7FesNA4x6mTZtyzu2uco8E.jpg",
      "popularity": 11.41,
      "adult": false,
      "known_for_department": "Acting"
    }
  ]
}