{
  "page": 396,
  "total_results": 10000,
  "total_pages": 500,
  "results": [
    {
      "id": 1047327,
      "name": "R. Muthuraman",
      "profile_path": "/n2ZEDLFLgziK71reVk3BCYM1GH4.jpg",
      "popularity": 7.14,
      "adult": false,
      "known_for_department": "Acting"
    },
    {
      "id": 138106,
      "name": "Dan Blocker",
      "profile_path": "/jk4QBSh2x8Vuyg9q4VHMj59vKDe.jpg",
      "popularity": 7.14,
      "adult": false,
      "known_for_department": "Acting"
    },
    {
      "id": 1021689,
      "name": "Anamaria Vartolomei",
      "profile_path": "/u2LZZgiXkUnB1zdauW6qidWLVuP.jpg",
      "popularity": 7.138,
      "adult": false,
      "known_for_department": "Acting"
    },
    {
      "id": 94424,
      "name": "Haley Webb",
      "profile_path": "/tKMPyfje7LEQDFaNNMW1vQQ0fvE.jpg",
      "popularity": 7.138,
      "adult": false,
      "known_for_department": "Acting"
    },
    {
      "id": 10777,
      "name": "Maria Grazia Cucinotta",
      "profile_path": "/zZ46tuQnCEnYlfGiyuZTAb7w4BL.jpg",
      "popularity": 7.138,
      "adult": false,
      "known_for_department": "Acting"
    },
    {
      "id": 55948,
      "name": "Alan Smithee",
      "profile_path": "",
      "popularity": 7.137,
      "adult": false,
      "known_for_department": "Directing"
    },
    {
      "id": 1124536,
      "name": "Haruka Shiraishi",
      "profile_path": "/9yEZfOzXJUGyb8Z6pmBf6UdkaLO.jpg",
      "popularity": 7.136,
      "adult": false,
      "known_for_department": "Acting"
    },
    {
      "id": 42797,
      "name": "Ha Seung-lee",
      "profile_path": "/3gdopvwU9Qio7bUWIAUNZrRDMkj.jpg",
      "popularity": 7.136,
      "adult": false,
      "known_for_department": "Acting"
    },
    {
      "id": 25078,
      "name": "Ériq Ebouaney",
      "profile_path": "/5VJMH0rJE5b001FIaRD2Vr9ti80.jpg",
      "popularity": 7.136,
      "adult": false,
      "known_for_department": "Acting"
    },
    {
      "id": 1962692,
      "name": "Marvin 'Krondon' Jones III",
      "profile_path": "/7RU4jjZel3ab4l7eVjEFTl2qUkn.jpg",
      "popularity": 7.134,
      "adult": false,
      "known_for_department": "Acting"
    },
    {
      "id": 100653,
      "name": "Vanessa Bell Calloway",
      "profile_path": "/6gJua6IKvhGrCTU1UzgRhOM9oyl.jpg",
      "popularity": 7.134,
      "adult": false,
      "known_for_department": "Acting"
    },
    {
      "id": 18346,
      "name": "Rae'Ven Larrymore Kelly",
      "profile_path": "/bJGMNfhDyzAVh1cy9Yoi6dGvlES.jpg",
      "popularity": 7.134,
      "adult": false,
      "known_for_department": "Acting"
    },
    {
      "id": 14593,
      "name": "Ingeborga Dapkūnaitė",
      "profile_path": "/epH5vef5Tm6b2VyU71KKCxw9tyd.jpg",
      "popularity": 7.133,
      "adult": false,
      "known_for_department": "Acting"
    },
    {
      "id": 1200395,
      "name": "Lee Na-ra",
      "profile_path": "/xgO62zJSOVNVd6nXFJJ3LDzUlFe.jpg",
      "popularity": 7.132,
      "adult": false,
      "known_for_department": "Acting"
    },
    {
      "id": 19207,
      "name": "Timothy Bottoms",
      "profile_path": "/e0SKyrvvyJFZWx3QFzI4qAkWi8E.jpg",
      "popularity": 7.132,
      "adult": false,
      "known_for_department": "Acting"
    },
    {
      "id": 1318854,
      "name": "Anu Sinisalo",
      "profile_path": "/y5w3qp1ub1LlP9t8YWsbjA2vtbz.jpg",
      "popularity": 7.131,
      "adult": false,
      "known_for_department": "Acting"
    },
    {
      "id": 1308133,
      "name": "Maxime Bouttier",
      "profile_path": "/yQIz6MwDh0HR6RdoMAPjzofEVTS.jpg",
      "popularity": 7.129,
      "adult": false,
      "known_for_department": "Acting"
    },
    {
      "id": 236302,
      "name": "Dylan Sprayberry",
      "profile_path": "/aQvC4qmW6z4mJj5Fxb5ar1MNsyD.jpg",
      "popularity": 7.129,
      "adult": false,
      "known_for_department": "Acting"
    },
    {
      "id": 172037,
      "name": "Madeleine Martin",
      "profile_path": "/q1jRDFs569OThv5YdGMLg2akS0J.jpg",
      "popularity": 7.129,
      "adult": false,
      "known_for_department": "Acting"
    },
    {
      "id": 150245,
      "name": "Charity Wakefield",
      "profile_path": "/MMphz9vtZuHcgMh7YrP4vngpnz.jpg",
      "popularity": 7.129,
      "adult": false,
      "known_for_department": "Acting"
    }
  ]
}