{
  "page": 259,
  "total_results": 10000,
  "total_pages": 500,
  "results": [
    {
      "id": 16442,
      "name": "Najwa Nimri",
      "profile_path": "/hvLbKkDIT4FqSS8djmW5voNd0O4.jpg",
      "popularity": 10.225,
      "adult": false,
      "known_for_department": "Acting"
    },
    {
      "id": 2115351,
      "name": "Benjamin Wadsworth",
      "profile_path": "/smNGeAw59reyB1btRIQOaxgbLZ4.jpg",
      "popularity": 10.224,
      "adult": false,
      "known_for_department": "Acting"
    },
    {
      "id": 2054213,
      "name": "Chance Hurstfield",
      "profile_path": "/mSy5MRQ4pK3UXYLQ6UVkLxbSha0.jpg",
      "popularity": 10.224,
      "adult": false,
      "known_for_department": "Acting"
    },
    {
      "id": 1243142,
      "name": "Colton Dunn",
      "profile_path": "/mekAGBmbVULfSR8dMwC3TXRbdfl.jpg",
      "popularity": 10.224,
      "adult": false,
      "known_for_department": "Acting"
    },
    {
      "id": 589722,
      "name": "Teresa Ruiz",
      "profile_path": "/bu0bGNDzIpaVfrOBBb1PERirBB9.jpg",
      "popularity": 10.224,
      "adult": false,
      "known_for_department": "Acting"
    },
    {
      "id": 7470,
      "name": "Meat Loaf",
      "profile_path": "/7gKLR1u46OB8WJ6m06LemNBCMx6.jpg",
      "popularity": 10.224,
      "adult": false,
      "known_for_department": "Acting"
    },
    {
      "id": 71586,
      "name": "Alfie Allen",
      "profile_path": "/7gPpG0TBMX20tPhWC8BT47x2lnh.jpg",
      "popularity": 10.223,
      "adult": false,
      "known_for_department": "Acting"
    },
    {
      "id": 223,
      "name": "Alejandro González Iñárritu",
      "profile_path": "/qWrltG9e0ssM3Y9pF86EAgteKHu.jpg",
      "popularity": 10.222,
      "adult": false,
      "known_for_department": "Directing"
    },
    {
      "id": 11130,
      "name": "James Robertson Justice",
      "profile_path": "/u0fYhKndmqr99KGV6SOhjXuMOnX.jpg",
      "popularity": 10.221,
      "adult": false,
      "known_for_department": "Acting"
    },
    {
      "id": 2069635,
      "name": "Jordana Lajoie",
      "profile_path": "/yZBYN3UpmpPoQPe77wzxADq3L2i.jpg",
      "popularity": 10.22,
      "adult": false,
      "known_for_department": "Acting"
    },
    {
      "id": 127164,
      "name": "Phyllis Logan",
      "profile_path": "/jRNfzD3bA5fyPxXRTiDbfNsTcOV.jpg",
      "popularity": 10.218,
      "adult": false,
      "known_for_department": "Acting"
    },
    {
      "id": 80757,
      "name": "Mike Tyson",
      "profile_path": "/pFbI6qiqb7GJLj6nedE7h8b3X6y.jpg",
      "popularity": 10.215,
      "adult": false,
      "known_for_department": "Acting"
    },
    {
      "id": 18660,
      "name": "Leisha Hailey",
      "profile_path": "/wiEaxVJSCrICBOaqyTp6e10hygO.jpg",
      "popularity": 10.213,
      "adult": false,
      "known_for_department": "Acting"
    },
    {
      "id": 89545,
      "name": "Lisa Ann Beley",
      "profile_path": "/5Lz5k8JKoCE4NFK82gMOlMx6cK2.jpg",
      "popularity": 10.212,
      "adult": false,
      "known_for_department": "Acting"
    },
    {
      "id": 2091979,
      "name": "Helin Kandemir",
      "profile_path": "/w6HoT5vsejRrZHFUI6lhP6G20et.jpg",
      "popularity": 10.211,
      "adult": false,
      "known_for_department": "Acting"
    },
    {
      "id": 973385,
      "name": "Ross Lynch",
      "profile_path": "/tpcszNyTefPVH19DMOgpxJ2VHO3.jpg",
      "popularity": 10.21,
      "adult": false,
      "known_for_department": "Acting"
    },
    {
      "id": 34947,
      "name": "Kevin Conroy",
      "profile_path": "/4MVApMiARrecuVjTCPfi6Z7biLW.jpg",
      "popularity": 10.21,
      "adult": false,
      "known_for_department": "Acting"
    },
    {
      "id": 42905,
      "name": "Bill Kelly",
      "profile_path": "/5aa3F5vFv5yQe10pL2snCUrBIpt.jpg",
      "popularity": 10.208,
      "adult": false,
      "known_for_department": "Acting"
    },
    {
      "id": 41894,
      "name": "Zhang Jingchu",
      "profile_path": "/nQdau9zu3e91AZZv471hKBnjIHo.jpg",
      "popularity": 10.208,
      "adult": false,
      "known_for_department": "Acting"
    },
    {
      "id": 1837705,
      "name": "Jaylen Barron",
      "profile_path": "/g4fZY4HtGwGXWt14bXfqc7wgHzH.jpg",
      "popularity": 10.207,
      "adult": false,
      "known_for_department": "Acting"
    }
  ]
}