{
  "page": 322,
  "total_results": 10000,
  "total_pages": 500,
  "results": [
    {
      "id": 1232548,
      "name": "Abigail Hawk",
      "profile_path": "/q6luEpJdlh0U1t6EQXvfthKK58g.jpg",
      "popularity": 9.446,
      "adult": false,
      "known_for_department": "Acting"
    },
    {
      "id": 1213786,
      "name": "Brent Spiner",
      "profile_path": "/wHaOTfxOEKOPssDYaSSB5zenml4.jpg",
      "popularity": 9.446,
      "adult": false,
      "known_for_department": "Acting"
    },
    {
      "id": 1298703,
      "name": "Zhang Yamei",
      "profile_path": "/o7vPwJHtaaf9ZxCPwCLPuMiPIsV.jpg",
      "popularity": 9.444,
      "adult": false,
      "known_for_department": "Acting"
    },
    {
      "id": 57209,
      "name": "Bongkoj Khongmalai",
      "profile_path": "/ft43oV8EpxAcWgCb4cIapnUEeLK.jpg",
      "popularity": 9.444,
      "adult": false,
      "known_for_department": "Acting"
    },
    {
      "id": 52929,
      "name": "Angie Harmon",
      "profile_path": "/cntFCwNRBDQi4IMoUrmaVzvT7wa.jpg",
      "popularity": 9.443,
      "adult": false,
      "known_for_department": "Acting"
    },
    {
      "id": 99,
      "name": "Amanda Plummer",
      "profile_path": "/joHGUtEmXzJkH6ogEliiUKT9MNa.jpg",
      "popularity": 9.443,
      "adult": false,
      "known_for_department": "Acting"
    },
    {
      "id": 2447853,
      "name": "Jeong Bong-yeon",
      "profile_path": "",
      "popularity": 9.442,
      "adult": false,
      "known_for_department": "Crew"
    },
    {
      "id": 223901,
      "name": "Jay Ryan",
      "profile_path": "/An5KTgfrfLrV4cZJvVtfM902voh.jpg",
      "popularity": 9.442,
      "adult": false,
      "known_for_department": "Acting"
    },
    {
      "id": 115730,
      "name": "Patrick John Flueger",
      "profile_path": "/clfZivMXQzmxwO5XGXfNtycX3Xn.jpg",
      "popularity": 9.442,
      "adult": false,
      "known_for_department": "Acting"
    },
    {
      "id": 2681,
      "name": "Erik Knudsen",
      "profile_path": "/ynaFGOTCwVz0vSjE5kKoG0alZYP.jpg",
      "popularity": 9.442,
      "adult": false,
      "known_for_department": "Acting"
    },
    {
      "id": 13724,
      "name": "Jane Alexander",
      "profile_path": "/5nWLBhNH6tQGVskI89J45C7LU2o.jpg",
      "popularity": 9.44,
      "adult": false,
      "known_for_department": "Acting"
    },
    {
      "id": 2771760,
      "name": "Natasitt Uareksit",
      "profile_path": "/kUFkTqIqWIiEoXel0kqJoZAP2i6.jpg",
      "popularity": 9.439,
      "adult": false,
      "known_for_department": "Acting"
    },
    {
      "id": 145382,
      "name": "Baek Seung-hwan",
      "profile_path": "/6CLUQJqv0DvNVUoFHFcC1uvSk5h.jpg",
      "popularity": 9.439,
      "adult": false,
      "known_for_department": "Acting"
    },
    {
      "id": 63540,
      "name": "Teddy Sears",
      "profile_path": "/4avhBjxs9KRYxQ39wn78QrkOJl5.jpg",
      "popularity": 9.439,
      "adult": false,
      "known_for_department": "Acting"
    },
    {
      "id": 5176,
      "name": "Sam McMurray",
      "profile_path": "/pbZSG0hprUcRkUF3q4NUUzvQX3E.jpg",
      "popularity": 9.439,
      "adult": false,
      "known_for_department": "Acting"
    },
    {
      "id": 4093,
      "name": "Ray Walston",
      "profile_path": "/iP8AKh25EBoDgY3yDdugd5daJhj.jpg",
      "popularity": 9.438,
      "adult": false,
      "known_for_department": "Acting"
    },
    {
      "id": 779,
      "name": "Lisa Eilbacher",
      "profile_path": "/tYbOrII1dXzNauGSbMlAZRyRUWT.jpg",
      "popularity": 9.437,
      "adult": false,
      "known_for_department": "Acting"
    },
    {
      "id": 110058,
      "name": "Eri Fukatsu",
      "profile_path": "/wlJdrhvaIirXvPNkxBiGonLXHbK.jpg",
      "popularity": 9.435,
      "adult": false,
      "known_for_department": "Acting"
    },
    {
      "id": 1241498,
      "name": "Daisuke Ono",
      "profile_path": "/rCo5Q3xMnOFMavs6YJAbP2ZRsqt.jpg",
      "popularity": 9.433,
      "adult": false,
      "known_for_department": "Acting"
    },
    {
      "id": 587438,
      "name": "Chris Coy",
      "profile_path": "/qM89KmZYCOC9VVUle5OPMP0i5U8.jpg",
      "popularity": 9.433,
      "adult": false,
      "known_for_department": "Acting"
    }
  ]
}