{
  "page": 42,
  "total_results": 10000,
  "total_pages": 500,
  "results": [
    {
      "id": 6413,
      "name": "Danny Huston",
      "profile_path": "/iiVgafHitV0IbJYbaSNtHcWHF7P.jpg",
      "popularity": 24.074,
      "adult": false,
      "known_for_department": "Acting"
    },
    {
      "id": 4589,
      "name": "Benjamin Bratt",
      "profile_path": "/hBenHPT4iJEG2kt5z2TOGnkRZwh.jpg",
      "popularity": 24.072,
      "adult": false,
      "known_for_department": "Acting"
    },
    {
      "id": 8170,
      "name": "Eva Mendes",
      "profile_path": "/4xptMw7AjNamFgfGt75sHaT0wsI.jpg",
      "popularity": 24.054,
      "adult": false,
      "known_for_department": "Acting"
    },
    {
      "id": 1799766,
      "name": "Olivier Renaud",
      "profile_path": "/r1PKI00FM4kovA2AQfnWhC1BU13.jpg",
      "popularity": 24.05,
      "adult": false,
      "known_for_department": "Acting"
    },
    {
      "id": 1034681,
      "name": "Tye Sheridan",
      "profile_path": "/d5ZS2fjqC98cIGkhEGX0fRYhku4.jpg",
      "popularity": 23.996,
      "adult": false,
      "known_for_department": "Acting"
    },
    {
      "id": 1829151,
      "name": "Cem Yiğit Üzümoğlu",
      "profile_path": "/AnC4ubfPmvtRd206dAsrjnGFMoc.jpg",
      "popularity": 23.987,
      "adult": false,
      "known_for_department": "Acting"
    },
    {
      "id": 1916568,
      "name": "Lutesha",
      "profile_path": "/aSfXpXNbYlYh0tELg3kSK6BJPyl.jpg",
      "popularity": 23.963,
      "adult": false,
      "known_for_department": "Acting"
    },
    {
      "id": 1558986,
      "name": "Louis Partridge",
      "profile_path": "/wuZNRskGHWWLo3uS22VcgKcJgZB.jpg",
      "popularity": 23.949,
      "adult": false,
      "known_for_department": "Acting"
    },
    {
      "id": 1379277,
      "name": "Alex Lawther",
      "profile_path": "/q5QMUDGYSN82QmMyiOYhLuB8ISB.jpg",
      "popularity": 23.944,
      "adult": false,
      "known_for_department": "Acting"
    },
    {
      "id": 6473,
      "name": "Kelly Lynch",
      "profile_path": "/lYpcMbWOpZ552VHPCjwjyZ2jvvw.jpg",
      "popularity": 23.917,
      "adult": false,
      "known_for_department": "Acting"
    },
    {
      "id": 1844055,
      "name": "Dempsey Bryk",
      "profile_path": "/kX0UhX2U87zzxU5snuz9491Ah1N.jpg",
      "popularity": 23.888,
      "adult": false,
      "known_for_department": "Acting"
    },
    {
      "id": 1318650,
      "name": "Willa Fitzgerald",
      "profile_path": "/l2xGZi2091DxdCSNEu9xbJ0XRYK.jpg",
      "popularity": 23.888,
      "adult": false,
      "known_for_department": "Acting"
    },
    {
      "id": 519,
      "name": "Martin Short",
      "profile_path": "/vWoZIOk7K8TSKu1IN90akswsWjZ.jpg",
      "popularity": 23.869,
      "adult": false,
      "known_for_department": "Acting"
    },
    {
      "id": 18352,
      "name": "Patrick Dempsey",
      "profile_path": "/oukjBHYzFzmaJ7g6aWXJbt3evFs.jpg",
      "popularity": 23.863,
      "adult": false,
      "known_for_department": "Acting"
    },
    {
      "id": 57395,
      "name": "Natasha Henstridge",
      "profile_path": "/lfRFm3MLOGPtaDHWTstoQfKAyLM.jpg",
      "popularity": 23.839,
      "adult": false,
      "known_for_department": "Acting"
    },
    {
      "id": 39520,
      "name": "Garret Dillahunt",
      "profile_path": "/9ISUezmwt2Hnm2do6Mg75EyAwgE.jpg",
      "popularity": 23.833,
      "adult": false,
      "known_for_department": "Acting"
    },
    {
      "id": 51389,
      "name": "Joe Cobden",
      "profile_path": "/g7EsYXdEoNv9s73ZI10SC2gL8MD.jpg",
      "popularity": 23.821,
      "adult": false,
      "known_for_department": "Acting"
    },
    {
      "id": 6681,
      "name": "Sherilyn Fenn",
      "profile_path": "/wHWnkSh3vQhjNKRHsOsDA4NE5XJ.jpg",
      "popularity": 23.821,
      "adult": false,
      "known_for_department": "Acting"
    },
    {
      "id": 1772,
      "name": "Anna Faris",
      "profile_path": "/bKM8yxWEiM9gSk9RY9Ey5RuqNbH.jpg",
      "popularity": 23.821,
      "adult": false,
      "known_for_department": "Acting"
    },
    {
      "id": 2534630,
      "name": "Kazuki Ura",
      "profile_path": "/7eUgENWREmWSMnLPUFCQhvUSpdI.jpg",
      "popularity": 23.763,
      "adult": false,
      "known_for_department": "Acting"
    }
  ]
}