{
  "page": 125,
  "total_results": 10000,
  "total_pages": 500,
  "results": [
    {
      "id": 34408,
      "name": "Stana Katic",
      "profile_path": "/4Kw0xJTzRc4VPfOVlaMr7OTfvN2.jpg",
      "popularity": 15.207,
      "adult": false,
      "known_for_department": "Acting"
    },
    {
      "id": 11278,
      "name": "Rupert Graves",
      "profile_path": "/6tS8XMuTS04xXTfeWFjJED6SFBF.jpg",
      "popularity": 15.207,
      "adult": false,
      "known_for_department": "Acting"
    },
    {
      "id": 54182,
      "name": "Taylor Cole",
      "profile_path": "/kLIJiKWTi7zzgOY9pmLlRQvrwh9.jpg",
      "popularity": 15.2,
      "adult": false,
      "known_for_department": "Acting"
    },
    {
      "id": 19242,
      "name": "Tony Gilroy",
      "profile_path": "/tjKPe7Yq68p2IaaCAdSOmXStOKq.jpg",
      "popularity": 15.2,
      "adult": false,
      "known_for_department": "Writing"
    },
    {
      "id": 10920,
      "name": "Tobias Menzies",
      "profile_path": "/phcroLRZCjLje2jeKNkNQz4Jdpn.jpg",
      "popularity": 15.192,
      "adult": false,
      "known_for_department": "Acting"
    },
    {
      "id": 1256258,
      "name": "Toks Olagundoye",
      "profile_path": "/2tKnfTA0gh6QnTcHb18hj8o70uG.jpg",
      "popularity": 15.191,
      "adult": false,
      "known_for_department": "Acting"
    },
    {
      "id": 19728,
      "name": "Mark Harmon",
      "profile_path": "/lMqKPig7zBoGfou7wWf88sZEGHo.jpg",
      "popularity": 15.191,
      "adult": false,
      "known_for_department": "Acting"
    },
    {
      "id": 18285,
      "name": "Jennifer Esposito",
      "profile_path": "/sRvb56u55TArQijN0aFS4PzSLWR.jpg",
      "popularity": 15.185,
      "adult": false,
      "known_for_department": "Acting"
    },
    {
      "id": 10881,
      "name": "Toby Stephens",
      "profile_path": "/7hZVlhxd4FkhEQxaF4lTgwj3SYc.jpg",
      "popularity": 15.182,
      "adult": false,
      "known_for_department": "Acting"
    },
    {
      "id": 1470305,
      "name": "Riele Downs",
      "profile_path": "/rQLCU2jdwi1us2j8R4xlOwQ2ZAq.jpg",
      "popularity": 15.181,
      "adult": false,
      "known_for_department": "Acting"
    },
    {
      "id": 20089,
      "name": "Jena Malone",
      "profile_path": "/1qmkanVCFr3ZaXcxSXVDO8andb0.jpg",
      "popularity": 15.175,
      "adult": false,
      "known_for_department": "Acting"
    },
    {
      "id": 572541,
      "name": "Caleb Landry Jones",
      "profile_path": "/8M5lPHrERwAIfWK56RkH30FOjhV.jpg",
      "popularity": 15.17,
      "adult": false,
      "known_for_department": "Acting"
    },
    {
      "id": 1442583,
      "name": "Park So-dam",
      "profile_path": "/gaDnEiMD5PClT9ARg1bSFyexbor.jpg",
      "popularity": 15.169,
      "adult": false,
      "known_for_department": "Acting"
    },
    {
      "id": 588,
      "name": "M. Emmet Walsh",
      "profile_path": "/cirz2AGsQgh34yMoMaEmttAq0qS.jpg",
      "popularity": 15.162,
      "adult": false,
      "known_for_department": "Acting"
    },
    {
      "id": 106725,
      "name": "Kathryn Davis",
      "profile_path": "/hs3fjziV9U4cmw4Px92KRbfE1Ea.jpg",
      "popularity": 15.158,
      "adult": false,
      "known_for_department": "Acting"
    },
    {
      "id": 197,
      "name": "David Silverman",
      "profile_path": "/rfbJ0PUQsdggzWlLCdjdywDA7VV.jpg",
      "popularity": 15.152,
      "adult": false,
      "known_for_department": "Directing"
    },
    {
      "id": 69395,
      "name": "Bug Hall",
      "profile_path": "/axuZx8nn7R7ohlkfnxO9k3TIGiq.jpg",
      "popularity": 15.149,
      "adult": false,
      "known_for_department": "Acting"
    },
    {
      "id": 5729,
      "name": "Kim Novak",
      "profile_path": "/wQYlkzNBJkvFAY3R0FQZfwLhTDx.jpg",
      "popularity": 15.149,
      "adult": false,
      "known_for_department": "Acting"
    },
    {
      "id": 57412,
      "name": "Moisés Arias",
      "profile_path": "/gcZFNl5xRIjtiDQ2W66A9v2lEih.jpg",
      "popularity": 15.148,
      "adult": false,
      "known_for_department": "Acting"
    },
    {
      "id": 12261,
      "name": "Jason Patric",
      "profile_path": "/iv21ZjE90f9QNiNONKF9Lp6ZD68.jpg",
      "popularity": 15.148,
      "adult": false,
      "known_for_department": "Acting"
    }
  ]
}