{
  "page": 493,
  "total_results": 10000,
  "total_pages": 500,
  "results": [
    {
      "id": 31514,
      "name": "Peter Jacobson",
      "profile_path": "/pGi9CnzEG4cLa2viUP89yvlPCyR.jpg",
      "popularity": 7.124,
      "adult": false,
      "known_for_department": "Acting"
    },
    {
      "id": 24320,
      "name": "Alan Oppenheimer",
      "profile_path": "/5UAa7wSnoh6JwiAKciCCKB9dnro.jpg",
      "popularity": 7.124,
      "adult": false,
      "known_for_department": "Acting"
    },
    {
      "id": 1508532,
      "name": "Ava Kolker",
      "profile_path": "/qfuE5b4PNwVHKi1TweMIRdRwzx7.jpg",
      "popularity": 7.123,
      "adult": false,
      "known_for_department": "Acting"
    },
    {
      "id": 1222950,
      "name": "Lim Ju-hwan",
      "profile_path": "/5aMAmPrQUGE5HaWrFsR3AXaFGL5.jpg",
      "popularity": 7.123,
      "adult": false,
      "known_for_department": "Acting"
    },
    {
      "id": 26483,
      "name": "Valerie Perrine",
      "profile_path": "/dOCVB0kK79ndxIp1ybdArlgka4j.jpg",
      "popularity": 7.122,
      "adult": false,
      "known_for_department": "Acting"
    },
    {
      "id": 9632,
      "name": "Fredric Lehne",
      "profile_path": "/qjtfC2QWLukoNVnDjp8QZF6E6Xz.jpg",
      "popularity": 7.121,
      "adult": false,
      "known_for_department": "Acting"
    },
    {
      "id": 187712,
      "name": "Robert T. Bogue",
      "profile_path": "/aKO0dJcod19BKZuFxDKKGZmdO44.jpg",
      "popularity": 7.12,
      "adult": false,
      "known_for_department": "Acting"
    },
    {
      "id": 159142,
      "name": "Stuart Damon",
      "profile_path": "/cckZQcmMA8f7UrUXmQdsuwEZZsz.jpg",
      "popularity": 7.12,
      "adult": false,
      "known_for_department": "Acting"
    },
    {
      "id": 1716008,
      "name": "Lee Sun-bin",
      "profile_path": "/vx2JypZR6mfihOkHKiKpXKHFg9h.jpg",
      "popularity": 7.118,
      "adult": false,
      "known_for_department": "Acting"
    },
    {
      "id": 21353,
      "name": "Isaiah Washington",
      "profile_path": "/3yY5h1t7AKZpf4lfdSMwDQvCroQ.jpg",
      "popularity": 7.118,
      "adult": false,
      "known_for_department": "Acting"
    },
    {
      "id": 4614,
      "name": "Mac Ahlberg",
      "profile_path": "/a1BF9YiCGQ66Mncin2UmYi1g2iN.jpg",
      "popularity": 7.118,
      "adult": false,
      "known_for_department": "Camera"
    },
    {
      "id": 32385,
      "name": "Irene Cara",
      "profile_path": "/wfmfmG7Ka2jSu8FejVOAkCFSsUG.jpg",
      "popularity": 7.116,
      "adult": false,
      "known_for_department": "Acting"
    },
    {
      "id": 4499,
      "name": "Tom Shadyac",
      "profile_path": "/kuliB1DrKSbdn2jxESncPbWxGrD.jpg",
      "popularity": 7.116,
      "adult": false,
      "known_for_department": "Directing"
    },
    {
      "id": 2380397,
      "name": "Micheal Ward",
      "profile_path": "/fnVDz5q9Vtocm2VY5tU3voP6RxG.jpg",
      "popularity": 7.114,
      "adult": false,
      "known_for_department": "Acting"
    },
    {
      "id": 1314954,
      "name": "Wayne Sermon",
      "profile_path": "/kia6mzQfKtEgqZcL9maGImyWD1G.jpg",
      "popularity": 7.114,
      "adult": false,
      "known_for_department": "Acting"
    },
    {
      "id": 42998,
      "name": "Elizabeth Berrington",
      "profile_path": "/wFz71bIKTlQoa8v1s243TIh5wUm.jpg",
      "popularity": 7.113,
      "adult": false,
      "known_for_department": "Acting"
    },
    {
      "id": 42196,
      "name": "Martin Hewitt",
      "profile_path": "/tZ7BlKJSp6Etlh71JXRCIC1ALS6.jpg",
      "popularity": 7.113,
      "adult": false,
      "known_for_department": "Acting"
    },
    {
      "id": 22541,
      "name": "Brian J. Smith",
      "profile_path": "/tlGXu58XWQXS0404GeioIPme0S.jpg",
      "popularity": 7.113,
      "adult": false,
      "known_for_department": "Acting"
    },
    {
      "id": 10929,
      "name": "Ruta Lee",
      "profile_path": "/biYH39Od59w3Y13x5h5oEBqZbVV.jpg",
      "popularity": 7.113,
      "adult": false,
      "known_for_department": "Acting"
    },
    {
      "id": 1300650,
      "name": "Jake Manley",
      "profile_path": "/mu8otJW0iA89jqF7SVe59ccrfAI.jpg",
      "popularity": 7.112,
      "adult": false,
      "known_for_department": "Acting"
    }
  ]
}