{
  "page": 389,
  "total_results": 10000,
  "total_pages": 500,
  "results": [
    {
      "id": 87707,
      "name": "John Ventimiglia",
      "profile_path": "/1KSrI47Q3mdb3XXoEpiNaZoWsGp.jpg",
      "popularity": 9.774,
      "adult": false,
      "known_for_department": "Acting"
    },
    {
      "id": 1904058,
      "name": "Lee Jun-young",
      "profile_path": "/41ZqSutUfV3F2aZUNUqVmpDuyXN.jpg",
      "popularity": 9.773,
      "adult": false,
      "known_for_department": "Acting"
    },
    {
      "id": 1254547,
      "name": "Seda Bakan",
      "profile_path": "/xPySVGVlgGmIRtw7oyxa7f7liwG.jpg",
      "popularity": 9.773,
      "adult": false,
      "known_for_department": "Acting"
    },
    {
      "id": 584878,
      "name": "Babloo Prithiveeraj",
      "profile_path": "/lnRXcRebSmfJaSaRqTt91o1vkhE.jpg",
      "popularity": 9.773,
      "adult": false,
      "known_for_department": "Acting"
    },
    {
      "id": 1152083,
      "name": "Sabrina Carpenter",
      "profile_path": "/2zAdQGwdnVsKbmpktJ7VCfJbrJy.jpg",
      "popularity": 9.772,
      "adult": false,
      "known_for_department": "Acting"
    },
    {
      "id": 1037108,
      "name": "Nichole Galicia",
      "profile_path": "/4gySGMvp97LLru8m5caD97t6LMo.jpg",
      "popularity": 9.772,
      "adult": false,
      "known_for_department": "Acting"
    },
    {
      "id": 55091,
      "name": "Neil Brown Jr.",
      "profile_path": "/5dZ5OsxXwaecDIlH93dRsF27sVY.jpg",
      "popularity": 9.771,
      "adult": false,
      "known_for_department": "Acting"
    },
    {
      "id": 8608,
      "name": "Murray Hamilton",
      "profile_path": "/kEAXyzRQ5POdciTjAUjRW4lIslj.jpg",
      "popularity": 9.771,
      "adult": false,
      "known_for_department": "Acting"
    },
    {
      "id": 14974,
      "name": "Barbara Stanwyck",
      "profile_path": "/y9BX4FNoFBjP2HPcs8rlzqXjJbu.jpg",
      "popularity": 9.769,
      "adult": false,
      "known_for_department": "Acting"
    },
    {
      "id": 935720,
      "name": "Madison Lintz",
      "profile_path": "/rr6tpaVVdeYAmZKl509HCizYFwg.jpg",
      "popularity": 9.768,
      "adult": false,
      "known_for_department": "Acting"
    },
    {
      "id": 1484899,
      "name": "Molly Atkinson",
      "profile_path": "/sj1Y9aRCnDVS9odAaQFAxunM9uO.jpg",
      "popularity": 9.767,
      "adult": false,
      "known_for_department": "Acting"
    },
    {
      "id": 2031049,
      "name": "Michael Naizu",
      "profile_path": "/efYwr6ICVNCadKOEhza6VwfCeHt.jpg",
      "popularity": 9.766,
      "adult": false,
      "known_for_department": "Acting"
    },
    {
      "id": 1401338,
      "name": "Hiyori Sakurada",
      "profile_path": "/62ZKkbRas0oecXFcuIyzuKlom62.jpg",
      "popularity": 9.766,
      "adult": false,
      "known_for_department": "Acting"
    },
    {
      "id": 89885,
      "name": "Quinn Lord",
      "profile_path": "/bDPoGWxTx4THBjNYoJCnRtTK2RJ.jpg",
      "popularity": 9.766,
      "adult": false,
      "known_for_department": "Acting"
    },
    {
      "id": 73845,
      "name": "Abigail Cruttenden",
      "profile_path": "/gLLLwCtZv5Kjst7N4ErsWuaOeh7.jpg",
      "popularity": 9.766,
      "adult": false,
      "known_for_department": "Acting"
    },
    {
      "id": 19117,
      "name": "Emmanuelle Devos",
      "profile_path": "/bX1l2sTxoXVMRBky7rfD3lVEHud.jpg",
      "popularity": 9.766,
      "adult": false,
      "known_for_department": "Acting"
    },
    {
      "id": 53517,
      "name": "Nigel Havers",
      "profile_path": "/75jjShxtJnsvWu4QwiYPjNPQjsf.jpg",
      "popularity": 9.765,
      "adult": false,
      "known_for_department": "Acting"
    },
    {
      "id": 52968,
      "name": "Russell Mulcahy",
      "profile_path": "/61VZ3twvslKZir66aLCi5Z5TE2Y.jpg",
      "popularity": 9.764,
      "adult": false,
      "known_for_department": "Directing"
    },
    {
      "id": 22090,
      "name": "Barbara Eden",
      "profile_path": "/wFTdqWI7RDAbOlcejwHwKUOn4mr.jpg",
      "popularity": 9.763,
      "adult": false,
      "known_for_department": "Acting"
    },
    {
      "id": 2476984,
      "name": "Song Chae-yoon",
      "profile_path": "/8JiL0bnYy3SxQa8eGEmtQtRuvOe.jpg",
      "popularity": 9.762,
      "adult": false,
      "known_for_department": "Acting"
    }
  ]
}