{
  "page": 315,
  "total_results": 10000,
  "total_pages": 500,
  "results": [
    {
      "id": 1242005,
      "name": "Yuka Iguchi",
      "profile_path": "/wutIs24BvVy0KYGPhnS1sK2IEWn.jpg",
      "popularity": 7.35,
      "adult": false,
      "known_for_department": "Acting"
    },
    {
      "id": 96792,
      "name": "Robert Buckley",
      "profile_path": "/o4ju4sTWoEMK6QvDjQrqHYRBCrz.jpg",
      "popularity": 7.35,
      "adult": false,
      "known_for_department": "Acting"
    },
    {
      "id": 77624,
      "name": "Renee O'Connor",
      "profile_path": "/yO888Hl7ZjUpPzrJp5U47DAOziu.jpg",
      "popularity": 7.35,
      "adult": false,
      "known_for_department": "Acting"
    },
    {
      "id": 1752,
      "name": "George Takei",
      "profile_path": "/uu4B9XRD9WvOtycyfHYwJa5QPpv.jpg",
      "popularity": 7.35,
      "adult": false,
      "known_for_department": "Acting"
    },
    {
      "id": 1354964,
      "name": "Miki Esparbé",
      "profile_path": "/aoDKG2LSN9JKTKwntpD8AzyVwuf.jpg",
      "popularity": 7.347,
      "adult": false,
      "known_for_department": "Acting"
    },
    {
      "id": 117508,
      "name": "Kim So-eun",
      "profile_path": "/xqqnT9Sgvm9sTufg5jTEdGQnv0z.jpg",
      "popularity": 7.347,
      "adult": false,
      "known_for_department": "Acting"
    },
    {
      "id": 908548,
      "name": "Joanna Kulig",
      "profile_path": "/r175IXRJsTuu2EzNY5SkCQxC4xq.jpg",
      "popularity": 7.344,
      "adult": false,
      "known_for_department": "Acting"
    },
    {
      "id": 106730,
      "name": "Branscombe Richmond",
      "profile_path": "/4UFwrT68uzusdG1hcPARjxpJUIx.jpg",
      "popularity": 7.344,
      "adult": false,
      "known_for_department": "Acting"
    },
    {
      "id": 3398,
      "name": "Kim Bodnia",
      "profile_path": "/koWU6vb82cuCDLeYE1erqnQ39cW.jpg",
      "popularity": 7.342,
      "adult": false,
      "known_for_department": "Acting"
    },
    {
      "id": 2717,
      "name": "Rick Rossovich",
      "profile_path": "/uShNdPWbDHMejpMxuoNsqaaDbuc.jpg",
      "popularity": 7.342,
      "adult": false,
      "known_for_department": "Acting"
    },
    {
      "id": 1028461,
      "name": "Hannah Al Rashid",
      "profile_path": "/9dhmyPwVwqnzIJiiS3QIGRcPRH1.jpg",
      "popularity": 7.341,
      "adult": false,
      "known_for_department": "Acting"
    },
    {
      "id": 3412106,
      "name": "Natalya Nemchinova",
      "profile_path": "/uNvANDWux9jwZRQtnLtNeiKYFka.jpg",
      "popularity": 7.34,
      "adult": false,
      "known_for_department": "Acting"
    },
    {
      "id": 2442126,
      "name": "Caylee Cowan",
      "profile_path": "/w4Z1ZmcLJt4plQ2tXaRXTRpOWcU.jpg",
      "popularity": 7.34,
      "adult": false,
      "known_for_department": "Acting"
    },
    {
      "id": 1139163,
      "name": "Sachin Bhatt",
      "profile_path": "/wrWpiYNgHdv8gXD5ESTZ9KsrkmP.jpg",
      "popularity": 7.339,
      "adult": false,
      "known_for_department": "Acting"
    },
    {
      "id": 6914,
      "name": "Scott Wilson",
      "profile_path": "/ynH2YOLn0A7iIlmMiiWAGtC76Hx.jpg",
      "popularity": 7.339,
      "adult": false,
      "known_for_department": "Acting"
    },
    {
      "id": 1339627,
      "name": "Daniel Ezra",
      "profile_path": "/43AIgx8PEABQKkK08OCJ9239OK6.jpg",
      "popularity": 7.337,
      "adult": false,
      "known_for_department": "Acting"
    },
    {
      "id": 1171128,
      "name": "Tom Austen",
      "profile_path": "/6TC9gW3ZJzrNyFgsYDeWj8V6RYo.jpg",
      "popularity": 7.337,
      "adult": false,
      "known_for_department": "Acting"
    },
    {
      "id": 559844,
      "name": "Akari Hoshino",
      "profile_path": "/Auk9Q4n04FPCzkVwFMc3gR1vgHU.jpg",
      "popularity": 7.335,
      "adult": false,
      "known_for_department": "Acting"
    },
    {
      "id": 65344,
      "name": "Esai Morales",
      "profile_path": "/kXQW3Uu8MnbIsPBzYNYDxFgDIDg.jpg",
      "popularity": 7.335,
      "adult": false,
      "known_for_department": "Acting"
    },
    {
      "id": 146783,
      "name": "Crystal Allen",
      "profile_path": "/gCnC9CTwho9kCphhcy5j9n5wxoY.jpg",
      "popularity": 7.334,
      "adult": false,
      "known_for_department": "Acting"
    }
  ]
}