{
  "page": 456,
  "total_results": 10000,
  "total_pages": 500,
  "results": [
    {
      "id": 1380304,
      "name": "Cristina Ionda",
      "profile_path": "/gG4fo7NdHmdwPNw5Kcn19qBaSz1.jpg",
      "popularity": 7.669,
      "adult": false,
      "known_for_department": "Acting"
    },
    {
      "id": 38951,
      "name": "Reg E. Cathey",
      "profile_path": "/ss0qH33O7g9GjQ1kC3z3kH0UYyw.jpg",
      "popularity": 7.669,
      "adult": false,
      "known_for_department": "Acting"
    },
    {
      "id": 204131,
      "name": "Jeremy Shada",
      "profile_path": "/qTV1zef7qpQsNhjGh1QcKO00ZxZ.jpg",
      "popularity": 7.668,
      "adult": false,
      "known_for_department": "Acting"
    },
    {
      "id": 1202404,
      "name": "Nobuyuki Suzuki",
      "profile_path": "/xtqy7WCwD9QFFfaZCbB2nsokbZS.jpg",
      "popularity": 7.667,
      "adult": false,
      "known_for_department": "Acting"
    },
    {
      "id": 14974,
      "name": "Barbara Stanwyck",
      "profile_path": "/y9BX4FNoFBjP2HPcs8rlzqXjJbu.jpg",
      "popularity": 7.667,
      "adult": false,
      "known_for_department": "Acting"
    },
    {
      "id": 104504,
      "name": "John Aprea",
      "profile_path": "/hZ8Wlv3WaRMqNrRtWZBkw4lcjJj.jpg",
      "popularity": 7.666,
      "adult": false,
      "known_for_department": "Acting"
    },
    {
      "id": 2769777,
      "name": "Jamison Belushi",
      "profile_path": "",
      "popularity": 7.665,
      "adult": false,
      "known_for_department": "Acting"
    },
    {
      "id": 1273248,
      "name": "Tessa Albertson",
      "profile_path": "/yk9FM7Vt8an9vB8wuBdpI01U7HI.jpg",
      "popularity": 7.665,
      "adult": false,
      "known_for_department": "Acting"
    },
    {
      "id": 4989,
      "name": "Masaya Kato",
      "profile_path": "/jozDDSUl3iJ2E2EBZbtkiTtRgen.jpg",
      "popularity": 7.665,
      "adult": false,
      "known_for_department": "Acting"
    },
    {
      "id": 93936,
      "name": "Glori-Anne Gilbert",
      "profile_path": "/fZvIR6QQQz6fotZ7eErIDYGuxD2.jpg",
      "popularity": 7.664,
      "adult": false,
      "known_for_department": "Acting"
    },
    {
      "id": 93219,
      "name": "Jake Short",
      "profile_path": "/xA3N4HbFV4TdtD931LeQQuLJzfI.jpg",
      "popularity": 7.664,
      "adult": false,
      "known_for_department": "Acting"
    },
    {
      "id": 11715,
      "name": "Polly Holliday",
      "profile_path": "/tBbYjz3zkxIze3q1cJeN8ITDSPS.jpg",
      "popularity": 7.664,
      "adult": false,
      "known_for_department": "Acting"
    },
    {
      "id": 1428,
      "name": "Mick Jagger",
      "profile_path": "/r1uFIYnBCDhIlqNbiTS4nDrjHrl.jpg",
      "popularity": 7.664,
      "adult": false,
      "known_for_department": "Acting"
    },
    {
      "id": 56105,
      "name": "Renée Taylor",
      "profile_path": "/XSPvLgklOxoTQZNso2sEsawQdU.jpg",
      "popularity": 7.663,
      "adult": false,
      "known_for_department": "Acting"
    },
    {
      "id": 27533,
      "name": "Cox Habbema",
      "profile_path": "/v4EEAwrZiYrP8IgmwVrQvr9u7vx.jpg",
      "popularity": 7.663,
      "adult": false,
      "known_for_department": "Acting"
    },
    {
      "id": 13657,
      "name": "Jsu Garcia",
      "profile_path": "/fXbhpqgxV5a2mnZykuwxc6ecGyF.jpg",
      "popularity": 7.663,
      "adult": false,
      "known_for_department": "Acting"
    },
    {
      "id": 68287,
      "name": "Callum Blue",
      "profile_path": "/1r9i4N6gC8MYWettiFAVH0f6Toa.jpg",
      "popularity": 7.661,
      "adult": false,
      "known_for_department": "Acting"
    },
    {
      "id": 2071463,
      "name": "Maia Reficco",
      "profile_path": "/r7Vc6MLt6MN6u666xneCxrAJUw9.jpg",
      "popularity": 7.66,
      "adult": false,
      "known_for_department": "Acting"
    },
    {
      "id": 2971462,
      "name": "Suzanna Son",
      "profile_path": "/cCl7mauF28LcrslYYhqUb4bzm9l.jpg",
      "popularity": 7.659,
      "adult": false,
      "known_for_department": "Acting"
    },
    {
      "id": 1428143,
      "name": "Nash Grier",
      "profile_path": "/MPxt7R0nJ2LX0pmnJSL4HArVeZ.jpg",
      "popularity": 7.659,
      "adult": false,
      "known_for_department": "Acting"
    }
  ]
}