{
  "page": 69,
  "total_results": 10000,
  "total_pages": 500,
  "results": [
    {
      "id": 28847,
      "name": "Rafe Spall",
      "profile_path": "/zcqUqAvO7RQnitcCNNfTVPaiQtS.jpg",
      "popularity": 22.88,
      "adult": false,
      "known_for_department": "Acting"
    },
    {
      "id": 1308445,
      "name": "Carrie Coon",
      "profile_path": "/kbuScim9S6q2UKP1jCpp5UZB0P5.jpg",
      "popularity": 22.871,
      "adult": false,
      "known_for_department": "Acting"
    },
    {
      "id": 8873,
      "name": "Annie Potts",
      "profile_path": "/wci5yNwwQvvRtHybDG36wZqhC1t.jpg",
      "popularity": 22.848,
      "adult": false,
      "known_for_department": "Acting"
    },
    {
      "id": 1810,
      "name": "Heath Ledger",
      "profile_path": "/9qyB5RWZCua9tdCbEUAAxRDsnHS.jpg",
      "popularity": 22.847,
      "adult": false,
      "known_for_department": "Acting"
    },
    {
      "id": 1254975,
      "name": "申铉彬",
      "profile_path": "/ajYk4UgT4hYCvfo0LA1SFJt9mTU.jpg",
      "popularity": 22.822,
      "adult": false,
      "known_for_department": "Acting"
    },
    {
      "id": 86268,
      "name": "Serinda Swan",
      "profile_path": "/mA4qtNZnn0A2oT1s4IIHseO8oiu.jpg",
      "popularity": 22.821,
      "adult": false,
      "known_for_department": "Acting"
    },
    {
      "id": 49271,
      "name": "Brian Geraghty",
      "profile_path": "/4sqeUc4xYyzQ3Qpl5oxlQBTAAQk.jpg",
      "popularity": 22.805,
      "adult": false,
      "known_for_department": "Acting"
    },
    {
      "id": 6164,
      "name": "Josh Lucas",
      "profile_path": "/aHYyysVwQ7D0iYLjlUgiknBQGwW.jpg",
      "popularity": 22.805,
      "adult": false,
      "known_for_department": "Acting"
    },
    {
      "id": 325,
      "name": "Eminem",
      "profile_path": "/4DwawZRFMdc11qfOom2qZ7Wj2QA.jpg",
      "popularity": 22.799,
      "adult": false,
      "known_for_department": "Acting"
    },
    {
      "id": 1260868,
      "name": "Zhao Liying",
      "profile_path": "/1LSOJSwzRyO6d87sE0DZZnwL1jO.jpg",
      "popularity": 22.796,
      "adult": false,
      "known_for_department": "Acting"
    },
    {
      "id": 5049,
      "name": "John Hurt",
      "profile_path": "/wGDGhBOggA8I2ktgc1QoHABEF0m.jpg",
      "popularity": 22.795,
      "adult": false,
      "known_for_department": "Acting"
    },
    {
      "id": 81133,
      "name": "Amy Acker",
      "profile_path": "/u0R8FXCuQkwYQG5gRrOGH4XtBwP.jpg",
      "popularity": 22.792,
      "adult": false,
      "known_for_department": "Acting"
    },
    {
      "id": 34546,
      "name": "Mark Gatiss",
      "profile_path": "/rdinP6RQwKBab7BawJDBzF1I7Qz.jpg",
      "popularity": 22.788,
      "adult": false,
      "known_for_department": "Acting"
    },
    {
      "id": 74537,
      "name": "Maggie Siff",
      "profile_path": "/ufiWZMq4z5yra0At3NlYvyZ72ws.jpg",
      "popularity": 22.785,
      "adult": false,
      "known_for_department": "Acting"
    },
    {
      "id": 27163,
      "name": "Ornella Muti",
      "profile_path": "/7fnnSW9ayPPfP51Zuss8QT0Ermr.jpg",
      "popularity": 22.782,
      "adult": false,
      "known_for_department": "Acting"
    },
    {
      "id": 14990,
      "name": "Morgan Fairchild",
      "profile_path": "/2vhCJ09RJBgiiHbjMs6qddOxycb.jpg",
      "popularity": 22.779,
      "adult": false,
      "known_for_department": "Acting"
    },
    {
      "id": 61134,
      "name": "Tatiana Maslany",
      "profile_path": "/ykvrepeHdcpfPpumqU2LwGyG422.jpg",
      "popularity": 22.778,
      "adult": false,
      "known_for_department": "Acting"
    },
    {
      "id": 42335,
      "name": "Kathleen Wilhoite",
      "profile_path": "/hyqJJRBN2YtxxO2OeuFW94OpSN6.jpg",
      "popularity": 22.775,
      "adult": false,
      "known_for_department": "Acting"
    },
    {
      "id": 80591,
      "name": "Rashida Jones",
      "profile_path": "/cgWGm9eYCretBWeljPVtpRV7n6V.jpg",
      "popularity": 22.767,
      "adult": false,
      "known_for_department": "Acting"
    },
    {
      "id": 74932,
      "name": "Paige Turco",
      "profile_path": "/k1GyxA5YmN5qUpH5YzIe2zAoGgP.jpg",
      "popularity": 22.766,
      "adult": false,
      "known_for_department": "Acting"
    }
  ]
}