{
  "page": 55,
  "total_results": 10000,
  "total_pages": 500,
  "results": [
    {
      "id": 3901,
      "name": "Richard Brake",
      "profile_path": "/JwsiErANShzPSdYsNoiNYdrSg1.jpg",
      "popularity": 21.624,
      "adult": false,
      "known_for_department": "Acting"
    },
    {
      "id": 1114487,
      "name": "Hero Fiennes Tiffin",
      "profile_path": "/6zMrrZvOMH6uGwEFoK0Uo8sZvxL.jpg",
      "popularity": 21.605,
      "adult": false,
      "known_for_department": "Acting"
    },
    {
      "id": 17343,
      "name": "Robert Knepper",
      "profile_path": "/w40AttR4OPQvjYyTVanq5Rm5iOb.jpg",
      "popularity": 21.605,
      "adult": false,
      "known_for_department": "Acting"
    },
    {
      "id": 13922,
      "name": "Seth Green",
      "profile_path": "/l4No5Eu6j0U80hCIkaSn17AOWrj.jpg",
      "popularity": 21.595,
      "adult": false,
      "known_for_department": "Acting"
    },
    {
      "id": 1880016,
      "name": "David Howard Thornton",
      "profile_path": "/9nYijs4ACzjg93zKezLiLmuRGvp.jpg",
      "popularity": 21.592,
      "adult": false,
      "known_for_department": "Acting"
    },
    {
      "id": 1067849,
      "name": "Kim Go-eun",
      "profile_path": "/qjuCNIwVxXZ7B81jpuCSHkXBLPP.jpg",
      "popularity": 21.553,
      "adult": false,
      "known_for_department": "Acting"
    },
    {
      "id": 19664,
      "name": "Samaire Armstrong",
      "profile_path": "/y7hIQBo0sZz7KtyiJxkCr3ON6MR.jpg",
      "popularity": 21.546,
      "adult": false,
      "known_for_department": "Acting"
    },
    {
      "id": 21416,
      "name": "William Devane",
      "profile_path": "/7MGLsJXn3URkYeZzqzAcgpYXFum.jpg",
      "popularity": 21.533,
      "adult": false,
      "known_for_department": "Acting"
    },
    {
      "id": 1974009,
      "name": "Kim Do-hee",
      "profile_path": "/4cTC49BkTsJvBYq6SspGOoIqaAB.jpg",
      "popularity": 21.512,
      "adult": false,
      "known_for_department": "Acting"
    },
    {
      "id": 14990,
      "name": "Morgan Fairchild",
      "profile_path": "/2vhCJ09RJBgiiHbjMs6qddOxycb.jpg",
      "popularity": 21.512,
      "adult": false,
      "known_for_department": "Acting"
    },
    {
      "id": 19899,
      "name": "Dennis Storhøi",
      "profile_path": "/oKIPuT0L0jiXfqXIBRzpqrojsPv.jpg",
      "popularity": 21.492,
      "adult": false,
      "known_for_department": "Acting"
    },
    {
      "id": 18658,
      "name": "Mia Kirshner",
      "profile_path": "/xwpl37yvx2YxDQzy1eQbvaIDcuw.jpg",
      "popularity": 21.481,
      "adult": false,
      "known_for_department": "Acting"
    },
    {
      "id": 936932,
      "name": "Adam DiMarco",
      "profile_path": "/nDhp0bQqHPZG64BxjlixAW9qriY.jpg",
      "popularity": 21.475,
      "adult": false,
      "known_for_department": "Acting"
    },
    {
      "id": 1923,
      "name": "Robbie Coltrane",
      "profile_path": "/jOHs3xvlwRiiG2CLtso5zzmGCXg.jpg",
      "popularity": 21.47,
      "adult": false,
      "known_for_department": "Acting"
    },
    {
      "id": 35,
      "name": "Sally Field",
      "profile_path": "/3zXeOh2FPzXq6OfagpnpZLF8baw.jpg",
      "popularity": 21.46,
      "adult": false,
      "known_for_department": "Acting"
    },
    {
      "id": 1448222,
      "name": "Charlie Heaton",
      "profile_path": "/kPBiwpi1N0MCFITuxAy6LyrzE9e.jpg",
      "popularity": 21.453,
      "adult": false,
      "known_for_department": "Acting"
    },
    {
      "id": 70696,
      "name": "Kimberly Williams-Paisley",
      "profile_path": "/qJ4kWr4mDeKWenPeMOff8VtuAIq.jpg",
      "popularity": 21.417,
      "adult": false,
      "known_for_department": "Acting"
    },
    {
      "id": 3292,
      "name": "Nicholas Hoult",
      "profile_path": "/h1gXgpuXERZTVhxMdjT7uvXIyq6.jpg",
      "popularity": 21.402,
      "adult": false,
      "known_for_department": "Acting"
    },
    {
      "id": 221581,
      "name": "Rebel Wilson",
      "profile_path": "/6iAFqhVcOSLjeZq83mONpx99NAQ.jpg",
      "popularity": 21.392,
      "adult": false,
      "known_for_department": "Acting"
    },
    {
      "id": 13636,
      "name": "Jane Krakowski",
      "profile_path": "/hT9IGSgsE8VoWllOTtxR9JAoiK.jpg",
      "popularity": 21.382,
      "adult": false,
      "known_for_department": "Acting"
    }
  ]
}