{
  "page": 356,
  "total_results": 10000,
  "total_pages": 500,
  "results": [
    {
      "id": 2301723,
      "name": "Nao",
      "profile_path": "/sctXMVvMId8PMfecbQN8bmHhJtx.jpg",
      "popularity": 8.495,
      "adult": false,
      "known_for_department": "Acting"
    },
    {
      "id": 141374,
      "name": "Molly Ephraim",
      "profile_path": "/quhI60c6Z2nzZBpOJNjK4bvlPK4.jpg",
      "popularity": 8.495,
      "adult": false,
      "known_for_department": "Acting"
    },
    {
      "id": 74427,
      "name": "John Hensley",
      "profile_path": "/9iKjAq8aTnHxW4LBPAUnRtwBurY.jpg",
      "popularity": 8.495,
      "adult": false,
      "known_for_department": "Acting"
    },
    {
      "id": 123807,
      "name": "Lee Da-hee",
      "profile_path": "/gLb1p9Et2e4BKl8GD74vZLmaIz2.jpg",
      "popularity": 8.494,
      "adult": false,
      "known_for_department": "Acting"
    },
    {
      "id": 143240,
      "name": "Julianne Hough",
      "profile_path": "/s4B1sheXe3zem1H8VXd5oQ2Wu1m.jpg",
      "popularity": 8.491,
      "adult": false,
      "known_for_department": "Acting"
    },
    {
      "id": 125854,
      "name": "Amaia Salamanca",
      "profile_path": "/nhmrFaiJG4k5rlxEZGI72YeUB8p.jpg",
      "popularity": 8.491,
      "adult": false,
      "known_for_department": "Acting"
    },
    {
      "id": 83129,
      "name": "Janet Munro",
      "profile_path": "/6wtpZQhAsxQZwdiwG0nWu10jZb6.jpg",
      "popularity": 8.491,
      "adult": false,
      "known_for_department": "Acting"
    },
    {
      "id": 31137,
      "name": "Brian J. White",
      "profile_path": "/vskSQWts0iXppW6W1EAio3yjPKZ.jpg",
      "popularity": 8.49,
      "adult": false,
      "known_for_department": "Acting"
    },
    {
      "id": 2308574,
      "name": "Vinessa Vidotto",
      "profile_path": "/koxSlGHIICDuAZV0tuZD5VPm0Sn.jpg",
      "popularity": 8.489,
      "adult": false,
      "known_for_department": "Acting"
    },
    {
      "id": 55710,
      "name": "Adam McKay",
      "profile_path": "/vOyZXNJq7Oo01LPtSD5AZHjctgH.jpg",
      "popularity": 8.489,
      "adult": false,
      "known_for_department": "Directing"
    },
    {
      "id": 1353695,
      "name": "Dong Zijian",
      "profile_path": "/kiD5fhNmyIMWKam5xRP3rrasnBE.jpg",
      "popularity": 8.488,
      "adult": false,
      "known_for_department": "Acting"
    },
    {
      "id": 107770,
      "name": "B. J. Novak",
      "profile_path": "/o8Xf1khxhKGTz3QAplXD35opRA8.jpg",
      "popularity": 8.488,
      "adult": false,
      "known_for_department": "Acting"
    },
    {
      "id": 88392,
      "name": "Robbie Kay",
      "profile_path": "/hSjtRmNVHIMcXDWyznVzU69Go7R.jpg",
      "popularity": 8.488,
      "adult": false,
      "known_for_department": "Acting"
    },
    {
      "id": 4570,
      "name": "Emily Hampshire",
      "profile_path": "/vYlecHv7jzLcq24Um6ME8Jn1gMt.jpg",
      "popularity": 8.488,
      "adult": false,
      "known_for_department": "Acting"
    },
    {
      "id": 932091,
      "name": "Ryan Guzman",
      "profile_path": "/87saYOHLNaijt4P1nsZYDBt0kOD.jpg",
      "popularity": 8.487,
      "adult": false,
      "known_for_department": "Acting"
    },
    {
      "id": 1565630,
      "name": "Shotaro Mamiya",
      "profile_path": "/rTyurOXMTcSyLfjGxLZ1rDedyPt.jpg",
      "popularity": 8.485,
      "adult": false,
      "known_for_department": "Acting"
    },
    {
      "id": 54676,
      "name": "Jannis Niewöhner",
      "profile_path": "/eXlBu639DiyltQQL48VaKrYIWDz.jpg",
      "popularity": 8.485,
      "adult": false,
      "known_for_department": "Acting"
    },
    {
      "id": 5141,
      "name": "Heather Langenkamp",
      "profile_path": "/xI20Uddk9COIfgifaA4NRsXyZMD.jpg",
      "popularity": 8.484,
      "adult": false,
      "known_for_department": "Acting"
    },
    {
      "id": 1695682,
      "name": "Kylie Jenner",
      "profile_path": "/d3QyHMtrxfl1zaIrTYnF1qdGJ4v.jpg",
      "popularity": 8.483,
      "adult": false,
      "known_for_department": "Acting"
    },
    {
      "id": 18191,
      "name": "Amanda Donohoe",
      "profile_path": "/f7s1GhnJMfGJEReVtMRQC6Tju5V.jpg",
      "popularity": 8.481,
      "adult": false,
      "known_for_department": "Acting"
    }
  ]
}