{
  "page": 382,
  "total_results": 10000,
  "total_pages": 500,
  "results": [
    {
      "id": 506447,
      "name": "Nobuaki Kaneko",
      "profile_path": "/et1creCXulwYMBB4Wv9upbUyXn3.jpg",
      "popularity": 8.794,
      "adult": false,
      "known_for_department": "Acting"
    },
    {
      "id": 10866,
      "name": "Eric Bogosian",
      "profile_path": "/lUtLCWoLh18UFVOHBFr1VpUpoYJ.jpg",
      "popularity": 8.794,
      "adult": false,
      "known_for_department": "Acting"
    },
    {
      "id": 50970,
      "name": "Charlene Holt",
      "profile_path": "/pd94EpOmrlbB0bIrvlRfR30DoZR.jpg",
      "popularity": 8.793,
      "adult": false,
      "known_for_department": "Acting"
    },
    {
      "id": 1288047,
      "name": "Alice Isaaz",
      "profile_path": "/yULL4NbQW3ymzB2lHcI7SVlb7dS.jpg",
      "popularity": 8.792,
      "adult": false,
      "known_for_department": "Acting"
    },
    {
      "id": 2648625,
      "name": "Dixie D'Amelio",
      "profile_path": "/mBBexSSN5nX82ThQQrDZH6xHH9y.jpg",
      "popularity": 8.791,
      "adult": false,
      "known_for_department": "Acting"
    },
    {
      "id": 90364,
      "name": "Enuka Okuma",
      "profile_path": "/giNRBe2NrmptqL2o5l8JzN4WDIm.jpg",
      "popularity": 8.791,
      "adult": false,
      "known_for_department": "Acting"
    },
    {
      "id": 51878,
      "name": "John Kani",
      "profile_path": "/g7tqg3q128a5O2qXMCwVnXsow9I.jpg",
      "popularity": 8.791,
      "adult": false,
      "known_for_department": "Acting"
    },
    {
      "id": 2867506,
      "name": "Walker Scobell",
      "profile_path": "/8hLsKlvCZxhSPgxOyLgg2Z0n5uK.jpg",
      "popularity": 8.79,
      "adult": false,
      "known_for_department": "Acting"
    },
    {
      "id": 1049134,
      "name": "Kim Han-min",
      "profile_path": "/d8S8MsGVtoJ1KGVUkdafw3tesJP.jpg",
      "popularity": 8.79,
      "adult": false,
      "known_for_department": "Directing"
    },
    {
      "id": 987035,
      "name": "Charlie Barnett",
      "profile_path": "/sXsBKckWtNEBI3A4NV0rCFVVR4Y.jpg",
      "popularity": 8.79,
      "adult": false,
      "known_for_department": "Acting"
    },
    {
      "id": 156818,
      "name": "Gina Hecht",
      "profile_path": "/o5WcQAj6JGHh4z4UH8qRC1cL8b9.jpg",
      "popularity": 8.79,
      "adult": false,
      "known_for_department": "Acting"
    },
    {
      "id": 6694,
      "name": "Malgorzata Gebel",
      "profile_path": "/svp3UfxWkJGuFWq5REZdwp8o91z.jpg",
      "popularity": 8.79,
      "adult": false,
      "known_for_department": "Acting"
    },
    {
      "id": 1449329,
      "name": "Jack Bannon",
      "profile_path": "/ytSCw8uqER499FOFRNdboPfJav8.jpg",
      "popularity": 8.788,
      "adult": false,
      "known_for_department": "Acting"
    },
    {
      "id": 164397,
      "name": "Callie Thorne",
      "profile_path": "/abTd2C8d3WFVxSZPz52OYyogtRC.jpg",
      "popularity": 8.786,
      "adult": false,
      "known_for_department": "Acting"
    },
    {
      "id": 73926,
      "name": "Jördis Triebel",
      "profile_path": "/uD2Pd5MRxfHs68nB5CfDkCej9rC.jpg",
      "popularity": 8.786,
      "adult": false,
      "known_for_department": "Acting"
    },
    {
      "id": 71676,
      "name": "Mary-Margaret Humes",
      "profile_path": "/sBmqplwdnfzUhHx7OwlRK12yMFr.jpg",
      "popularity": 8.785,
      "adult": false,
      "known_for_department": "Acting"
    },
    {
      "id": 9908,
      "name": "Gert Fröbe",
      "profile_path": "/bXOqdYepkfUpVLf54It8f4v1tVI.jpg",
      "popularity": 8.785,
      "adult": false,
      "known_for_department": "Acting"
    },
    {
      "id": 1399806,
      "name": "Luciane Buchanan",
      "profile_path": "/4BVfv9HE6ZipHqZO8xDlkDFBWlN.jpg",
      "popularity": 8.784,
      "adult": false,
      "known_for_department": "Acting"
    },
    {
      "id": 115012,
      "name": "Binnur Kaya",
      "profile_path": "/7zPqm0OCISlrG4z1070bD7ycOp9.jpg",
      "popularity": 8.784,
      "adult": false,
      "known_for_department": "Acting"
    },
    {
      "id": 102826,
      "name": "Sandra Knight",
      "profile_path": "/zIRWjJq1dHkouKLLgsLSnWmewTk.jpg",
      "popularity": 8.782,
      "adult": false,
      "known_for_department": "Acting"
    }
  ]
}