{
  "page": 16,
  "total_results": 10000,
  "total_pages": 500,
  "results": [
    {
      "id": 5530,
      "name": "James McAvoy",
      "profile_path": "/vB6qYlFXgONGVwwxWXE4gf0F8SQ.jpg",
      "popularity": 34.233,
      "adult": false,
      "known_for_department": "Acting"
    },
    {
      "id": 115150,
      "name": "Kaya Scodelario",
      "profile_path": "/uVp7VarM5GX08hfCEGt63OM5c5c.jpg",
      "popularity": 34.183,
      "adult": false,
      "known_for_department": "Acting"
    },
    {
      "id": 3063,
      "name": "Tilda Swinton",
      "profile_path": "/gWbX3a7V2MgRMRzekfITNcb27xV.jpg",
      "popularity": 34.165,
      "adult": false,
      "known_for_department": "Acting"
    },
    {
      "id": 24045,
      "name": "Joseph Gordon-Levitt",
      "profile_path": "/dhv9f3AaozOjpvjAwVzOWlmmT2V.jpg",
      "popularity": 34.107,
      "adult": false,
      "known_for_department": "Acting"
    },
    {
      "id": 1371297,
      "name": "Adria Arjona",
      "profile_path": "/jUGWrJfUwhOQCUEnWR0CVNkNH08.jpg",
      "popularity": 34.097,
      "adult": false,
      "known_for_department": "Acting"
    },
    {
      "id": 1271,
      "name": "Andy García",
      "profile_path": "/s9sFJ2TEVYBThRuLTz7GnAaLisV.jpg",
      "popularity": 34.077,
      "adult": false,
      "known_for_department": "Acting"
    },
    {
      "id": 936932,
      "name": "Adam DiMarco",
      "profile_path": "/nDhp0bQqHPZG64BxjlixAW9qriY.jpg",
      "popularity": 33.97,
      "adult": false,
      "known_for_department": "Acting"
    },
    {
      "id": 17696,
      "name": "Kathryn Hahn",
      "profile_path": "/9sVllAKfEls3SJD3GoPm2JEZoa5.jpg",
      "popularity": 33.906,
      "adult": false,
      "known_for_department": "Acting"
    },
    {
      "id": 500,
      "name": "Tom Cruise",
      "profile_path": "/8qBylBsQf4llkGrWR3qAsOtOU8O.jpg",
      "popularity": 33.796,
      "adult": false,
      "known_for_department": "Acting"
    },
    {
      "id": 9780,
      "name": "Angela Bassett",
      "profile_path": "/7Oz53NKdglRzAzI2MKjM3eQXwn.jpg",
      "popularity": 33.724,
      "adult": false,
      "known_for_department": "Acting"
    },
    {
      "id": 1230687,
      "name": "Jennifer Landon",
      "profile_path": "/o1XDkIoyZTwjSXF9SE7mTZb8Xeb.jpg",
      "popularity": 33.713,
      "adult": false,
      "known_for_department": "Acting"
    },
    {
      "id": 18082,
      "name": "Timothy Olyphant",
      "profile_path": "/sQ4ge2wu0kK7MtQjnLtp988vCLs.jpg",
      "popularity": 33.665,
      "adult": false,
      "known_for_department": "Acting"
    },
    {
      "id": 27578,
      "name": "Elliot Page",
      "profile_path": "/596bLvD4iEz8VGc6TOEhzmPwTMe.jpg",
      "popularity": 33.655,
      "adult": false,
      "known_for_department": "Acting"
    },
    {
      "id": 12519,
      "name": "Virginia Madsen",
      "profile_path": "/2u72BF7i189nAcX1kEJLjGMsb0c.jpg",
      "popularity": 33.638,
      "adult": false,
      "known_for_department": "Acting"
    },
    {
      "id": 4726,
      "name": "Marcia Gay Harden",
      "profile_path": "/tP4GnvdKOwWnPjAO3f6e6HI1bhn.jpg",
      "popularity": 33.597,
      "adult": false,
      "known_for_department": "Acting"
    },
    {
      "id": 56457,
      "name": "Aimee Garcia",
      "profile_path": "/4z3mkoa8jHpqjzfbhzYMeKe2Mf7.jpg",
      "popularity": 33.588,
      "adult": false,
      "known_for_department": "Acting"
    },
    {
      "id": 62,
      "name": "Bruce Willis",
      "profile_path": "/caX3KtMU42EP3VLRFFBwqIIrch5.jpg",
      "popularity": 33.529,
      "adult": false,
      "known_for_department": "Acting"
    },
    {
      "id": 16828,
      "name": "Chris Evans",
      "profile_path": "/3bOGNsHlrswhyW79uvIHH1V43JI.jpg",
      "popularity": 33.51,
      "adult": false,
      "known_for_department": "Acting"
    },
    {
      "id": 1914924,
      "name": "Miles Wei",
      "profile_path": "/fT4v4LTDXGEFGHe7ZAaRTtqBFYM.jpg",
      "popularity": 33.506,
      "adult": false,
      "known_for_department": "Acting"
    },
    {
      "id": 4960,
      "name": "Charles Bronson",
      "profile_path": "/w0C2Xa6PCQX83Iu2TxPjOCv8ufm.jpg",
      "popularity": 33.502,
      "adult": false,
      "known_for_department": "Acting"
    }
  ]
}