{
  "page": 352,
  "total_results": 10000,
  "total_pages": 500,
  "results": [
    {
      "id": 1024234,
      "name": "Tonia Sotiropoulou",
      "profile_path": "/2zKOqvrpWyYRUKigsxkiQkGLIqm.jpg",
      "popularity": 9.905,
      "adult": false,
      "known_for_department": "Acting"
    },
    {
      "id": 86924,
      "name": "Leigh-Allyn Baker",
      "profile_path": "/jUpelgk0Lehi6jUtUBuqtyVO5Pv.jpg",
      "popularity": 9.905,
      "adult": false,
      "known_for_department": "Acting"
    },
    {
      "id": 80018,
      "name": "Rachel Skarsten",
      "profile_path": "/bgeqmHfkeFYMXaqr6ReSfN1TWOG.jpg",
      "popularity": 9.905,
      "adult": false,
      "known_for_department": "Acting"
    },
    {
      "id": 43138,
      "name": "Ian McElhinney",
      "profile_path": "/xkKicrls0SEYP3kAaKhyWnd395S.jpg",
      "popularity": 9.905,
      "adult": false,
      "known_for_department": "Acting"
    },
    {
      "id": 2166026,
      "name": "Park Hoon",
      "profile_path": "/1fVcI5O31gu3SlQKyocZ5fGPSdg.jpg",
      "popularity": 9.904,
      "adult": false,
      "known_for_department": "Acting"
    },
    {
      "id": 113809,
      "name": "Kajal Agarwal",
      "profile_path": "/wDzYjnDRNzyigCPBEwc9gf1hZ0Q.jpg",
      "popularity": 9.904,
      "adult": false,
      "known_for_department": "Acting"
    },
    {
      "id": 32029,
      "name": "Bill Sage",
      "profile_path": "/2uQv1NMnGrqqhBMKTm5RBCKh7UV.jpg",
      "popularity": 9.904,
      "adult": false,
      "known_for_department": "Acting"
    },
    {
      "id": 7063,
      "name": "Nina Sosanya",
      "profile_path": "/nKqRWTF8hCsyjiSRCNMyShbmvrg.jpg",
      "popularity": 9.904,
      "adult": false,
      "known_for_department": "Acting"
    },
    {
      "id": 1123505,
      "name": "Kim Jung-nan",
      "profile_path": "/3YzhO1vEURcvmlygJtrPrwNJYjZ.jpg",
      "popularity": 9.902,
      "adult": false,
      "known_for_department": "Acting"
    },
    {
      "id": 89599,
      "name": "Eric Bauza",
      "profile_path": "/afOlsVPQxbtkom604MeCemjlwEV.jpg",
      "popularity": 9.902,
      "adult": false,
      "known_for_department": "Acting"
    },
    {
      "id": 184955,
      "name": "Gabrielle Drake",
      "profile_path": "/xFOxjDfrXq81rxw3BuqkEk1UBfF.jpg",
      "popularity": 9.901,
      "adult": false,
      "known_for_department": "Acting"
    },
    {
      "id": 78878,
      "name": "Xing Yu",
      "profile_path": "/tsbmvldckYiFPeDfFSvgzNrJsUK.jpg",
      "popularity": 9.9,
      "adult": false,
      "known_for_department": "Acting"
    },
    {
      "id": 587869,
      "name": "Frank Iero",
      "profile_path": "/xClhdqCv9u8LiIbPLpvzJxWRNeb.jpg",
      "popularity": 9.899,
      "adult": false,
      "known_for_department": "Acting"
    },
    {
      "id": 1502016,
      "name": "Luna Wedler",
      "profile_path": "/2mJaRot3RKFFQvlkAgR2w9idl3K.jpg",
      "popularity": 9.897,
      "adult": false,
      "known_for_department": "Acting"
    },
    {
      "id": 1220947,
      "name": "Ami Koshimizu",
      "profile_path": "/e5sU0stGjTMtFoj0jjHH7OFUqYC.jpg",
      "popularity": 9.897,
      "adult": false,
      "known_for_department": "Acting"
    },
    {
      "id": 234923,
      "name": "Alfred Enoch",
      "profile_path": "/eEVvPHmxRBcEGqtoTujncmwNDhR.jpg",
      "popularity": 9.897,
      "adult": false,
      "known_for_department": "Acting"
    },
    {
      "id": 221981,
      "name": "Antonia Thomas",
      "profile_path": "/ybmnPYUzcr3RMdaXnZIw2jEw9ju.jpg",
      "popularity": 9.897,
      "adult": false,
      "known_for_department": "Acting"
    },
    {
      "id": 1930511,
      "name": "Kubilay Aka",
      "profile_path": "/xGNSyU6zJKcVAGsx0hFXkMcZqkJ.jpg",
      "popularity": 9.895,
      "adult": false,
      "known_for_department": "Acting"
    },
    {
      "id": 1691384,
      "name": "Lynn",
      "profile_path": "/kFyuszD3uS5rX4GGf1U5OM5exur.jpg",
      "popularity": 9.894,
      "adult": false,
      "known_for_department": "Acting"
    },
    {
      "id": 221944,
      "name": "Katie Aselton",
      "profile_path": "/4kFwHnj9VpVpNoMpD0xduerFKS.jpg",
      "popularity": 9.894,
      "adult": false,
      "known_for_department": "Acting"
    }
  ]
}