{
  "page": 383,
  "total_results": 10000,
  "total_pages": 500,
  "results": [
    {
      "id": 1417739,
      "name": "Pico Alexander",
      "profile_path": "/jhh38xor4lGRYEz29KVbMUEZw3c.jpg",
      "popularity": 7.982,
      "adult": false,
      "known_for_department": "Acting"
    },
    {
      "id": 3126,
      "name": "Ione Skye",
      "profile_path": "/ye8qsi6fn51HW93c7065Jogbh9p.jpg",
      "popularity": 7.981,
      "adult": false,
      "known_for_department": "Acting"
    },
    {
      "id": 2968,
      "name": "Richard Lintern",
      "profile_path": "/qYfmDezPYguD45T3fKulyB8tHUv.jpg",
      "popularity": 7.981,
      "adult": false,
      "known_for_department": "Acting"
    },
    {
      "id": 64297,
      "name": "Pej Vahdat",
      "profile_path": "/aFxI4rU0m2XuLHp9ZqAzuYMLIRQ.jpg",
      "popularity": 7.98,
      "adult": false,
      "known_for_department": "Acting"
    },
    {
      "id": 124546,
      "name": "John Wesley Shipp",
      "profile_path": "/pL60jl0QdKx9oESZqRzA3kiXXbs.jpg",
      "popularity": 7.977,
      "adult": false,
      "known_for_department": "Acting"
    },
    {
      "id": 55364,
      "name": "Steven Robertson",
      "profile_path": "/aJFkWzmeJ8SgIiNCpgvgo5LDXDp.jpg",
      "popularity": 7.977,
      "adult": false,
      "known_for_department": "Acting"
    },
    {
      "id": 29446,
      "name": "Armin Shimerman",
      "profile_path": "/ntubNSuRnJ7icAEGj6JYEeguzTn.jpg",
      "popularity": 7.977,
      "adult": false,
      "known_for_department": "Acting"
    },
    {
      "id": 9260,
      "name": "Michelle Nicastro",
      "profile_path": "/cU32AXOXyLY8jXlwzWStI7C83s8.jpg",
      "popularity": 7.977,
      "adult": false,
      "known_for_department": "Acting"
    },
    {
      "id": 1212530,
      "name": "Carol Ann Susi",
      "profile_path": "/9O1sHiZOzNjR4hRcvXugtWxx5hD.jpg",
      "popularity": 7.976,
      "adult": false,
      "known_for_department": "Acting"
    },
    {
      "id": 1173805,
      "name": "Zhang Zifeng",
      "profile_path": "/euvYx4dM8PeGlYBEHQm9CqMMM8k.jpg",
      "popularity": 7.976,
      "adult": false,
      "known_for_department": "Acting"
    },
    {
      "id": 32799,
      "name": "Angela Bettis",
      "profile_path": "/yckzGBCLr5cYaScOZrd4MR1aMqq.jpg",
      "popularity": 7.976,
      "adult": false,
      "known_for_department": "Acting"
    },
    {
      "id": 1449596,
      "name": "Jaz Sinclair",
      "profile_path": "/eReY9KBXXFpcEyTg7M882AE9qiZ.jpg",
      "popularity": 7.974,
      "adult": false,
      "known_for_department": "Acting"
    },
    {
      "id": 20667,
      "name": "Sami Bouajila",
      "profile_path": "/xq8TMMCA4RI2omGxbPtLVsBMWX8.jpg",
      "popularity": 7.974,
      "adult": false,
      "known_for_department": "Acting"
    },
    {
      "id": 5320,
      "name": "Leslie Caron",
      "profile_path": "/8KaogFPimucFHFyUkdA0c0Bym5C.jpg",
      "popularity": 7.974,
      "adult": false,
      "known_for_department": "Acting"
    },
    {
      "id": 1375002,
      "name": "Sunita Mani",
      "profile_path": "/xQo4rkMEphSAt8F9D1OyWv0GBLx.jpg",
      "popularity": 7.97,
      "adult": false,
      "known_for_department": "Acting"
    },
    {
      "id": 553173,
      "name": "Noriko Kijima",
      "profile_path": "/hEvoP27BwLYVvrTUKHJeZVb5d1g.jpg",
      "popularity": 7.97,
      "adult": false,
      "known_for_department": "Acting"
    },
    {
      "id": 150806,
      "name": "Milena Tscharntke",
      "profile_path": "/ikBWLaIjfqtcCjUwIisPLHaMh3P.jpg",
      "popularity": 7.97,
      "adult": false,
      "known_for_department": "Acting"
    },
    {
      "id": 1282045,
      "name": "Uğur Güneş",
      "profile_path": "/1Honk8GOcASvntmc1U29l02TTGo.jpg",
      "popularity": 7.969,
      "adult": false,
      "known_for_department": "Acting"
    },
    {
      "id": 26292,
      "name": "David Dorfman",
      "profile_path": "/6DoBfsNmZnbwGbjHXPTx1sVG48U.jpg",
      "popularity": 7.969,
      "adult": false,
      "known_for_department": "Acting"
    },
    {
      "id": 135409,
      "name": "Brigid Brannagh",
      "profile_path": "/p7FD0q7Uvio1CK5eirJbDDmMNqX.jpg",
      "popularity": 7.968,
      "adult": false,
      "known_for_department": "Acting"
    }
  ]
}