{
  "page": 369,
  "total_results": 10000,
  "total_pages": 500,
  "results": [
    {
      "id": 58517,
      "name": "Bonnie Morgan",
      "profile_path": "/qei8xuAPtJlZzY3hfRN81fxndUR.jpg",
      "popularity": 8.969,
      "adult": false,
      "known_for_department": "Acting"
    },
    {
      "id": 1882314,
      "name": "Seo Eun-Soo",
      "profile_path": "/gtCHxppgfgwHtYsnlKONN7Ayy0z.jpg",
      "popularity": 8.968,
      "adult": false,
      "known_for_department": "Acting"
    },
    {
      "id": 1267375,
      "name": "Anna Akana",
      "profile_path": "/taJmE5h3inYhvrLXO7Dq9IMGhEp.jpg",
      "popularity": 8.967,
      "adult": false,
      "known_for_department": "Acting"
    },
    {
      "id": 1345418,
      "name": "Lola Kirke",
      "profile_path": "/xXEBb9OoET7SgtkSmh1XtMs5YKC.jpg",
      "popularity": 8.965,
      "adult": false,
      "known_for_department": "Acting"
    },
    {
      "id": 1258747,
      "name": "Eda Ece",
      "profile_path": "/kEBGhW3mhNKJReKYEYTQlSH6R3S.jpg",
      "popularity": 8.965,
      "adult": false,
      "known_for_department": "Acting"
    },
    {
      "id": 8452,
      "name": "Andrei Tarkovsky",
      "profile_path": "/j0toVLrgLNuyGnUxGPnSfnPiSf5.jpg",
      "popularity": 8.965,
      "adult": false,
      "known_for_department": "Directing"
    },
    {
      "id": 1710705,
      "name": "Sayoko Nakajima",
      "profile_path": "/b3cAHoczSZgzkfRB3V4jRbf7LQt.jpg",
      "popularity": 8.964,
      "adult": false,
      "known_for_department": "Acting"
    },
    {
      "id": 31006,
      "name": "Troy Evans",
      "profile_path": "/53LPb3I0NLxG5bxYAEhMxK8RvJL.jpg",
      "popularity": 8.964,
      "adult": false,
      "known_for_department": "Acting"
    },
    {
      "id": 12259,
      "name": "Vittorio Gassman",
      "profile_path": "/pbpxHSAkFJpI4ys3yc0qMz8oapj.jpg",
      "popularity": 8.964,
      "adult": false,
      "known_for_department": "Acting"
    },
    {
      "id": 65300,
      "name": "Sarah Rose Karr",
      "profile_path": "/1AD1yCTMduGlrEAG1Gv9lx8R5ym.jpg",
      "popularity": 8.963,
      "adult": false,
      "known_for_department": "Acting"
    },
    {
      "id": 27888,
      "name": "Raúl Juliá",
      "profile_path": "/rC9ALBVjGMWQEFtRiIS20Ps38dq.jpg",
      "popularity": 8.963,
      "adult": false,
      "known_for_department": "Acting"
    },
    {
      "id": 1603600,
      "name": "Patricia López Arnaiz",
      "profile_path": "/7fWsjnIi3xfxPzXExkwQMVUUusz.jpg",
      "popularity": 8.962,
      "adult": false,
      "known_for_department": "Acting"
    },
    {
      "id": 239721,
      "name": "Rufina Nifontova",
      "profile_path": "/qNcaGtr6C3PDdMCBXDJLTdMXkPU.jpg",
      "popularity": 8.962,
      "adult": false,
      "known_for_department": "Acting"
    },
    {
      "id": 72132,
      "name": "Danny Pino",
      "profile_path": "/hIWkxCMb5rewSuMpdE2xbpadjcZ.jpg",
      "popularity": 8.962,
      "adult": false,
      "known_for_department": "Acting"
    },
    {
      "id": 1295762,
      "name": "Keerthy Suresh",
      "profile_path": "/fTdgSinsAitdujBBEUEA72GY0pv.jpg",
      "popularity": 8.961,
      "adult": false,
      "known_for_department": "Acting"
    },
    {
      "id": 4286,
      "name": "Emma de Caunes",
      "profile_path": "/4SGij5jBQNznmVxBHDBtc8gUD2v.jpg",
      "popularity": 8.961,
      "adult": false,
      "known_for_department": "Acting"
    },
    {
      "id": 1221085,
      "name": "Jessica Sula",
      "profile_path": "/2lLET7EhRy98ad5Mgc9jMk4Sb0S.jpg",
      "popularity": 8.96,
      "adult": false,
      "known_for_department": "Acting"
    },
    {
      "id": 147255,
      "name": "Tony Way",
      "profile_path": "/u48ePSGsP1ww2VmPgNXgog3IM83.jpg",
      "popularity": 8.96,
      "adult": false,
      "known_for_department": "Acting"
    },
    {
      "id": 11011,
      "name": "Zak Penn",
      "profile_path": "/5Zx3o1Fmlu4sIYq4xn5WLyK2GNM.jpg",
      "popularity": 8.959,
      "adult": false,
      "known_for_department": "Writing"
    },
    {
      "id": 558267,
      "name": "Pharrell Williams",
      "profile_path": "/vbgFf9k1VE0WLWqQFOQ2nohJlLz.jpg",
      "popularity": 8.956,
      "adult": false,
      "known_for_department": "Acting"
    }
  ]
}