{
  "page": 298,
  "total_results": 10000,
  "total_pages": 500,
  "results": [
    {
      "id": 1215925,
      "name": "Marsha Hunt",
      "profile_path": "/j3puYHooaHgKqafAWWrc0OxZyJW.jpg",
      "popularity": 6.645,
      "adult": false,
      "known_for_department": "Acting"
    },
    {
      "id": 87404,
      "name": "Robert Winley",
      "profile_path": "",
      "popularity": 8.123,
      "adult": false,
      "known_for_department": "Acting"
    },
    {
      "id": 89043,
      "name": "Lois Nettleton",
      "profile_path": "/t5D77KMgww026u5WOcri8FsPJNg.jpg",
      "popularity": 13.322,
      "adult": false,
      "known_for_department": "Acting"
    },
    {
      "id": 52646,
      "name": "Vincent Kartheiser",
      "profile_path": "/n1kHTSY6cnM4mQXkWQV0jQQXglP.jpg",
      "popularity": 10.521,
      "adult": false,
      "known_for_department": "Acting"
    },
    {
      "id": 98394,
      "name": "Affion Crockett",
      "profile_path": "/iAJZRJhXk6Ki6TLSluv1k66Oizz.jpg",
      "popularity": 6.921,
      "adult": false,
      "known_for_department": "Acting"
    },
    {
      "id": 63937,
      "name": "Albert Pyun",
      "profile_path": "/c1lkhBrHiqn5pD0Cm0zg0UU7hHF.jpg",
      "popularity": 7.721,
      "adult": false,
      "known_for_department": "Directing"
    },
    {
      "id": 58511,
      "name": "Brian George",
      "profile_path": "/mHjc58pfKkxtghhliPOnNz0SlcT.jpg",
      "popularity": 14.921,
      "adult": false,
      "known_for_department": "Acting"
    },
    {
      "id": 113529,
      "name": "Jon Morrison",
      "profile_path": "/28eb3hQ2ynvK4IBNZJSO2AGlpto.jpg",
      "popularity": 8.521,
      "adult": false,
      "known_for_department": "Acting"
    },
    {
      "id": 928327,
      "name": "Chandler Massey",
      "profile_path": "/wmxK53B57tig0Vyrp8yhqcizYuU.jpg",
      "popularity": 8.52,
      "adult": false,
      "known_for_department": "Acting"
    },
    {
      "id": 27771,
      "name": "Tim Reid",
      "profile_path": "/zUqFVuSPBK09YVvCIxKkAOtoM8m.jpg",
      "popularity": 10.92,
      "adult": false,
      "known_for_department": "Acting"
    },
    {
      "id": 9998,
      "name": "Joey Slotnick",
      "profile_path": "/AbQMBdomzhuqKC27LVWkurWfIms.jpg",
      "popularity": 10.92,
      "adult": false,
      "known_for_department": "Acting"
    },
    {
      "id": 5401,
      "name": "Anthony Quinn",
      "profile_path": "/kw9uwpEa2QduS7EfIjeReq73Rd7.jpg",
      "popularity": 12.12,
      "adult": false,
      "known_for_department": "Acting"
    },
    {
      "id": 1298360,
      "name": "Laverne Cox",
      "profile_path": "/9Z1l4AO4gt2zohqKLyggU3c7rid.jpg",
      "popularity": 9.319,
      "adult": false,
      "known_for_department": "Acting"
    },
    {
      "id": 36068,
      "name": "Bianca Lawson",
      "profile_path": "/21BrU2smqW8LPBp7z9jIjEtnCUi.jpg",
      "popularity": 10.119,
      "adult": false,
      "known_for_department": "Acting"
    },
    {
      "id": 2022,
      "name": "Catherine Hicks",
      "profile_path": "/eGgCeUbtsq69nCPG1w7vU7DzJpO.jpg",
      "popularity": 11.319,
      "adult": false,
      "known_for_department": "Acting"
    },
    {
      "id": 228330,
      "name": "Jon Cor",
      "profile_path": "/6xVyHRK971bIBh4cB7zY1nyxhOe.jpg",
      "popularity": 10.118,
      "adult": false,
      "known_for_department": "Acting"
    },
    {
      "id": 200043,
      "name": "Kurt Sutter",
      "profile_path": "/A4c9xpj2VuZXGvSv6z1S912Xwnd.jpg",
      "popularity": 10.918,
      "adult": false,
      "known_for_department": "Writing"
    },
    {
      "id": 35793,
      "name": "Abhishek Bachchan",
      "profile_path": "/o2hWC004VnRyGLOgg8OjiP1Ch5A.jpg",
      "popularity": 8.118,
      "adult": false,
      "known_for_department": "Acting"
    },
    {
      "id": 1731961,
      "name": "Ruairí O'Connor",
      "profile_path": "/abf9bZJgMnpeCNsp18Aj2y80WOc.jpg",
      "popularity": 10.918,
      "adult": false,
      "known_for_department": "Acting"
    },
    {
      "id": 33337,
      "name": "Eric Johnson",
      "profile_path": "/xBifjKXfvZhYYx6P6dDaIvYIzVq.jpg",
      "popularity": 10.518,
      "adult": false,
      "known_for_department": "Acting"
    }
  ]
}