{
  "page": 424,
  "total_results": 10000,
  "total_pages": 500,
  "results": [
    {
      "id": 36820,
      "name": "Jenny Seagrove",
      "profile_path": "/ihbxiN3aWehDcF5RZB3gGVsiTjN.jpg",
      "popularity": 9.922,
      "adult": false,
      "known_for_department": "Acting"
    },
    {
      "id": 9828,
      "name": "Garrett Hedlund",
      "profile_path": "/v5gztlEVgGJEQVp1Mf7URJJBuop.jpg",
      "popularity": 9.922,
      "adult": false,
      "known_for_department": "Acting"
    },
    {
      "id": 1470403,
      "name": "Jenny Raven",
      "profile_path": "/l4NNS5FB9sNAkgfkxYUYpQ5ix0L.jpg",
      "popularity": 9.92,
      "adult": false,
      "known_for_department": "Acting"
    },
    {
      "id": 158609,
      "name": "Lesley Ewen",
      "profile_path": "/giNlLPIhIJIXa4jK9pv63BTCC82.jpg",
      "popularity": 9.918,
      "adult": false,
      "known_for_department": "Acting"
    },
    {
      "id": 64358,
      "name": "Dan Chupong",
      "profile_path": "/sMr7LsI1cDv8Rfg08B5gEH4wldi.jpg",
      "popularity": 9.917,
      "adult": false,
      "known_for_department": "Acting"
    },
    {
      "id": 40275,
      "name": "Tim Guinee",
      "profile_path": "/rS2K7cJx6Vm2buE0HhIUp9tuC1g.jpg",
      "popularity": 9.917,
      "adult": false,
      "known_for_department": "Acting"
    },
    {
      "id": 53904,
      "name": "Johan Leysen",
      "profile_path": "/pCBvrMKTNo6cqC63qDSipbtt2Rs.jpg",
      "popularity": 9.915,
      "adult": false,
      "known_for_department": "Acting"
    },
    {
      "id": 41224,
      "name": "Jack O'Halloran",
      "profile_path": "/e7mGR37EUMd0JgIbvKxg871LR4e.jpg",
      "popularity": 9.914,
      "adult": false,
      "known_for_department": "Acting"
    },
    {
      "id": 1011102,
      "name": "Jesse Lee Soffer",
      "profile_path": "/9UUAzXCwWx8Un6XJ2z1Mh5XyEU6.jpg",
      "popularity": 9.913,
      "adult": false,
      "known_for_department": "Acting"
    },
    {
      "id": 87733,
      "name": "Paul Chun",
      "profile_path": "/v1G2sIZzKDBcex2nFKpNk9SVBD0.jpg",
      "popularity": 9.913,
      "adult": false,
      "known_for_department": "Acting"
    },
    {
      "id": 1729496,
      "name": "Thomas Doherty",
      "profile_path": "/z3vAK2Z2W4hh3QZRGyGcz9g2TaQ.jpg",
      "popularity": 9.912,
      "adult": false,
      "known_for_department": "Acting"
    },
    {
      "id": 123989,
      "name": "Anaïs Demoustier",
      "profile_path": "/kObYOu3UYkNcQGg1gnl4xitwhNc.jpg",
      "popularity": 9.912,
      "adult": false,
      "known_for_department": "Acting"
    },
    {
      "id": 99846,
      "name": "Shô Kosugi",
      "profile_path": "/cdoP2qnJILJlWT4xvYDxg2doaf6.jpg",
      "popularity": 9.912,
      "adult": false,
      "known_for_department": "Acting"
    },
    {
      "id": 94064,
      "name": "Svetlana Khodchenkova",
      "profile_path": "/xldEh62hTjgxcmJPAyDeBnwKFCg.jpg",
      "popularity": 9.912,
      "adult": false,
      "known_for_department": "Acting"
    },
    {
      "id": 10480,
      "name": "Denis Arndt",
      "profile_path": "/sNE3BkuIyueLgekEVxpyQgbbWTN.jpg",
      "popularity": 9.912,
      "adult": false,
      "known_for_department": "Acting"
    },
    {
      "id": 77462,
      "name": "Kam Heskin",
      "profile_path": "/gMcI1ImTKySqTcctF8T4rA3H7lT.jpg",
      "popularity": 9.911,
      "adult": false,
      "known_for_department": "Acting"
    },
    {
      "id": 18981,
      "name": "Amanda Bearse",
      "profile_path": "/vsigj6WmFdm6w7O7uA7UOWuxuxG.jpg",
      "popularity": 9.911,
      "adult": false,
      "known_for_department": "Directing"
    },
    {
      "id": 1246933,
      "name": "Erika Jordan",
      "profile_path": "/mT6ed9B0cfGxfoshsNMYv6t4Flg.jpg",
      "popularity": 9.91,
      "adult": false,
      "known_for_department": "Acting"
    },
    {
      "id": 126881,
      "name": "Gong Hyo-jin",
      "profile_path": "/hM5yRtYzL19TpskQDNmFUWruJDV.jpg",
      "popularity": 9.91,
      "adult": false,
      "known_for_department": "Acting"
    },
    {
      "id": 1222219,
      "name": "Julie McNiven",
      "profile_path": "/i4rZ5i9S9emYFqsJrAtT0n1WYXo.jpg",
      "popularity": 9.909,
      "adult": false,
      "known_for_department": "Acting"
    }
  ]
}