{
  "page": 480,
  "total_results": 10000,
  "total_pages": 500,
  "results": [
    {
      "id": 24899,
      "name": "Mónica Cruz",
      "profile_path": "/wo4LpJpbSIQ6lmg4emLOHlVTvAb.jpg",
      "popularity": 6.994,
      "adult": false,
      "known_for_department": "Acting"
    },
    {
      "id": 1965217,
      "name": "Pamir Pekin",
      "profile_path": "/gsbXAVrcDHfGOc35mxSm1OrjpcI.jpg",
      "popularity": 6.993,
      "adult": false,
      "known_for_department": "Acting"
    },
    {
      "id": 1220754,
      "name": "Bree Williamson",
      "profile_path": "/ho68bDjFcGc7paHP9zePzXSmACP.jpg",
      "popularity": 6.993,
      "adult": false,
      "known_for_department": "Acting"
    },
    {
      "id": 1616830,
      "name": "Ding Hai Feng",
      "profile_path": "/v2tTs7AO8xJ2AM3dydlLN2cmNMQ.jpg",
      "popularity": 6.992,
      "adult": false,
      "known_for_department": "Acting"
    },
    {
      "id": 1282320,
      "name": "Çağlar Ertuğrul",
      "profile_path": "/fKeRJeP7KI8yx0bfN3s2jHpVwUi.jpg",
      "popularity": 6.992,
      "adult": false,
      "known_for_department": "Acting"
    },
    {
      "id": 112473,
      "name": "Samantha Boscarino",
      "profile_path": "/it9bf96WWT3HxiwSdtOyzt4bMci.jpg",
      "popularity": 6.992,
      "adult": false,
      "known_for_department": "Acting"
    },
    {
      "id": 83928,
      "name": "Rie Kugimiya",
      "profile_path": "/5uxG4tsx8vCfxI8yr1RoeDkrsDg.jpg",
      "popularity": 6.992,
      "adult": false,
      "known_for_department": "Acting"
    },
    {
      "id": 82604,
      "name": "Howie Dorough",
      "profile_path": "/b3Bvd5uIL64G9iXPgcQzbC5KVSC.jpg",
      "popularity": 6.992,
      "adult": false,
      "known_for_department": "Acting"
    },
    {
      "id": 10279,
      "name": "Adolf Hitler",
      "profile_path": "/n6f81IUSes1a8jTzUIF7rJ5zZnP.jpg",
      "popularity": 6.992,
      "adult": false,
      "known_for_department": "Acting"
    },
    {
      "id": 137971,
      "name": "Miranda Frigon",
      "profile_path": "/44VovG3Gm0NGyHAhgyKla4RcHnw.jpg",
      "popularity": 6.991,
      "adult": false,
      "known_for_department": "Acting"
    },
    {
      "id": 115792,
      "name": "Masako Katsuki",
      "profile_path": "/szBdXm77jVvvHLaDoxEs9Nl9dtF.jpg",
      "popularity": 6.991,
      "adult": false,
      "known_for_department": "Acting"
    },
    {
      "id": 89042,
      "name": "Susanne Blakeslee",
      "profile_path": "/5s4vquKADCS90iOiEwgCTZkaQjX.jpg",
      "popularity": 6.991,
      "adult": false,
      "known_for_department": "Acting"
    },
    {
      "id": 1951961,
      "name": "Yasmine Sabri",
      "profile_path": "/dbGCy3AuKnSPtkAPGHU7Cgz7Wf0.jpg",
      "popularity": 6.99,
      "adult": false,
      "known_for_department": "Acting"
    },
    {
      "id": 1225804,
      "name": "Tatum McCann",
      "profile_path": "/1MdjMMaf016Pf1hSQyDJ7TLvSHC.jpg",
      "popularity": 6.99,
      "adult": false,
      "known_for_department": "Acting"
    },
    {
      "id": 10679,
      "name": "Carey Lowell",
      "profile_path": "/nNfJD8JESNzsTt3PU6npwWg5aqi.jpg",
      "popularity": 6.99,
      "adult": false,
      "known_for_department": "Acting"
    },
    {
      "id": 1570789,
      "name": "Seo Ha-jun",
      "profile_path": "/hGkSUiTAkT3qIbCjed57ejfiLx9.jpg",
      "popularity": 6.989,
      "adult": false,
      "known_for_department": "Acting"
    },
    {
      "id": 1261476,
      "name": "Carlos Cuevas",
      "profile_path": "/zcsTMce8pgvFcebptplUgNlFt3j.jpg",
      "popularity": 6.989,
      "adult": false,
      "known_for_department": "Acting"
    },
    {
      "id": 1258702,
      "name": "Sadie Calvano",
      "profile_path": "/5yJ3kG30CFTVdo7qlt4IlO7Z0Ci.jpg",
      "popularity": 6.989,
      "adult": false,
      "known_for_department": "Acting"
    },
    {
      "id": 70881,
      "name": "Alan Cox",
      "profile_path": "/kvIuMs9Oif3Ik05OLdSZcvdDA5o.jpg",
      "popularity": 6.989,
      "adult": false,
      "known_for_department": "Acting"
    },
    {
      "id": 1522758,
      "name": "Sam Strike",
      "profile_path": "/xX6aB2rH84LiwPB4c25iPTzMB9t.jpg",
      "popularity": 6.988,
      "adult": false,
      "known_for_department": "Acting"
    }
  ]
}