{
  "page": 13,
  "total_results": 10000,
  "total_pages": 500,
  "results": [
    {
      "id": 11511,
      "name": "Daniel Stern",
      "profile_path": "/939oerf8bJPrqT2a0N0oGuM1bjn.jpg",
      "popularity": 41.542,
      "adult": false,
      "known_for_department": "Acting"
    },
    {
      "id": 1834433,
      "name": "Hani",
      "profile_path": "/6TZ49EFsCbA9eD1Y4BO9T0Ejpbr.jpg",
      "popularity": 41.531,
      "adult": false,
      "known_for_department": "Acting"
    },
    {
      "id": 5293,
      "name": "Willem Dafoe",
      "profile_path": "/ui8e4sgZAwMPi3hzEO53jyBJF9B.jpg",
      "popularity": 41.487,
      "adult": false,
      "known_for_department": "Acting"
    },
    {
      "id": 18702,
      "name": "Mark Dacascos",
      "profile_path": "/trOACuJz1KzhB51qe6asaxRuxrh.jpg",
      "popularity": 41.355,
      "adult": false,
      "known_for_department": "Acting"
    },
    {
      "id": 4724,
      "name": "Kevin Bacon",
      "profile_path": "/rjX2Oz3tCZMfSwOoIAyEhdtXnTE.jpg",
      "popularity": 41.283,
      "adult": false,
      "known_for_department": "Acting"
    },
    {
      "id": 209578,
      "name": "Laura Haddock",
      "profile_path": "/6kRUvA7N3pMzznG9PdiqCOvxhGQ.jpg",
      "popularity": 41.172,
      "adult": false,
      "known_for_department": "Acting"
    },
    {
      "id": 1360281,
      "name": "Lashana Lynch",
      "profile_path": "/ypNxRag9uJ5nzPAN2um3amQK340.jpg",
      "popularity": 41.101,
      "adult": false,
      "known_for_department": "Acting"
    },
    {
      "id": 29222,
      "name": "Zac Efron",
      "profile_path": "/6oXNHv7gAyXXYFpF943pKRsTtqQ.jpg",
      "popularity": 41.065,
      "adult": false,
      "known_for_department": "Acting"
    },
    {
      "id": 70851,
      "name": "Jack Black",
      "profile_path": "/rtCx0fiYxJVhzXXdwZE2XRTfIKE.jpg",
      "popularity": 40.938,
      "adult": false,
      "known_for_department": "Acting"
    },
    {
      "id": 9780,
      "name": "Angela Bassett",
      "profile_path": "/7Oz53NKdglRzAzI2MKjM3eQXwn.jpg",
      "popularity": 40.884,
      "adult": false,
      "known_for_department": "Acting"
    },
    {
      "id": 117642,
      "name": "Jason Momoa",
      "profile_path": "/6dEFBpZH8C8OijsynkSajQT99Pb.jpg",
      "popularity": 40.861,
      "adult": false,
      "known_for_department": "Acting"
    },
    {
      "id": 2224,
      "name": "Christian Slater",
      "profile_path": "/6ww3uweEEXMlvtNjTlgBHxLErPF.jpg",
      "popularity": 40.859,
      "adult": false,
      "known_for_department": "Acting"
    },
    {
      "id": 17628,
      "name": "Mary Elizabeth Winstead",
      "profile_path": "/vQn6IGsClpyhV6KTba9EDqSK7e2.jpg",
      "popularity": 40.833,
      "adult": false,
      "known_for_department": "Acting"
    },
    {
      "id": 83002,
      "name": "Jessica Chastain",
      "profile_path": "/mR1ELpP0T2Q1ZRSaADPgtrbPGla.jpg",
      "popularity": 40.832,
      "adult": false,
      "known_for_department": "Acting"
    },
    {
      "id": 3380426,
      "name": "Sarocha Chankimha",
      "profile_path": "/x83OW2V6ciNacBCVy3HfigYMkML.jpg",
      "popularity": 40.734,
      "adult": false,
      "known_for_department": "Acting"
    },
    {
      "id": 2189049,
      "name": "Joy Sunday",
      "profile_path": "/fTajkqbVGMU4O2LMteuYlffhfJI.jpg",
      "popularity": 40.68,
      "adult": false,
      "known_for_department": "Acting"
    },
    {
      "id": 658,
      "name": "Alfred Molina",
      "profile_path": "/nJo91Czesn6z0d0pkfbDoVZY3sg.jpg",
      "popularity": 40.588,
      "adult": false,
      "known_for_department": "Acting"
    },
    {
      "id": 10882,
      "name": "Rosamund Pike",
      "profile_path": "/8ObNklHDi2hjdz0ayzJFB9jtqzm.jpg",
      "popularity": 40.358,
      "adult": false,
      "known_for_department": "Acting"
    },
    {
      "id": 7056,
      "name": "Emma Thompson",
      "profile_path": "/xr8Ki3CIqweWWqS5q0kUYdiK6oQ.jpg",
      "popularity": 40.324,
      "adult": false,
      "known_for_department": "Acting"
    },
    {
      "id": 1003,
      "name": "Jean Reno",
      "profile_path": "/q7dYamebioHRuvb9EWeSw8yTEfS.jpg",
      "popularity": 40.322,
      "adult": false,
      "known_for_department": "Acting"
    }
  ]
}