{
  "page": 305,
  "total_results": 10000,
  "total_pages": 500,
  "results": [
    {
      "id": 14253,
      "name": "Slim Pickens",
      "profile_path": "/k4gIlBO0kGjibi8b4cPXIsPTjx0.jpg",
      "popularity": 10.277,
      "adult": false,
      "known_for_department": "Acting"
    },
    {
      "id": 8175,
      "name": "Thom Barry",
      "profile_path": "/9XhXqoqKqfQHZ5kGtuSkldcKYSF.jpg",
      "popularity": 10.276,
      "adult": false,
      "known_for_department": "Acting"
    },
    {
      "id": 608,
      "name": "Hayao Miyazaki",
      "profile_path": "/mG3cfxtA5jqDc7fpKgyzZMKoXDh.jpg",
      "popularity": 10.276,
      "adult": false,
      "known_for_department": "Directing"
    },
    {
      "id": 35070,
      "name": "Akshay Kumar",
      "profile_path": "/gaINfJtR19rNTIsI2cF3KFjyAB7.jpg",
      "popularity": 10.274,
      "adult": false,
      "known_for_department": "Acting"
    },
    {
      "id": 227137,
      "name": "Jean Garcia",
      "profile_path": "/kfTQNhhOjLIMUtFRpXHxVtxQPOz.jpg",
      "popularity": 10.273,
      "adult": false,
      "known_for_department": "Acting"
    },
    {
      "id": 726,
      "name": "Jack Weston",
      "profile_path": "/huxN66E1BVXEvyICtOlcRfEekLU.jpg",
      "popularity": 10.272,
      "adult": false,
      "known_for_department": "Acting"
    },
    {
      "id": 63934,
      "name": "Vincent Klyn",
      "profile_path": "/J6KgdQAdKm8LaOJKety2l1lWFh.jpg",
      "popularity": 10.271,
      "adult": false,
      "known_for_department": "Acting"
    },
    {
      "id": 1255846,
      "name": "Ashleigh Cummings",
      "profile_path": "/icnocQJuT8iukZmBQbWpQY7VT7g.jpg",
      "popularity": 10.27,
      "adult": false,
      "known_for_department": "Acting"
    },
    {
      "id": 203630,
      "name": "Alexia Fast",
      "profile_path": "/ei0X8e0LSQbnDAC4uUILWPSzQWP.jpg",
      "popularity": 10.27,
      "adult": false,
      "known_for_department": "Acting"
    },
    {
      "id": 134774,
      "name": "Wunmi Mosaku",
      "profile_path": "/mWDsVCo9sBcekrsjUTsoCFLhtYt.jpg",
      "popularity": 10.27,
      "adult": false,
      "known_for_department": "Acting"
    },
    {
      "id": 58068,
      "name": "Fionnula Flanagan",
      "profile_path": "/ee3vqFhrmKMRsqqHFLm1rcwGE93.jpg",
      "popularity": 10.27,
      "adult": false,
      "known_for_department": "Acting"
    },
    {
      "id": 41737,
      "name": "Tony Plana",
      "profile_path": "/vLt0vQfH07SWmAe5WuSwQB1do9e.jpg",
      "popularity": 10.27,
      "adult": false,
      "known_for_department": "Acting"
    },
    {
      "id": 240974,
      "name": "Keith Clifford",
      "profile_path": "/6Tz86zDSx2RxlKCRGB3nZs9x4j5.jpg",
      "popularity": 10.269,
      "adult": false,
      "known_for_department": "Acting"
    },
    {
      "id": 1952051,
      "name": "May Calamawy",
      "profile_path": "/i1yy5xxPE0bsvdJ3BgyLHGfk1c1.jpg",
      "popularity": 10.268,
      "adult": false,
      "known_for_department": "Acting"
    },
    {
      "id": 70093,
      "name": "Rebecka Liljeberg",
      "profile_path": "/r9R0aaIgZ35cwbyJYbKpxOJlIYJ.jpg",
      "popularity": 10.266,
      "adult": false,
      "known_for_department": "Acting"
    },
    {
      "id": 11111,
      "name": "Lucy Davis",
      "profile_path": "/A1ymILbxQA5w5TduCNaU0xD9C5a.jpg",
      "popularity": 10.265,
      "adult": false,
      "known_for_department": "Acting"
    },
    {
      "id": 147400,
      "name": "Lisa Ann Hadley",
      "profile_path": "/dOwGVq4DHEhwQcMkxIeGAo7KN5U.jpg",
      "popularity": 10.263,
      "adult": false,
      "known_for_department": "Acting"
    },
    {
      "id": 1340,
      "name": "Chen Daoming",
      "profile_path": "/fNM6dHasaUemuJUD59KwV6D9uEo.jpg",
      "popularity": 10.262,
      "adult": false,
      "known_for_department": "Acting"
    },
    {
      "id": 1044800,
      "name": "Jeong Man-sik",
      "profile_path": "/baINoANAu5iPrYz7cXTqPgeRTPe.jpg",
      "popularity": 10.261,
      "adult": false,
      "known_for_department": "Acting"
    },
    {
      "id": 3295424,
      "name": "Sab Aggabao",
      "profile_path": "/7copIlR1xIzE4KxTXj1N9CwNQlf.jpg",
      "popularity": 10.258,
      "adult": false,
      "known_for_department": "Acting"
    }
  ]
}