{
  "page": 499,
  "total_results": 10000,
  "total_pages": 500,
  "results": [
    {
      "id": 589027,
      "name": "Marie Hammer Boda",
      "profile_path": "/qJfPkYam5b2RoyCe592qeroizBL.jpg",
      "popularity": 7.332,
      "adult": false,
      "known_for_department": "Acting"
    },
    {
      "id": 82869,
      "name": "Toshiyuki Nagashima",
      "profile_path": "/xfL757VHSZg02HETRXGi3pS7XMr.jpg",
      "popularity": 7.332,
      "adult": false,
      "known_for_department": "Acting"
    },
    {
      "id": 1736257,
      "name": "Li Yitong",
      "profile_path": "/gVB17aDOgt1IpUWtYxIjkJnhKea.jpg",
      "popularity": 7.331,
      "adult": false,
      "known_for_department": "Acting"
    },
    {
      "id": 1305924,
      "name": "Shannon Tarbet",
      "profile_path": "/7NkO1KyK2kIxBTqpq5sxIcuMjtk.jpg",
      "popularity": 7.331,
      "adult": false,
      "known_for_department": "Acting"
    },
    {
      "id": 237276,
      "name": "Marina Dyuzheva",
      "profile_path": "/n0Wm8SE6Wn5oSTSjd92XcGBTWRI.jpg",
      "popularity": 7.33,
      "adult": false,
      "known_for_department": "Acting"
    },
    {
      "id": 236098,
      "name": "Kan Mikami",
      "profile_path": "/ufTL4PwFFvSOq5alpjnwUoOYnCD.jpg",
      "popularity": 7.33,
      "adult": false,
      "known_for_department": "Acting"
    },
    {
      "id": 1164460,
      "name": "Laetitia Dosch",
      "profile_path": "/yqRob7aTzMbekDiBSOTTfwaNNrM.jpg",
      "popularity": 7.329,
      "adult": false,
      "known_for_department": "Acting"
    },
    {
      "id": 125734,
      "name": "Lee Ki-young",
      "profile_path": "/zQlPXY8vusE72nPQwanRACveDdV.jpg",
      "popularity": 7.329,
      "adult": false,
      "known_for_department": "Acting"
    },
    {
      "id": 152660,
      "name": "Arlene Martel",
      "profile_path": "/9uGbqejFQvZF1ykAbxQNW6mxShd.jpg",
      "popularity": 7.328,
      "adult": false,
      "known_for_department": "Acting"
    },
    {
      "id": 15031,
      "name": "Patrick Breen",
      "profile_path": "/oGK78qN4cezMlG7VBvZ0QYh1Ui0.jpg",
      "popularity": 7.328,
      "adult": false,
      "known_for_department": "Acting"
    },
    {
      "id": 1293088,
      "name": "Uhm Ki-joon",
      "profile_path": "/3YMBbcfM392UY9SuQoR30R4D6CR.jpg",
      "popularity": 7.327,
      "adult": false,
      "known_for_department": "Acting"
    },
    {
      "id": 106127,
      "name": "Sara Suzanne Brown",
      "profile_path": "/wvaYxfnxstOxBcmwPrQDEXfd2hn.jpg",
      "popularity": 7.327,
      "adult": false,
      "known_for_department": "Acting"
    },
    {
      "id": 1674162,
      "name": "Jonathan Majors",
      "profile_path": "/6hI9NKqF7J6FtrQu9Afr7ZqipIL.jpg",
      "popularity": 7.326,
      "adult": false,
      "known_for_department": "Acting"
    },
    {
      "id": 82807,
      "name": "Lydia Leonard",
      "profile_path": "/hZyocFIvGrZxJD3sDxAtWvMjDyJ.jpg",
      "popularity": 7.326,
      "adult": false,
      "known_for_department": "Acting"
    },
    {
      "id": 30236,
      "name": "Cliff Edwards",
      "profile_path": "/kvXbe1rt4nRkxGYkLeVZldUDEaI.jpg",
      "popularity": 7.326,
      "adult": false,
      "known_for_department": "Acting"
    },
    {
      "id": 13250,
      "name": "Hidetoshi Nishijima",
      "profile_path": "/3FBdbeMMWfyKmHS5j8IECwsZWcY.jpg",
      "popularity": 7.326,
      "adult": false,
      "known_for_department": "Acting"
    },
    {
      "id": 77,
      "name": "Rudolf Klein-Rogge",
      "profile_path": "/ua4GhFTM7uQqlM0RnSXEZ5v1kVB.jpg",
      "popularity": 7.326,
      "adult": false,
      "known_for_department": "Acting"
    },
    {
      "id": 584542,
      "name": "Julia Sarah Stone",
      "profile_path": "/6PV9ZU6Xv7w1N2Pb8R9t9V9pIIa.jpg",
      "popularity": 7.325,
      "adult": false,
      "known_for_department": "Acting"
    },
    {
      "id": 9766,
      "name": "Macha Méril",
      "profile_path": "/6y5tnXwYFwOt7MgUEsN3mX787e4.jpg",
      "popularity": 7.325,
      "adult": false,
      "known_for_department": "Acting"
    },
    {
      "id": 20645,
      "name": "Mageina Tovah",
      "profile_path": "/AiGQaF7tpr2m1jU0sZm0kZOQI7h.jpg",
      "popularity": 7.323,
      "adult": false,
      "known_for_department": "Acting"
    }
  ]
}