{
  "page": 37,
  "total_results": 10000,
  "total_pages": 500,
  "results": [
    {
      "id": 2155,
      "name": "Thora Birch",
      "profile_path": "/7rRirYcL5JJS5P2W67yhsmAfO3x.jpg",
      "popularity": 24.689,
      "adult": false,
      "known_for_department": "Acting"
    },
    {
      "id": 1222596,
      "name": "Justin Hartley",
      "profile_path": "/oo7vqWz30pA1tY6quUOnS6O0AgB.jpg",
      "popularity": 24.678,
      "adult": false,
      "known_for_department": "Acting"
    },
    {
      "id": 27772,
      "name": "John Ritter",
      "profile_path": "/qtDUmYHdT6RCs8wp5FmIZMKNelM.jpg",
      "popularity": 24.675,
      "adult": false,
      "known_for_department": "Acting"
    },
    {
      "id": 820,
      "name": "Edward Furlong",
      "profile_path": "/e221dMIBgb6Lk092GIkHB9ohQF1.jpg",
      "popularity": 24.639,
      "adult": false,
      "known_for_department": "Acting"
    },
    {
      "id": 6714,
      "name": "Mädchen Amick",
      "profile_path": "/Af47IaCUF9BYzmGBycZiKjqIwYf.jpg",
      "popularity": 24.603,
      "adult": false,
      "known_for_department": "Acting"
    },
    {
      "id": 14261,
      "name": "David Niven",
      "profile_path": "/3l4hldACWcnR3z6SPE7Y24hDjNV.jpg",
      "popularity": 24.593,
      "adult": false,
      "known_for_department": "Acting"
    },
    {
      "id": 44777,
      "name": "Shae Marks",
      "profile_path": "/mzokQFdBuGk7rNY11P22BHGj9Oi.jpg",
      "popularity": 24.589,
      "adult": false,
      "known_for_department": "Acting"
    },
    {
      "id": 84223,
      "name": "Anna Kendrick",
      "profile_path": "/zxYcN7MG1rifJNFIDCJUPKLSAnw.jpg",
      "popularity": 24.587,
      "adult": false,
      "known_for_department": "Acting"
    },
    {
      "id": 1894505,
      "name": "Walaipech Link Khunthira",
      "profile_path": "/k8s7RZXnQSayYYdm7upza3s6uhA.jpg",
      "popularity": 24.583,
      "adult": false,
      "known_for_department": "Acting"
    },
    {
      "id": 58502,
      "name": "Natalie Dormer",
      "profile_path": "/3OlkHjDKDj9NKkFWXfLk7gcb2C.jpg",
      "popularity": 24.569,
      "adult": false,
      "known_for_department": "Acting"
    },
    {
      "id": 3037,
      "name": "Richard Dreyfuss",
      "profile_path": "/q2BPu6zWwFtnzQfpl4fgbKqURXM.jpg",
      "popularity": 24.566,
      "adult": false,
      "known_for_department": "Acting"
    },
    {
      "id": 54633,
      "name": "Grace Caroline Currey",
      "profile_path": "/fhwQWWTwl8r613puGYKMyf9H8mQ.jpg",
      "popularity": 24.542,
      "adult": false,
      "known_for_department": "Acting"
    },
    {
      "id": 504,
      "name": "Tim Robbins",
      "profile_path": "/hsCu1JUzQQ4pl7uFxAVFLOs9yHh.jpg",
      "popularity": 24.54,
      "adult": false,
      "known_for_department": "Acting"
    },
    {
      "id": 1098962,
      "name": "Dove Cameron",
      "profile_path": "/pfHjtessY9slk0V5K4wZhlCeRyV.jpg",
      "popularity": 24.538,
      "adult": false,
      "known_for_department": "Acting"
    },
    {
      "id": 88995,
      "name": "Adrianne Palicki",
      "profile_path": "/3qpWQ5d2XxvZuoZDsGgZUsOI60q.jpg",
      "popularity": 24.535,
      "adult": false,
      "known_for_department": "Acting"
    },
    {
      "id": 127558,
      "name": "Andrea Riseborough",
      "profile_path": "/dQzAXj6R8cTRqTwGzxUgegXbV13.jpg",
      "popularity": 24.533,
      "adult": false,
      "known_for_department": "Acting"
    },
    {
      "id": 10959,
      "name": "Shia LaBeouf",
      "profile_path": "/frYAEeYMi9jdt9MIjGA8vCr5yUC.jpg",
      "popularity": 24.489,
      "adult": false,
      "known_for_department": "Acting"
    },
    {
      "id": 2553497,
      "name": "Tae Hee",
      "profile_path": "/nfvP2Lig2O2AYlGbqoJneflyg4O.jpg",
      "popularity": 24.485,
      "adult": false,
      "known_for_department": "Acting"
    },
    {
      "id": 10431,
      "name": "Jennifer Jason Leigh",
      "profile_path": "/7DbG2AO3nygHAkNC866HLPKkxv9.jpg",
      "popularity": 24.483,
      "adult": false,
      "known_for_department": "Acting"
    },
    {
      "id": 11150,
      "name": "Gina Gershon",
      "profile_path": "/khuZCNBmgNJ5jC4ejCkcsc8k79p.jpg",
      "popularity": 24.451,
      "adult": false,
      "known_for_department": "Acting"
    }
  ]
}