{
  "page": 492,
  "total_results": 10000,
  "total_pages": 500,
  "results": [
    {
      "id": 15863,
      "name": "Don S. Davis",
      "profile_path": "/gxUvCXIFxAMqcWgosErBP5rHKDw.jpg",
      "popularity": 7.727,
      "adult": false,
      "known_for_department": "Acting"
    },
    {
      "id": 1003843,
      "name": "Stephanie Allynne",
      "profile_path": "/orxxs8G1QdKt1tECyJu3qiWCV8M.jpg",
      "popularity": 7.726,
      "adult": false,
      "known_for_department": "Acting"
    },
    {
      "id": 67290,
      "name": "Verna Felton",
      "profile_path": "/ffqjAUeXx85LrS571Ex0zys7si7.jpg",
      "popularity": 7.725,
      "adult": false,
      "known_for_department": "Acting"
    },
    {
      "id": 61535,
      "name": "Steven Michael Quezada",
      "profile_path": "/4BRo6oc26kePVYxgNzYwUrDagVO.jpg",
      "popularity": 7.724,
      "adult": false,
      "known_for_department": "Acting"
    },
    {
      "id": 2251146,
      "name": "Antonia Fotaras",
      "profile_path": "/kHqUvKxRTcAerPZmEi7ywhYrLvP.jpg",
      "popularity": 7.723,
      "adult": false,
      "known_for_department": "Acting"
    },
    {
      "id": 123037,
      "name": "Jonathan Harris",
      "profile_path": "/ieLNe2cBJTJ2Aeb3QAXVp6w1sKu.jpg",
      "popularity": 7.723,
      "adult": false,
      "known_for_department": "Acting"
    },
    {
      "id": 81726,
      "name": "Lorraine Toussaint",
      "profile_path": "/ali9XSMkZ0uAQLkmK0PoHXhJS0t.jpg",
      "popularity": 7.723,
      "adult": false,
      "known_for_department": "Acting"
    },
    {
      "id": 222048,
      "name": "Darin Brooks",
      "profile_path": "/s42wC764FEqnUV1hwytZZbBzkXC.jpg",
      "popularity": 7.722,
      "adult": false,
      "known_for_department": "Acting"
    },
    {
      "id": 210172,
      "name": "Harvey Guillén",
      "profile_path": "/yiNBonobPwqMVweB02JWufzp2l9.jpg",
      "popularity": 7.722,
      "adult": false,
      "known_for_department": "Acting"
    },
    {
      "id": 1102331,
      "name": "Annabelle Dexter-Jones",
      "profile_path": "/je4dS7rxKkl0TK2v7NuP2r4hSIv.jpg",
      "popularity": 7.721,
      "adult": false,
      "known_for_department": "Acting"
    },
    {
      "id": 1144012,
      "name": "Fiona Richmond",
      "profile_path": "/jzUaggTuLvcSCRboE55sySsiQVU.jpg",
      "popularity": 7.72,
      "adult": false,
      "known_for_department": "Acting"
    },
    {
      "id": 162610,
      "name": "Fred Stoller",
      "profile_path": "/zKdycmQYPQe7OoYWaz0KU5yCqXx.jpg",
      "popularity": 7.72,
      "adult": false,
      "known_for_department": "Acting"
    },
    {
      "id": 15396,
      "name": "Yori Bertin",
      "profile_path": "/p16FoLnMe2X0ZOprWrr83xpcaMn.jpg",
      "popularity": 7.72,
      "adult": false,
      "known_for_department": "Acting"
    },
    {
      "id": 1423493,
      "name": "Belén Cuesta",
      "profile_path": "/xxaNCeIuLh7nZvuCrwANO3zwI5g.jpg",
      "popularity": 7.719,
      "adult": false,
      "known_for_department": "Acting"
    },
    {
      "id": 1342864,
      "name": "Li Xinai",
      "profile_path": "/o6k2edbArWgQ5pbm9djU9eDtT7Y.jpg",
      "popularity": 7.718,
      "adult": false,
      "known_for_department": "Acting"
    },
    {
      "id": 1329581,
      "name": "Anna Sinyakina",
      "profile_path": "/yL6w6QSL45tS1aJF4k6R6msKpXU.jpg",
      "popularity": 7.718,
      "adult": false,
      "known_for_department": "Acting"
    },
    {
      "id": 460594,
      "name": "Angel Locsin",
      "profile_path": "/3vfyrhOMbL04KY6mU2PrRIsgEOX.jpg",
      "popularity": 7.718,
      "adult": false,
      "known_for_department": "Acting"
    },
    {
      "id": 544779,
      "name": "Moon Lee",
      "profile_path": "/2wTS5wK0tlbtHvNYm8AwiAG5PNf.jpg",
      "popularity": 7.717,
      "adult": false,
      "known_for_department": "Acting"
    },
    {
      "id": 141762,
      "name": "Joe Chrest",
      "profile_path": "/ox45oYzfnI9mxDYNeP01ZTRWGXC.jpg",
      "popularity": 7.717,
      "adult": false,
      "known_for_department": "Acting"
    },
    {
      "id": 96675,
      "name": "Paul Young",
      "profile_path": "/os4zarBmYP9wVKMRMcQ2tJKOJJE.jpg",
      "popularity": 7.717,
      "adult": false,
      "known_for_department": "Acting"
    }
  ]
}