{
  "page": 179,
  "total_results": 10000,
  "total_pages": 500,
  "results": [
    {
      "id": 52442,
      "name": "Olivia Thirlby",
      "profile_path": "/1UItCwRP4xv6ThKQLd7CsNJfmxD.jpg",
      "popularity": 10.101,
      "adult": false,
      "known_for_department": "Acting"
    },
    {
      "id": 15566,
      "name": "Sharon Leal",
      "profile_path": "/3dJCnAZDG2ZN7Hxct8UAdPePpuz.jpg",
      "popularity": 10.101,
      "adult": false,
      "known_for_department": "Acting"
    },
    {
      "id": 1133011,
      "name": "Melia Kreiling",
      "profile_path": "/iPJYgKoRLZySoT2bHYYnn4mFWG1.jpg",
      "popularity": 10.098,
      "adult": false,
      "known_for_department": "Acting"
    },
    {
      "id": 500045,
      "name": "David Oakes",
      "profile_path": "/7NtAET6hvuQTGFAzfchTr3Z4iJ.jpg",
      "popularity": 10.097,
      "adult": false,
      "known_for_department": "Acting"
    },
    {
      "id": 591519,
      "name": "Laura Spencer",
      "profile_path": "/gaAIgczfFhGl1SSHijO6ZytEGjX.jpg",
      "popularity": 10.095,
      "adult": false,
      "known_for_department": "Acting"
    },
    {
      "id": 1461038,
      "name": "Jon Bass",
      "profile_path": "/2eo9pMyPhA9mBaSrNlD6UP3Nkyw.jpg",
      "popularity": 10.094,
      "adult": false,
      "known_for_department": "Acting"
    },
    {
      "id": 93663,
      "name": "Kellie Martin",
      "profile_path": "/l2SMcBisNoQjpSTq41VI8PoUSj2.jpg",
      "popularity": 10.093,
      "adult": false,
      "known_for_department": "Acting"
    },
    {
      "id": 1498026,
      "name": "Nesta Cooper",
      "profile_path": "/rmHzFvZ1rDf9C0cULfsvz1WMRL9.jpg",
      "popularity": 10.09,
      "adult": false,
      "known_for_department": "Acting"
    },
    {
      "id": 105159,
      "name": "Alexandra Bastedo",
      "profile_path": "/npjOC1Nuu8mbBvmTOHhbxmlRYAb.jpg",
      "popularity": 10.09,
      "adult": false,
      "known_for_department": "Acting"
    },
    {
      "id": 82626,
      "name": "Calum Worthy",
      "profile_path": "/n4WmcFp0x7YAwwNSlDRPA1uXGQb.jpg",
      "popularity": 10.09,
      "adult": false,
      "known_for_department": "Acting"
    },
    {
      "id": 15886,
      "name": "Julia Louis-Dreyfus",
      "profile_path": "/pDzlVQhjxKQBpb9NcQ3hR20kz3z.jpg",
      "popularity": 10.088,
      "adult": false,
      "known_for_department": "Acting"
    },
    {
      "id": 1798797,
      "name": "Froy Gutierrez",
      "profile_path": "/8sCm6Jl8jDUwRBin6k7CIFIm0yg.jpg",
      "popularity": 10.087,
      "adult": false,
      "known_for_department": "Acting"
    },
    {
      "id": 1140237,
      "name": "Bailey Bass",
      "profile_path": "/ye6Ung9idV2iP6h7xhM1ExwzySs.jpg",
      "popularity": 10.084,
      "adult": false,
      "known_for_department": "Acting"
    },
    {
      "id": 67015,
      "name": "Michael Gross",
      "profile_path": "/qznUukUDTLDjRqbP3GdcMYqYSiI.jpg",
      "popularity": 10.084,
      "adult": false,
      "known_for_department": "Acting"
    },
    {
      "id": 115730,
      "name": "Patrick John Flueger",
      "profile_path": "/clfZivMXQzmxwO5XGXfNtycX3Xn.jpg",
      "popularity": 10.083,
      "adult": false,
      "known_for_department": "Acting"
    },
    {
      "id": 12776,
      "name": "Senta Berger",
      "profile_path": "/A6vTzs8BVX2XgOofzo6UiThBaoV.jpg",
      "popularity": 10.083,
      "adult": false,
      "known_for_department": "Acting"
    },
    {
      "id": 125167,
      "name": "Mindy Kaling",
      "profile_path": "/7ySdirSfk8U55nAXLiKBBbxyvvM.jpg",
      "popularity": 10.081,
      "adult": false,
      "known_for_department": "Acting"
    },
    {
      "id": 94864,
      "name": "Max Martini",
      "profile_path": "/3J9qjWkft7LsmHuQ0GHPnPIToOF.jpg",
      "popularity": 10.08,
      "adult": false,
      "known_for_department": "Acting"
    },
    {
      "id": 1215525,
      "name": "Jorge Garcia",
      "profile_path": "/fcAzP3fCI2sOV8APKe0KFmG66uB.jpg",
      "popularity": 10.079,
      "adult": false,
      "known_for_department": "Acting"
    },
    {
      "id": 84405,
      "name": "Bill Owen",
      "profile_path": "/y84nSLhqtvF50SjJL5czvrdcri5.jpg",
      "popularity": 10.079,
      "adult": false,
      "known_for_department": "Acting"
    }
  ]
}