{
  "page": 471,
  "total_results": 10000,
  "total_pages": 500,
  "results": [
    {
      "id": 30299,
      "name": "Hank Worden",
      "profile_path": "/r43IWN0nGj6kpgNAiK0kgzTIA95.jpg",
      "popularity": 7.383,
      "adult": false,
      "known_for_department": "Acting"
    },
    {
      "id": 27916,
      "name": "W. Somerset Maugham",
      "profile_path": "/dc8lOAM7ZKwlzKT7s7FRpNR0TcJ.jpg",
      "popularity": 7.383,
      "adult": false,
      "known_for_department": "Writing"
    },
    {
      "id": 2412376,
      "name": "Indica Watson",
      "profile_path": "/3MaP7WuEcLQ5VXbIgwUvs9KT1rL.jpg",
      "popularity": 7.382,
      "adult": false,
      "known_for_department": "Acting"
    },
    {
      "id": 1448937,
      "name": "Sophia Santi",
      "profile_path": "/21742a5rDxKSwNWYKrJj1YR1cJK.jpg",
      "popularity": 7.382,
      "adult": false,
      "known_for_department": "Acting"
    },
    {
      "id": 184571,
      "name": "Lossen Chambers",
      "profile_path": "/fA35DKbSrLr2KZmWuYK3yoqiWyZ.jpg",
      "popularity": 7.382,
      "adult": false,
      "known_for_department": "Acting"
    },
    {
      "id": 44691,
      "name": "Lee Montgomery",
      "profile_path": "/dOx2CtMbhaIx3KGs1WPdKKzKIxp.jpg",
      "popularity": 7.382,
      "adult": false,
      "known_for_department": "Acting"
    },
    {
      "id": 15533,
      "name": "Olivier Martinez",
      "profile_path": "/rS1pHEsXrLWqpkmzItnAqnBEpZQ.jpg",
      "popularity": 7.382,
      "adult": false,
      "known_for_department": "Acting"
    },
    {
      "id": 9996,
      "name": "Sean Whalen",
      "profile_path": "/nUPHcRagVWhH21mIS4Qdeoclhr5.jpg",
      "popularity": 7.382,
      "adult": false,
      "known_for_department": "Acting"
    },
    {
      "id": 1900309,
      "name": "Ella Lee",
      "profile_path": "/9jYDNQk0TpWMGFtVxT0lWbMYKnH.jpg",
      "popularity": 7.381,
      "adult": false,
      "known_for_department": "Acting"
    },
    {
      "id": 1545928,
      "name": "Sunwoo Jae-duk",
      "profile_path": "/516ALbrKMs0BO2QtPWeNQIqFhUB.jpg",
      "popularity": 7.38,
      "adult": false,
      "known_for_department": "Acting"
    },
    {
      "id": 27107,
      "name": "Mike Doyle",
      "profile_path": "/vWvYo2T80nz0F4hcXRBDpawUBo0.jpg",
      "popularity": 7.38,
      "adult": false,
      "known_for_department": "Acting"
    },
    {
      "id": 23987,
      "name": "Jouji Nakata",
      "profile_path": "/aFx0ForDkSc119U3nTC7NymStkn.jpg",
      "popularity": 7.38,
      "adult": false,
      "known_for_department": "Acting"
    },
    {
      "id": 1220746,
      "name": "Shera Danese",
      "profile_path": "/vLjYt9HI6IVRkeUcaMVxYrPR59.jpg",
      "popularity": 7.379,
      "adult": false,
      "known_for_department": "Acting"
    },
    {
      "id": 154694,
      "name": "Alex Black",
      "profile_path": "/mgenA1xwMvCDQjOQ14mJdFnxXJH.jpg",
      "popularity": 7.379,
      "adult": false,
      "known_for_department": "Acting"
    },
    {
      "id": 83400,
      "name": "Dorothy Lamour",
      "profile_path": "/nPUEpYPfQ7upyGmYLhDnotKPlcJ.jpg",
      "popularity": 7.379,
      "adult": false,
      "known_for_department": "Acting"
    },
    {
      "id": 77225,
      "name": "Barbara Rhoades",
      "profile_path": "/73MpFvk2YELp13jr6F4cPSx4S4B.jpg",
      "popularity": 7.379,
      "adult": false,
      "known_for_department": "Acting"
    },
    {
      "id": 46597,
      "name": "Ali MacGraw",
      "profile_path": "/vMQ8DkboSiJkz66IYhgoiUhItMI.jpg",
      "popularity": 7.378,
      "adult": false,
      "known_for_department": "Acting"
    },
    {
      "id": 88338,
      "name": "Joe Souza",
      "profile_path": "/tMjXAWqnxJmbIJAAT6LVLWfLgB9.jpg",
      "popularity": 7.377,
      "adult": false,
      "known_for_department": "Acting"
    },
    {
      "id": 80405,
      "name": "Karen Holness",
      "profile_path": "/mKyNgWJMLA3dKRNHyAU0qaZWSRY.jpg",
      "popularity": 7.377,
      "adult": false,
      "known_for_department": "Acting"
    },
    {
      "id": 20215,
      "name": "Billy Campbell",
      "profile_path": "/hMNmtQK3a6mqIQRyXn9G5bbheJV.jpg",
      "popularity": 7.377,
      "adult": false,
      "known_for_department": "Acting"
    }
  ]
}