{
  "page": 433,
  "total_results": 10000,
  "total_pages": 500,
  "results": [
    {
      "id": 50020,
      "name": "Scott Patterson",
      "profile_path": "/qTm0LFuV8DktunzKa5T3UZoq1tC.jpg",
      "popularity": 6.852,
      "adult": false,
      "known_for_department": "Acting"
    },
    {
      "id": 31365,
      "name": "John Kassir",
      "profile_path": "/byj6Px0tLcqRFWIJYUxstg25Qd2.jpg",
      "popularity": 6.852,
      "adult": false,
      "known_for_department": "Acting"
    },
    {
      "id": 145715,
      "name": "Oya Aydoğan",
      "profile_path": "/fI7PJA5bhwRsUvemy05LeWcP5rM.jpg",
      "popularity": 6.851,
      "adult": false,
      "known_for_department": "Acting"
    },
    {
      "id": 142689,
      "name": "Suzanne Clément",
      "profile_path": "/at0Z7xuA8SiHTqpI6lsEwDQyMe8.jpg",
      "popularity": 6.851,
      "adult": false,
      "known_for_department": "Acting"
    },
    {
      "id": 1348591,
      "name": "Marcus Scribner",
      "profile_path": "/2liLo4QWQK4knFb9xJeW7hwvhv9.jpg",
      "popularity": 6.85,
      "adult": false,
      "known_for_department": "Acting"
    },
    {
      "id": 1071638,
      "name": "José Manuel Poga",
      "profile_path": "/baaV0r14Jnit0OZA4jv2BTWb3QO.jpg",
      "popularity": 6.85,
      "adult": false,
      "known_for_department": "Acting"
    },
    {
      "id": 79343,
      "name": "Laura Mennell",
      "profile_path": "/onIPcCc3swg2q2k2vRcNtqYdwaQ.jpg",
      "popularity": 6.85,
      "adult": false,
      "known_for_department": "Acting"
    },
    {
      "id": 101093,
      "name": "Rochelle Swanson",
      "profile_path": "/zH3QYFiyjrpwppo4FwP6QPv5Fs9.jpg",
      "popularity": 6.849,
      "adult": false,
      "known_for_department": "Acting"
    },
    {
      "id": 79357,
      "name": "James Bolam",
      "profile_path": "/zYiJ5K980SfkpifsU0yxfop00mz.jpg",
      "popularity": 6.849,
      "adult": false,
      "known_for_department": "Acting"
    },
    {
      "id": 37437,
      "name": "Caroline Langrishe",
      "profile_path": "/1ayDajjgCnt5iTLGMTUAoptuKeU.jpg",
      "popularity": 6.848,
      "adult": false,
      "known_for_department": "Acting"
    },
    {
      "id": 1866384,
      "name": "Josha Stradowski",
      "profile_path": "/uCbfm39Gad32j2z0vOOh3oa5GEH.jpg",
      "popularity": 6.847,
      "adult": false,
      "known_for_department": "Acting"
    },
    {
      "id": 1793239,
      "name": "Kelly Lynn Reiter",
      "profile_path": "/pdgxxTot78HiJbk8NcyK3qodiXl.jpg",
      "popularity": 6.846,
      "adult": false,
      "known_for_department": "Acting"
    },
    {
      "id": 168241,
      "name": "Michele Scarabelli",
      "profile_path": "/jYFQQttqfPjX0W0P1Z1lw7RrLBP.jpg",
      "popularity": 6.846,
      "adult": false,
      "known_for_department": "Acting"
    },
    {
      "id": 73890,
      "name": "Michelle Ang",
      "profile_path": "/tDMYQX3cq7AQtKJh8kn7E7CyMze.jpg",
      "popularity": 6.846,
      "adult": false,
      "known_for_department": "Acting"
    },
    {
      "id": 3247772,
      "name": "Lizeth Selene",
      "profile_path": "/o8BNtreaGlVJkSlsYjGtFzwkXpG.jpg",
      "popularity": 6.845,
      "adult": false,
      "known_for_department": "Acting"
    },
    {
      "id": 1391533,
      "name": "Christine Hung Hiu-Wan",
      "profile_path": "",
      "popularity": 6.845,
      "adult": false,
      "known_for_department": "Acting"
    },
    {
      "id": 203734,
      "name": "Wynn Everett",
      "profile_path": "/hWLWcoqXumM9NY9vfByvQmmcFdb.jpg",
      "popularity": 6.844,
      "adult": false,
      "known_for_department": "Acting"
    },
    {
      "id": 80135,
      "name": "Rutanya Alda",
      "profile_path": "/qSNz7ZRKkHCdwyShapgm8aqibx.jpg",
      "popularity": 6.844,
      "adult": false,
      "known_for_department": "Acting"
    },
    {
      "id": 6394,
      "name": "John Lurie",
      "profile_path": "/xP4eHVjPMDSEcCs4eQvTgDJyKsB.jpg",
      "popularity": 6.844,
      "adult": false,
      "known_for_department": "Acting"
    },
    {
      "id": 1584490,
      "name": "May Simón Lifschitz",
      "profile_path": "/8oEGyZA68Jgke2KuSSEs0RkaOEQ.jpg",
      "popularity": 6.843,
      "adult": false,
      "known_for_department": "Acting"
    }
  ]
}