{
  "page": 149,
  "total_results": 10000,
  "total_pages": 500,
  "results": [
    {
      "id": 59,
      "name": "Luc Besson",
      "profile_path": "/p7QoPAMP6wfkgcwELkM5VtdGYHU.jpg",
      "popularity": 13.721,
      "adult": false,
      "known_for_department": "Directing"
    },
    {
      "id": 78160,
      "name": "Luca Guadagnino",
      "profile_path": "/lO2GD4s6fRloZLEhsZgBlhJQasE.jpg",
      "popularity": 13.72,
      "adult": false,
      "known_for_department": "Directing"
    },
    {
      "id": 2712,
      "name": "Michael Biehn",
      "profile_path": "/9oFLsADWQm2TvU8XzLIzBbjdMkU.jpg",
      "popularity": 13.716,
      "adult": false,
      "known_for_department": "Acting"
    },
    {
      "id": 212208,
      "name": "Taylor Swift",
      "profile_path": "/rywt1hM6M8VrB3r4cmIo48NJj9K.jpg",
      "popularity": 13.714,
      "adult": false,
      "known_for_department": "Acting"
    },
    {
      "id": 20215,
      "name": "Billy Campbell",
      "profile_path": "/hMNmtQK3a6mqIQRyXn9G5bbheJV.jpg",
      "popularity": 13.714,
      "adult": false,
      "known_for_department": "Acting"
    },
    {
      "id": 992869,
      "name": "Ayane Sakura",
      "profile_path": "/yPbTmntASE9psPIMhNGU5oo6vIH.jpg",
      "popularity": 13.712,
      "adult": false,
      "known_for_department": "Acting"
    },
    {
      "id": 20006,
      "name": "Christopher Reeve",
      "profile_path": "/vAGrPf3ajy6OVE3FhgABynZfybP.jpg",
      "popularity": 13.703,
      "adult": false,
      "known_for_department": "Acting"
    },
    {
      "id": 1822751,
      "name": "Raquel Xu",
      "profile_path": "/kTtlxvYvkxOOEKZbd3xPreE5MX5.jpg",
      "popularity": 13.702,
      "adult": false,
      "known_for_department": "Acting"
    },
    {
      "id": 38561,
      "name": "Kelly Brook",
      "profile_path": "/nQViqXs3FkBcKz9ILIzLBmrDaDk.jpg",
      "popularity": 13.702,
      "adult": false,
      "known_for_department": "Acting"
    },
    {
      "id": 7632,
      "name": "Shelley Winters",
      "profile_path": "/sY7LVp0M8yJgFD0o2uAIJgfLGm9.jpg",
      "popularity": 13.702,
      "adult": false,
      "known_for_department": "Acting"
    },
    {
      "id": 4515,
      "name": "Treat Williams",
      "profile_path": "/jbRMOU2K7ePg7Zs59nfgEYLeD1e.jpg",
      "popularity": 13.701,
      "adult": false,
      "known_for_department": "Acting"
    },
    {
      "id": 13021,
      "name": "William Baldwin",
      "profile_path": "/ovNJxUOxswKzHqyJLsvkE63bmFt.jpg",
      "popularity": 13.697,
      "adult": false,
      "known_for_department": "Acting"
    },
    {
      "id": 1237,
      "name": "Flea",
      "profile_path": "/nGQE7xf4YJeqO0a4lpFebhwI7R9.jpg",
      "popularity": 13.697,
      "adult": false,
      "known_for_department": "Acting"
    },
    {
      "id": 2234003,
      "name": "Jessie Mei Li",
      "profile_path": "/t7LmlgmjsqGNRj0sA4tthejP3yI.jpg",
      "popularity": 13.694,
      "adult": false,
      "known_for_department": "Acting"
    },
    {
      "id": 20387,
      "name": "Clea DuVall",
      "profile_path": "/yueygn1Lmmni7EaMQD9LslexDlu.jpg",
      "popularity": 13.691,
      "adult": false,
      "known_for_department": "Acting"
    },
    {
      "id": 1379386,
      "name": "Max Mittelman",
      "profile_path": "/zQqiIgestpxssPrUXQXkY2Sq0y8.jpg",
      "popularity": 13.689,
      "adult": false,
      "known_for_department": "Acting"
    },
    {
      "id": 19163,
      "name": "Virginie Ledoyen",
      "profile_path": "/qhLgShLBmsIjOUyn7SPysA0Gogt.jpg",
      "popularity": 13.689,
      "adult": false,
      "known_for_department": "Acting"
    },
    {
      "id": 17305,
      "name": "Greg Grunberg",
      "profile_path": "/ir2QunLf6aTaowpEygbIcjiZLDB.jpg",
      "popularity": 13.689,
      "adult": false,
      "known_for_department": "Acting"
    },
    {
      "id": 502397,
      "name": "Aylin Tezel",
      "profile_path": "/z4tLRgC0tg0aOQDuW8Mp2XyPmLy.jpg",
      "popularity": 13.688,
      "adult": false,
      "known_for_department": "Acting"
    },
    {
      "id": 19148,
      "name": "Brian Austin Green",
      "profile_path": "/8KGhmSEmxwn6oJBN5NCpeYDJ2hx.jpg",
      "popularity": 13.686,
      "adult": false,
      "known_for_department": "Acting"
    }
  ]
}