{
  "page": 230,
  "total_results": 10000,
  "total_pages": 500,
  "results": [
    {
      "id": 9181,
      "name": "Edward Zwick",
      "profile_path": "/xN7GHXkzCK2y9P16g6n3a7uhNAk.jpg",
      "popularity": 11.295,
      "adult": false,
      "known_for_department": "Directing"
    },
    {
      "id": 84299,
      "name": "Shannon Lucio",
      "profile_path": "/3U8sFUrjXVUP6Wj5Zg1SAFGWHrv.jpg",
      "popularity": 11.294,
      "adult": false,
      "known_for_department": "Acting"
    },
    {
      "id": 1631759,
      "name": "Alexander Petrov",
      "profile_path": "/GGzZvqrHxRKNAhiZHm7oPX1e3o.jpg",
      "popularity": 11.293,
      "adult": false,
      "known_for_department": "Acting"
    },
    {
      "id": 56358,
      "name": "Patricia Belcher",
      "profile_path": "/8h5cLajSjv3fLIeAyuYyNxj7gte.jpg",
      "popularity": 11.292,
      "adult": false,
      "known_for_department": "Acting"
    },
    {
      "id": 151383,
      "name": "John Ducey",
      "profile_path": "/iAWEzIuVHOcvVdBdI3uAbvxUlTT.jpg",
      "popularity": 11.291,
      "adult": false,
      "known_for_department": "Acting"
    },
    {
      "id": 16662,
      "name": "Richard Gant",
      "profile_path": "/25vUWxrUY7hjLdAeNaJYkvaMKcW.jpg",
      "popularity": 11.291,
      "adult": false,
      "known_for_department": "Acting"
    },
    {
      "id": 1821863,
      "name": "Post Malone",
      "profile_path": "/3A6JgUb0wAGqITiZQPICb2Q26ni.jpg",
      "popularity": 11.29,
      "adult": false,
      "known_for_department": "Acting"
    },
    {
      "id": 1377675,
      "name": "Veronica Yip Yuk-Hing",
      "profile_path": "/zzLN0nVBTFlO4gokEtLVXQEzc76.jpg",
      "popularity": 11.289,
      "adult": false,
      "known_for_department": "Acting"
    },
    {
      "id": 12077,
      "name": "Jim Cummings",
      "profile_path": "/c0sQPRCM5Ri3F4gVyxPr4AcPmIq.jpg",
      "popularity": 11.289,
      "adult": false,
      "known_for_department": "Acting"
    },
    {
      "id": 7002,
      "name": "Luke Kirby",
      "profile_path": "/jyR24wKg77yJg2O2RTzyRdcNAYq.jpg",
      "popularity": 11.287,
      "adult": false,
      "known_for_department": "Acting"
    },
    {
      "id": 119171,
      "name": "Andrea Parker",
      "profile_path": "/v1T8rFDueOuREauJcFt31P5cr5u.jpg",
      "popularity": 11.286,
      "adult": false,
      "known_for_department": "Acting"
    },
    {
      "id": 119065,
      "name": "Leonie Benesch",
      "profile_path": "/l4fvpY2pFO2qruOtKWseXIhao4q.jpg",
      "popularity": 11.286,
      "adult": false,
      "known_for_department": "Acting"
    },
    {
      "id": 32029,
      "name": "Bill Sage",
      "profile_path": "/2uQv1NMnGrqqhBMKTm5RBCKh7UV.jpg",
      "popularity": 11.286,
      "adult": false,
      "known_for_department": "Acting"
    },
    {
      "id": 20381,
      "name": "Jenna Dewan",
      "profile_path": "/nRAw6kIQaUQ8WZTK2djiE64gpNl.jpg",
      "popularity": 11.286,
      "adult": false,
      "known_for_department": "Acting"
    },
    {
      "id": 2098560,
      "name": "Katsamonnat Namwirote",
      "profile_path": "/19agT0l3D0KaHuehYlSlq9nIk9P.jpg",
      "popularity": 11.285,
      "adult": false,
      "known_for_department": "Acting"
    },
    {
      "id": 30585,
      "name": "Brenda Vaccaro",
      "profile_path": "/oTaUQjl7YBbXnvUR4BdQAouKMlb.jpg",
      "popularity": 11.285,
      "adult": false,
      "known_for_department": "Acting"
    },
    {
      "id": 169200,
      "name": "Phyllis Smith",
      "profile_path": "/h9w9pQbiderRWAC2mi7spjzuIGz.jpg",
      "popularity": 11.283,
      "adult": false,
      "known_for_department": "Acting"
    },
    {
      "id": 21411,
      "name": "Ice-T",
      "profile_path": "/iqyAw0iTgESyykWIUtMP0CoP88J.jpg",
      "popularity": 11.283,
      "adult": false,
      "known_for_department": "Acting"
    },
    {
      "id": 9865,
      "name": "Leif Erickson",
      "profile_path": "/i6ZwnYAwga81wOXVSun0OOjXy1f.jpg",
      "popularity": 11.283,
      "adult": false,
      "known_for_department": "Acting"
    },
    {
      "id": 55541,
      "name": "Eddie Cibrian",
      "profile_path": "/swcAPvqyUlcn1SfVwcEBzhlFqVP.jpg",
      "popularity": 11.282,
      "adult": false,
      "known_for_department": "Acting"
    }
  ]
}