{
  "page": 217,
  "total_results": 10000,
  "total_pages": 500,
  "results": [
    {
      "id": 1225783,
      "name": "Lindsey Shaw",
      "profile_path": "/xje8DmPkniNjL7IKQVZE19UUOTt.jpg",
      "popularity": 11.23,
      "adult": false,
      "known_for_department": "Acting"
    },
    {
      "id": 1178489,
      "name": "Taisiya Vilkova",
      "profile_path": "/bgDcRRkoNFY6OJ5jTEKg7xKSVqH.jpg",
      "popularity": 11.229,
      "adult": false,
      "known_for_department": "Acting"
    },
    {
      "id": 226370,
      "name": "Bradley Steven Perry",
      "profile_path": "/n62ZTaV7xFfOICwcSa6l2hC1K8v.jpg",
      "popularity": 11.229,
      "adult": false,
      "known_for_department": "Acting"
    },
    {
      "id": 1170657,
      "name": "Amanda Warren",
      "profile_path": "/xklh9W7bSrcinJB4eFDQIN35ZvN.jpg",
      "popularity": 11.226,
      "adult": false,
      "known_for_department": "Acting"
    },
    {
      "id": 1614317,
      "name": "Sebastian Croft",
      "profile_path": "/u0ZEDjzTrPpS39ObYPCclgOrLaR.jpg",
      "popularity": 11.225,
      "adult": false,
      "known_for_department": "Acting"
    },
    {
      "id": 1457238,
      "name": "Sonoya Mizuno",
      "profile_path": "/scbRPaGPw3VnR6mrmZQZi6Cuj1m.jpg",
      "popularity": 11.222,
      "adult": false,
      "known_for_department": "Acting"
    },
    {
      "id": 119589,
      "name": "Donald Glover",
      "profile_path": "/nilV7NtnML6PDa9VrvxD79F85K9.jpg",
      "popularity": 11.222,
      "adult": false,
      "known_for_department": "Acting"
    },
    {
      "id": 19270,
      "name": "Michèle Mercier",
      "profile_path": "/eRAZgxJ5laS84HwSTFDVGjqmZEe.jpg",
      "popularity": 11.222,
      "adult": false,
      "known_for_department": "Acting"
    },
    {
      "id": 227430,
      "name": "Jin Se-yeon",
      "profile_path": "/tKeeLzPt47OkccfvbUxNwhNYbTW.jpg",
      "popularity": 11.221,
      "adult": false,
      "known_for_department": "Acting"
    },
    {
      "id": 55463,
      "name": "Jessica Stroup",
      "profile_path": "/qKpYNOim2YqAMEvJpgzzf9PlMir.jpg",
      "popularity": 11.221,
      "adult": false,
      "known_for_department": "Acting"
    },
    {
      "id": 209674,
      "name": "RJ Mitte",
      "profile_path": "/aG6NYV2EgzBFLRIl7vvbtd7go1j.jpg",
      "popularity": 11.22,
      "adult": false,
      "known_for_department": "Acting"
    },
    {
      "id": 6071,
      "name": "Sasha Roiz",
      "profile_path": "/hneSnvFh25FFRWRzd93EhO7S11p.jpg",
      "popularity": 11.219,
      "adult": false,
      "known_for_department": "Acting"
    },
    {
      "id": 1435838,
      "name": "Dylan Kingwell",
      "profile_path": "/832RJNMZi7rHEQBQz4FXlcIL2TW.jpg",
      "popularity": 11.218,
      "adult": false,
      "known_for_department": "Acting"
    },
    {
      "id": 1515476,
      "name": "Estelle Cruijff",
      "profile_path": "/xDeYkYHh8QMnkTapFbJKIW1Rfmc.jpg",
      "popularity": 11.217,
      "adult": false,
      "known_for_department": "Acting"
    },
    {
      "id": 18919,
      "name": "Freddie Boath",
      "profile_path": "/yR1yJnwALekEG521eddpnL5mApD.jpg",
      "popularity": 11.217,
      "adult": false,
      "known_for_department": "Acting"
    },
    {
      "id": 1576235,
      "name": "Riho Yoshioka",
      "profile_path": "/2XIkW7JCuBDCuLEMoUD68IQJltU.jpg",
      "popularity": 11.214,
      "adult": false,
      "known_for_department": "Acting"
    },
    {
      "id": 58430,
      "name": "Ruth Bradley",
      "profile_path": "/pnrFYG3Ij8Op6XTpbFw2vdltDwR.jpg",
      "popularity": 11.212,
      "adult": false,
      "known_for_department": "Acting"
    },
    {
      "id": 1044952,
      "name": "Kris Van Damme",
      "profile_path": "/4465DC6Fz3RUtOGwD2E4xidFr8z.jpg",
      "popularity": 11.211,
      "adult": false,
      "known_for_department": "Acting"
    },
    {
      "id": 234184,
      "name": "Ana Brenda Contreras",
      "profile_path": "/oKtw8elGuiyM4gXAaNCoIuPzxK5.jpg",
      "popularity": 11.211,
      "adult": false,
      "known_for_department": "Acting"
    },
    {
      "id": 27237,
      "name": "G.W. Bailey",
      "profile_path": "/doZuJwI446yhQ28PHT9vyM6pa0f.jpg",
      "popularity": 11.211,
      "adult": false,
      "known_for_department": "Acting"
    }
  ]
}