{
  "page": 430,
  "total_results": 10000,
  "total_pages": 500,
  "results": [
    {
      "id": 32823,
      "name": "Gedeon Burkhard",
      "profile_path": "/oC2C7AEh5WUa7XShz7SMpuNwheP.jpg",
      "popularity": 8.288,
      "adult": false,
      "known_for_department": "Acting"
    },
    {
      "id": 6719,
      "name": "Ray Wise",
      "profile_path": "/qUGDdBfPkDQYZR46wuNxMO1UM2K.jpg",
      "popularity": 8.288,
      "adult": false,
      "known_for_department": "Acting"
    },
    {
      "id": 1016077,
      "name": "Léticia Belliccini",
      "profile_path": "/uyZbNoYz6faCDmG7UOhmWy36Xug.jpg",
      "popularity": 8.287,
      "adult": false,
      "known_for_department": "Acting"
    },
    {
      "id": 1006594,
      "name": "Wang Ziwen",
      "profile_path": "/p2uY2hgRnSH8o99NcnJtpwdKgru.jpg",
      "popularity": 8.287,
      "adult": false,
      "known_for_department": "Acting"
    },
    {
      "id": 2977,
      "name": "Jamey Sheridan",
      "profile_path": "/qLyAVsxSWgLwvVRDtvTednO6a75.jpg",
      "popularity": 8.286,
      "adult": false,
      "known_for_department": "Acting"
    },
    {
      "id": 1723918,
      "name": "Ava Preston",
      "profile_path": "/npwnZYMM4qfPXkNcOcLJ86cES79.jpg",
      "popularity": 8.285,
      "adult": false,
      "known_for_department": "Acting"
    },
    {
      "id": 1299351,
      "name": "Lee Min-ki",
      "profile_path": "/zwtAGZ13e6s7mLdGUsDFHIRHfO8.jpg",
      "popularity": 8.285,
      "adult": false,
      "known_for_department": "Acting"
    },
    {
      "id": 76528,
      "name": "Tony Nappo",
      "profile_path": "/eRcYYtMvLmypURncfQqVA43BZYD.jpg",
      "popularity": 8.285,
      "adult": false,
      "known_for_department": "Acting"
    },
    {
      "id": 2308574,
      "name": "Vinessa Vidotto",
      "profile_path": "/koxSlGHIICDuAZV0tuZD5VPm0Sn.jpg",
      "popularity": 8.284,
      "adult": false,
      "known_for_department": "Acting"
    },
    {
      "id": 1235008,
      "name": "Andrew Buchan",
      "profile_path": "/rOMOyFxFRRC2hmTRMtgPkwwuIB1.jpg",
      "popularity": 8.284,
      "adult": false,
      "known_for_department": "Acting"
    },
    {
      "id": 1107298,
      "name": "Kelley Jakle",
      "profile_path": "/9MNbvHB0Xik92TzcTgEDNwnZlkh.jpg",
      "popularity": 8.284,
      "adult": false,
      "known_for_department": "Acting"
    },
    {
      "id": 69289,
      "name": "Shin Eun-kyung",
      "profile_path": "/5byW92WgWudOaKHnyevnd4NSy8K.jpg",
      "popularity": 8.284,
      "adult": false,
      "known_for_department": "Acting"
    },
    {
      "id": 63895,
      "name": "Alessandra Martines",
      "profile_path": "/xMfeR8rsf7wwYBG3JYFlcFzYgGR.jpg",
      "popularity": 8.284,
      "adult": false,
      "known_for_department": "Acting"
    },
    {
      "id": 42604,
      "name": "John Simm",
      "profile_path": "/tTiUpHt2raPRjEIeFvIh12cRGAt.jpg",
      "popularity": 8.284,
      "adult": false,
      "known_for_department": "Acting"
    },
    {
      "id": 34540,
      "name": "Peter Bucossi",
      "profile_path": "/oTV2bohMX3gAiEvQRMs1gFRo3Rb.jpg",
      "popularity": 8.284,
      "adult": false,
      "known_for_department": "Crew"
    },
    {
      "id": 1248966,
      "name": "Paolla Oliveira",
      "profile_path": "/msFlrcNe7irpBlVNSmEk5MdXaU1.jpg",
      "popularity": 8.283,
      "adult": false,
      "known_for_department": "Acting"
    },
    {
      "id": 186816,
      "name": "Marion Ramsey",
      "profile_path": "/xd5omaBzCiDeAc91MOfFD9ane6a.jpg",
      "popularity": 8.282,
      "adult": false,
      "known_for_department": "Acting"
    },
    {
      "id": 10883,
      "name": "Rick Yune",
      "profile_path": "/7m5r6pUvRiva6ybimn1XqxY4J85.jpg",
      "popularity": 8.281,
      "adult": false,
      "known_for_department": "Acting"
    },
    {
      "id": 1044952,
      "name": "Kris Van Damme",
      "profile_path": "/4465DC6Fz3RUtOGwD2E4xidFr8z.jpg",
      "popularity": 8.28,
      "adult": false,
      "known_for_department": "Acting"
    },
    {
      "id": 27776,
      "name": "Nanako Matsushima",
      "profile_path": "/s8fAUcWvIBsax1chMjvNBFHV7qG.jpg",
      "popularity": 8.28,
      "adult": false,
      "known_for_department": "Acting"
    }
  ]
}