{
  "page": 295,
  "total_results": 10000,
  "total_pages": 500,
  "results": [
    {
      "id": 19152,
      "name": "Dylan Baker",
      "profile_path": "/tNifnU13oAn251qT5LRNCJJdhKs.jpg",
      "popularity": 8.547,
      "adult": false,
      "known_for_department": "Acting"
    },
    {
      "id": 2431660,
      "name": "Eri Kamataki",
      "profile_path": "/mU0Y70MFtBCqeZVDR5SAdiwt8OA.jpg",
      "popularity": 8.546,
      "adult": false,
      "known_for_department": "Acting"
    },
    {
      "id": 139310,
      "name": "Lucy DeVito",
      "profile_path": "/jlLyxmuAe56QuOL02D8zfqpl1Bn.jpg",
      "popularity": 8.546,
      "adult": false,
      "known_for_department": "Acting"
    },
    {
      "id": 106817,
      "name": "Blanca Suárez",
      "profile_path": "/c0V6SxTJAmhhIj7UVBNRUTPn1Iw.jpg",
      "popularity": 8.546,
      "adult": false,
      "known_for_department": "Acting"
    },
    {
      "id": 53651,
      "name": "Monique Gabriela Curnen",
      "profile_path": "/lJgLQs7cfM49m8VzVviwxIByz76.jpg",
      "popularity": 8.546,
      "adult": false,
      "known_for_department": "Acting"
    },
    {
      "id": 1146,
      "name": "Julie Delpy",
      "profile_path": "/rd40f4QpAUUne3hMaUhHrZtcK2c.jpg",
      "popularity": 8.546,
      "adult": false,
      "known_for_department": "Acting"
    },
    {
      "id": 2216492,
      "name": "Aleyse Shannon",
      "profile_path": "/i1e8aPazuuM3I7UCx4kVZlJv4fG.jpg",
      "popularity": 8.545,
      "adult": false,
      "known_for_department": "Acting"
    },
    {
      "id": 1539216,
      "name": "Ferdia Walsh-Peelo",
      "profile_path": "/zkBUotUEE6WNlKzd0QPwqf8PE3T.jpg",
      "popularity": 8.544,
      "adult": false,
      "known_for_department": "Acting"
    },
    {
      "id": 20980,
      "name": "Victoria Pratt",
      "profile_path": "/ej5U4JNHrhu85QSPXpON3Q0WxdF.jpg",
      "popularity": 8.544,
      "adult": false,
      "known_for_department": "Acting"
    },
    {
      "id": 2346450,
      "name": "Yasmeen Fletcher",
      "profile_path": "/tmKowGVI58PoNuBTVzlr6OdT7ow.jpg",
      "popularity": 8.543,
      "adult": false,
      "known_for_department": "Acting"
    },
    {
      "id": 18514,
      "name": "Asia Argento",
      "profile_path": "/dYbYNxMnqhNyAJyrPU7e2C9jcRz.jpg",
      "popularity": 8.538,
      "adult": false,
      "known_for_department": "Acting"
    },
    {
      "id": 2004901,
      "name": "Melike İpek Yalova",
      "profile_path": "/lYRyPF7Oyo67tCcOaSLVIkgrXj0.jpg",
      "popularity": 8.536,
      "adult": false,
      "known_for_department": "Acting"
    },
    {
      "id": 80137,
      "name": "Diane Franklin",
      "profile_path": "/xvMGJAUPS0xrxMH3mkHGq6G1zjF.jpg",
      "popularity": 8.536,
      "adult": false,
      "known_for_department": "Acting"
    },
    {
      "id": 1673497,
      "name": "Park Ji-young",
      "profile_path": "/323EpK2UstGQhrnoYNsCIsoHVxg.jpg",
      "popularity": 8.534,
      "adult": false,
      "known_for_department": "Acting"
    },
    {
      "id": 42363,
      "name": "Peter Scolari",
      "profile_path": "/r9sBCkb6hSinCpgWC7lu5XTJEfc.jpg",
      "popularity": 8.534,
      "adult": false,
      "known_for_department": "Acting"
    },
    {
      "id": 26727,
      "name": "Dean Shek",
      "profile_path": "/osVLsatX6ZEFftGmmdgVwDLcgpl.jpg",
      "popularity": 8.534,
      "adult": false,
      "known_for_department": "Acting"
    },
    {
      "id": 1263819,
      "name": "Hanna Ardéhn",
      "profile_path": "/dsEI15Q5rjiYlYbqTu3nsLCHyuR.jpg",
      "popularity": 8.532,
      "adult": false,
      "known_for_department": "Acting"
    },
    {
      "id": 551898,
      "name": "Strawberry Yeung",
      "profile_path": "/qYe4jZdOkHnNINlSNC7wXaD6m7V.jpg",
      "popularity": 8.532,
      "adult": false,
      "known_for_department": "Acting"
    },
    {
      "id": 114674,
      "name": "Glynn Turman",
      "profile_path": "/ac5gjylih4RTCGf2HWuSnoZWDus.jpg",
      "popularity": 8.532,
      "adult": false,
      "known_for_department": "Acting"
    },
    {
      "id": 16293,
      "name": "Anthony Heald",
      "profile_path": "/e0E6Z1Y0debr4mAHgj0HO7MYyXG.jpg",
      "popularity": 8.532,
      "adult": false,
      "known_for_department": "Acting"
    }
  ]
}