{
  "page": 133,
  "total_results": 10000,
  "total_pages": 500,
  "results": [
    {
      "id": 9919,
      "name": "Claudine Auger",
      "profile_path": "/1KAAUhgfVxdI5g2t0YFCG9ITrvi.jpg",
      "popularity": 14.613,
      "adult": false,
      "known_for_department": "Acting"
    },
    {
      "id": 5048,
      "name": "Harry Dean Stanton",
      "profile_path": "/ruvBkgQA4A2xKFM3CFxFxhfqmwU.jpg",
      "popularity": 14.608,
      "adult": false,
      "known_for_department": "Acting"
    },
    {
      "id": 1935646,
      "name": "Pınar Deniz",
      "profile_path": "/svchKgph3hMXV0Wfw1pwKqRiVcR.jpg",
      "popularity": 14.607,
      "adult": false,
      "known_for_department": "Acting"
    },
    {
      "id": 1331023,
      "name": "Emilia Jones",
      "profile_path": "/vQHfiR6bSKf7bJcYyDvfUSXlB9Q.jpg",
      "popularity": 14.607,
      "adult": false,
      "known_for_department": "Acting"
    },
    {
      "id": 62410,
      "name": "Sammo Hung",
      "profile_path": "/AsB9uRDQWdIbFGnkICEl8I2gDWn.jpg",
      "popularity": 14.606,
      "adult": false,
      "known_for_department": "Acting"
    },
    {
      "id": 1423159,
      "name": "Haruka Fukuhara",
      "profile_path": "/vTosH8FMDuQK9u6CWavOPnNdmH1.jpg",
      "popularity": 14.605,
      "adult": false,
      "known_for_department": "Acting"
    },
    {
      "id": 99241,
      "name": "Jamie-Lynn Sigler",
      "profile_path": "/gzlpJeYY1ByXOGb6mksEzuvetTN.jpg",
      "popularity": 14.605,
      "adult": false,
      "known_for_department": "Acting"
    },
    {
      "id": 18976,
      "name": "Ashton Kutcher",
      "profile_path": "/ekMdWqUBajsLy0fyBcGaPFb4of8.jpg",
      "popularity": 14.593,
      "adult": false,
      "known_for_department": "Acting"
    },
    {
      "id": 35654,
      "name": "Spencer Breslin",
      "profile_path": "/jqZRcEjEt3iodgXoGOZUaahozjm.jpg",
      "popularity": 14.592,
      "adult": false,
      "known_for_department": "Acting"
    },
    {
      "id": 5657,
      "name": "Anjelica Huston",
      "profile_path": "/6hnYeHa7Rc1w1MmQ3JsLSIb7yCX.jpg",
      "popularity": 14.592,
      "adult": false,
      "known_for_department": "Acting"
    },
    {
      "id": 55936,
      "name": "Jemaine Clement",
      "profile_path": "/6eiNbeurpHb2fxIeT0RrJ0wRI25.jpg",
      "popularity": 14.591,
      "adult": false,
      "known_for_department": "Acting"
    },
    {
      "id": 334,
      "name": "Omar Benson Miller",
      "profile_path": "/adlrkEpxDIcpxF7bpzMGErLxeHP.jpg",
      "popularity": 14.591,
      "adult": false,
      "known_for_department": "Acting"
    },
    {
      "id": 2472584,
      "name": "Diany Rodriguez",
      "profile_path": "/dGl8pV25xyKaJ1HzQrResfha5jf.jpg",
      "popularity": 14.587,
      "adult": false,
      "known_for_department": "Acting"
    },
    {
      "id": 20982,
      "name": "Marton Csokas",
      "profile_path": "/gmeUY7FR0bFLdu7Ma5kvpH3Gt6B.jpg",
      "popularity": 14.587,
      "adult": false,
      "known_for_department": "Acting"
    },
    {
      "id": 102,
      "name": "Debbie Harry",
      "profile_path": "/9dw709YXEC9Ctk3HgM4uSTXURpK.jpg",
      "popularity": 14.586,
      "adult": false,
      "known_for_department": "Acting"
    },
    {
      "id": 1116333,
      "name": "Hisako Kanemoto",
      "profile_path": "/qyJPQaehMc4Sy5jaTfIJLdrll2v.jpg",
      "popularity": 14.585,
      "adult": false,
      "known_for_department": "Acting"
    },
    {
      "id": 62562,
      "name": "David Denman",
      "profile_path": "/4I06ZD8SQ6pU1QYShiUXb711fJW.jpg",
      "popularity": 14.584,
      "adult": false,
      "known_for_department": "Acting"
    },
    {
      "id": 25934,
      "name": "David Boreanaz",
      "profile_path": "/oO619MACIfz7YoPiIGXYOfamhOE.jpg",
      "popularity": 14.584,
      "adult": false,
      "known_for_department": "Acting"
    },
    {
      "id": 31837,
      "name": "Dane Cook",
      "profile_path": "/4UGHKnDOf75GZR5z0QHjrhjfpIu.jpg",
      "popularity": 14.58,
      "adult": false,
      "known_for_department": "Acting"
    },
    {
      "id": 56778,
      "name": "Stuart Townsend",
      "profile_path": "/8jc2nlrAkinMjyVPvYxa9goL5QZ.jpg",
      "popularity": 14.577,
      "adult": false,
      "known_for_department": "Acting"
    }
  ]
}