{
  "page": 18,
  "total_results": 10000,
  "total_pages": 500,
  "results": [
    {
      "id": 1369057,
      "name": "Katherine Cunningham",
      "profile_path": "/z9O8kEPRiIDh4lhC0GCryQXhmX.jpg",
      "popularity": 29.235,
      "adult": false,
      "known_for_department": "Acting"
    },
    {
      "id": 8944,
      "name": "Jamie Lee Curtis",
      "profile_path": "/9KWvPVeiLOXlOGl0XVyHZtJWQtx.jpg",
      "popularity": 29.204,
      "adult": false,
      "known_for_department": "Acting"
    },
    {
      "id": 15852,
      "name": "Ashley Judd",
      "profile_path": "/dofk0Y9YnGfoakFOonxoyFD7LOC.jpg",
      "popularity": 29.079,
      "adult": false,
      "known_for_department": "Acting"
    },
    {
      "id": 14061,
      "name": "Jacqueline Bisset",
      "profile_path": "/swW4326H75A6B9C4WKdUqMedOcO.jpg",
      "popularity": 29.071,
      "adult": false,
      "known_for_department": "Acting"
    },
    {
      "id": 7447,
      "name": "Alec Baldwin",
      "profile_path": "/hzKy7x574eeUS3wt1R3yvWBRpeR.jpg",
      "popularity": 29.068,
      "adult": false,
      "known_for_department": "Acting"
    },
    {
      "id": 49001,
      "name": "Sarah Chalke",
      "profile_path": "/ycwiu89cpjqCtSNC5FjbJggjj5R.jpg",
      "popularity": 29.042,
      "adult": false,
      "known_for_department": "Acting"
    },
    {
      "id": 1204,
      "name": "Julia Roberts",
      "profile_path": "/AhQMyQ10kz5g8Y3Fp54GPhgDxQS.jpg",
      "popularity": 28.997,
      "adult": false,
      "known_for_department": "Acting"
    },
    {
      "id": 54812,
      "name": "Chevy Chase",
      "profile_path": "/A1X2BvR8vEXvwXdJa5uYAYVCO2k.jpg",
      "popularity": 28.968,
      "adult": false,
      "known_for_department": "Acting"
    },
    {
      "id": 40462,
      "name": "Kristen Bell",
      "profile_path": "/rP74dJXl7EjinGM0shQtUOlH5s2.jpg",
      "popularity": 28.961,
      "adult": false,
      "known_for_department": "Acting"
    },
    {
      "id": 12656,
      "name": "Joanne Whalley",
      "profile_path": "/ItU1ROQkWkzabwdFG3H4VndgBb.jpg",
      "popularity": 28.951,
      "adult": false,
      "known_for_department": "Acting"
    },
    {
      "id": 1273309,
      "name": "Alexander Dreymon",
      "profile_path": "/b8mqV41suJw9Siye2V1h1utjMkB.jpg",
      "popularity": 28.87,
      "adult": false,
      "known_for_department": "Acting"
    },
    {
      "id": 64,
      "name": "Gary Oldman",
      "profile_path": "/2v9FVVBUrrkW2m3QOcYkuhq9A6o.jpg",
      "popularity": 28.852,
      "adult": false,
      "known_for_department": "Acting"
    },
    {
      "id": 9994,
      "name": "Helen Hunt",
      "profile_path": "/4SREF7ZmWhveA49PgVDKJe2NRJC.jpg",
      "popularity": 28.847,
      "adult": false,
      "known_for_department": "Acting"
    },
    {
      "id": 21657,
      "name": "Vera Farmiga",
      "profile_path": "/5Vs7huBmTKftwlsc2BPAntyaQYj.jpg",
      "popularity": 28.845,
      "adult": false,
      "known_for_department": "Acting"
    },
    {
      "id": 1767250,
      "name": "Ariana Greenblatt",
      "profile_path": "/rm6yLSvxHsmyHUmKy10DmBrB4SH.jpg",
      "popularity": 28.816,
      "adult": false,
      "known_for_department": "Acting"
    },
    {
      "id": 501,
      "name": "Dakota Fanning",
      "profile_path": "/6bNiiHnZZfA7YYIxO5FszvNFBlI.jpg",
      "popularity": 28.761,
      "adult": false,
      "known_for_department": "Acting"
    },
    {
      "id": 92614,
      "name": "Dawn Olivieri",
      "profile_path": "/tet7ZVbzhLWwT44m9j94folyl5N.jpg",
      "popularity": 28.684,
      "adult": false,
      "known_for_department": "Acting"
    },
    {
      "id": 58225,
      "name": "Zach Galifianakis",
      "profile_path": "/hghR9AhS8OKsO4ziq5Yf7w2ZguB.jpg",
      "popularity": 28.654,
      "adult": false,
      "known_for_department": "Acting"
    },
    {
      "id": 11701,
      "name": "Angelina Jolie",
      "profile_path": "/k3W1XXddDOH2zibPkNotIh5amHo.jpg",
      "popularity": 28.62,
      "adult": false,
      "known_for_department": "Acting"
    },
    {
      "id": 1212,
      "name": "Laura San Giacomo",
      "profile_path": "/3ssTmPfsir5DNzyKRO4ZJS6XGFW.jpg",
      "popularity": 28.616,
      "adult": false,
      "known_for_department": "Acting"
    }
  ]
}