{
  "page": 209,
  "total_results": 10000,
  "total_pages": 500,
  "results": [
    {
      "id": 117626,
      "name": "Aya Okamoto",
      "profile_path": "/fRyDwNLmUCxdsu54kdbtSWghCUC.jpg",
      "popularity": 12.528,
      "adult": false,
      "known_for_department": "Acting"
    },
    {
      "id": 1254547,
      "name": "Seda Bakan",
      "profile_path": "/xPySVGVlgGmIRtw7oyxa7f7liwG.jpg",
      "popularity": 12.526,
      "adult": false,
      "known_for_department": "Acting"
    },
    {
      "id": 118374,
      "name": "Gaius Charles",
      "profile_path": "/jv3yclr8GMW0krvEIF9k5F298KU.jpg",
      "popularity": 12.526,
      "adult": false,
      "known_for_department": "Acting"
    },
    {
      "id": 21411,
      "name": "Ice-T",
      "profile_path": "/iqyAw0iTgESyykWIUtMP0CoP88J.jpg",
      "popularity": 12.526,
      "adult": false,
      "known_for_department": "Acting"
    },
    {
      "id": 16420,
      "name": "Richard Boone",
      "profile_path": "/3jr6nbojJHrDvc0xQFrGOBwXt0M.jpg",
      "popularity": 12.524,
      "adult": false,
      "known_for_department": "Acting"
    },
    {
      "id": 2969,
      "name": "Chris Penn",
      "profile_path": "/9yvXUh10ZVSapGuem5daebveqR4.jpg",
      "popularity": 12.518,
      "adult": false,
      "known_for_department": "Acting"
    },
    {
      "id": 17345,
      "name": "Rockmond Dunbar",
      "profile_path": "/jPeVjtCH3bo1tzbDogdXyZpNrir.jpg",
      "popularity": 12.517,
      "adult": false,
      "known_for_department": "Acting"
    },
    {
      "id": 544107,
      "name": "Hyun Bin",
      "profile_path": "/p2OwuwCGsQnrvGhexe9FfJTEnQ1.jpg",
      "popularity": 12.512,
      "adult": false,
      "known_for_department": "Acting"
    },
    {
      "id": 169586,
      "name": "Vanessa Marcil",
      "profile_path": "/e2bgnPVavuJfFyO84ny8eGhQ6iP.jpg",
      "popularity": 12.51,
      "adult": false,
      "known_for_department": "Acting"
    },
    {
      "id": 64439,
      "name": "Fan Bingbing",
      "profile_path": "/tUpNOTyHtamAt8GlEXsBKvbaDqu.jpg",
      "popularity": 12.508,
      "adult": false,
      "known_for_department": "Acting"
    },
    {
      "id": 101922,
      "name": "Gry Bay",
      "profile_path": "/4KtcmoyNBQ0qsy8tobSVWApYNXl.jpg",
      "popularity": 12.506,
      "adult": false,
      "known_for_department": "Acting"
    },
    {
      "id": 10194,
      "name": "Bruce Glover",
      "profile_path": "/xIaAA5KFhaB4Z5FmWd5Rd2KenVn.jpg",
      "popularity": 12.506,
      "adult": false,
      "known_for_department": "Acting"
    },
    {
      "id": 5141,
      "name": "Heather Langenkamp",
      "profile_path": "/xI20Uddk9COIfgifaA4NRsXyZMD.jpg",
      "popularity": 12.506,
      "adult": false,
      "known_for_department": "Acting"
    },
    {
      "id": 1592637,
      "name": "Espen Lervaag",
      "profile_path": "/UByZQsrY3gBPSfnJRBhqbmlZUF.jpg",
      "popularity": 12.505,
      "adult": false,
      "known_for_department": "Acting"
    },
    {
      "id": 10991,
      "name": "Bonnie Wright",
      "profile_path": "/eCDdCvGYYlUM3neNJ1dwaPEgzqG.jpg",
      "popularity": 12.505,
      "adult": false,
      "known_for_department": "Acting"
    },
    {
      "id": 1218171,
      "name": "Robert Funaro",
      "profile_path": "/bfL66eK46g3QmiHUFKSoqinPEx9.jpg",
      "popularity": 12.501,
      "adult": false,
      "known_for_department": "Acting"
    },
    {
      "id": 116771,
      "name": "Michael Landon",
      "profile_path": "/gepOyRTvdI7OfUXAjQAcivPuolN.jpg",
      "popularity": 12.501,
      "adult": false,
      "known_for_department": "Acting"
    },
    {
      "id": 84300,
      "name": "Chris Lowell",
      "profile_path": "/pUr7P6cwiJ8fe8Wz5tCtYBvtCkG.jpg",
      "popularity": 12.501,
      "adult": false,
      "known_for_department": "Acting"
    },
    {
      "id": 1183958,
      "name": "Claire Rankin",
      "profile_path": "/jtcLiG3YEYJr6WvJpQgmne2U7Lo.jpg",
      "popularity": 12.497,
      "adult": false,
      "known_for_department": "Acting"
    },
    {
      "id": 10341,
      "name": "Britt Ekland",
      "profile_path": "/nmtxWXBROYw3dvfjFB7pvdoghva.jpg",
      "popularity": 12.497,
      "adult": false,
      "known_for_department": "Acting"
    }
  ]
}