{
  "page": 93,
  "total_results": 10000,
  "total_pages": 500,
  "results": [
    {
      "id": 164094,
      "name": "Marin Ireland",
      "profile_path": "/jAIOQNraHjvIAdqk81QDV5Phupp.jpg",
      "popularity": 17.78,
      "adult": false,
      "known_for_department": "Acting"
    },
    {
      "id": 58654,
      "name": "Owen Teale",
      "profile_path": "/fEr21q41i2e92wqKdoxeFdbDZva.jpg",
      "popularity": 17.78,
      "adult": false,
      "known_for_department": "Acting"
    },
    {
      "id": 15757,
      "name": "Ray Romano",
      "profile_path": "/x1c08NKCRiKwf4HhB38ZRKWXa9K.jpg",
      "popularity": 17.777,
      "adult": false,
      "known_for_department": "Acting"
    },
    {
      "id": 1472783,
      "name": "Grace Van Patten",
      "profile_path": "/oXTngLiWFxOsXjSlOel6vYAwWQ0.jpg",
      "popularity": 17.773,
      "adult": false,
      "known_for_department": "Acting"
    },
    {
      "id": 119520,
      "name": "Eric Close",
      "profile_path": "/njJYXuTlmCgI3VVHBFqkqrhiey3.jpg",
      "popularity": 17.766,
      "adult": false,
      "known_for_department": "Acting"
    },
    {
      "id": 6200,
      "name": "Diane Venora",
      "profile_path": "/8GLq0qdpLzNKjPRxBf3NQMEqafx.jpg",
      "popularity": 17.761,
      "adult": false,
      "known_for_department": "Acting"
    },
    {
      "id": 1925,
      "name": "Vincent Cassel",
      "profile_path": "/ykBEiVh6YQ9UmMAYUiQkZBH3VV4.jpg",
      "popularity": 17.761,
      "adult": false,
      "known_for_department": "Acting"
    },
    {
      "id": 2628,
      "name": "Kiefer Sutherland",
      "profile_path": "/xOiK8Sdl4TPprEIyzTWZ8hoVmOe.jpg",
      "popularity": 17.76,
      "adult": false,
      "known_for_department": "Acting"
    },
    {
      "id": 20186,
      "name": "Damian Lewis",
      "profile_path": "/puOXtVatFnAxoOmsFO8z7KTfyJW.jpg",
      "popularity": 17.759,
      "adult": false,
      "known_for_department": "Acting"
    },
    {
      "id": 2691047,
      "name": "Melisa Döngel",
      "profile_path": "/qzA0I0gR7DwCG0dK9pde2iTizeM.jpg",
      "popularity": 17.753,
      "adult": false,
      "known_for_department": "Acting"
    },
    {
      "id": 52886,
      "name": "Jeffrey Donovan",
      "profile_path": "/wlDXfXpu6Uz32LUmbFzU8QPDoQH.jpg",
      "popularity": 17.749,
      "adult": false,
      "known_for_department": "Acting"
    },
    {
      "id": 25002,
      "name": "Lee Byung-hun",
      "profile_path": "/pY4pwYO8qwtzvuzpzRczDACDiVA.jpg",
      "popularity": 17.746,
      "adult": false,
      "known_for_department": "Acting"
    },
    {
      "id": 13550,
      "name": "Elias Koteas",
      "profile_path": "/luevjlGy0tYQbAbcz0mVxCYqegH.jpg",
      "popularity": 17.746,
      "adult": false,
      "known_for_department": "Acting"
    },
    {
      "id": 59233,
      "name": "Scoot McNairy",
      "profile_path": "/oP2LJEqupxVZ2XdEW1lN5Q5LF3M.jpg",
      "popularity": 17.74,
      "adult": false,
      "known_for_department": "Acting"
    },
    {
      "id": 2417467,
      "name": "Pruk Panich",
      "profile_path": "/lCUmsIKmFJSSW0v9YPDdXBtIkuY.jpg",
      "popularity": 17.739,
      "adult": false,
      "known_for_department": "Acting"
    },
    {
      "id": 1218928,
      "name": "Erica Cerra",
      "profile_path": "/crbst9frQuWVRxILtvbsLL9ZAEv.jpg",
      "popularity": 17.737,
      "adult": false,
      "known_for_department": "Acting"
    },
    {
      "id": 2290679,
      "name": "Jung Won-II",
      "profile_path": "",
      "popularity": 17.736,
      "adult": false,
      "known_for_department": "Acting"
    },
    {
      "id": 2139,
      "name": "Makenzie Vega",
      "profile_path": "/h5yGkSvNjYDspoF4otFKp7I2ajL.jpg",
      "popularity": 17.727,
      "adult": false,
      "known_for_department": "Acting"
    },
    {
      "id": 777,
      "name": "Judge Reinhold",
      "profile_path": "/oPdJz2hSIkrj1wvOpupGoIej6IO.jpg",
      "popularity": 17.725,
      "adult": false,
      "known_for_department": "Acting"
    },
    {
      "id": 2506,
      "name": "Alice Krige",
      "profile_path": "/gwkI4FAYnhkp9NWV3meATzQql0v.jpg",
      "popularity": 17.721,
      "adult": false,
      "known_for_department": "Acting"
    }
  ]
}