{
  "page": 96,
  "total_results": 10000,
  "total_pages": 500,
  "results": [
    {
      "id": 11702,
      "name": "Adam Brody",
      "profile_path": "/jeMhuu9Q81XJLIef1OU7NlcxRW0.jpg",
      "popularity": 15.818,
      "adult": false,
      "known_for_department": "Acting"
    },
    {
      "id": 383,
      "name": "Michael Palin",
      "profile_path": "/7qCp6M2NxMWpUmO2t6IqHGNlBjz.jpg",
      "popularity": 15.81,
      "adult": false,
      "known_for_department": "Acting"
    },
    {
      "id": 2117434,
      "name": "Victoria Pedretti",
      "profile_path": "/ysYzRGNqYXWj0bl9b2zr0w9i2yD.jpg",
      "popularity": 15.8,
      "adult": false,
      "known_for_department": "Acting"
    },
    {
      "id": 2778,
      "name": "Dennis Hopper",
      "profile_path": "/3Hg8mkb1RxqNhDOofzHdr0PoufH.jpg",
      "popularity": 15.793,
      "adult": false,
      "known_for_department": "Acting"
    },
    {
      "id": 9976,
      "name": "Henry Thomas",
      "profile_path": "/l5OZ4qrrRGnEPeNhZ8PcL5vhwOI.jpg",
      "popularity": 15.788,
      "adult": false,
      "known_for_department": "Acting"
    },
    {
      "id": 6639,
      "name": "Emilia Fox",
      "profile_path": "/lZpNRsHAOW8m0f7bRfgUDmRRjo.jpg",
      "popularity": 15.788,
      "adult": false,
      "known_for_department": "Acting"
    },
    {
      "id": 572043,
      "name": "Yang Mi",
      "profile_path": "/t3tu8aiA1P7vhWqrlWZCzSuq6RS.jpg",
      "popularity": 15.777,
      "adult": false,
      "known_for_department": "Acting"
    },
    {
      "id": 74949,
      "name": "Joel McHale",
      "profile_path": "/jFtqHLCrmGSIJtwdxloO3KM98iC.jpg",
      "popularity": 15.768,
      "adult": false,
      "known_for_department": "Acting"
    },
    {
      "id": 586,
      "name": "Sean Young",
      "profile_path": "/oV7tnjW34aoGBBTtOuK795t312H.jpg",
      "popularity": 15.759,
      "adult": false,
      "known_for_department": "Acting"
    },
    {
      "id": 984629,
      "name": "Christopher Abbott",
      "profile_path": "/7H5oo9jJSgrTNSvuD5IPA4gnOYW.jpg",
      "popularity": 15.756,
      "adult": false,
      "known_for_department": "Acting"
    },
    {
      "id": 12074,
      "name": "John Lithgow",
      "profile_path": "/eNPYHaQz3QCl4ebhJyHdI3KGe6F.jpg",
      "popularity": 15.754,
      "adult": false,
      "known_for_department": "Acting"
    },
    {
      "id": 81364,
      "name": "Olivia Munn",
      "profile_path": "/iDQjE8DesSGpoIi3l6mx1YoOuI7.jpg",
      "popularity": 15.753,
      "adult": false,
      "known_for_department": "Acting"
    },
    {
      "id": 84215,
      "name": "Jackson Rathbone",
      "profile_path": "/rEWDNg7pjhtnEwTNu3MHMQWEYio.jpg",
      "popularity": 15.751,
      "adult": false,
      "known_for_department": "Acting"
    },
    {
      "id": 81295,
      "name": "Shane West",
      "profile_path": "/1tkAg5kgq7Nv3r0nYO7cDHGfYyr.jpg",
      "popularity": 15.75,
      "adult": false,
      "known_for_department": "Acting"
    },
    {
      "id": 62066,
      "name": "Faizon Love",
      "profile_path": "/jsJZKirOMwv45ohX0dFDad7yRgq.jpg",
      "popularity": 15.749,
      "adult": false,
      "known_for_department": "Acting"
    },
    {
      "id": 1137823,
      "name": "Stacy Martin",
      "profile_path": "/2eRIvurxaDFKqC9BzAAiYhJp90Z.jpg",
      "popularity": 15.746,
      "adult": false,
      "known_for_department": "Acting"
    },
    {
      "id": 122616,
      "name": "Grant Gustin",
      "profile_path": "/kEGU1gGySIe63lyL7AnwXEw4rQn.jpg",
      "popularity": 15.738,
      "adult": false,
      "known_for_department": "Acting"
    },
    {
      "id": 140114,
      "name": "Marie Avgeropoulos",
      "profile_path": "/cCzCHmDZXrNfyzbkpxvaKDaGy77.jpg",
      "popularity": 15.737,
      "adult": false,
      "known_for_department": "Acting"
    },
    {
      "id": 5644,
      "name": "Alexandra Maria Lara",
      "profile_path": "/whFI0dPAyXdUvGfnXcKf8W40mgk.jpg",
      "popularity": 15.735,
      "adult": false,
      "known_for_department": "Acting"
    },
    {
      "id": 1222951,
      "name": "Yoo In-young",
      "profile_path": "/x0vOHmoA04xhImosJ2o4UOXxJxh.jpg",
      "popularity": 15.729,
      "adult": false,
      "known_for_department": "Acting"
    }
  ]
}