{
  "page": 73,
  "total_results": 10000,
  "total_pages": 500,
  "results": [
    {
      "id": 2506,
      "name": "Alice Krige",
      "profile_path": "/gwkI4FAYnhkp9NWV3meATzQql0v.jpg",
      "popularity": 18.676,
      "adult": false,
      "known_for_department": "Acting"
    },
    {
      "id": 6195,
      "name": "Harold Perrineau",
      "profile_path": "/wytpGqpMRm2dOFTmLW9HU6wCuz1.jpg",
      "popularity": 18.674,
      "adult": false,
      "known_for_department": "Acting"
    },
    {
      "id": 76996,
      "name": "Jonathan Bennett",
      "profile_path": "/eEazzowhAFx6q4lNy9HJ1ggt12Y.jpg",
      "popularity": 18.662,
      "adult": false,
      "known_for_department": "Acting"
    },
    {
      "id": 1533800,
      "name": "Thomas Beaudoin",
      "profile_path": "/bCJfHKARr8ArNM9U7hRuCcsozPm.jpg",
      "popularity": 18.659,
      "adult": false,
      "known_for_department": "Acting"
    },
    {
      "id": 93999,
      "name": "Park Hee-soon",
      "profile_path": "/eSOBlNCdHIp3ob8psusBUMCBQMo.jpg",
      "popularity": 18.651,
      "adult": false,
      "known_for_department": "Acting"
    },
    {
      "id": 292250,
      "name": "S. J. Suryah",
      "profile_path": "/fRd4pnSnds4MR75x0cxlnSijwPD.jpg",
      "popularity": 18.647,
      "adult": false,
      "known_for_department": "Acting"
    },
    {
      "id": 21702,
      "name": "Ming-Na Wen",
      "profile_path": "/eqCzFF83It56cUdjpskzvg8jgq.jpg",
      "popularity": 18.64,
      "adult": false,
      "known_for_department": "Acting"
    },
    {
      "id": 12982,
      "name": "Peter Capaldi",
      "profile_path": "/wcsd1tMVFjgplfZlTUfb7fiD2zP.jpg",
      "popularity": 18.635,
      "adult": false,
      "known_for_department": "Acting"
    },
    {
      "id": 1768319,
      "name": "Madeline Wise",
      "profile_path": "/8au11zMSOm2dRPUi6akSf3FpSdz.jpg",
      "popularity": 18.623,
      "adult": false,
      "known_for_department": "Acting"
    },
    {
      "id": 1392542,
      "name": "Laya DeLeon Hayes",
      "profile_path": "/skkEDlSQDSBVtp2Lc4nfNgBTMu7.jpg",
      "popularity": 18.623,
      "adult": false,
      "known_for_department": "Acting"
    },
    {
      "id": 8654,
      "name": "Matthew Modine",
      "profile_path": "/z974QEHL12qUvLyk6hlWGAmDgom.jpg",
      "popularity": 18.618,
      "adult": false,
      "known_for_department": "Acting"
    },
    {
      "id": 1329984,
      "name": "Lim Ji-yeon",
      "profile_path": "/eyizLc6NgTaiZKyYGyBl9vz4MlI.jpg",
      "popularity": 18.609,
      "adult": false,
      "known_for_department": "Acting"
    },
    {
      "id": 26513,
      "name": "Debra Winger",
      "profile_path": "/zLMWoCRSeyUJCPUu53DLQQIAx1K.jpg",
      "popularity": 18.602,
      "adult": false,
      "known_for_department": "Acting"
    },
    {
      "id": 932967,
      "name": "Mahershala Ali",
      "profile_path": "/9ZmSejm5lnUVY5IJ1iNx2QEjnHb.jpg",
      "popularity": 18.593,
      "adult": false,
      "known_for_department": "Acting"
    },
    {
      "id": 586286,
      "name": "Hera Hilmar",
      "profile_path": "/hPrpOpQrJ0Ksh62NHFmKon4vEtr.jpg",
      "popularity": 18.59,
      "adult": false,
      "known_for_department": "Acting"
    },
    {
      "id": 18345,
      "name": "Brenda Fricker",
      "profile_path": "/dz8ylU8ZJtNyPr31URy2p3lCaok.jpg",
      "popularity": 18.567,
      "adult": false,
      "known_for_department": "Acting"
    },
    {
      "id": 21282,
      "name": "William Hickey",
      "profile_path": "/giWiDBa8ZQqUucVSpPv8IZ3KqhZ.jpg",
      "popularity": 18.553,
      "adult": false,
      "known_for_department": "Acting"
    },
    {
      "id": 33296,
      "name": "Torrey DeVitto",
      "profile_path": "/7RuKf3y2qRhuKL8E8e2XXdKqA6g.jpg",
      "popularity": 18.549,
      "adult": false,
      "known_for_department": "Acting"
    },
    {
      "id": 1321982,
      "name": "Ryusei Yokohama",
      "profile_path": "/rYEfBHyJ45GPKI0ZTCjukCzONqX.jpg",
      "popularity": 18.548,
      "adult": false,
      "known_for_department": "Acting"
    },
    {
      "id": 10478,
      "name": "Jeanne Tripplehorn",
      "profile_path": "/q7D9MDnMVc5PAm99853gszHwJy7.jpg",
      "popularity": 18.548,
      "adult": false,
      "known_for_department": "Acting"
    }
  ]
}