{
  "page": 164,
  "total_results": 10000,
  "total_pages": 500,
  "results": [
    {
      "id": 1699967,
      "name": "Laurence O'Fuarain",
      "profile_path": "/5r4Lp5xvDN0icYD1h85fAmMakG9.jpg",
      "popularity": 13.166,
      "adult": false,
      "known_for_department": "Acting"
    },
    {
      "id": 1339147,
      "name": "Tori Anderson",
      "profile_path": "/4s3YDyecXglwsBupl9fiK6WOGGS.jpg",
      "popularity": 13.162,
      "adult": false,
      "known_for_department": "Acting"
    },
    {
      "id": 1701963,
      "name": "Vin Zhang",
      "profile_path": "/vrij0eAMVJcN9TPSgZpI10TKclz.jpg",
      "popularity": 13.16,
      "adult": false,
      "known_for_department": "Acting"
    },
    {
      "id": 122851,
      "name": "Elsie Fisher",
      "profile_path": "/lSmrN828nMMXHvwr7IgO1qlYPSa.jpg",
      "popularity": 13.16,
      "adult": false,
      "known_for_department": "Acting"
    },
    {
      "id": 88702,
      "name": "J.P. Manoux",
      "profile_path": "/lLEfizV970QfahQSBssUvj8Exs7.jpg",
      "popularity": 13.157,
      "adult": false,
      "known_for_department": "Acting"
    },
    {
      "id": 70035,
      "name": "Maureen O'Hara",
      "profile_path": "/zilLxmynOSpL6W1bLJCgdZZ1wTv.jpg",
      "popularity": 13.157,
      "adult": false,
      "known_for_department": "Acting"
    },
    {
      "id": 58724,
      "name": "Rya Kihlstedt",
      "profile_path": "/86ysgxNPkckt8jp715X79CdopB7.jpg",
      "popularity": 13.156,
      "adult": false,
      "known_for_department": "Acting"
    },
    {
      "id": 11366,
      "name": "Lorenzo Lamas",
      "profile_path": "/40H8ed5hKkapzRNVFo2UWPGmK3w.jpg",
      "popularity": 13.156,
      "adult": false,
      "known_for_department": "Acting"
    },
    {
      "id": 219998,
      "name": "Keenan Tracey",
      "profile_path": "/popwE6NaGiion1XYgZSepu63oR5.jpg",
      "popularity": 13.153,
      "adult": false,
      "known_for_department": "Acting"
    },
    {
      "id": 1316375,
      "name": "Shirley Fuentes",
      "profile_path": "",
      "popularity": 13.152,
      "adult": false,
      "known_for_department": "Acting"
    },
    {
      "id": 71010,
      "name": "Tom Conti",
      "profile_path": "/5wfZGnmk4tHKf5n4xVeavBpZTOM.jpg",
      "popularity": 13.151,
      "adult": false,
      "known_for_department": "Acting"
    },
    {
      "id": 1248340,
      "name": "Haruka Tomatsu",
      "profile_path": "/geVvuA2zMGE5xzfc20aDelJSelu.jpg",
      "popularity": 13.15,
      "adult": false,
      "known_for_department": "Acting"
    },
    {
      "id": 1244197,
      "name": "Angelique Boyer",
      "profile_path": "/1jFWvoO4NHzPD7m4S5bD6h7xO0f.jpg",
      "popularity": 13.148,
      "adult": false,
      "known_for_department": "Acting"
    },
    {
      "id": 9825,
      "name": "Saffron Burrows",
      "profile_path": "/2qMLZh9XWquBt7TZF9wmDiOtJdm.jpg",
      "popularity": 13.145,
      "adult": false,
      "known_for_department": "Acting"
    },
    {
      "id": 11859,
      "name": "John Mills",
      "profile_path": "/jMqhI1NeTwgdKsrj9vMshk1r5hP.jpg",
      "popularity": 13.142,
      "adult": false,
      "known_for_department": "Acting"
    },
    {
      "id": 39189,
      "name": "Stephen Merchant",
      "profile_path": "/6WM2rK6390Nwk398syJbGcPvRct.jpg",
      "popularity": 13.139,
      "adult": false,
      "known_for_department": "Acting"
    },
    {
      "id": 15012,
      "name": "Katharine Towne",
      "profile_path": "/bpgrtlfr2oJw07FiuXWPZHzvtxo.jpg",
      "popularity": 13.138,
      "adult": false,
      "known_for_department": "Acting"
    },
    {
      "id": 28044,
      "name": "Merritt Wever",
      "profile_path": "/ldd1WntzQ72DVuNLoko8yMFHH7j.jpg",
      "popularity": 13.137,
      "adult": false,
      "known_for_department": "Acting"
    },
    {
      "id": 90496,
      "name": "Masako Nozawa",
      "profile_path": "/jxbXdejmPoiKnNoQz7Dkb80qC26.jpg",
      "popularity": 13.132,
      "adult": false,
      "known_for_department": "Acting"
    },
    {
      "id": 85286,
      "name": "Toshio Furukawa",
      "profile_path": "/zZjO0NxIbEhYW3507gXVnvWeRkG.jpg",
      "popularity": 13.131,
      "adult": false,
      "known_for_department": "Acting"
    }
  ]
}