{
  "page": 309,
  "total_results": 10000,
  "total_pages": 500,
  "results": [
    {
      "id": 3188432,
      "name": "Kiki May",
      "profile_path": "/bsOTYhKpEv07qonXb8tkVX59Hb5.jpg",
      "popularity": 9.778,
      "adult": false,
      "known_for_department": "Acting"
    },
    {
      "id": 27107,
      "name": "Mike Doyle",
      "profile_path": "/vWvYo2T80nz0F4hcXRBDpawUBo0.jpg",
      "popularity": 9.778,
      "adult": false,
      "known_for_department": "Acting"
    },
    {
      "id": 1982964,
      "name": "Merxat",
      "profile_path": "/g5LgRpLjUqK1JfZMP2rDgUa0opJ.jpg",
      "popularity": 9.777,
      "adult": false,
      "known_for_department": "Acting"
    },
    {
      "id": 147382,
      "name": "Eve Mauro",
      "profile_path": "/jaY2RiuWQsS2w7wtRKbtBZOBzEn.jpg",
      "popularity": 9.777,
      "adult": false,
      "known_for_department": "Acting"
    },
    {
      "id": 89761,
      "name": "Talat Bulut",
      "profile_path": "/zpW469wYWtZnZh92uNCoPGRADpz.jpg",
      "popularity": 9.777,
      "adult": false,
      "known_for_department": "Acting"
    },
    {
      "id": 227611,
      "name": "Mirai Shida",
      "profile_path": "/wfacZjLuVkaiW32ZNZqdjfLFNxC.jpg",
      "popularity": 9.773,
      "adult": false,
      "known_for_department": "Acting"
    },
    {
      "id": 98902,
      "name": "Bebe Drake",
      "profile_path": "/pSIS3aBdOlxlTzw6MKinGqK3OC9.jpg",
      "popularity": 9.773,
      "adult": false,
      "known_for_department": "Acting"
    },
    {
      "id": 76313,
      "name": "Daniella Monet",
      "profile_path": "/5QW1c5SUch81C5KIpfJgclJ4ct5.jpg",
      "popularity": 9.773,
      "adult": false,
      "known_for_department": "Acting"
    },
    {
      "id": 59967,
      "name": "Rebecca Gayheart",
      "profile_path": "/f2iGpnnW8Z0GmxA6EI4h2dxYK8y.jpg",
      "popularity": 9.772,
      "adult": false,
      "known_for_department": "Acting"
    },
    {
      "id": 2412020,
      "name": "Gawin Caskey",
      "profile_path": "/kRtd0hDJOJAUR2JxgjkSc7wEvXk.jpg",
      "popularity": 9.771,
      "adult": false,
      "known_for_department": "Acting"
    },
    {
      "id": 552067,
      "name": "Kim Tae-hoon",
      "profile_path": "/8mTd6HpLDFK2cwiWhoyZO78A5n1.jpg",
      "popularity": 9.77,
      "adult": false,
      "known_for_department": "Acting"
    },
    {
      "id": 58710,
      "name": "Amy Steel",
      "profile_path": "/EzrRTc6vAX8Ls3kmJ1sbe1LQm.jpg",
      "popularity": 9.769,
      "adult": false,
      "known_for_department": "Acting"
    },
    {
      "id": 24895,
      "name": "José Garcia",
      "profile_path": "/ml8JHunZl2TCBrcaseqtiEfpykm.jpg",
      "popularity": 9.769,
      "adult": false,
      "known_for_department": "Acting"
    },
    {
      "id": 87280,
      "name": "Bellamy Young",
      "profile_path": "/tTGC9qsuSaBD9OlphwIqK3TLtmh.jpg",
      "popularity": 9.768,
      "adult": false,
      "known_for_department": "Acting"
    },
    {
      "id": 1131724,
      "name": "Daniel Ings",
      "profile_path": "/VHtgRMz5t0F8DEjYMxSmY09DTw.jpg",
      "popularity": 9.767,
      "adult": false,
      "known_for_department": "Acting"
    },
    {
      "id": 82401,
      "name": "Adam Cheng",
      "profile_path": "/KHy7b3kAXP05VGcdsPy3Qf34GM.jpg",
      "popularity": 9.767,
      "adult": false,
      "known_for_department": "Acting"
    },
    {
      "id": 2309879,
      "name": "Charlie Vickers",
      "profile_path": "/nIn0RTnOukikIKiVwtzRwkpcJvy.jpg",
      "popularity": 9.765,
      "adult": false,
      "known_for_department": "Acting"
    },
    {
      "id": 2025254,
      "name": "Omar Ayuso",
      "profile_path": "/c4bAqv3PoSVK4ov7cw076NNqg6f.jpg",
      "popularity": 9.765,
      "adult": false,
      "known_for_department": "Acting"
    },
    {
      "id": 161433,
      "name": "Mark Goddard",
      "profile_path": "/1atoqdSY71UmbqXUpBwBNz6RuWD.jpg",
      "popularity": 9.765,
      "adult": false,
      "known_for_department": "Acting"
    },
    {
      "id": 82622,
      "name": "Charlotte Ross",
      "profile_path": "/aVPRnnTPWRhuylqQcivFBhNvXSv.jpg",
      "popularity": 9.763,
      "adult": false,
      "known_for_department": "Acting"
    }
  ]
}