{
  "page": 253,
  "total_results": 10000,
  "total_pages": 500,
  "results": [
    {
      "id": 92255,
      "name": "Jane Sibbett",
      "profile_path": "/bPtcUaWhHN7aQgtYUGeOp7M55nE.jpg",
      "popularity": 9.359,
      "adult": false,
      "known_for_department": "Acting"
    },
    {
      "id": 1126248,
      "name": "Magdalena Popławska",
      "profile_path": "/2RWwLWLBA3mCM301dZGhDUqBUCo.jpg",
      "popularity": 9.358,
      "adult": false,
      "known_for_department": "Acting"
    },
    {
      "id": 1246,
      "name": "Emily Mortimer",
      "profile_path": "/eh0AebcU5ag535e3KLb6ydWR09d.jpg",
      "popularity": 9.358,
      "adult": false,
      "known_for_department": "Acting"
    },
    {
      "id": 457386,
      "name": "Arian Moayed",
      "profile_path": "/vL5eKRzDGdMyQJpzODD6lfg42LV.jpg",
      "popularity": 9.355,
      "adult": false,
      "known_for_department": "Acting"
    },
    {
      "id": 3233227,
      "name": "Caner Topçu",
      "profile_path": "/hJZXFqNTakqcT2I4yuJZzmKrd7n.jpg",
      "popularity": 9.354,
      "adult": false,
      "known_for_department": "Acting"
    },
    {
      "id": 150,
      "name": "RZA",
      "profile_path": "/2PVYCKXb1X3PLawJNoYGLN1x0In.jpg",
      "popularity": 9.354,
      "adult": false,
      "known_for_department": "Sound"
    },
    {
      "id": 1538879,
      "name": "Jett Klyne",
      "profile_path": "/6F7fGR6iQFzKNFfHCCYZbg82Alk.jpg",
      "popularity": 9.353,
      "adult": false,
      "known_for_department": "Acting"
    },
    {
      "id": 101732,
      "name": "Jens Jacob Tychsen",
      "profile_path": "/xNlPnOkC9THEQDBlH6SurkqFlO0.jpg",
      "popularity": 9.349,
      "adult": false,
      "known_for_department": "Acting"
    },
    {
      "id": 81097,
      "name": "Shawn Roberts",
      "profile_path": "/vrA6GKTV7TuRHYlNFGLuqmCweBu.jpg",
      "popularity": 9.348,
      "adult": false,
      "known_for_department": "Acting"
    },
    {
      "id": 38706,
      "name": "Allison Scagliotti",
      "profile_path": "/rIgA7yh7E8M3fVhMIbT4jzrn6cM.jpg",
      "popularity": 9.344,
      "adult": false,
      "known_for_department": "Acting"
    },
    {
      "id": 53975,
      "name": "Deepika Padukone",
      "profile_path": "/kBGmOExBHwbVZDmGegGx3qZWw89.jpg",
      "popularity": 9.343,
      "adult": false,
      "known_for_department": "Acting"
    },
    {
      "id": 2205,
      "name": "Jessica Capshaw",
      "profile_path": "/ePpM2GPe5OXjtyesq06J3S1WCB.jpg",
      "popularity": 9.342,
      "adult": false,
      "known_for_department": "Acting"
    },
    {
      "id": 113224,
      "name": "Michaela Watkins",
      "profile_path": "/qw8RqZ2fehR0ZlHWwyH9WFjc3Qh.jpg",
      "popularity": 9.341,
      "adult": false,
      "known_for_department": "Acting"
    },
    {
      "id": 111512,
      "name": "Jerry Trainor",
      "profile_path": "/6zqRIYR24G5LRD5wHyOkE79babe.jpg",
      "popularity": 9.341,
      "adult": false,
      "known_for_department": "Acting"
    },
    {
      "id": 27037,
      "name": "Levan Uchaneishvili",
      "profile_path": "/oafFCVXZK6vb7DRzcIr6R5MXcH1.jpg",
      "popularity": 9.341,
      "adult": false,
      "known_for_department": "Acting"
    },
    {
      "id": 202845,
      "name": "Christine Woods",
      "profile_path": "/wBDuMqxjpqVcyT11CeokDWyqbCP.jpg",
      "popularity": 9.34,
      "adult": false,
      "known_for_department": "Acting"
    },
    {
      "id": 227792,
      "name": "Cynthia Khan",
      "profile_path": "/idcO9jXOyTZTz6bqnTLAynsHq4T.jpg",
      "popularity": 9.338,
      "adult": false,
      "known_for_department": "Acting"
    },
    {
      "id": 26066,
      "name": "Joe Flanigan",
      "profile_path": "/5AA1ORKIsnMakT6fCVy3JKlzMs6.jpg",
      "popularity": 9.338,
      "adult": false,
      "known_for_department": "Acting"
    },
    {
      "id": 327,
      "name": "Mekhi Phifer",
      "profile_path": "/b9qbdKiuJdNROpIdZCuUdN5Smam.jpg",
      "popularity": 9.338,
      "adult": false,
      "known_for_department": "Acting"
    },
    {
      "id": 1133012,
      "name": "Nadia Hilker",
      "profile_path": "/bxYGXSVP9s6vCBLE8Z6Az8MJh9N.jpg",
      "popularity": 9.337,
      "adult": false,
      "known_for_department": "Acting"
    }
  ]
}