{
  "page": 53,
  "total_results": 10000,
  "total_pages": 500,
  "results": [
    {
      "id": 6162,
      "name": "Paul Bettany",
      "profile_path": "/oNrDowF5cRtK5lJJuCAh0KeFizy.jpg",
      "popularity": 21.284,
      "adult": false,
      "known_for_department": "Acting"
    },
    {
      "id": 38940,
      "name": "Evan Rachel Wood",
      "profile_path": "/6cACkvydsDc4lwGEy9eqFmsbM4E.jpg",
      "popularity": 21.28,
      "adult": false,
      "known_for_department": "Acting"
    },
    {
      "id": 8767,
      "name": "Jim Caviezel",
      "profile_path": "/tKaddg8oU30kM18GlTKNlfYs0Yr.jpg",
      "popularity": 21.276,
      "adult": false,
      "known_for_department": "Acting"
    },
    {
      "id": 1247,
      "name": "Matthew Goode",
      "profile_path": "/3XaKKl0bKswTWbJ0Lh9nZ4UdAQo.jpg",
      "popularity": 21.274,
      "adult": false,
      "known_for_department": "Acting"
    },
    {
      "id": 707,
      "name": "Dan Aykroyd",
      "profile_path": "/iVMmeVJx8IpCEjlGBZWzIWvX5Qo.jpg",
      "popularity": 21.272,
      "adult": false,
      "known_for_department": "Acting"
    },
    {
      "id": 1356630,
      "name": "Charlie Murphy",
      "profile_path": "/3kgiUhc4fvFpAZTF5MylwjEvJNR.jpg",
      "popularity": 21.263,
      "adult": false,
      "known_for_department": "Acting"
    },
    {
      "id": 1550587,
      "name": "Tomer Capone",
      "profile_path": "/r6s7dkYZUJpd00C7p9itT6Gp8XB.jpg",
      "popularity": 21.261,
      "adult": false,
      "known_for_department": "Acting"
    },
    {
      "id": 1233749,
      "name": "Fiona Gubelmann",
      "profile_path": "/c80VyX8RyupJXb7EqTxHNHtN4Cn.jpg",
      "popularity": 21.258,
      "adult": false,
      "known_for_department": "Acting"
    },
    {
      "id": 4494,
      "name": "Lisa Ann Walter",
      "profile_path": "/3xeMzT5zOC0UM9DgHne3oGZmf1R.jpg",
      "popularity": 21.25,
      "adult": false,
      "known_for_department": "Acting"
    },
    {
      "id": 1744377,
      "name": "Hong Sae-hee",
      "profile_path": "",
      "popularity": 21.248,
      "adult": false,
      "known_for_department": "Acting"
    },
    {
      "id": 14990,
      "name": "Morgan Fairchild",
      "profile_path": "/2vhCJ09RJBgiiHbjMs6qddOxycb.jpg",
      "popularity": 21.246,
      "adult": false,
      "known_for_department": "Acting"
    },
    {
      "id": 9594,
      "name": "Katharine Ross",
      "profile_path": "/m6PKHjvkGAWVBVMYQfjTxdXnUHD.jpg",
      "popularity": 21.241,
      "adult": false,
      "known_for_department": "Acting"
    },
    {
      "id": 5049,
      "name": "John Hurt",
      "profile_path": "/wGDGhBOggA8I2ktgc1QoHABEF0m.jpg",
      "popularity": 21.229,
      "adult": false,
      "known_for_department": "Acting"
    },
    {
      "id": 19303,
      "name": "Kevin Smith",
      "profile_path": "/uxDQ0NTZMnOuAaPa0tQzMFV9dx4.jpg",
      "popularity": 21.217,
      "adult": false,
      "known_for_department": "Directing"
    },
    {
      "id": 1036,
      "name": "Cybill Shepherd",
      "profile_path": "/kJ9JmNWeIas8L0W7nBzmIiSfKq.jpg",
      "popularity": 21.217,
      "adult": false,
      "known_for_department": "Acting"
    },
    {
      "id": 25246,
      "name": "Andy Lau",
      "profile_path": "/8LCbwZJhjJRew59dJ7xSqyozVWf.jpg",
      "popularity": 21.21,
      "adult": false,
      "known_for_department": "Acting"
    },
    {
      "id": 16619,
      "name": "Mr. T",
      "profile_path": "/6j5DkJuKwxZklLJWFJciUbh31jL.jpg",
      "popularity": 21.204,
      "adult": false,
      "known_for_department": "Acting"
    },
    {
      "id": 1243099,
      "name": "Grace Van Dien",
      "profile_path": "/ryy1FNdFJmX96wXGtrk4KQuKhvW.jpg",
      "popularity": 21.189,
      "adult": false,
      "known_for_department": "Acting"
    },
    {
      "id": 52139,
      "name": "Seth MacFarlane",
      "profile_path": "/8oQJqM51Z0Qtdb7sE6ZfX1peNCB.jpg",
      "popularity": 21.189,
      "adult": false,
      "known_for_department": "Acting"
    },
    {
      "id": 1278867,
      "name": "Kelly Greyson",
      "profile_path": "/dbygGZLqAqhPLQKVa24TACboAj9.jpg",
      "popularity": 21.161,
      "adult": false,
      "known_for_department": "Acting"
    }
  ]
}