{
  "page": 333,
  "total_results": 10000,
  "total_pages": 500,
  "results": [
    {
      "id": 18802,
      "name": "Ronald Reagan",
      "profile_path": "/tuB7bNPABSP3MtPKpdttbz2OdSU.jpg",
      "popularity": 10.196,
      "adult": false,
      "known_for_department": "Acting"
    },
    {
      "id": 1331981,
      "name": "Samantha Sloyan",
      "profile_path": "/prhRQ3npp7OwssXhxNUw0RTFjFw.jpg",
      "popularity": 10.194,
      "adult": false,
      "known_for_department": "Acting"
    },
    {
      "id": 1161100,
      "name": "Stéphane Blancafort",
      "profile_path": "/uoZlJVIUlQ9SfmNFoZy9F3c0uLj.jpg",
      "popularity": 10.194,
      "adult": false,
      "known_for_department": "Acting"
    },
    {
      "id": 69344,
      "name": "Dana Hill",
      "profile_path": "/kLFYJSiPfBmXTla2MKInPi4YAqX.jpg",
      "popularity": 10.194,
      "adult": false,
      "known_for_department": "Acting"
    },
    {
      "id": 1597386,
      "name": "Sheila Flitton",
      "profile_path": "/4kmscr7OwIUQGGqCsneCEZ2sVfc.jpg",
      "popularity": 10.191,
      "adult": false,
      "known_for_department": "Acting"
    },
    {
      "id": 31123,
      "name": "Rob Hardy",
      "profile_path": "/k9eLZRFbtMhMaS0h6bzXIZUKiE4.jpg",
      "popularity": 10.189,
      "adult": false,
      "known_for_department": "Directing"
    },
    {
      "id": 1126301,
      "name": "Alix Bénézech",
      "profile_path": "/dyPVcKkDl95XDwNeduWbsoPbEk2.jpg",
      "popularity": 10.188,
      "adult": false,
      "known_for_department": "Acting"
    },
    {
      "id": 124394,
      "name": "Chae Jung-an",
      "profile_path": "/242dNGEsHLaMIEpwWtsbX5lgEa9.jpg",
      "popularity": 10.188,
      "adult": false,
      "known_for_department": "Acting"
    },
    {
      "id": 21679,
      "name": "Vinette Robinson",
      "profile_path": "/8hhfJbSfsD4T8o82bHuR1kIElpJ.jpg",
      "popularity": 10.188,
      "adult": false,
      "known_for_department": "Acting"
    },
    {
      "id": 42571,
      "name": "Susan Lynch",
      "profile_path": "/sTl2Tn2nzLRjKdk0CKMBb87Gz8X.jpg",
      "popularity": 10.187,
      "adult": false,
      "known_for_department": "Acting"
    },
    {
      "id": 1575059,
      "name": "Louis Hunter",
      "profile_path": "/5nqSaQi4DMMdLydwGNwnxxM3KQD.jpg",
      "popularity": 10.186,
      "adult": false,
      "known_for_department": "Acting"
    },
    {
      "id": 84996,
      "name": "Yoo Hae-jin",
      "profile_path": "/y6L2EsmnbnCFxCgfHR2oeL7oQoo.jpg",
      "popularity": 10.186,
      "adult": false,
      "known_for_department": "Acting"
    },
    {
      "id": 2510156,
      "name": "İlhan Şen",
      "profile_path": "/rk1yloshwyP7qQtYOuJHIhkKrJR.jpg",
      "popularity": 10.185,
      "adult": false,
      "known_for_department": "Acting"
    },
    {
      "id": 1923199,
      "name": "Jessica Dinnage",
      "profile_path": "/syhp9x9IlW5jGzaicMBD3Ykg1hS.jpg",
      "popularity": 10.185,
      "adult": false,
      "known_for_department": "Acting"
    },
    {
      "id": 59270,
      "name": "Riccardo Scamarcio",
      "profile_path": "/s3ZAW6QA6yZaOx9wmAZfGZ1Z8BP.jpg",
      "popularity": 10.185,
      "adult": false,
      "known_for_department": "Acting"
    },
    {
      "id": 27776,
      "name": "Nanako Matsushima",
      "profile_path": "/s8fAUcWvIBsax1chMjvNBFHV7qG.jpg",
      "popularity": 10.185,
      "adult": false,
      "known_for_department": "Acting"
    },
    {
      "id": 6431,
      "name": "Darren Aronofsky",
      "profile_path": "/sjcLM5iuF9ArlU4iv532tjmFmYN.jpg",
      "popularity": 10.184,
      "adult": false,
      "known_for_department": "Directing"
    },
    {
      "id": 57351,
      "name": "George Gaynes",
      "profile_path": "/iXG1TjYQK7JHff9bqFPAxtCuo7q.jpg",
      "popularity": 10.183,
      "adult": false,
      "known_for_department": "Acting"
    },
    {
      "id": 52776,
      "name": "Dagmara Domińczyk",
      "profile_path": "/lxQclVBcr5JqRwHKCWP4L092JG.jpg",
      "popularity": 10.183,
      "adult": false,
      "known_for_department": "Acting"
    },
    {
      "id": 21319,
      "name": "Sheri Moon Zombie",
      "profile_path": "/jJwAiJps5cOz484c3QJgjKe1yxJ.jpg",
      "popularity": 10.183,
      "adult": false,
      "known_for_department": "Acting"
    }
  ]
}