{
  "page": 146,
  "total_results": 10000,
  "total_pages": 500,
  "results": [
    {
      "id": 5139,
      "name": "Robert Englund",
      "profile_path": "/lxbMxwL62jkO0wnfV8HgrANBm07.jpg",
      "popularity": 16.148,
      "adult": false,
      "known_for_department": "Acting"
    },
    {
      "id": 6730,
      "name": "Sacha Baron Cohen",
      "profile_path": "/8J2LxfW3owPTc9OzbBoUbADFOBb.jpg",
      "popularity": 16.147,
      "adult": false,
      "known_for_department": "Acting"
    },
    {
      "id": 388,
      "name": "Jim Broadbent",
      "profile_path": "/jTyvGwwR1NFpvgDhcmuWZCM241w.jpg",
      "popularity": 16.142,
      "adult": false,
      "known_for_department": "Acting"
    },
    {
      "id": 117504,
      "name": "Yoon Jin-seo",
      "profile_path": "/5br9jHiVLUTmiNxqswpmDg7Zowb.jpg",
      "popularity": 16.141,
      "adult": false,
      "known_for_department": "Acting"
    },
    {
      "id": 592147,
      "name": "Yoko Maki",
      "profile_path": "/4phh6EvHzEMFFoY5fx3I0lTWPw2.jpg",
      "popularity": 16.14,
      "adult": false,
      "known_for_department": "Acting"
    },
    {
      "id": 118589,
      "name": "Susanna Hoffs",
      "profile_path": "/qMvdKFr7rC2wzuzpow0yop2AoFw.jpg",
      "popularity": 16.136,
      "adult": false,
      "known_for_department": "Acting"
    },
    {
      "id": 116573,
      "name": "Martin Cummins",
      "profile_path": "/gnc1YUrHiYciRWB4ZCJFk9boAHg.jpg",
      "popularity": 16.134,
      "adult": false,
      "known_for_department": "Acting"
    },
    {
      "id": 49818,
      "name": "Jacqueline Obradors",
      "profile_path": "/weJqLT6j8AYiZ9hBvFYjr3WG8DV.jpg",
      "popularity": 16.134,
      "adult": false,
      "known_for_department": "Acting"
    },
    {
      "id": 52,
      "name": "David Morse",
      "profile_path": "/A6zGbkFjM3uajIakgsSeNTmSKqY.jpg",
      "popularity": 16.133,
      "adult": false,
      "known_for_department": "Acting"
    },
    {
      "id": 122358,
      "name": "Brigitte Kingsley",
      "profile_path": "/dMbj90C7RrDVZXFTvSByZjuewFl.jpg",
      "popularity": 16.13,
      "adult": false,
      "known_for_department": "Acting"
    },
    {
      "id": 103994,
      "name": "Sophie Lowe",
      "profile_path": "/5nco3uflgKK5JGmoLbc0Yna34ZQ.jpg",
      "popularity": 16.13,
      "adult": false,
      "known_for_department": "Acting"
    },
    {
      "id": 428440,
      "name": "Poorna Jagannathan",
      "profile_path": "/o2BQX1tAgo47GGvpBy1k4LQLRs6.jpg",
      "popularity": 16.127,
      "adult": false,
      "known_for_department": "Acting"
    },
    {
      "id": 54826,
      "name": "Traylor Howard",
      "profile_path": "/ymB8T4c0ech3oL1G0EhdlEWWg3m.jpg",
      "popularity": 16.124,
      "adult": false,
      "known_for_department": "Acting"
    },
    {
      "id": 9631,
      "name": "Carel Struycken",
      "profile_path": "/lmVuJQVeNVQo9x05WKLYmFBCpwA.jpg",
      "popularity": 16.124,
      "adult": false,
      "known_for_department": "Acting"
    },
    {
      "id": 57346,
      "name": "Kate Nauta",
      "profile_path": "/4J89UrOIyPgLLX0cwZO5t8Zu0N6.jpg",
      "popularity": 16.123,
      "adult": false,
      "known_for_department": "Acting"
    },
    {
      "id": 1524,
      "name": "Harold Ramis",
      "profile_path": "/kmTMTxthkDAsygk3Am4IUSVYYRi.jpg",
      "popularity": 16.122,
      "adult": false,
      "known_for_department": "Directing"
    },
    {
      "id": 1721637,
      "name": "Sin Yeon Woo",
      "profile_path": "",
      "popularity": 16.113,
      "adult": false,
      "known_for_department": "Acting"
    },
    {
      "id": 1260846,
      "name": "Si Man Yeung",
      "profile_path": "/3iliyfZGyqD29ZZ8gjisgG4OiS7.jpg",
      "popularity": 16.113,
      "adult": false,
      "known_for_department": "Acting"
    },
    {
      "id": 77069,
      "name": "Lenny Kravitz",
      "profile_path": "/pIoGuEUax5aeH3PKuaYK9wKEeoj.jpg",
      "popularity": 16.111,
      "adult": false,
      "known_for_department": "Acting"
    },
    {
      "id": 6720,
      "name": "Joan Chen",
      "profile_path": "/7uMTJpY8B2hufXqmlxJpaUPpcJi.jpg",
      "popularity": 16.11,
      "adult": false,
      "known_for_department": "Acting"
    }
  ]
}