{
  "page": 60,
  "total_results": 10000,
  "total_pages": 500,
  "results": [
    {
      "id": 5528,
      "name": "William Moseley",
      "profile_path": "/wPahfIdOR6ohIgmgVrCb3RPApAU.jpg",
      "popularity": 21.358,
      "adult": false,
      "known_for_department": "Acting"
    },
    {
      "id": 215055,
      "name": "Steven Yeun",
      "profile_path": "/5XU0L0drBa7JlGrLg2w3LhAgjG0.jpg",
      "popularity": 21.353,
      "adult": false,
      "known_for_department": "Acting"
    },
    {
      "id": 1933,
      "name": "George Peppard",
      "profile_path": "/td2SN1HGqgGsWLi4YhReMYvH2ik.jpg",
      "popularity": 21.349,
      "adult": false,
      "known_for_department": "Acting"
    },
    {
      "id": 129104,
      "name": "Melissa Benoist",
      "profile_path": "/1F0fCPNhb5W0WyFe8Tszfbx1DEp.jpg",
      "popularity": 21.347,
      "adult": false,
      "known_for_department": "Acting"
    },
    {
      "id": 21127,
      "name": "Bobby Cannavale",
      "profile_path": "/gYQwTbEj5IBPYKLGKgrsNGrWAMl.jpg",
      "popularity": 21.34,
      "adult": false,
      "known_for_department": "Acting"
    },
    {
      "id": 134488,
      "name": "Sara Malakul Lane",
      "profile_path": "/oWI0wORmnUpu5MyufEFQvymOCNQ.jpg",
      "popularity": 21.339,
      "adult": false,
      "known_for_department": "Acting"
    },
    {
      "id": 40036,
      "name": "Taraji P. Henson",
      "profile_path": "/rxnEvzGlRBsE94s7lC4cMAiLluH.jpg",
      "popularity": 21.334,
      "adult": false,
      "known_for_department": "Acting"
    },
    {
      "id": 116474,
      "name": "Kevin Alejandro",
      "profile_path": "/bh4aQqP7kJzL2Ls9tj5OmhsBlqi.jpg",
      "popularity": 21.323,
      "adult": false,
      "known_for_department": "Acting"
    },
    {
      "id": 51581,
      "name": "Clarence Gilyard Jr.",
      "profile_path": "/lg667Ch3InXAtJllEOFRdDW5fZX.jpg",
      "popularity": 21.309,
      "adult": false,
      "known_for_department": "Acting"
    },
    {
      "id": 22227,
      "name": "Christopher Meloni",
      "profile_path": "/hTQk4fLmGY7T7nBpK8LE3Y5Oq61.jpg",
      "popularity": 21.286,
      "adult": false,
      "known_for_department": "Acting"
    },
    {
      "id": 1459772,
      "name": "Nam Joo-hyuk",
      "profile_path": "/zQdkQio6SyNpKoudDLc17BRQDGD.jpg",
      "popularity": 21.259,
      "adult": false,
      "known_for_department": "Acting"
    },
    {
      "id": 46074,
      "name": "Rachael Harris",
      "profile_path": "/hG2kUSUzEnHxfpEkxogHLCsLLqw.jpg",
      "popularity": 21.25,
      "adult": false,
      "known_for_department": "Acting"
    },
    {
      "id": 56890,
      "name": "Malcolm McDowell",
      "profile_path": "/hL8ep4Hqj6izX7IlzE7Bbcfq62w.jpg",
      "popularity": 21.239,
      "adult": false,
      "known_for_department": "Acting"
    },
    {
      "id": 448,
      "name": "Hilary Swank",
      "profile_path": "/rYetl0tRJrF8oQNhu00n9Ku4PNr.jpg",
      "popularity": 21.234,
      "adult": false,
      "known_for_department": "Acting"
    },
    {
      "id": 53807,
      "name": "Armie Hammer",
      "profile_path": "/dacZbbnheEhejYbkDgz7WhhSBJp.jpg",
      "popularity": 21.221,
      "adult": false,
      "known_for_department": "Acting"
    },
    {
      "id": 17288,
      "name": "Michael Fassbender",
      "profile_path": "/e7SxBHtAxTyNE4GdOrHD7kqkukm.jpg",
      "popularity": 21.215,
      "adult": false,
      "known_for_department": "Acting"
    },
    {
      "id": 71187,
      "name": "Jon Øigarden",
      "profile_path": "/kUkQP35OdAUtAr7lw7O9RNfFRL4.jpg",
      "popularity": 21.21,
      "adult": false,
      "known_for_department": "Acting"
    },
    {
      "id": 6944,
      "name": "Octavia Spencer",
      "profile_path": "/zDGydyM1fmvNWzQlTAns9IZjNxT.jpg",
      "popularity": 21.21,
      "adult": false,
      "known_for_department": "Acting"
    },
    {
      "id": 1281,
      "name": "Freddie Highmore",
      "profile_path": "/4haqYYQJFhFe9Poqb26Xpuj1VJk.jpg",
      "popularity": 21.182,
      "adult": false,
      "known_for_department": "Acting"
    },
    {
      "id": 12928,
      "name": "Ross Malinger",
      "profile_path": "/1ypFHPovmrxA71fWZAufnJZMhAG.jpg",
      "popularity": 21.178,
      "adult": false,
      "known_for_department": "Acting"
    }
  ]
}