{
  "page": 476,
  "total_results": 10000,
  "total_pages": 500,
  "results": [
    {
      "id": 1258442,
      "name": "Puff Kuo",
      "profile_path": "/9AG5JCQWuyDBaFQVBGSv0gYqOji.jpg",
      "popularity": 7.217,
      "adult": false,
      "known_for_department": "Acting"
    },
    {
      "id": 57358,
      "name": "Brant von Hoffman",
      "profile_path": "/ijMKZOXtDZqEHdQ7oe1QNuZdw74.jpg",
      "popularity": 7.216,
      "adult": false,
      "known_for_department": "Acting"
    },
    {
      "id": 238393,
      "name": "Alain Figlarz",
      "profile_path": "/wqag3Ab0zVl5Gkeet0NPJodpsiG.jpg",
      "popularity": 7.215,
      "adult": false,
      "known_for_department": "Acting"
    },
    {
      "id": 8499,
      "name": "William Windom",
      "profile_path": "/jLKGf2gQR4cBDnUWFOsXY2y5Pui.jpg",
      "popularity": 7.215,
      "adult": false,
      "known_for_department": "Acting"
    },
    {
      "id": 2764542,
      "name": "Cooper Hoffman",
      "profile_path": "/3KEX72zCYwS0pub1DnpMbdJ9uC5.jpg",
      "popularity": 7.214,
      "adult": false,
      "known_for_department": "Acting"
    },
    {
      "id": 1229895,
      "name": "Tomohisa Yamashita",
      "profile_path": "/oWjRPp17jVrLJLt55Wrzad3s4vb.jpg",
      "popularity": 7.214,
      "adult": false,
      "known_for_department": "Acting"
    },
    {
      "id": 1324931,
      "name": "Naomi Ozora",
      "profile_path": "/qygKX6EtfvPdnPsMM0d41mPztP2.jpg",
      "popularity": 7.213,
      "adult": false,
      "known_for_department": "Acting"
    },
    {
      "id": 1234894,
      "name": "Aliza Vellani",
      "profile_path": "/tu1C6uOXmCOpINfAzPeXWbvyts9.jpg",
      "popularity": 7.212,
      "adult": false,
      "known_for_department": "Acting"
    },
    {
      "id": 2177276,
      "name": "Gai Yuexi",
      "profile_path": "/5vvtn9A8DaxtNtNFftvuoKoehzD.jpg",
      "popularity": 7.211,
      "adult": false,
      "known_for_department": "Acting"
    },
    {
      "id": 67813,
      "name": "Baltasar Kormákur",
      "profile_path": "/bC9ifwIjsR3VTgJv83Px71mroTl.jpg",
      "popularity": 7.211,
      "adult": false,
      "known_for_department": "Directing"
    },
    {
      "id": 32905,
      "name": "Rachel Dratch",
      "profile_path": "/5I1P5oQ3WyV4eIM8E89zO1xVYuM.jpg",
      "popularity": 7.211,
      "adult": false,
      "known_for_department": "Acting"
    },
    {
      "id": 10722,
      "name": "Graham Chapman",
      "profile_path": "/8U8FnqmlGtAIIsMghgtNwvVXT4U.jpg",
      "popularity": 7.211,
      "adult": false,
      "known_for_department": "Acting"
    },
    {
      "id": 2447707,
      "name": "Gordon Cormier",
      "profile_path": "/sennc79fy7k7C9UQyd3euiTPl3.jpg",
      "popularity": 7.21,
      "adult": false,
      "known_for_department": "Acting"
    },
    {
      "id": 12797,
      "name": "Glenn Morshower",
      "profile_path": "/SjgNUSLoBAVossDI4QkNtDxYDZ.jpg",
      "popularity": 7.21,
      "adult": false,
      "known_for_department": "Acting"
    },
    {
      "id": 10070,
      "name": "Mie Hama",
      "profile_path": "/6FcFY54cYhu0r0l5zdtYk5pNjhx.jpg",
      "popularity": 7.21,
      "adult": false,
      "known_for_department": "Acting"
    },
    {
      "id": 8894,
      "name": "Jeff Conaway",
      "profile_path": "/5LSFAaWqppiYSJmikXciybmuFat.jpg",
      "popularity": 7.21,
      "adult": false,
      "known_for_department": "Acting"
    },
    {
      "id": 124111,
      "name": "Mammootty",
      "profile_path": "/c5ewp9XtDIOwK5QWhwA7TD0GzqO.jpg",
      "popularity": 7.209,
      "adult": false,
      "known_for_department": "Acting"
    },
    {
      "id": 85756,
      "name": "Frankie Shaw",
      "profile_path": "/4G9ynxaxnExng4vSt56j7mrKlKf.jpg",
      "popularity": 7.209,
      "adult": false,
      "known_for_department": "Acting"
    },
    {
      "id": 1230173,
      "name": "Nancy Carell",
      "profile_path": "/uKVHd9dhyBtJtRYMkpRTeeh55oh.jpg",
      "popularity": 7.208,
      "adult": false,
      "known_for_department": "Acting"
    },
    {
      "id": 1220166,
      "name": "Angela Griffin",
      "profile_path": "/sIKHjdvHhT1mMqNR4nFeaYtdxu1.jpg",
      "popularity": 7.208,
      "adult": false,
      "known_for_department": "Acting"
    }
  ]
}