{
  "page": 304,
  "total_results": 10000,
  "total_pages": 500,
  "results": [
    {
      "id": 11280,
      "name": "Ben Miles",
      "profile_path": "/mT3BqoFUkyktXLvefQA6VxaGHJz.jpg",
      "popularity": 8.654,
      "adult": false,
      "known_for_department": "Acting"
    },
    {
      "id": 21430,
      "name": "Natassia Malthe",
      "profile_path": "/9Nr5wmzQyxhexT16Bm3kxnQdEcG.jpg",
      "popularity": 8.653,
      "adult": false,
      "known_for_department": "Acting"
    },
    {
      "id": 7087,
      "name": "Brad Bird",
      "profile_path": "/ZX1hAfWK1zslpB6ifwgDP2uBqn.jpg",
      "popularity": 8.653,
      "adult": false,
      "known_for_department": "Directing"
    },
    {
      "id": 1969661,
      "name": "Sevda Erginci",
      "profile_path": "/tl2cuFqy0YO5n8BCW1DCJFO3wkj.jpg",
      "popularity": 8.652,
      "adult": false,
      "known_for_department": "Acting"
    },
    {
      "id": 1493223,
      "name": "Taylor Hickson",
      "profile_path": "/qYc16SYLGSwm31MklUP42oKeTmO.jpg",
      "popularity": 8.651,
      "adult": false,
      "known_for_department": "Acting"
    },
    {
      "id": 145633,
      "name": "Noémie Lenoir",
      "profile_path": "/6qUNl0kczXHMN4yHrsDYEcEjw3O.jpg",
      "popularity": 8.651,
      "adult": false,
      "known_for_department": "Acting"
    },
    {
      "id": 175628,
      "name": "Marta DuBois",
      "profile_path": "/kUmj0ooPSyrEEVg7MMAYFkgrO6a.jpg",
      "popularity": 8.65,
      "adult": false,
      "known_for_department": "Acting"
    },
    {
      "id": 83358,
      "name": "Michael Chan",
      "profile_path": "/n5zkWo5LFGV0GzW3N2IKss8mcqr.jpg",
      "popularity": 8.65,
      "adult": false,
      "known_for_department": "Acting"
    },
    {
      "id": 7540,
      "name": "Licia Maglietta",
      "profile_path": "/6xVrkk4SMYf0cW57zA3fQC9kPks.jpg",
      "popularity": 8.65,
      "adult": false,
      "known_for_department": "Acting"
    },
    {
      "id": 1796129,
      "name": "Anastasia Marinina",
      "profile_path": "/kUDNJ4XYLaJXfjjk7M0eQgvD9gv.jpg",
      "popularity": 8.649,
      "adult": false,
      "known_for_department": "Acting"
    },
    {
      "id": 184955,
      "name": "Gabrielle Drake",
      "profile_path": "/xFOxjDfrXq81rxw3BuqkEk1UBfF.jpg",
      "popularity": 8.649,
      "adult": false,
      "known_for_department": "Acting"
    },
    {
      "id": 1863632,
      "name": "D. Danny Warhol",
      "profile_path": "/yUnbaV4KufUp0QJQfxfDXz1HDuj.jpg",
      "popularity": 8.648,
      "adult": false,
      "known_for_department": "Acting"
    },
    {
      "id": 1522702,
      "name": "Berk Atan",
      "profile_path": "/6o2nNoijKlfYZtJUf24P8WQoYhA.jpg",
      "popularity": 8.647,
      "adult": false,
      "known_for_department": "Acting"
    },
    {
      "id": 76625,
      "name": "David Sullivan",
      "profile_path": "/vUdSFwbtQJnmvdXgUKq7O6M1FoU.jpg",
      "popularity": 8.647,
      "adult": false,
      "known_for_department": "Acting"
    },
    {
      "id": 17183,
      "name": "Jackie Earle Haley",
      "profile_path": "/qVPNzBEm9xF4YX1SwkXhxgsuqCt.jpg",
      "popularity": 8.646,
      "adult": false,
      "known_for_department": "Acting"
    },
    {
      "id": 456066,
      "name": "Ryan Lee",
      "profile_path": "/1DpDbF9qi9nnMfKfGKnyhNPkNCb.jpg",
      "popularity": 8.645,
      "adult": false,
      "known_for_department": "Acting"
    },
    {
      "id": 68470,
      "name": "Minami Takayama",
      "profile_path": "/k4SkjFoXtHMPh1PvhaJkSaatJdq.jpg",
      "popularity": 8.645,
      "adult": false,
      "known_for_department": "Acting"
    },
    {
      "id": 1350,
      "name": "Irène Jacob",
      "profile_path": "/yDpLjFtglSDlq3pvITr7O5AQfvg.jpg",
      "popularity": 8.645,
      "adult": false,
      "known_for_department": "Acting"
    },
    {
      "id": 42133,
      "name": "Nina Siemaszko",
      "profile_path": "/aXEBJst8pDU662tkrnJ1XZb4uUi.jpg",
      "popularity": 8.643,
      "adult": false,
      "known_for_department": "Acting"
    },
    {
      "id": 41218,
      "name": "Edward Albert",
      "profile_path": "/a48LqHHjoqO4ObEeMhFBq7gsEL8.jpg",
      "popularity": 8.643,
      "adult": false,
      "known_for_department": "Acting"
    }
  ]
}