{
  "page": 394,
  "total_results": 10000,
  "total_pages": 500,
  "results": [
    {
      "id": 167561,
      "name": "John Cunningham",
      "profile_path": "/hXBlmWKvD342CcHzYbOeucslaJU.jpg",
      "popularity": 7.685,
      "adult": false,
      "known_for_department": "Acting"
    },
    {
      "id": 70830,
      "name": "Faye Grant",
      "profile_path": "/qFe3A7L3vClrffDSpDK3eNkpmkR.jpg",
      "popularity": 7.685,
      "adult": false,
      "known_for_department": "Acting"
    },
    {
      "id": 33161,
      "name": "François Cluzet",
      "profile_path": "/f6PO7Lkrem1N4UmklxHro2k6Jto.jpg",
      "popularity": 7.685,
      "adult": false,
      "known_for_department": "Acting"
    },
    {
      "id": 17087,
      "name": "Michael Moore",
      "profile_path": "/m5YViuBUXfKAHNEUObGpzhzQPgE.jpg",
      "popularity": 7.685,
      "adult": false,
      "known_for_department": "Directing"
    },
    {
      "id": 148360,
      "name": "Ajith Kumar",
      "profile_path": "/bCS0pp7YNHoXJvHObBLoOJRUUYs.jpg",
      "popularity": 7.684,
      "adult": false,
      "known_for_department": "Acting"
    },
    {
      "id": 58381,
      "name": "Vince Vieluf",
      "profile_path": "/q2ELa1TZfsZOfk5r1gshtF7c6XC.jpg",
      "popularity": 7.684,
      "adult": false,
      "known_for_department": "Acting"
    },
    {
      "id": 2870602,
      "name": "Hong Seung-hee",
      "profile_path": "/iF8vAp98sUh0CQ07mhrCB4euHPR.jpg",
      "popularity": 7.683,
      "adult": false,
      "known_for_department": "Acting"
    },
    {
      "id": 142689,
      "name": "Suzanne Clément",
      "profile_path": "/at0Z7xuA8SiHTqpI6lsEwDQyMe8.jpg",
      "popularity": 7.683,
      "adult": false,
      "known_for_department": "Acting"
    },
    {
      "id": 20187,
      "name": "Camryn Manheim",
      "profile_path": "/eI42MrAyzJ3vbiGSIQB0FCwecba.jpg",
      "popularity": 7.683,
      "adult": false,
      "known_for_department": "Acting"
    },
    {
      "id": 1744,
      "name": "Robert Wise",
      "profile_path": "/aZr9MOD4xDNfzUfQBxkVg9EWl0V.jpg",
      "popularity": 7.682,
      "adult": false,
      "known_for_department": "Directing"
    },
    {
      "id": 25461,
      "name": "Meiko Kaji",
      "profile_path": "/vX5QZ9oyncMWL6zyhhVycepN4tm.jpg",
      "popularity": 7.681,
      "adult": false,
      "known_for_department": "Acting"
    },
    {
      "id": 20425,
      "name": "Donald Sumpter",
      "profile_path": "/jCxD84Vr9TTM5am0Ij3pCsNcted.jpg",
      "popularity": 7.681,
      "adult": false,
      "known_for_department": "Acting"
    },
    {
      "id": 190961,
      "name": "Patrick Garrow",
      "profile_path": "/gWu8E3zYnwBVa5zTZzQP3JO1uLI.jpg",
      "popularity": 7.68,
      "adult": false,
      "known_for_department": "Acting"
    },
    {
      "id": 114035,
      "name": "Seamus Dever",
      "profile_path": "/gnJNGjk84Lop6UKbVamvubeIYy6.jpg",
      "popularity": 7.68,
      "adult": false,
      "known_for_department": "Acting"
    },
    {
      "id": 44990,
      "name": "Peter Horton",
      "profile_path": "/6k6CV4kDL6BBvdCVY04jrJSiC2B.jpg",
      "popularity": 7.68,
      "adult": false,
      "known_for_department": "Acting"
    },
    {
      "id": 4070,
      "name": "Grace Kelly",
      "profile_path": "/3tYufv33dqbnK8IzV4hdsolndO0.jpg",
      "popularity": 7.68,
      "adult": false,
      "known_for_department": "Acting"
    },
    {
      "id": 587823,
      "name": "Alice Englert",
      "profile_path": "/lEXLJpH29u2fTTqOIEsxEtSQP8C.jpg",
      "popularity": 7.678,
      "adult": false,
      "known_for_department": "Acting"
    },
    {
      "id": 225603,
      "name": "Kenta Miyake",
      "profile_path": "/7YL8vM2KYzPMeQqTpHWmNj6s1AP.jpg",
      "popularity": 7.678,
      "adult": false,
      "known_for_department": "Acting"
    },
    {
      "id": 20258,
      "name": "Thure Lindhardt",
      "profile_path": "/lDkRe6dlQoiehjay8pEP2WLU4qG.jpg",
      "popularity": 7.678,
      "adult": false,
      "known_for_department": "Acting"
    },
    {
      "id": 7574,
      "name": "Cleo King",
      "profile_path": "/teEPJgvrvPrNEh83FdOroNSLJzO.jpg",
      "popularity": 7.677,
      "adult": false,
      "known_for_department": "Acting"
    }
  ]
}