{
  "page": 336,
  "total_results": 10000,
  "total_pages": 500,
  "results": [
    {
      "id": 145816,
      "name": "Melissa Peterman",
      "profile_path": "/cnrZJQYdsDaWBBRnSvDMSi9efXi.jpg",
      "popularity": 9.378,
      "adult": false,
      "known_for_department": "Acting"
    },
    {
      "id": 80524,
      "name": "Leon Schuster",
      "profile_path": "/a3tTR9ueo2XC4kjBpVMzV7Rm10y.jpg",
      "popularity": 9.378,
      "adult": false,
      "known_for_department": "Acting"
    },
    {
      "id": 70067,
      "name": "Maria Persson",
      "profile_path": "/w4uEqpvWp9PhWeJChuqeQZdy81K.jpg",
      "popularity": 9.378,
      "adult": false,
      "known_for_department": "Acting"
    },
    {
      "id": 13924,
      "name": "Mindy Sterling",
      "profile_path": "/hX99KTTCFxB4a2rB1SpDbr8imrK.jpg",
      "popularity": 9.378,
      "adult": false,
      "known_for_department": "Acting"
    },
    {
      "id": 4738,
      "name": "Connor Paolo",
      "profile_path": "/fAvc2hUrh0cqi3OfLteu5cWRD50.jpg",
      "popularity": 9.378,
      "adult": false,
      "known_for_department": "Acting"
    },
    {
      "id": 10254,
      "name": "Mario Adorf",
      "profile_path": "/dCusK8NWuHzrI3Abf8nDNfe3DfA.jpg",
      "popularity": 9.377,
      "adult": false,
      "known_for_department": "Acting"
    },
    {
      "id": 1426718,
      "name": "Sara Soulié",
      "profile_path": "/yOEcpC0tRPnfD3AYcQ8yqkPJKAS.jpg",
      "popularity": 9.376,
      "adult": false,
      "known_for_department": "Acting"
    },
    {
      "id": 204975,
      "name": "Andrea Brooks",
      "profile_path": "/piGVo6lKrlM3UvTMNOEljmsxzM8.jpg",
      "popularity": 9.376,
      "adult": false,
      "known_for_department": "Acting"
    },
    {
      "id": 169024,
      "name": "Melinda Page Hamilton",
      "profile_path": "/etm8wKAz8ORm4oHtkTMFPCu8KR3.jpg",
      "popularity": 9.376,
      "adult": false,
      "known_for_department": "Acting"
    },
    {
      "id": 95038,
      "name": "Johanna Braddy",
      "profile_path": "/2aZpXth2OupCbG7jMjq3d81ych6.jpg",
      "popularity": 9.376,
      "adult": false,
      "known_for_department": "Acting"
    },
    {
      "id": 1320609,
      "name": "Phoebe Fox",
      "profile_path": "/1xY991AhQRGMlA7tq7L5iHLIBod.jpg",
      "popularity": 9.375,
      "adult": false,
      "known_for_department": "Acting"
    },
    {
      "id": 559494,
      "name": "Nada Šargin",
      "profile_path": "/2QfwzzADFXVdRlTHP1rOfjBBInn.jpg",
      "popularity": 9.375,
      "adult": false,
      "known_for_department": "Acting"
    },
    {
      "id": 3019,
      "name": "Olympia Dukakis",
      "profile_path": "/pwoIzB9QSjKkWORQ7SpetnxFizf.jpg",
      "popularity": 9.374,
      "adult": false,
      "known_for_department": "Acting"
    },
    {
      "id": 2521631,
      "name": "María Cecilia Botero",
      "profile_path": "/nH6eBBgv1PI9J6Ftkn01ny1TMt1.jpg",
      "popularity": 9.373,
      "adult": false,
      "known_for_department": "Acting"
    },
    {
      "id": 1197895,
      "name": "Cody Fern",
      "profile_path": "/bgxQmworCFDOnvBTgj7dTQ7CZ8O.jpg",
      "popularity": 9.373,
      "adult": false,
      "known_for_department": "Acting"
    },
    {
      "id": 2578261,
      "name": "Silke Bischoff",
      "profile_path": "/otuMTkDXzLwi9Lne4n8tUWakHOb.jpg",
      "popularity": 9.372,
      "adult": false,
      "known_for_department": "Acting"
    },
    {
      "id": 74619,
      "name": "Sean Anders",
      "profile_path": "/vWO1FiGZPOL4FdhbxeykOXRfcXJ.jpg",
      "popularity": 9.372,
      "adult": false,
      "known_for_department": "Writing"
    },
    {
      "id": 20388,
      "name": "KaDee Strickland",
      "profile_path": "/73xvqIpgGN4KqfFQJQR6q54I6FA.jpg",
      "popularity": 9.372,
      "adult": false,
      "known_for_department": "Acting"
    },
    {
      "id": 19587,
      "name": "Rumi Hiiragi",
      "profile_path": "/zITaVtFyc4xSM3mxSoPRWHbqgJI.jpg",
      "popularity": 9.372,
      "adult": false,
      "known_for_department": "Acting"
    },
    {
      "id": 14702,
      "name": "Cathy Moriarty",
      "profile_path": "/g5pXUDGH30egsCq9eTDrsikFAYk.jpg",
      "popularity": 9.372,
      "adult": false,
      "known_for_department": "Acting"
    }
  ]
}