{
  "page": 374,
  "total_results": 10000,
  "total_pages": 500,
  "results": [
    {
      "id": 10729,
      "name": "Charlotte Coleman",
      "profile_path": "/zAC3654KQPw1AXytQhjVNgf3tHT.jpg",
      "popularity": 8.506,
      "adult": false,
      "known_for_department": "Acting"
    },
    {
      "id": 4955,
      "name": "Dario Argento",
      "profile_path": "/2WjQlcLxhvmO9NtCfNh2npMVYqp.jpg",
      "popularity": 8.506,
      "adult": false,
      "known_for_department": "Directing"
    },
    {
      "id": 65928,
      "name": "J.D. Williams",
      "profile_path": "/xkvqaI7rOFehLIiJTA3laJpYVO9.jpg",
      "popularity": 8.505,
      "adult": false,
      "known_for_department": "Acting"
    },
    {
      "id": 93376,
      "name": "Logan Browning",
      "profile_path": "/3G52qSEQIJgPjsjH59U8pIN9fgb.jpg",
      "popularity": 8.504,
      "adult": false,
      "known_for_department": "Acting"
    },
    {
      "id": 67778,
      "name": "Jonathan Lipnicki",
      "profile_path": "/sCFCCqFNm5Xyl2eyhzoHH1L8zxF.jpg",
      "popularity": 8.504,
      "adult": false,
      "known_for_department": "Acting"
    },
    {
      "id": 12210,
      "name": "Jacek Koman",
      "profile_path": "/fajWa6UPn9eLne6TjT8zs4VOd7c.jpg",
      "popularity": 8.503,
      "adult": false,
      "known_for_department": "Acting"
    },
    {
      "id": 90596,
      "name": "Katie Featherston",
      "profile_path": "/zfoprDirNsWxvxDKvRzUyPXKGR6.jpg",
      "popularity": 8.502,
      "adult": false,
      "known_for_department": "Acting"
    },
    {
      "id": 2655420,
      "name": "Ludovica Francesconi",
      "profile_path": "/fVgmU4gSbxJp6wSGQbaJMfcKO3U.jpg",
      "popularity": 8.501,
      "adult": false,
      "known_for_department": "Acting"
    },
    {
      "id": 1123401,
      "name": "Yu Kobayashi",
      "profile_path": "/q98lvBNhHvxGYfIvfB3YRczsTeE.jpg",
      "popularity": 8.501,
      "adult": false,
      "known_for_department": "Acting"
    },
    {
      "id": 569452,
      "name": "Skai Jackson",
      "profile_path": "/q2vDLuxVy9YRM5j5F3OmKal9Omj.jpg",
      "popularity": 8.498,
      "adult": false,
      "known_for_department": "Acting"
    },
    {
      "id": 38407,
      "name": "Evan Sabara",
      "profile_path": "/jY7kNZ49qoGccxtAZcckwWwTPnG.jpg",
      "popularity": 8.498,
      "adult": false,
      "known_for_department": "Acting"
    },
    {
      "id": 17245,
      "name": "Ben McKenzie",
      "profile_path": "/2jlwhOXKakL6gk365u4gPkTtHHi.jpg",
      "popularity": 8.498,
      "adult": false,
      "known_for_department": "Acting"
    },
    {
      "id": 13328,
      "name": "Corin Redgrave",
      "profile_path": "/qUWLc5RRhKyoVXEZin2NI7zCxH8.jpg",
      "popularity": 8.498,
      "adult": false,
      "known_for_department": "Acting"
    },
    {
      "id": 1731959,
      "name": "Tanya Reynolds",
      "profile_path": "/m5FP6lzbxYon8W6hEvj9d4h21i4.jpg",
      "popularity": 8.497,
      "adult": false,
      "known_for_department": "Acting"
    },
    {
      "id": 1252370,
      "name": "Hwang Jung-eum",
      "profile_path": "/6cFV8HmyyyTl7QfZE9KJhr051SM.jpg",
      "popularity": 8.496,
      "adult": false,
      "known_for_department": "Acting"
    },
    {
      "id": 77318,
      "name": "Siwon",
      "profile_path": "/tUgdHQXrmrb0VgUeaT6bbeqfkA6.jpg",
      "popularity": 8.495,
      "adult": false,
      "known_for_department": "Acting"
    },
    {
      "id": 1243837,
      "name": "Meryem Uzerli",
      "profile_path": "/4NWUwawfcGwtXtzrApnfOB9lxxl.jpg",
      "popularity": 8.494,
      "adult": false,
      "known_for_department": "Acting"
    },
    {
      "id": 25146,
      "name": "Colin Ferguson",
      "profile_path": "/7SGIkq4AsacsqkrsRo95PJ9TiYI.jpg",
      "popularity": 8.494,
      "adult": false,
      "known_for_department": "Acting"
    },
    {
      "id": 58926,
      "name": "Katt Williams",
      "profile_path": "/bMz1OCDMC0MyLob6KIf5X3MS23m.jpg",
      "popularity": 8.492,
      "adult": false,
      "known_for_department": "Acting"
    },
    {
      "id": 46364,
      "name": "Shun Oguri",
      "profile_path": "/i7qWSb7OwW0gUkkKhUwMRfg6isR.jpg",
      "popularity": 8.492,
      "adult": false,
      "known_for_department": "Acting"
    }
  ]
}