{
  "page": 97,
  "total_results": 10000,
  "total_pages": 500,
  "results": [
    {
      "id": 1564846,
      "name": "Auli'i Cravalho",
      "profile_path": "/eEda2XBauR9YCAV1yJUsDyEdsiz.jpg",
      "popularity": 18.062,
      "adult": false,
      "known_for_department": "Acting"
    },
    {
      "id": 15309,
      "name": "Lori Petty",
      "profile_path": "/bmJFh4VxRii7h7jpo4YVC6BFeVd.jpg",
      "popularity": 18.059,
      "adult": false,
      "known_for_department": "Acting"
    },
    {
      "id": 109708,
      "name": "Bill Burr",
      "profile_path": "/g8VqrigObjAE3QP1Xei1qgO4kfx.jpg",
      "popularity": 18.052,
      "adult": false,
      "known_for_department": "Acting"
    },
    {
      "id": 15200,
      "name": "Jane Birkin",
      "profile_path": "/wjYt9WdPVEm0BKF0sWi6RyZREOc.jpg",
      "popularity": 18.041,
      "adult": false,
      "known_for_department": "Acting"
    },
    {
      "id": 53240,
      "name": "Riz Ahmed",
      "profile_path": "/1uP9RaX7BGVx7XGTEmwObBJJzsC.jpg",
      "popularity": 18.04,
      "adult": false,
      "known_for_department": "Acting"
    },
    {
      "id": 11616,
      "name": "Olivia Williams",
      "profile_path": "/gnL7XGfLiAbhqIjV4jAGIZgySJh.jpg",
      "popularity": 18.04,
      "adult": false,
      "known_for_department": "Acting"
    },
    {
      "id": 10699,
      "name": "Samantha Bond",
      "profile_path": "/apo13y77RnKUWTjY1FsW1DcQdkY.jpg",
      "popularity": 18.037,
      "adult": false,
      "known_for_department": "Acting"
    },
    {
      "id": 1508785,
      "name": "Ellie Bamber",
      "profile_path": "/mGy6vUx4vZGk1tQBoRhFEa7I7mj.jpg",
      "popularity": 18.035,
      "adult": false,
      "known_for_department": "Acting"
    },
    {
      "id": 215056,
      "name": "Chandler Riggs",
      "profile_path": "/bN2BtSPbZKijm8Bpp9hkxMxyv25.jpg",
      "popularity": 18.035,
      "adult": false,
      "known_for_department": "Acting"
    },
    {
      "id": 1485770,
      "name": "Lucas Jade Zumann",
      "profile_path": "/7ocQJdexgzKx4Yqk0qs9fChIniV.jpg",
      "popularity": 18.026,
      "adult": false,
      "known_for_department": "Acting"
    },
    {
      "id": 13640,
      "name": "Harvey Korman",
      "profile_path": "/cE5X1OAa6iDOo3JKj9uM8kHwQQI.jpg",
      "popularity": 18.025,
      "adult": false,
      "known_for_department": "Acting"
    },
    {
      "id": 240145,
      "name": "Han Hyo-joo",
      "profile_path": "/4E7NuJsR7AnMYAefFSHkj4cftdf.jpg",
      "popularity": 18.024,
      "adult": false,
      "known_for_department": "Acting"
    },
    {
      "id": 1291350,
      "name": "Tony Revolori",
      "profile_path": "/tSF6XmXDikrKZbFUeoDnafXxKjT.jpg",
      "popularity": 18.022,
      "adult": false,
      "known_for_department": "Acting"
    },
    {
      "id": 4301,
      "name": "Angie Dickinson",
      "profile_path": "/wA3ksZ5f4WHscrzmZGVCxri7WmJ.jpg",
      "popularity": 18.002,
      "adult": false,
      "known_for_department": "Acting"
    },
    {
      "id": 134704,
      "name": "Wu Ma",
      "profile_path": "/zfvulEXVw72RAf4OkOdkykDnqUH.jpg",
      "popularity": 18,
      "adult": false,
      "known_for_department": "Acting"
    },
    {
      "id": 31384,
      "name": "Jordi Mollà",
      "profile_path": "/2XEuPT0T9SRwcpsOXD9vMpm4Vad.jpg",
      "popularity": 17.999,
      "adult": false,
      "known_for_department": "Acting"
    },
    {
      "id": 16307,
      "name": "Maura Tierney",
      "profile_path": "/4BCrwdHdC4iRSDimvkoYaXg2qki.jpg",
      "popularity": 17.995,
      "adult": false,
      "known_for_department": "Acting"
    },
    {
      "id": 1338902,
      "name": "Jaina Lee Ortiz",
      "profile_path": "/ikGhIZ1vXkkr2ocZO2xWjWEex5D.jpg",
      "popularity": 17.986,
      "adult": false,
      "known_for_department": "Acting"
    },
    {
      "id": 16327,
      "name": "Timothy Hutton",
      "profile_path": "/oWVtWGEauBs0zXrk0cWqiqYxJtN.jpg",
      "popularity": 17.975,
      "adult": false,
      "known_for_department": "Acting"
    },
    {
      "id": 32290,
      "name": "Brenda Bakke",
      "profile_path": "/qfL8cAbxCtpTZYbVbVOYKR3lWhz.jpg",
      "popularity": 17.974,
      "adult": false,
      "known_for_department": "Acting"
    }
  ]
}