{
  "page": 281,
  "total_results": 10000,
  "total_pages": 500,
  "results": [
    {
      "id": 4201,
      "name": "Wayne Knight",
      "profile_path": "/xlGqbZjn48xAUa7eqTybZP360w0.jpg",
      "popularity": 9.437,
      "adult": false,
      "known_for_department": "Acting"
    },
    {
      "id": 1832856,
      "name": "Jumpol Adulkittiporn",
      "profile_path": "/alCgpzXB50QWfck3KFlfzkRnXSW.jpg",
      "popularity": 9.436,
      "adult": false,
      "known_for_department": "Acting"
    },
    {
      "id": 1690505,
      "name": "Raven Stewart",
      "profile_path": "/pRn96NbLXTsJ1jmRfTble6Sn1xG.jpg",
      "popularity": 9.433,
      "adult": false,
      "known_for_department": "Acting"
    },
    {
      "id": 1235615,
      "name": "Corrine Koslo",
      "profile_path": "/rBN9GIeUeaUqBqLa7J7hI5C3hNq.jpg",
      "popularity": 9.433,
      "adult": false,
      "known_for_department": "Acting"
    },
    {
      "id": 1134883,
      "name": "Aislinn Derbez",
      "profile_path": "/y3aA1x3JpBOZHhZzTPBpDyhcra1.jpg",
      "popularity": 9.433,
      "adult": false,
      "known_for_department": "Acting"
    },
    {
      "id": 544797,
      "name": "Chin Siu-ho",
      "profile_path": "/6Xs2S8kF3pwDLXDmik02BwEmeCR.jpg",
      "popularity": 9.433,
      "adult": false,
      "known_for_department": "Acting"
    },
    {
      "id": 18981,
      "name": "Amanda Bearse",
      "profile_path": "/vsigj6WmFdm6w7O7uA7UOWuxuxG.jpg",
      "popularity": 9.433,
      "adult": false,
      "known_for_department": "Directing"
    },
    {
      "id": 85977,
      "name": "Clive Standen",
      "profile_path": "/8cxLoC2qnzk0FvuLFLRGxYSq9i9.jpg",
      "popularity": 9.432,
      "adult": false,
      "known_for_department": "Acting"
    },
    {
      "id": 45586,
      "name": "Magda Szubanski",
      "profile_path": "/fNb650TNqOBG6dSP9bLhoxxI9wA.jpg",
      "popularity": 9.431,
      "adult": false,
      "known_for_department": "Acting"
    },
    {
      "id": 2025253,
      "name": "Mina El Hammani",
      "profile_path": "/jKfKVnCZThUFleeWWIaijPRiFbj.jpg",
      "popularity": 9.43,
      "adult": false,
      "known_for_department": "Acting"
    },
    {
      "id": 74354,
      "name": "Miguel A. Núñez, Jr.",
      "profile_path": "/96N3fiIDGfu4yDArkVGfT7rLRvH.jpg",
      "popularity": 9.429,
      "adult": false,
      "known_for_department": "Acting"
    },
    {
      "id": 5832,
      "name": "Reginald Owen",
      "profile_path": "/eurF2C1e5GwG1EE8vdAf9IOFttK.jpg",
      "popularity": 9.429,
      "adult": false,
      "known_for_department": "Acting"
    },
    {
      "id": 1624,
      "name": "Cheng Pei-pei",
      "profile_path": "/hCNEbZe4q8iThE5enRwFkTBVkDb.jpg",
      "popularity": 9.429,
      "adult": false,
      "known_for_department": "Acting"
    },
    {
      "id": 62318,
      "name": "Shin-ichiro Miki",
      "profile_path": "/yL9Tx2HZgK7t5AssYl6oGE9bjdj.jpg",
      "popularity": 9.428,
      "adult": false,
      "known_for_department": "Acting"
    },
    {
      "id": 44033,
      "name": "Barbara Alyn Woods",
      "profile_path": "/9mEaXMGP03gsCkqW3svWxTk2lXi.jpg",
      "popularity": 9.428,
      "adult": false,
      "known_for_department": "Acting"
    },
    {
      "id": 6576,
      "name": "Mark Rolston",
      "profile_path": "/hcrNRIptYMRXgkJ9k76BlQu6DQp.jpg",
      "popularity": 9.428,
      "adult": false,
      "known_for_department": "Acting"
    },
    {
      "id": 1948154,
      "name": "Darya Ursulyak",
      "profile_path": "/aiaTa2FHP6NDPal92jy8aufLR1R.jpg",
      "popularity": 9.426,
      "adult": false,
      "known_for_department": "Acting"
    },
    {
      "id": 8776,
      "name": "Claudia Gerini",
      "profile_path": "/QFBen9LPrKuSr9awe0Go3gl6sG.jpg",
      "popularity": 9.426,
      "adult": false,
      "known_for_department": "Acting"
    },
    {
      "id": 2753,
      "name": "Burl Ives",
      "profile_path": "/eyx3PKEsmThQmrtTCpheiUeynCz.jpg",
      "popularity": 9.426,
      "adult": false,
      "known_for_department": "Acting"
    },
    {
      "id": 1042684,
      "name": "Lydia Hull",
      "profile_path": "/w71z6hZrwLi0hBkPFxiUe60bgOI.jpg",
      "popularity": 9.425,
      "adult": false,
      "known_for_department": "Acting"
    }
  ]
}