{
  "page": 89,
  "total_results": 10000,
  "total_pages": 500,
  "results": [
    {
      "id": 21596,
      "name": "Shannon Elizabeth",
      "profile_path": "/1H99EVPLMQx3C0DKrVCiFKPpDB5.jpg",
      "popularity": 17.659,
      "adult": false,
      "known_for_department": "Acting"
    },
    {
      "id": 1878952,
      "name": "Song Kang",
      "profile_path": "/dMUXkMfkTEw3qrJisk0mQCQxmBI.jpg",
      "popularity": 17.657,
      "adult": false,
      "known_for_department": "Acting"
    },
    {
      "id": 23915,
      "name": "Pat Morita",
      "profile_path": "/urxkD8FV5ajhjiFTyVQlbECGyRI.jpg",
      "popularity": 17.644,
      "adult": false,
      "known_for_department": "Acting"
    },
    {
      "id": 92572,
      "name": "Betty Gilpin",
      "profile_path": "/hBOviIHCVqbWyyPUoIxZohDl5SL.jpg",
      "popularity": 17.643,
      "adult": false,
      "known_for_department": "Acting"
    },
    {
      "id": 19278,
      "name": "Bill Hader",
      "profile_path": "/4VVHfaLr1InJfvlOvhbNeHJXWop.jpg",
      "popularity": 17.639,
      "adult": false,
      "known_for_department": "Acting"
    },
    {
      "id": 1244,
      "name": "Jonathan Rhys Meyers",
      "profile_path": "/RsrGA98aMmyjTTxTLhAaOqnfLz.jpg",
      "popularity": 17.638,
      "adult": false,
      "known_for_department": "Acting"
    },
    {
      "id": 4177,
      "name": "Jake Weber",
      "profile_path": "/z1RTh4qvyMFha8nKd5Uw1dKwkZz.jpg",
      "popularity": 17.636,
      "adult": false,
      "known_for_department": "Acting"
    },
    {
      "id": 54789,
      "name": "Sean Patrick Flanery",
      "profile_path": "/aHQtxIjMEDWdXqvFJplx0Kcwdn6.jpg",
      "popularity": 17.63,
      "adult": false,
      "known_for_department": "Acting"
    },
    {
      "id": 2978,
      "name": "Max Minghella",
      "profile_path": "/8WfiPKhSwH4kUbVSqINrUrvVcAN.jpg",
      "popularity": 17.623,
      "adult": false,
      "known_for_department": "Acting"
    },
    {
      "id": 1875840,
      "name": "Kim Ji-soo",
      "profile_path": "/nuyUmcYeg4ROZNzAEx3ZxILGQ5Y.jpg",
      "popularity": 17.613,
      "adult": false,
      "known_for_department": "Acting"
    },
    {
      "id": 9781,
      "name": "Nia Long",
      "profile_path": "/2HnplqKDWkLyReeeAPsbEctkpPQ.jpg",
      "popularity": 17.607,
      "adult": false,
      "known_for_department": "Acting"
    },
    {
      "id": 1223059,
      "name": "Jaime Murray",
      "profile_path": "/4EuogBLesagmQzkDAKgvBFD2kVk.jpg",
      "popularity": 17.596,
      "adult": false,
      "known_for_department": "Acting"
    },
    {
      "id": 16442,
      "name": "Najwa Nimri",
      "profile_path": "/hvLbKkDIT4FqSS8djmW5voNd0O4.jpg",
      "popularity": 17.595,
      "adult": false,
      "known_for_department": "Acting"
    },
    {
      "id": 8783,
      "name": "Eric Bana",
      "profile_path": "/xIjQVywxkymHbbSO7lD2F9f377W.jpg",
      "popularity": 17.589,
      "adult": false,
      "known_for_department": "Acting"
    },
    {
      "id": 1452045,
      "name": "Ben Hardy",
      "profile_path": "/b20ijbr2tbqlGvqZgkCpNZ5AYvS.jpg",
      "popularity": 17.578,
      "adult": false,
      "known_for_department": "Acting"
    },
    {
      "id": 6365,
      "name": "Desmond Harrington",
      "profile_path": "/hylBgwz1akNoX03glhMnqNxLCqm.jpg",
      "popularity": 17.569,
      "adult": false,
      "known_for_department": "Acting"
    },
    {
      "id": 42376,
      "name": "Zahn McClarnon",
      "profile_path": "/eOJO2LmKUcd9QQMDKjBy6nIzHhF.jpg",
      "popularity": 17.564,
      "adult": false,
      "known_for_department": "Acting"
    },
    {
      "id": 37233,
      "name": "Kareena Kapoor Khan",
      "profile_path": "/pJZJJ93NwJq3kb3RWtaZBYVga1x.jpg",
      "popularity": 17.563,
      "adult": false,
      "known_for_department": "Acting"
    },
    {
      "id": 2688474,
      "name": "Cheon Yoo-ji",
      "profile_path": "/rtBzOnuLD5JhawmhdVteWN9YEa3.jpg",
      "popularity": 17.56,
      "adult": false,
      "known_for_department": "Acting"
    },
    {
      "id": 84613,
      "name": "Madeline Zima",
      "profile_path": "/6hmUs5Q1EETapn32yKNt3c3i1sn.jpg",
      "popularity": 17.555,
      "adult": false,
      "known_for_department": "Acting"
    }
  ]
}