{
  "page": 421,
  "total_results": 10000,
  "total_pages": 500,
  "results": [
    {
      "id": 13656,
      "name": "Amanda Wyss",
      "profile_path": "/n9RwPdbitByiUEd5Lw1Vpyo8mXj.jpg",
      "popularity": 7.753,
      "adult": false,
      "known_for_department": "Acting"
    },
    {
      "id": 1986576,
      "name": "Aleksandr Kuznetsov",
      "profile_path": "/ejfeqNpYh2tOt2KkyBTluLyHjx2.jpg",
      "popularity": 7.752,
      "adult": false,
      "known_for_department": "Acting"
    },
    {
      "id": 1295457,
      "name": "Kang So-ra",
      "profile_path": "/hGIvcS0fqrmXwTXhU9yIi9WdfhS.jpg",
      "popularity": 7.752,
      "adult": false,
      "known_for_department": "Acting"
    },
    {
      "id": 175583,
      "name": "Charlene Amoia",
      "profile_path": "/8hJNPw3XCErifcZZPOfd20JmiTC.jpg",
      "popularity": 7.752,
      "adult": false,
      "known_for_department": "Acting"
    },
    {
      "id": 19111,
      "name": "John Anderson",
      "profile_path": "/wcliAvgKHkwUmxkMUIGETp9tk1d.jpg",
      "popularity": 7.752,
      "adult": false,
      "known_for_department": "Acting"
    },
    {
      "id": 619,
      "name": "Jôji Yanami",
      "profile_path": "/eO3PiUqjdzmAasku8QMv2eR45Lo.jpg",
      "popularity": 7.751,
      "adult": false,
      "known_for_department": "Acting"
    },
    {
      "id": 592515,
      "name": "Maria Antonietta Beluzzi",
      "profile_path": "/cCyaX1vkXY6fKMioaz6BoWMg4vE.jpg",
      "popularity": 7.75,
      "adult": false,
      "known_for_department": "Acting"
    },
    {
      "id": 1372317,
      "name": "Marco Ilsø",
      "profile_path": "/4p6Mz91vuUugQHNw4Zv2bmw5liJ.jpg",
      "popularity": 7.749,
      "adult": false,
      "known_for_department": "Acting"
    },
    {
      "id": 10849,
      "name": "Marek Vašut",
      "profile_path": "/1gaHNNG8MuA3meaDHGi6Tb3Vw1K.jpg",
      "popularity": 7.749,
      "adult": false,
      "known_for_department": "Acting"
    },
    {
      "id": 20162,
      "name": "Natasha Richardson",
      "profile_path": "/eQNhOUDQY4NZD2cbaUpltLxrcG.jpg",
      "popularity": 7.748,
      "adult": false,
      "known_for_department": "Acting"
    },
    {
      "id": 1229255,
      "name": "Tony Pitts",
      "profile_path": "/yKxag5eLZJ2Oex5bj8RXWIR3LnC.jpg",
      "popularity": 7.747,
      "adult": false,
      "known_for_department": "Acting"
    },
    {
      "id": 1461038,
      "name": "Jon Bass",
      "profile_path": "/2eo9pMyPhA9mBaSrNlD6UP3Nkyw.jpg",
      "popularity": 7.746,
      "adult": false,
      "known_for_department": "Acting"
    },
    {
      "id": 20753,
      "name": "Fred Willard",
      "profile_path": "/sHgg2W09DEdXB9W7bVYNGpHdLNE.jpg",
      "popularity": 7.746,
      "adult": false,
      "known_for_department": "Acting"
    },
    {
      "id": 59176,
      "name": "Jenna Boyd",
      "profile_path": "/tDMgyuY9KwFHpmJdqyi51aGOkCe.jpg",
      "popularity": 7.745,
      "adult": false,
      "known_for_department": "Acting"
    },
    {
      "id": 23968,
      "name": "Phil Alden Robinson",
      "profile_path": "/cYgEgM3MxDb0I1olvrZNHXjuC6I.jpg",
      "popularity": 7.745,
      "adult": false,
      "known_for_department": "Writing"
    },
    {
      "id": 1131215,
      "name": "Sadie Katz",
      "profile_path": "/ucIe5yGkVVoyLqSkQMpPZaA7B4y.jpg",
      "popularity": 7.744,
      "adult": false,
      "known_for_department": "Acting"
    },
    {
      "id": 57133,
      "name": "Paulo Costanzo",
      "profile_path": "/cmZ1PnKsqdycxb3FnlpzNWzV4wy.jpg",
      "popularity": 7.744,
      "adult": false,
      "known_for_department": "Acting"
    },
    {
      "id": 3911,
      "name": "John Carroll Lynch",
      "profile_path": "/pMlpEhPQ5EQWNJkV9PJwzOPSE05.jpg",
      "popularity": 7.744,
      "adult": false,
      "known_for_department": "Acting"
    },
    {
      "id": 8400,
      "name": "Kim Chan",
      "profile_path": "/oV350fpOcbi2O2JVUSFYoz6Utw1.jpg",
      "popularity": 7.743,
      "adult": false,
      "known_for_department": "Acting"
    },
    {
      "id": 2082223,
      "name": "So Joo-yeon",
      "profile_path": "/2pRaLYEJq673t9CAYaEl8K131qR.jpg",
      "popularity": 7.741,
      "adult": false,
      "known_for_department": "Acting"
    }
  ]
}