{
  "page": 181,
  "total_results": 10000,
  "total_pages": 500,
  "results": [
    {
      "id": 19242,
      "name": "Tony Gilroy",
      "profile_path": "/tjKPe7Yq68p2IaaCAdSOmXStOKq.jpg",
      "popularity": 11.331,
      "adult": false,
      "known_for_department": "Writing"
    },
    {
      "id": 9257,
      "name": "Bruno Kirby",
      "profile_path": "/jhzDyVIXoccsSmhkNgrneLAeUYG.jpg",
      "popularity": 11.329,
      "adult": false,
      "known_for_department": "Acting"
    },
    {
      "id": 559207,
      "name": "Synnøve Macody Lund",
      "profile_path": "/a5r4MtoL5jU4DtCp0BtzwEAtfyL.jpg",
      "popularity": 11.327,
      "adult": false,
      "known_for_department": "Acting"
    },
    {
      "id": 17752,
      "name": "Donna Reed",
      "profile_path": "/ex90rTnQ9DZy3GsHC8lKEw1wTo0.jpg",
      "popularity": 11.327,
      "adult": false,
      "known_for_department": "Acting"
    },
    {
      "id": 34915,
      "name": "Kristin Booth",
      "profile_path": "/366SBcUxgrh8374uNetOYlP9fo0.jpg",
      "popularity": 11.325,
      "adult": false,
      "known_for_department": "Acting"
    },
    {
      "id": 34434,
      "name": "Missy Peregrym",
      "profile_path": "/364PJwTQLpWjGfNisQm47Dler08.jpg",
      "popularity": 11.319,
      "adult": false,
      "known_for_department": "Acting"
    },
    {
      "id": 84482,
      "name": "Luke Benward",
      "profile_path": "/gKjqp67otIkvJREuEKXdplM5A7E.jpg",
      "popularity": 11.318,
      "adult": false,
      "known_for_department": "Acting"
    },
    {
      "id": 1250465,
      "name": "Mariya Ise",
      "profile_path": "/tQWlgrlQ70biWdg7x9E75CtwsuD.jpg",
      "popularity": 11.317,
      "adult": false,
      "known_for_department": "Acting"
    },
    {
      "id": 12139,
      "name": "Lolita Davidovich",
      "profile_path": "/cDpuHwPkWkLy8LSBXKIn5Gx3JUF.jpg",
      "popularity": 11.317,
      "adult": false,
      "known_for_department": "Acting"
    },
    {
      "id": 10881,
      "name": "Toby Stephens",
      "profile_path": "/7hZVlhxd4FkhEQxaF4lTgwj3SYc.jpg",
      "popularity": 11.314,
      "adult": false,
      "known_for_department": "Acting"
    },
    {
      "id": 1084910,
      "name": "Emi Takei",
      "profile_path": "/aGg47CnHc1wgIOtwt4rbQWbWuDg.jpg",
      "popularity": 11.313,
      "adult": false,
      "known_for_department": "Acting"
    },
    {
      "id": 90755,
      "name": "Janet Montgomery",
      "profile_path": "/jy2hvsU2Jvf3C89MmVhj6tchsiq.jpg",
      "popularity": 11.313,
      "adult": false,
      "known_for_department": "Acting"
    },
    {
      "id": 72305,
      "name": "Lesley Manville",
      "profile_path": "/tioPlSoypjdME3oMu3g7XmgIIKS.jpg",
      "popularity": 11.31,
      "adult": false,
      "known_for_department": "Acting"
    },
    {
      "id": 12640,
      "name": "David Duchovny",
      "profile_path": "/kFuB7QQ35SwMwWdiTGSDQdkxnsT.jpg",
      "popularity": 11.31,
      "adult": false,
      "known_for_department": "Acting"
    },
    {
      "id": 6593,
      "name": "John Huston",
      "profile_path": "/5sUmPA9XjEV05lhNAypxwbnjzJ7.jpg",
      "popularity": 11.308,
      "adult": false,
      "known_for_department": "Directing"
    },
    {
      "id": 1167375,
      "name": "Alex Roe",
      "profile_path": "/n3EVRACN3XEuOzrWK3TTn791gWo.jpg",
      "popularity": 11.305,
      "adult": false,
      "known_for_department": "Acting"
    },
    {
      "id": 41561,
      "name": "Kenneth Choi",
      "profile_path": "/ycHOQV42jsYXoWMaobKTzGXy9g4.jpg",
      "popularity": 11.305,
      "adult": false,
      "known_for_department": "Acting"
    },
    {
      "id": 2406,
      "name": "Mathieu Kassovitz",
      "profile_path": "/3FRBEdKKlxhvPWPt0jzgmSjeHwn.jpg",
      "popularity": 11.305,
      "adult": false,
      "known_for_department": "Acting"
    },
    {
      "id": 968089,
      "name": "Emma Dumont",
      "profile_path": "/yV7JHUXX4XGMfzhVIoj1iq0DMLB.jpg",
      "popularity": 11.304,
      "adult": false,
      "known_for_department": "Acting"
    },
    {
      "id": 61084,
      "name": "Michael Hyatt",
      "profile_path": "/zXJ1mV2NlZuWYgTj8eTuUFhCgp5.jpg",
      "popularity": 11.301,
      "adult": false,
      "known_for_department": "Acting"
    }
  ]
}