{
  "page": 431,
  "total_results": 10000,
  "total_pages": 500,
  "results": [
    {
      "id": 1262570,
      "name": "Hanna Binke",
      "profile_path": "/vA2txSv7ZlsDdXNaVZvzB0G3NSt.jpg",
      "popularity": 8.667,
      "adult": false,
      "known_for_department": "Acting"
    },
    {
      "id": 1097941,
      "name": "Conor Leslie",
      "profile_path": "/tTCVGMMxPGZAcfqnkM5S5cPebem.jpg",
      "popularity": 8.667,
      "adult": false,
      "known_for_department": "Acting"
    },
    {
      "id": 170432,
      "name": "Willam Belli",
      "profile_path": "/mh2EZS3wIsVPTIrPxOiMxGuWgov.jpg",
      "popularity": 8.667,
      "adult": false,
      "known_for_department": "Acting"
    },
    {
      "id": 59176,
      "name": "Jenna Boyd",
      "profile_path": "/tDMgyuY9KwFHpmJdqyi51aGOkCe.jpg",
      "popularity": 8.667,
      "adult": false,
      "known_for_department": "Acting"
    },
    {
      "id": 1691384,
      "name": "Lynn",
      "profile_path": "/kFyuszD3uS5rX4GGf1U5OM5exur.jpg",
      "popularity": 8.666,
      "adult": false,
      "known_for_department": "Acting"
    },
    {
      "id": 1662028,
      "name": "Santosh Shoban",
      "profile_path": "/wDyB2jzRlJHtkeevu9IS97m2pAP.jpg",
      "popularity": 8.666,
      "adult": false,
      "known_for_department": "Acting"
    },
    {
      "id": 1200395,
      "name": "Lee Na-ra",
      "profile_path": "/xgO62zJSOVNVd6nXFJJ3LDzUlFe.jpg",
      "popularity": 8.666,
      "adult": false,
      "known_for_department": "Acting"
    },
    {
      "id": 440306,
      "name": "Adhir Kalyan",
      "profile_path": "/4AY2qSCB9EtzKwDOPEHS3E1lA8t.jpg",
      "popularity": 8.666,
      "adult": false,
      "known_for_department": "Acting"
    },
    {
      "id": 51671,
      "name": "Susie Porter",
      "profile_path": "/ynlvVxiKsmzJ5L7Rj6Kcntnczzh.jpg",
      "popularity": 8.666,
      "adult": false,
      "known_for_department": "Acting"
    },
    {
      "id": 932267,
      "name": "Olga Dihovichnaya",
      "profile_path": "/wkP5HjPP5Rz06RR760f08u14yL9.jpg",
      "popularity": 8.665,
      "adult": false,
      "known_for_department": "Acting"
    },
    {
      "id": 1559226,
      "name": "Nick Wang",
      "profile_path": "/zOdsIgzZWDLKKnysMJFsisyMgyc.jpg",
      "popularity": 8.664,
      "adult": false,
      "known_for_department": "Acting"
    },
    {
      "id": 1503872,
      "name": "Rebecca Gethings",
      "profile_path": "/qcaVkpu9bHst3dxHYd7ZTobA8NM.jpg",
      "popularity": 8.663,
      "adult": false,
      "known_for_department": "Acting"
    },
    {
      "id": 1089919,
      "name": "Kelly Craig",
      "profile_path": "/AeXj9nfhm05e0HgIVkPlf3SJVC1.jpg",
      "popularity": 8.663,
      "adult": false,
      "known_for_department": "Acting"
    },
    {
      "id": 127449,
      "name": "Pimchanok Luevisadpaibul",
      "profile_path": "/4nDCC46Esqp3AGm6GxCCTegTMcW.jpg",
      "popularity": 8.663,
      "adult": false,
      "known_for_department": "Acting"
    },
    {
      "id": 29918,
      "name": "Dalila Di Lazzaro",
      "profile_path": "/3ile65ri3ncUzH02TiAcxMvJ3Fa.jpg",
      "popularity": 8.663,
      "adult": false,
      "known_for_department": "Acting"
    },
    {
      "id": 1063793,
      "name": "Sriranjini",
      "profile_path": "/xD07vHvCB4NvxD5M0Scy1CByFJk.jpg",
      "popularity": 8.662,
      "adult": false,
      "known_for_department": "Acting"
    },
    {
      "id": 7332,
      "name": "Arnold Stang",
      "profile_path": "/d6JMdwwrMZeVy2uV8ZMZIfbK6tS.jpg",
      "popularity": 8.662,
      "adult": false,
      "known_for_department": "Acting"
    },
    {
      "id": 1377686,
      "name": "Sarah Goldberg",
      "profile_path": "/8ziipI8y2jJHWYCSjHd1N6h6XdM.jpg",
      "popularity": 8.659,
      "adult": false,
      "known_for_department": "Acting"
    },
    {
      "id": 41266,
      "name": "Mark Lindsay Chapman",
      "profile_path": "/6LmGSyU6TQU9Xdafg9bKseofaVg.jpg",
      "popularity": 8.659,
      "adult": false,
      "known_for_department": "Acting"
    },
    {
      "id": 40186,
      "name": "Jacqueline Scott",
      "profile_path": "/4XTAShFoipPwblFD8AMPTCdAhDn.jpg",
      "popularity": 8.659,
      "adult": false,
      "known_for_department": "Acting"
    }
  ]
}