{
  "page": 285,
  "total_results": 10000,
  "total_pages": 500,
  "results": [
    {
      "id": 76696,
      "name": "Sarah Power",
      "profile_path": "/8VnpMflxnGpqR1jWu4NuUcWdziV.jpg",
      "popularity": 13.79,
      "adult": false,
      "known_for_department": "Acting"
    },
    {
      "id": 74368,
      "name": "Andrea Libman",
      "profile_path": "/6R2ekkbQ7OFsktfasLvXzhd0IJ.jpg",
      "popularity": 11.39,
      "adult": false,
      "known_for_department": "Acting"
    },
    {
      "id": 5698,
      "name": "Jessica Tandy",
      "profile_path": "/4qgLUP4sFC3xnzzcpyQcv8UKZAv.jpg",
      "popularity": 7.39,
      "adult": false,
      "known_for_department": "Acting"
    },
    {
      "id": 1331112,
      "name": "Samuel Hunt",
      "profile_path": "/6bqJIYAw2PpJvCTfuc4EO2T26LV.jpg",
      "popularity": 7.39,
      "adult": false,
      "known_for_department": "Acting"
    },
    {
      "id": 116606,
      "name": "Toby Regbo",
      "profile_path": "/fENRlBMvArGdJr6AvfK3lsWqbRx.jpg",
      "popularity": 8.99,
      "adult": false,
      "known_for_department": "Acting"
    },
    {
      "id": 69310,
      "name": "Ricardo Darín",
      "profile_path": "/v5QjMW1Pc6ham06EejNzIkaJsb9.jpg",
      "popularity": 9.79,
      "adult": false,
      "known_for_department": "Acting"
    },
    {
      "id": 1186429,
      "name": "Kazuya Kamenashi",
      "profile_path": "/qCScLh3AOnHjQKT9C9G4alg8k8c.jpg",
      "popularity": 6.779,
      "adult": false,
      "known_for_department": "Acting"
    },
    {
      "id": 59882,
      "name": "Paz de la Huerta",
      "profile_path": "/upFVPh2BtDBfAnP11mX2AHfl7GJ.jpg",
      "popularity": 13.389,
      "adult": false,
      "known_for_department": "Acting"
    },
    {
      "id": 6832,
      "name": "Melissa Leo",
      "profile_path": "/tKNTvhmuO7FZMYYgRrZB6k8FT5K.jpg",
      "popularity": 15.389,
      "adult": false,
      "known_for_department": "Acting"
    },
    {
      "id": 66555,
      "name": "Whitney Cummings",
      "profile_path": "/zGItiBP0mFIIPSaauW0PgYPuP8L.jpg",
      "popularity": 13.789,
      "adult": false,
      "known_for_department": "Acting"
    },
    {
      "id": 1158532,
      "name": "Tora Hallström",
      "profile_path": "/rAG7gtnmDOscUxXGN0suJpMFbnY.jpg",
      "popularity": 8.988,
      "adult": false,
      "known_for_department": "Acting"
    },
    {
      "id": 1096930,
      "name": "Samantha Logan",
      "profile_path": "/oFR0LQlcW5eZAVq1Fm0l8chkmpb.jpg",
      "popularity": 7.788,
      "adult": false,
      "known_for_department": "Acting"
    },
    {
      "id": 939099,
      "name": "Lou de Laâge",
      "profile_path": "/pLgtGNWrF3SzK4QXePhhosGZr0G.jpg",
      "popularity": 11.388,
      "adult": false,
      "known_for_department": "Acting"
    },
    {
      "id": 31512,
      "name": "Robert John Burke",
      "profile_path": "/4uCjxK6QmPW98W56aCldwINSOcX.jpg",
      "popularity": 8.988,
      "adult": false,
      "known_for_department": "Acting"
    },
    {
      "id": 101396,
      "name": "Brenda Strong",
      "profile_path": "/jMfkFmQT2zgTojkcmn67Fju3HU.jpg",
      "popularity": 8.587,
      "adult": false,
      "known_for_department": "Acting"
    },
    {
      "id": 102441,
      "name": "Dick Miller",
      "profile_path": "/zyQXh8BkLg0DDo23pxJN2dy6Bqj.jpg",
      "popularity": 9.787,
      "adult": false,
      "known_for_department": "Acting"
    },
    {
      "id": 1598252,
      "name": "Furkan Andıç",
      "profile_path": "/cOYy6p6syzepVBJr239PhaeI1zc.jpg",
      "popularity": 11.787,
      "adult": false,
      "known_for_department": "Acting"
    },
    {
      "id": 147336,
      "name": "Gaby Espino",
      "profile_path": "/z9KOQ0blQTwiobqwDEVl9hRnnHD.jpg",
      "popularity": 10.986,
      "adult": false,
      "known_for_department": "Acting"
    },
    {
      "id": 19910,
      "name": "Nora Tschirner",
      "profile_path": "/wokKXj6ENlTirwP3u57uVbFMw8y.jpg",
      "popularity": 9.386,
      "adult": false,
      "known_for_department": "Acting"
    },
    {
      "id": 85178,
      "name": "Christa Campbell",
      "profile_path": "/hkYXdekehh0ulFdAoloO8lnX3iq.jpg",
      "popularity": 11.786,
      "adult": false,
      "known_for_department": "Acting"
    }
  ]
}