{
  "page": 323,
  "total_results": 10000,
  "total_pages": 500,
  "results": [
    {
      "id": 1094648,
      "name": "Bae Jong-ok",
      "profile_path": "/ia5XNYoaJ8WgZZgjr999XdIgY2K.jpg",
      "popularity": 8.169,
      "adult": false,
      "known_for_department": "Acting"
    },
    {
      "id": 67247,
      "name": "Atanas Srebrev",
      "profile_path": "/aW9keIvjMkH9YAMQDEyJayAs7oy.jpg",
      "popularity": 10.123,
      "adult": false,
      "known_for_department": "Acting"
    },
    {
      "id": 97823,
      "name": "Joe Estevez",
      "profile_path": "/5Ptl8apcuessOd2SpSYdt1lLcZl.jpg",
      "popularity": 10.119,
      "adult": false,
      "known_for_department": "Acting"
    },
    {
      "id": 87932,
      "name": "Renée Elise Goldsberry",
      "profile_path": "/p4Rjbr8ZpQ7l3qVCGvNqrLlPs4M.jpg",
      "popularity": 9.768,
      "adult": false,
      "known_for_department": "Acting"
    },
    {
      "id": 20623,
      "name": "Wendy Makkena",
      "profile_path": "/lf5N6a6yo3Ui75dwnxJuZZrUNDi.jpg",
      "popularity": 10.119,
      "adult": false,
      "known_for_department": "Acting"
    },
    {
      "id": 19549,
      "name": "Greta Garbo",
      "profile_path": "/h5HRAusdjpWNQdzUVGXMoF635L1.jpg",
      "popularity": 6.568,
      "adult": false,
      "known_for_department": "Acting"
    },
    {
      "id": 2360620,
      "name": "Calli Taylor",
      "profile_path": "/dbCEJwsVfU2AZZTHcIB2DWDPYFh.jpg",
      "popularity": 7.226,
      "adult": false,
      "known_for_department": "Acting"
    },
    {
      "id": 101367,
      "name": "Yuki Uchida",
      "profile_path": "/y6de9FCwdsUGvAsNcamicxovins.jpg",
      "popularity": 9.368,
      "adult": false,
      "known_for_department": "Acting"
    },
    {
      "id": 43458,
      "name": "Brennan Elliott",
      "profile_path": "/32nFpgZTwXQ9u9JgZnsIlRACv6Q.jpg",
      "popularity": 8.968,
      "adult": false,
      "known_for_department": "Acting"
    },
    {
      "id": 1186659,
      "name": "Lily Sullivan",
      "profile_path": "/sLjxpxV2JX8k3k9VWoIPrzqlh5J.jpg",
      "popularity": 6.567,
      "adult": false,
      "known_for_department": "Acting"
    },
    {
      "id": 1154835,
      "name": "Cristina Rodlo",
      "profile_path": "/bOyX8qUjLo4FhxTUxMcsqHZzg5c.jpg",
      "popularity": 10.111,
      "adult": false,
      "known_for_department": "Acting"
    },
    {
      "id": 109301,
      "name": "Carrie Ng",
      "profile_path": "/qLyGOZWhRCntGJDNYH9YErfPqec.jpg",
      "popularity": 10.111,
      "adult": false,
      "known_for_department": "Acting"
    },
    {
      "id": 15455,
      "name": "Tate Donovan",
      "profile_path": "/uYgYbd842mtRY66Ehw441aKkOC5.jpg",
      "popularity": 10.111,
      "adult": false,
      "known_for_department": "Acting"
    },
    {
      "id": 57553,
      "name": "Lil' Kim",
      "profile_path": "/gSEfGkKPWM6wGRQVETAQMLk6eqF.jpg",
      "popularity": 7.766,
      "adult": false,
      "known_for_department": "Acting"
    },
    {
      "id": 861,
      "name": "Kathryn Grant",
      "profile_path": "/c739OZ40Czy0D3Q2fCj9npNmh8X.jpg",
      "popularity": 7.366,
      "adult": false,
      "known_for_department": "Acting"
    },
    {
      "id": 87569,
      "name": "Tia Mowry-Hardrict",
      "profile_path": "/zKRtKenYLfn0KoXeYz7QnTaVNN5.jpg",
      "popularity": 6.566,
      "adult": false,
      "known_for_department": "Acting"
    },
    {
      "id": 53328,
      "name": "Julia Sawalha",
      "profile_path": "/57xZL2uZzRaRmWpzWxH4SnxOa2u.jpg",
      "popularity": 10.108,
      "adult": false,
      "known_for_department": "Acting"
    },
    {
      "id": 1776137,
      "name": "Gianni Decenzo",
      "profile_path": "/aqbQh0hMt5vRbdhErs32bybr7Ah.jpg",
      "popularity": 7.217,
      "adult": false,
      "known_for_department": "Acting"
    },
    {
      "id": 117515,
      "name": "Kelsey Crane",
      "profile_path": "/3v1DonhU8drd1zvfb4RO6R4YsAj.jpg",
      "popularity": 7.765,
      "adult": false,
      "known_for_department": "Acting"
    },
    {
      "id": 99759,
      "name": "Shauna O'Brien",
      "profile_path": "/sMXsvlGFidKwU6R4JKzSOhYj7PH.jpg",
      "popularity": 9.365,
      "adult": false,
      "known_for_department": "Acting"
    }
  ]
}