{
  "page": 124,
  "total_results": 10000,
  "total_pages": 500,
  "results": [
    {
      "id": 553325,
      "name": "Miki Takakura",
      "profile_path": "/2bXHWy82SzgMCFIuxVRKvDtw8Q6.jpg",
      "popularity": 15.153,
      "adult": false,
      "known_for_department": "Acting"
    },
    {
      "id": 3149,
      "name": "Marilyn Monroe",
      "profile_path": "/jCb0PQhXUtXpXtP6kNYYoloCHBO.jpg",
      "popularity": 15.153,
      "adult": false,
      "known_for_department": "Acting"
    },
    {
      "id": 20275,
      "name": "Sarita Choudhury",
      "profile_path": "/pABEOxQAns54tHpxN2w73b7SiPB.jpg",
      "popularity": 15.142,
      "adult": false,
      "known_for_department": "Acting"
    },
    {
      "id": 204392,
      "name": "Cristin Milioti",
      "profile_path": "/jRkZ1k2kZGnKhCJ3iqA9Pf8p17c.jpg",
      "popularity": 15.139,
      "adult": false,
      "known_for_department": "Acting"
    },
    {
      "id": 77921,
      "name": "Hideaki Anno",
      "profile_path": "/AfV9h1RW6uALpx751APdUoX8ONc.jpg",
      "popularity": 15.138,
      "adult": false,
      "known_for_department": "Directing"
    },
    {
      "id": 1257205,
      "name": "Rowan Blanchard",
      "profile_path": "/51qWnocFUKfUPeLMi81XtATFct2.jpg",
      "popularity": 15.134,
      "adult": false,
      "known_for_department": "Acting"
    },
    {
      "id": 212934,
      "name": "Avan Jogia",
      "profile_path": "/7BX0Lg39bHlgtvWZpszTr1YjTAW.jpg",
      "popularity": 15.131,
      "adult": false,
      "known_for_department": "Acting"
    },
    {
      "id": 588,
      "name": "M. Emmet Walsh",
      "profile_path": "/cirz2AGsQgh34yMoMaEmttAq0qS.jpg",
      "popularity": 15.131,
      "adult": false,
      "known_for_department": "Acting"
    },
    {
      "id": 129928,
      "name": "Sarah Butler",
      "profile_path": "/3Ayvgl4NvgUrFQmxCsBrONMhBss.jpg",
      "popularity": 15.13,
      "adult": false,
      "known_for_department": "Acting"
    },
    {
      "id": 12930,
      "name": "Gaby Hoffmann",
      "profile_path": "/51X4CaXZNRawchUDSj1tOPeMguK.jpg",
      "popularity": 15.123,
      "adult": false,
      "known_for_department": "Acting"
    },
    {
      "id": 1326202,
      "name": "Dina Shihabi",
      "profile_path": "/dSqhzoAb58J15NRxg5WMGWqJmVa.jpg",
      "popularity": 15.122,
      "adult": false,
      "known_for_department": "Acting"
    },
    {
      "id": 8892,
      "name": "Olivia Newton-John",
      "profile_path": "/pPgHm4ToBirjWcuOTrEMxS82stP.jpg",
      "popularity": 15.121,
      "adult": false,
      "known_for_department": "Acting"
    },
    {
      "id": 2684,
      "name": "Emmanuelle Vaugier",
      "profile_path": "/auIhYK3sSfWE6tuMOhw8KHhWqK7.jpg",
      "popularity": 15.119,
      "adult": false,
      "known_for_department": "Acting"
    },
    {
      "id": 537,
      "name": "Stephen Tobolowsky",
      "profile_path": "/4GNQJVEcU4V8AGVMXKM5FVOuW8h.jpg",
      "popularity": 15.119,
      "adult": false,
      "known_for_department": "Acting"
    },
    {
      "id": 69395,
      "name": "Bug Hall",
      "profile_path": "/axuZx8nn7R7ohlkfnxO9k3TIGiq.jpg",
      "popularity": 15.117,
      "adult": false,
      "known_for_department": "Acting"
    },
    {
      "id": 27762,
      "name": "Ian McDiarmid",
      "profile_path": "/cqEAblt0KJRIGyMXhj5OM5WJ9SN.jpg",
      "popularity": 15.116,
      "adult": false,
      "known_for_department": "Acting"
    },
    {
      "id": 13633,
      "name": "Mark Addy",
      "profile_path": "/4ao6jitEAxmQDlJheEOKT8lhJI8.jpg",
      "popularity": 15.113,
      "adult": false,
      "known_for_department": "Acting"
    },
    {
      "id": 7242,
      "name": "Temuera Morrison",
      "profile_path": "/1ckHDFgKXJ8pazmvLCW7DeOKqA0.jpg",
      "popularity": 15.111,
      "adult": false,
      "known_for_department": "Acting"
    },
    {
      "id": 26085,
      "name": "Richard Dean Anderson",
      "profile_path": "/w9Wi0OUEFGy9vMUpiZjj9GLzpag.jpg",
      "popularity": 15.107,
      "adult": false,
      "known_for_department": "Acting"
    },
    {
      "id": 12111,
      "name": "Justin Timberlake",
      "profile_path": "/6Yk5t9RwkdkAT8Qv45934Eez2CA.jpg",
      "popularity": 15.102,
      "adult": false,
      "known_for_department": "Acting"
    }
  ]
}