{
  "page": 135,
  "total_results": 10000,
  "total_pages": 500,
  "results": [
    {
      "id": 1213613,
      "name": "Jeri Ryan",
      "profile_path": "/d1FaZumY8fWbYTUuPokYUYx8x5G.jpg",
      "popularity": 14.243,
      "adult": false,
      "known_for_department": "Acting"
    },
    {
      "id": 15007,
      "name": "Laura Harring",
      "profile_path": "/6g64N2VsADTPRDsKcJDO2ayGQUt.jpg",
      "popularity": 15.843,
      "adult": false,
      "known_for_department": "Acting"
    },
    {
      "id": 58674,
      "name": "Yukie Nakama",
      "profile_path": "/nQpfSd4eIZpDKNSNGXV1cBUhvfm.jpg",
      "popularity": 12.643,
      "adult": false,
      "known_for_department": "Acting"
    },
    {
      "id": 1516266,
      "name": "Minami Hamabe",
      "profile_path": "/eQN8N2chINckvQDiNqzDXI0v9vN.jpg",
      "popularity": 12.642,
      "adult": false,
      "known_for_department": "Acting"
    },
    {
      "id": 33336,
      "name": "Gina Holden",
      "profile_path": "/oBzSVgTkQen3Q1EGDo7ycrBTDEn.jpg",
      "popularity": 15.441,
      "adult": false,
      "known_for_department": "Acting"
    },
    {
      "id": 1381186,
      "name": "Stephanie Hsu",
      "profile_path": "/d0nLvH8XZW7d7ZJ5mGFM3k0NvRh.jpg",
      "popularity": 14.24,
      "adult": false,
      "known_for_department": "Acting"
    },
    {
      "id": 20402,
      "name": "Julian McMahon",
      "profile_path": "/PirhJFimrT5iK0qru4SzlwLW4G.jpg",
      "popularity": 12.64,
      "adult": false,
      "known_for_department": "Acting"
    },
    {
      "id": 10850,
      "name": "Kevin Feige",
      "profile_path": "/kCBqXZ5PT5udYGEj2wfTSFbLMvT.jpg",
      "popularity": 14.64,
      "adult": false,
      "known_for_department": "Production"
    },
    {
      "id": 1475647,
      "name": "Chris Wood",
      "profile_path": "/z5A9PzvMSqOxsvSF2techq4buYb.jpg",
      "popularity": 13.04,
      "adult": false,
      "known_for_department": "Acting"
    },
    {
      "id": 17190,
      "name": "Erik Per Sullivan",
      "profile_path": "/xNGQBXkat5ZjnZ9vSg0mUbcv9Bc.jpg",
      "popularity": 13.039,
      "adult": false,
      "known_for_department": "Acting"
    },
    {
      "id": 43125,
      "name": "Rob Paulsen",
      "profile_path": "/7buvKWIjPlspqruaO3b28V5owJr.jpg",
      "popularity": 14.237,
      "adult": false,
      "known_for_department": "Acting"
    },
    {
      "id": 16418,
      "name": "Casey Kasem",
      "profile_path": "/59kecPxxPIO8uwzaRZAOSDE1l80.jpg",
      "popularity": 9.272,
      "adult": false,
      "known_for_department": "Acting"
    },
    {
      "id": 6365,
      "name": "Desmond Harrington",
      "profile_path": "/hylBgwz1akNoX03glhMnqNxLCqm.jpg",
      "popularity": 12.235,
      "adult": false,
      "known_for_department": "Acting"
    },
    {
      "id": 1530921,
      "name": "Miku Ito",
      "profile_path": "/kP7JBvveQO9ucYpmOvUNcW5RLAp.jpg",
      "popularity": 15.834,
      "adult": false,
      "known_for_department": "Acting"
    },
    {
      "id": 1423269,
      "name": "Anikha Surendran",
      "profile_path": "/unw5AO67lKGndi365OnvGxx3IkD.jpg",
      "popularity": 17.834,
      "adult": false,
      "known_for_department": "Acting"
    },
    {
      "id": 1571617,
      "name": "Yoon Jong-hoon",
      "profile_path": "/oybVSOy97pnuAUe1SFvkq4j56sy.jpg",
      "popularity": 12.233,
      "adult": false,
      "known_for_department": "Acting"
    },
    {
      "id": 76527,
      "name": "Felicia Day",
      "profile_path": "/9jXzLt34ibmmmTakiZXn7Eotdeh.jpg",
      "popularity": 13.832,
      "adult": false,
      "known_for_department": "Acting"
    },
    {
      "id": 64154,
      "name": "Sasha Alexander",
      "profile_path": "/xHsZhwVA8hOKEVEMwoSanqoblBo.jpg",
      "popularity": 18.232,
      "adult": false,
      "known_for_department": "Acting"
    },
    {
      "id": 158037,
      "name": "Jessica Wesson",
      "profile_path": "/l1EWbPzBxT6OoZLdXpOQEQGKT3O.jpg",
      "popularity": 12.231,
      "adult": false,
      "known_for_department": "Acting"
    },
    {
      "id": 65727,
      "name": "Sam Jaeger",
      "profile_path": "/8t4wSekn6vUyEmg9etTnvTaGJEV.jpg",
      "popularity": 15.03,
      "adult": false,
      "known_for_department": "Acting"
    }
  ]
}