{
  "page": 119,
  "total_results": 10000,
  "total_pages": 500,
  "results": [
    {
      "id": 514,
      "name": "Jack Nicholson",
      "profile_path": "/6h12pZsgj3WWjMtykUgfLkLEBWz.jpg",
      "popularity": 16.49,
      "adult": false,
      "known_for_department": "Acting"
    },
    {
      "id": 17402,
      "name": "Ron Livingston",
      "profile_path": "/pr5CjWnkaf5WKTIYh8wtNufjmyb.jpg",
      "popularity": 16.485,
      "adult": false,
      "known_for_department": "Acting"
    },
    {
      "id": 42694,
      "name": "Tamara Tunie",
      "profile_path": "/1QZ7J8vtd5uuDsbikJkhfYz2dVz.jpg",
      "popularity": 16.481,
      "adult": false,
      "known_for_department": "Acting"
    },
    {
      "id": 78875,
      "name": "Louis Koo",
      "profile_path": "/yQuDBTzm7xWlJICNvl20OmcJP80.jpg",
      "popularity": 16.48,
      "adult": false,
      "known_for_department": "Acting"
    },
    {
      "id": 3785,
      "name": "Jack Palance",
      "profile_path": "/sRr2YPa1IElRE1vG1PQcgLrS9om.jpg",
      "popularity": 16.48,
      "adult": false,
      "known_for_department": "Acting"
    },
    {
      "id": 16619,
      "name": "Mr. T",
      "profile_path": "/6j5DkJuKwxZklLJWFJciUbh31jL.jpg",
      "popularity": 16.477,
      "adult": false,
      "known_for_department": "Acting"
    },
    {
      "id": 19767,
      "name": "Snoop Dogg",
      "profile_path": "/rbxBK2m6fEq0oHeMoBUMVYkJEdJ.jpg",
      "popularity": 16.473,
      "adult": false,
      "known_for_department": "Acting"
    },
    {
      "id": 6159,
      "name": "Ron Howard",
      "profile_path": "/tDKn6gAgvARdQRfuem2JwyNcP3B.jpg",
      "popularity": 16.472,
      "adult": false,
      "known_for_department": "Directing"
    },
    {
      "id": 90749,
      "name": "Andrew Shue",
      "profile_path": "/xNoBZktOInbk4Rfv8R1vUz3Uyzj.jpg",
      "popularity": 16.47,
      "adult": false,
      "known_for_department": "Acting"
    },
    {
      "id": 1206334,
      "name": "Josh O'Connor",
      "profile_path": "/fiDjDWCGSZ7xDaN1rKAP4gvRn1a.jpg",
      "popularity": 16.464,
      "adult": false,
      "known_for_department": "Acting"
    },
    {
      "id": 3398,
      "name": "Kim Bodnia",
      "profile_path": "/koWU6vb82cuCDLeYE1erqnQ39cW.jpg",
      "popularity": 16.463,
      "adult": false,
      "known_for_department": "Acting"
    },
    {
      "id": 3267,
      "name": "George Hamilton",
      "profile_path": "/za0jt4pZEjHf3kzUecbIC6hpX7I.jpg",
      "popularity": 16.462,
      "adult": false,
      "known_for_department": "Acting"
    },
    {
      "id": 28633,
      "name": "Richard Jenkins",
      "profile_path": "/muT3RZG9hiKaKojD751RcQ5tGEy.jpg",
      "popularity": 16.46,
      "adult": false,
      "known_for_department": "Acting"
    },
    {
      "id": 10982,
      "name": "Harry Melling",
      "profile_path": "/b0pHwi2MeqxEpeWnF4Llihu53aJ.jpg",
      "popularity": 16.46,
      "adult": false,
      "known_for_department": "Acting"
    },
    {
      "id": 16501,
      "name": "Milo Ventimiglia",
      "profile_path": "/9yFPsQCYi9sbPQ0xJGtoAF4Ar6v.jpg",
      "popularity": 16.454,
      "adult": false,
      "known_for_department": "Acting"
    },
    {
      "id": 1515478,
      "name": "Mena Massoud",
      "profile_path": "/3Ng1Cxcln1tAMcgBY8L6aXNgGdV.jpg",
      "popularity": 16.45,
      "adult": false,
      "known_for_department": "Acting"
    },
    {
      "id": 51576,
      "name": "Chuck Norris",
      "profile_path": "/oBhnEFpPAqiHtpMiQ0ZQRXWcgwQ.jpg",
      "popularity": 16.449,
      "adult": false,
      "known_for_department": "Acting"
    },
    {
      "id": 1822392,
      "name": "Benedetta Porcaroli",
      "profile_path": "/aYSJ87nrceznZJPScm9wF5LNt8E.jpg",
      "popularity": 16.448,
      "adult": false,
      "known_for_department": "Acting"
    },
    {
      "id": 2031076,
      "name": "Amir Wilson",
      "profile_path": "/5A3PFRVuBA62DQo4ZYCxO3KGdyj.jpg",
      "popularity": 16.435,
      "adult": false,
      "known_for_department": "Acting"
    },
    {
      "id": 1321982,
      "name": "Ryusei Yokohama",
      "profile_path": "/rYEfBHyJ45GPKI0ZTCjukCzONqX.jpg",
      "popularity": 16.434,
      "adult": false,
      "known_for_department": "Acting"
    }
  ]
}