{
  "page": 258,
  "total_results": 10000,
  "total_pages": 500,
  "results": [
    {
      "id": 2077868,
      "name": "YaYa Gosselin",
      "profile_path": "/2XwPLECE4rce7KC6d4RkbgRaKfO.jpg",
      "popularity": 10.273,
      "adult": false,
      "known_for_department": "Acting"
    },
    {
      "id": 1385600,
      "name": "Noémie Merlant",
      "profile_path": "/dAqJ8KqmEBbABYmIjSwtNHttAJu.jpg",
      "popularity": 10.273,
      "adult": false,
      "known_for_department": "Acting"
    },
    {
      "id": 66717,
      "name": "Anthony Wong",
      "profile_path": "/7UYRnOZXSmJFcQGPBUSFbyY07zZ.jpg",
      "popularity": 10.272,
      "adult": false,
      "known_for_department": "Acting"
    },
    {
      "id": 1473879,
      "name": "Yoon Kyun-sang",
      "profile_path": "/ke9xvm1kfzo75DBFsgdokuko43v.jpg",
      "popularity": 10.271,
      "adult": false,
      "known_for_department": "Acting"
    },
    {
      "id": 1256215,
      "name": "James McArdle",
      "profile_path": "/4zvZYJqiF4ZZ0AYmTVL3ucyNB11.jpg",
      "popularity": 10.271,
      "adult": false,
      "known_for_department": "Acting"
    },
    {
      "id": 18865,
      "name": "Louis Leterrier",
      "profile_path": "/pJl1hNtZOIxrdzQjwGlicWWGSXg.jpg",
      "popularity": 10.27,
      "adult": false,
      "known_for_department": "Directing"
    },
    {
      "id": 151344,
      "name": "Hugh Dennis",
      "profile_path": "/7JH7OE7Ln4Wx74BaOYo8yaZ6Rwh.jpg",
      "popularity": 10.269,
      "adult": false,
      "known_for_department": "Acting"
    },
    {
      "id": 20848,
      "name": "Rumer Willis",
      "profile_path": "/l8pgRZp35O6UeDaCegwOvLBOrVb.jpg",
      "popularity": 10.268,
      "adult": false,
      "known_for_department": "Acting"
    },
    {
      "id": 1587577,
      "name": "Bronwyn James",
      "profile_path": "/apNlaxSZG54LuE3XAsx6F5GfIVV.jpg",
      "popularity": 10.266,
      "adult": false,
      "known_for_department": "Acting"
    },
    {
      "id": 1355176,
      "name": "McKaley Miller",
      "profile_path": "/qOOtarE3Qo42LySHveOPl38s1bs.jpg",
      "popularity": 10.266,
      "adult": false,
      "known_for_department": "Acting"
    },
    {
      "id": 62553,
      "name": "Samantha Smith",
      "profile_path": "/jHftgejkIz82x2iwQdEDGgLly3c.jpg",
      "popularity": 10.265,
      "adult": false,
      "known_for_department": "Acting"
    },
    {
      "id": 1140129,
      "name": "Ronen Rubinstein",
      "profile_path": "/dlKYozDnxXHlroBYIyOJxHDnMwD.jpg",
      "popularity": 10.264,
      "adult": false,
      "known_for_department": "Acting"
    },
    {
      "id": 107770,
      "name": "B. J. Novak",
      "profile_path": "/o8Xf1khxhKGTz3QAplXD35opRA8.jpg",
      "popularity": 10.264,
      "adult": false,
      "known_for_department": "Acting"
    },
    {
      "id": 5730,
      "name": "Barbara Bel Geddes",
      "profile_path": "/jkCvFdxnc8hckUhhlUDEwnvyy1d.jpg",
      "popularity": 10.263,
      "adult": false,
      "known_for_department": "Acting"
    },
    {
      "id": 2004111,
      "name": "Braxton Bjerken",
      "profile_path": "/21vO66zI6tMv1EmFY0sWpHv6dMs.jpg",
      "popularity": 10.261,
      "adult": false,
      "known_for_department": "Acting"
    },
    {
      "id": 1592930,
      "name": "Christian Hillborg",
      "profile_path": "/vL48WfjEPequgRnVcLwCFkKVTN1.jpg",
      "popularity": 10.26,
      "adult": false,
      "known_for_department": "Acting"
    },
    {
      "id": 1034453,
      "name": "La La Anthony",
      "profile_path": "/34Ncdty8qOpdHSv75pI51GsitON.jpg",
      "popularity": 10.259,
      "adult": false,
      "known_for_department": "Acting"
    },
    {
      "id": 18978,
      "name": "David Faustino",
      "profile_path": "/dNqoFIPkusGDUjjIAX0jmtQV47v.jpg",
      "popularity": 10.259,
      "adult": false,
      "known_for_department": "Acting"
    },
    {
      "id": 208467,
      "name": "Ian Peck",
      "profile_path": "/efEJsO8xhDdpOkWR0ArLl34B47f.jpg",
      "popularity": 10.258,
      "adult": false,
      "known_for_department": "Acting"
    },
    {
      "id": 6721,
      "name": "Piper Laurie",
      "profile_path": "/zmsjRQ2gPgRQR8jdReCgGRB3GoA.jpg",
      "popularity": 10.257,
      "adult": false,
      "known_for_department": "Acting"
    }
  ]
}