{
  "page": 126,
  "total_results": 10000,
  "total_pages": 500,
  "results": [
    {
      "id": 114,
      "name": "Orlando Bloom",
      "profile_path": "/kKWJlX2tcjqceSfUxnV7Jle5Kt.jpg",
      "popularity": 17.345,
      "adult": false,
      "known_for_department": "Acting"
    },
    {
      "id": 4,
      "name": "Carrie Fisher",
      "profile_path": "/rfJtncHewKVnHjqpIZvjn24ESeC.jpg",
      "popularity": 17.34,
      "adult": false,
      "known_for_department": "Acting"
    },
    {
      "id": 20275,
      "name": "Sarita Choudhury",
      "profile_path": "/pABEOxQAns54tHpxN2w73b7SiPB.jpg",
      "popularity": 17.336,
      "adult": false,
      "known_for_department": "Acting"
    },
    {
      "id": 176823,
      "name": "Spencer Grammer",
      "profile_path": "/1L8Y45RJo2YxUXl6ldIowQay1V7.jpg",
      "popularity": 17.332,
      "adult": false,
      "known_for_department": "Acting"
    },
    {
      "id": 25308,
      "name": "Vanessa Angel",
      "profile_path": "/rYTCBhqePGNtZaz45IaAuah7J0O.jpg",
      "popularity": 17.332,
      "adult": false,
      "known_for_department": "Acting"
    },
    {
      "id": 144852,
      "name": "Richard Harmon",
      "profile_path": "/eza87j6Jxdd6TbAgvalqOV63U2E.jpg",
      "popularity": 17.331,
      "adult": false,
      "known_for_department": "Acting"
    },
    {
      "id": 11863,
      "name": "Sarah Michelle Gellar",
      "profile_path": "/sCpCv2ldnrAQN9NVQOE6PYxG8TN.jpg",
      "popularity": 17.331,
      "adult": false,
      "known_for_department": "Acting"
    },
    {
      "id": 2538,
      "name": "Chiaki Kuriyama",
      "profile_path": "/ysCtOuaMAtuON7h252iwUwNjyFl.jpg",
      "popularity": 17.327,
      "adult": false,
      "known_for_department": "Acting"
    },
    {
      "id": 221192,
      "name": "Kathryn Newton",
      "profile_path": "/26OEa0uS8552sVJakaCEHYvqOao.jpg",
      "popularity": 17.324,
      "adult": false,
      "known_for_department": "Acting"
    },
    {
      "id": 3796,
      "name": "Michael Gough",
      "profile_path": "/owcwnV6dymBd9YIQKDPzVA5EtZX.jpg",
      "popularity": 17.319,
      "adult": false,
      "known_for_department": "Acting"
    },
    {
      "id": 186341,
      "name": "Miyuki Sawashiro",
      "profile_path": "/3l2HIkVifapvSPPGYZO4oI5snXk.jpg",
      "popularity": 17.314,
      "adult": false,
      "known_for_department": "Acting"
    },
    {
      "id": 1522700,
      "name": "Burcu Özberk",
      "profile_path": "/cpJhLkaTKGOuZnV0oWu5YhBdPYO.jpg",
      "popularity": 17.312,
      "adult": false,
      "known_for_department": "Acting"
    },
    {
      "id": 1151410,
      "name": "Jessica Raine",
      "profile_path": "/ciC1RRXK4mJLUbYL7hAXmdBfEtx.jpg",
      "popularity": 17.312,
      "adult": false,
      "known_for_department": "Acting"
    },
    {
      "id": 5176,
      "name": "Sam McMurray",
      "profile_path": "/pbZSG0hprUcRkUF3q4NUUzvQX3E.jpg",
      "popularity": 17.307,
      "adult": false,
      "known_for_department": "Acting"
    },
    {
      "id": 36322,
      "name": "Valentina Lodovini",
      "profile_path": "/3l2jLSzpHud4mvuTCdHW047exvR.jpg",
      "popularity": 17.306,
      "adult": false,
      "known_for_department": "Acting"
    },
    {
      "id": 121575,
      "name": "Ashlynn Yennie",
      "profile_path": "/8GIgCCdqxFfSeNEagpvKPBjSWDm.jpg",
      "popularity": 17.305,
      "adult": false,
      "known_for_department": "Acting"
    },
    {
      "id": 66606,
      "name": "George Wendt",
      "profile_path": "/noQKS06TbuPJQ9o91CzKbEvTwZR.jpg",
      "popularity": 17.298,
      "adult": false,
      "known_for_department": "Acting"
    },
    {
      "id": 62547,
      "name": "Susanna Thompson",
      "profile_path": "/7LsOYvF08HvJ5jBJtH1jrZx1dcD.jpg",
      "popularity": 17.296,
      "adult": false,
      "known_for_department": "Acting"
    },
    {
      "id": 81418,
      "name": "Karine Vanasse",
      "profile_path": "/9WAJ7Vgy0M61HNhZiNPOcKSvEgq.jpg",
      "popularity": 17.291,
      "adult": false,
      "known_for_department": "Acting"
    },
    {
      "id": 35701,
      "name": "Dave Sheridan",
      "profile_path": "/pNP7NGCjfSn6nHpoLbCOf7RsexL.jpg",
      "popularity": 17.287,
      "adult": false,
      "known_for_department": "Acting"
    }
  ]
}