{
  "page": 186,
  "total_results": 10000,
  "total_pages": 500,
  "results": [
    {
      "id": 291263,
      "name": "Jordan Peele",
      "profile_path": "/hQzDPiMQtO4GqtKj4CcuUBoYaJD.jpg",
      "popularity": 11.471,
      "adult": false,
      "known_for_department": "Directing"
    },
    {
      "id": 75037,
      "name": "Laura Bailey",
      "profile_path": "/y2szEyFy7VFAzdQjMwN3fLwEDn.jpg",
      "popularity": 11.471,
      "adult": false,
      "known_for_department": "Acting"
    },
    {
      "id": 1331023,
      "name": "Emilia Jones",
      "profile_path": "/vQHfiR6bSKf7bJcYyDvfUSXlB9Q.jpg",
      "popularity": 11.469,
      "adult": false,
      "known_for_department": "Acting"
    },
    {
      "id": 912632,
      "name": "Jella Haase",
      "profile_path": "/uOfKMmIY0AruxUeeroESXTT9C74.jpg",
      "popularity": 11.469,
      "adult": false,
      "known_for_department": "Acting"
    },
    {
      "id": 16619,
      "name": "Mr. T",
      "profile_path": "/6j5DkJuKwxZklLJWFJciUbh31jL.jpg",
      "popularity": 11.469,
      "adult": false,
      "known_for_department": "Acting"
    },
    {
      "id": 42247,
      "name": "Renee Rea",
      "profile_path": "/iG7aya7vYSIfZ8tu6wbjBulWL5H.jpg",
      "popularity": 11.468,
      "adult": false,
      "known_for_department": "Acting"
    },
    {
      "id": 1454946,
      "name": "Milana Vayntrub",
      "profile_path": "/i5Cou9ExwTZvRRtl79V75CsI7oC.jpg",
      "popularity": 11.467,
      "adult": false,
      "known_for_department": "Acting"
    },
    {
      "id": 8687,
      "name": "Chi McBride",
      "profile_path": "/cesCeJZ5gSywA9lTYReB5uhkfek.jpg",
      "popularity": 11.467,
      "adult": false,
      "known_for_department": "Acting"
    },
    {
      "id": 24590,
      "name": "Dominique Sanda",
      "profile_path": "/7pgdyP7WDMLIzrlffs8fK5370IX.jpg",
      "popularity": 11.464,
      "adult": false,
      "known_for_department": "Acting"
    },
    {
      "id": 2022326,
      "name": "Gökhan Alkan",
      "profile_path": "/euVYGo5KaFXMBzpiZkusO4UAS2d.jpg",
      "popularity": 11.462,
      "adult": false,
      "known_for_department": "Acting"
    },
    {
      "id": 1493969,
      "name": "Amiah Miller",
      "profile_path": "/lEAwB3afBvhyEFaYo4kUl2cc0ul.jpg",
      "popularity": 11.462,
      "adult": false,
      "known_for_department": "Acting"
    },
    {
      "id": 119812,
      "name": "Dalila Bela",
      "profile_path": "/264TqUrJ1qPtZTALv23A4Fd8fS2.jpg",
      "popularity": 11.462,
      "adult": false,
      "known_for_department": "Acting"
    },
    {
      "id": 14702,
      "name": "Cathy Moriarty",
      "profile_path": "/g5pXUDGH30egsCq9eTDrsikFAYk.jpg",
      "popularity": 11.461,
      "adult": false,
      "known_for_department": "Acting"
    },
    {
      "id": 2321,
      "name": "Jessica Amlee",
      "profile_path": "/7tZQEkbaCHV8BSdT3rvChySzyMx.jpg",
      "popularity": 11.46,
      "adult": false,
      "known_for_department": "Acting"
    },
    {
      "id": 34489,
      "name": "Eric Balfour",
      "profile_path": "/tqlyRVgkNYIePcunx4johOOxY8h.jpg",
      "popularity": 11.459,
      "adult": false,
      "known_for_department": "Acting"
    },
    {
      "id": 1371108,
      "name": "Kyla-Drew",
      "profile_path": "/q45XSpE8FIiCMLJd2Af7f5wJ94k.jpg",
      "popularity": 11.457,
      "adult": false,
      "known_for_department": "Acting"
    },
    {
      "id": 83456,
      "name": "Michael Trucco",
      "profile_path": "/qOA3cT2Gsmm9M6URoU4Ykynx2Oc.jpg",
      "popularity": 11.455,
      "adult": false,
      "known_for_department": "Acting"
    },
    {
      "id": 1423269,
      "name": "Anikha Surendran",
      "profile_path": "/unw5AO67lKGndi365OnvGxx3IkD.jpg",
      "popularity": 11.451,
      "adult": false,
      "known_for_department": "Acting"
    },
    {
      "id": 2442126,
      "name": "Caylee Cowan",
      "profile_path": "/w4Z1ZmcLJt4plQ2tXaRXTRpOWcU.jpg",
      "popularity": 11.449,
      "adult": false,
      "known_for_department": "Acting"
    },
    {
      "id": 1255055,
      "name": "Jessica Green",
      "profile_path": "/fIo9WCfnEQAK36Lrg5WWy77LS3K.jpg",
      "popularity": 11.449,
      "adult": false,
      "known_for_department": "Acting"
    }
  ]
}