{
  "page": 346,
  "total_results": 10000,
  "total_pages": 500,
  "results": [
    {
      "id": 567001,
      "name": "Géza Weisz",
      "profile_path": "/vi5Lglnuz3b8dqIbIH1sfbxeYQD.jpg",
      "popularity": 9.672,
      "adult": false,
      "known_for_department": "Acting"
    },
    {
      "id": 52603,
      "name": "Alfonso Freeman",
      "profile_path": "/9H4wX5clEpFfD3SG2JPoGH3LIgV.jpg",
      "popularity": 9.672,
      "adult": false,
      "known_for_department": "Acting"
    },
    {
      "id": 1694435,
      "name": "Park Myung-hoon",
      "profile_path": "/8IgD7YBQKi2K94RSCwXCCrKcQrA.jpg",
      "popularity": 9.67,
      "adult": false,
      "known_for_department": "Acting"
    },
    {
      "id": 108532,
      "name": "Scott Elrod",
      "profile_path": "/3HakFxicl5jTNB9BPPQdfkQQO1O.jpg",
      "popularity": 9.668,
      "adult": false,
      "known_for_department": "Acting"
    },
    {
      "id": 36322,
      "name": "Valentina Lodovini",
      "profile_path": "/3l2jLSzpHud4mvuTCdHW047exvR.jpg",
      "popularity": 9.668,
      "adult": false,
      "known_for_department": "Acting"
    },
    {
      "id": 113332,
      "name": "Aleksey Serebryakov",
      "profile_path": "/oFeLJoqKyhx0YgNxa6gfALMf0H5.jpg",
      "popularity": 9.667,
      "adult": false,
      "known_for_department": "Acting"
    },
    {
      "id": 12466,
      "name": "Roy Cheung",
      "profile_path": "/gHue0osFNYoX06eXpTrMZWpOpi8.jpg",
      "popularity": 9.666,
      "adult": false,
      "known_for_department": "Acting"
    },
    {
      "id": 134774,
      "name": "Wunmi Mosaku",
      "profile_path": "/mWDsVCo9sBcekrsjUTsoCFLhtYt.jpg",
      "popularity": 9.665,
      "adult": false,
      "known_for_department": "Acting"
    },
    {
      "id": 1859758,
      "name": "Park Kyung-hye",
      "profile_path": "/cLyqYwsA3z0O3RcZJwqmgExcVCT.jpg",
      "popularity": 9.664,
      "adult": false,
      "known_for_department": "Acting"
    },
    {
      "id": 6069,
      "name": "Austin Nichols",
      "profile_path": "/nhH6CVwgCQOKkz2QLVH4V7Am6zv.jpg",
      "popularity": 9.664,
      "adult": false,
      "known_for_department": "Acting"
    },
    {
      "id": 1750,
      "name": "DeForest Kelley",
      "profile_path": "/q6NJxoCo63aFkz4KDi5s38xX0uN.jpg",
      "popularity": 9.664,
      "adult": false,
      "known_for_department": "Acting"
    },
    {
      "id": 1796129,
      "name": "Anastasia Marinina",
      "profile_path": "/kUDNJ4XYLaJXfjjk7M0eQgvD9gv.jpg",
      "popularity": 9.662,
      "adult": false,
      "known_for_department": "Acting"
    },
    {
      "id": 3289,
      "name": "Paul Weitz",
      "profile_path": "/54Np4lBqGM36uwpzRc4KztJxGJz.jpg",
      "popularity": 9.662,
      "adult": false,
      "known_for_department": "Directing"
    },
    {
      "id": 19549,
      "name": "Greta Garbo",
      "profile_path": "/h5HRAusdjpWNQdzUVGXMoF635L1.jpg",
      "popularity": 9.661,
      "adult": false,
      "known_for_department": "Acting"
    },
    {
      "id": 68558,
      "name": "Kumiko Goto",
      "profile_path": "/rCQxk6sgUWqX0vhDNucaZHbY6Sn.jpg",
      "popularity": 9.659,
      "adult": false,
      "known_for_department": "Acting"
    },
    {
      "id": 1711569,
      "name": "Jess Salgueiro",
      "profile_path": "/q86IE3bvaEqBcUTWmIoYMZTCypS.jpg",
      "popularity": 9.655,
      "adult": false,
      "known_for_department": "Acting"
    },
    {
      "id": 1619435,
      "name": "Kim Jung-hyun",
      "profile_path": "/yqHpamGkZQQz9mSRFR27upMbTL2.jpg",
      "popularity": 9.654,
      "adult": false,
      "known_for_department": "Acting"
    },
    {
      "id": 1692990,
      "name": "Megan Peta Hill",
      "profile_path": "/1ZUxkw817g62QhjMg5SxNLplnM6.jpg",
      "popularity": 9.653,
      "adult": false,
      "known_for_department": "Acting"
    },
    {
      "id": 1440014,
      "name": "Stephen Ure",
      "profile_path": "/g5sLvAz07eZgJ5A6vg5d4totVXz.jpg",
      "popularity": 9.653,
      "adult": false,
      "known_for_department": "Acting"
    },
    {
      "id": 100766,
      "name": "Sakura Ando",
      "profile_path": "/lR1YVfjMYKCMOHzvY3pHTFM5zSI.jpg",
      "popularity": 9.653,
      "adult": false,
      "known_for_department": "Acting"
    }
  ]
}