{
  "page": 191,
  "total_results": 10000,
  "total_pages": 500,
  "results": [
    {
      "id": 52850,
      "name": "Lina Esco",
      "profile_path": "/wznqU0k7art3jux3umSwMMbrLWv.jpg",
      "popularity": 11.519,
      "adult": false,
      "known_for_department": "Acting"
    },
    {
      "id": 5177,
      "name": "Randall 'Tex' Cobb",
      "profile_path": "/xBUdVeioNCwWBTzO618GSAtnWJg.jpg",
      "popularity": 11.515,
      "adult": false,
      "known_for_department": "Acting"
    },
    {
      "id": 2033618,
      "name": "Jesse James Keitel",
      "profile_path": "/ymUjwDexF0PlzLNsJlA5ud5Sykw.jpg",
      "popularity": 11.514,
      "adult": false,
      "known_for_department": "Acting"
    },
    {
      "id": 53117,
      "name": "Dustin Milligan",
      "profile_path": "/v1OtMBknzIUPXd0sQU6P0LA57V7.jpg",
      "popularity": 11.514,
      "adult": false,
      "known_for_department": "Acting"
    },
    {
      "id": 9029,
      "name": "Stephen Rea",
      "profile_path": "/8Ej68YWZ8P2Wwf2a0UXibqq9Mu9.jpg",
      "popularity": 11.511,
      "adult": false,
      "known_for_department": "Acting"
    },
    {
      "id": 1120,
      "name": "Lennie James",
      "profile_path": "/hfZrdEkBHxYYbMoGHAaVomlgMi.jpg",
      "popularity": 11.51,
      "adult": false,
      "known_for_department": "Acting"
    },
    {
      "id": 2166026,
      "name": "Park Hoon",
      "profile_path": "/1fVcI5O31gu3SlQKyocZ5fGPSdg.jpg",
      "popularity": 11.508,
      "adult": false,
      "known_for_department": "Acting"
    },
    {
      "id": 2038,
      "name": "Naomie Harris",
      "profile_path": "/pDFs4gSeKSyIF8PditvtHqAq687.jpg",
      "popularity": 11.507,
      "adult": false,
      "known_for_department": "Acting"
    },
    {
      "id": 62716,
      "name": "B. J. Harrison",
      "profile_path": "/wKQzk78i0nCdSASDFwma0z1tZsv.jpg",
      "popularity": 11.506,
      "adult": false,
      "known_for_department": "Acting"
    },
    {
      "id": 1010189,
      "name": "Adan Canto",
      "profile_path": "/d6ZcywTmeR9UWAcdeDMJwpuBwQN.jpg",
      "popularity": 11.505,
      "adult": false,
      "known_for_department": "Acting"
    },
    {
      "id": 1219,
      "name": "Amy Yasbeck",
      "profile_path": "/blg3oda5734ndB8l4rWkFXjSsqv.jpg",
      "popularity": 11.504,
      "adult": false,
      "known_for_department": "Acting"
    },
    {
      "id": 14277,
      "name": "Klaus Kinski",
      "profile_path": "/twuyGlZJzJXFcbhVS2jlQOsTVFK.jpg",
      "popularity": 11.501,
      "adult": false,
      "known_for_department": "Acting"
    },
    {
      "id": 1425019,
      "name": "Laia Costa",
      "profile_path": "/i1L1tb5a8bdea4Zx0mAj260Fpde.jpg",
      "popularity": 11.5,
      "adult": false,
      "known_for_department": "Acting"
    },
    {
      "id": 94791,
      "name": "Jake McDorman",
      "profile_path": "/8u4a32R4J3drCnHBO2THpx89ytp.jpg",
      "popularity": 11.499,
      "adult": false,
      "known_for_department": "Acting"
    },
    {
      "id": 13848,
      "name": "Charlie Chaplin",
      "profile_path": "/lRI9Ky1SMOehn04OqhYJ5hQfgIK.jpg",
      "popularity": 11.499,
      "adult": false,
      "known_for_department": "Acting"
    },
    {
      "id": 41240,
      "name": "Yvonne De Carlo",
      "profile_path": "/cldx7C9iQlVJIdrPWbGlu2HidVW.jpg",
      "popularity": 11.495,
      "adult": false,
      "known_for_department": "Acting"
    },
    {
      "id": 56816,
      "name": "Michelle Reis",
      "profile_path": "/uAWc1iZsvPNxAqZ1PNu0GRTuYTu.jpg",
      "popularity": 11.492,
      "adult": false,
      "known_for_department": "Acting"
    },
    {
      "id": 1766034,
      "name": "Mrunal Thakur",
      "profile_path": "/ad2Y9NitIm1AqdPIbdc0B0NmykM.jpg",
      "popularity": 11.491,
      "adult": false,
      "known_for_department": "Acting"
    },
    {
      "id": 145247,
      "name": "Phoebe Tonkin",
      "profile_path": "/xul87TVtaMp5w1yJ3OKgBvf3D3n.jpg",
      "popularity": 11.491,
      "adult": false,
      "known_for_department": "Acting"
    },
    {
      "id": 15048,
      "name": "Robby Benson",
      "profile_path": "/rYcDiM9LrStdlcb80N3WAR2CsHX.jpg",
      "popularity": 11.49,
      "adult": false,
      "known_for_department": "Acting"
    }
  ]
}