{
  "page": 301,
  "total_results": 10000,
  "total_pages": 500,
  "results": [
    {
      "id": 118639,
      "name": "Tom Six",
      "profile_path": "",
      "popularity": 10.353,
      "adult": false,
      "known_for_department": "Directing"
    },
    {
      "id": 43432,
      "name": "Tane McClure",
      "profile_path": "/upUpZ4aoir0UAYyNmMap6SIuLgB.jpg",
      "popularity": 10.352,
      "adult": false,
      "known_for_department": "Acting"
    },
    {
      "id": 206637,
      "name": "Kelli Giddish",
      "profile_path": "/3zcqEyAguRhYofePyJehWm19uUX.jpg",
      "popularity": 10.349,
      "adult": false,
      "known_for_department": "Acting"
    },
    {
      "id": 1467384,
      "name": "Lee Yul-eum",
      "profile_path": "/lMktWtdtbcxu5zjwoit1OIupIx9.jpg",
      "popularity": 10.348,
      "adult": false,
      "known_for_department": "Acting"
    },
    {
      "id": 107241,
      "name": "Brian Deacon",
      "profile_path": "/48GhLPSdrWJoaYJV6FnuTDumYA5.jpg",
      "popularity": 10.346,
      "adult": false,
      "known_for_department": "Acting"
    },
    {
      "id": 59176,
      "name": "Jenna Boyd",
      "profile_path": "/tDMgyuY9KwFHpmJdqyi51aGOkCe.jpg",
      "popularity": 10.346,
      "adult": false,
      "known_for_department": "Acting"
    },
    {
      "id": 11148,
      "name": "Joan Allen",
      "profile_path": "/2w40UhN3WoW9G9EkLzhDcfF3t9W.jpg",
      "popularity": 10.346,
      "adult": false,
      "known_for_department": "Acting"
    },
    {
      "id": 62065,
      "name": "Bree Turner",
      "profile_path": "/a6mpCcLHQpnkyjJVBtXH6oxfPGy.jpg",
      "popularity": 10.345,
      "adult": false,
      "known_for_department": "Acting"
    },
    {
      "id": 2790041,
      "name": "Joo Hyun-young",
      "profile_path": "/mOI26FtPFBfFn49MikjfaY4a3NU.jpg",
      "popularity": 10.344,
      "adult": false,
      "known_for_department": "Acting"
    },
    {
      "id": 31924,
      "name": "Geoffrey Beevers",
      "profile_path": "/y2s1EaiWAw4y2IzowHHbvmi9NeV.jpg",
      "popularity": 10.343,
      "adult": false,
      "known_for_department": "Acting"
    },
    {
      "id": 13243,
      "name": "Glenn Shadix",
      "profile_path": "/zTu0Fh0ohLIvFnEXiRvhe91T3Wg.jpg",
      "popularity": 10.34,
      "adult": false,
      "known_for_department": "Acting"
    },
    {
      "id": 562314,
      "name": "Slavitza Jovan",
      "profile_path": "/tdCiz0qgYkucQJAqGAoySdGrua6.jpg",
      "popularity": 10.339,
      "adult": false,
      "known_for_department": "Acting"
    },
    {
      "id": 186007,
      "name": "Vicki Michelle",
      "profile_path": "/eNyoHpNqTimPXDi6rVxb2nJjLzR.jpg",
      "popularity": 10.339,
      "adult": false,
      "known_for_department": "Acting"
    },
    {
      "id": 151432,
      "name": "Boris McGiver",
      "profile_path": "/mwVp5Pt7gMhEHPsijU8niPRljiW.jpg",
      "popularity": 10.339,
      "adult": false,
      "known_for_department": "Acting"
    },
    {
      "id": 44097,
      "name": "Maria del Mar",
      "profile_path": "",
      "popularity": 10.339,
      "adult": false,
      "known_for_department": "Acting"
    },
    {
      "id": 36938,
      "name": "Mimsy Farmer",
      "profile_path": "/3g3uhMDl2CQHQR8I1ODhVcgKhiz.jpg",
      "popularity": 10.339,
      "adult": false,
      "known_for_department": "Acting"
    },
    {
      "id": 1934,
      "name": "Patricia Neal",
      "profile_path": "/sbPnNXzc4bYCUPgbcgFlZxgQ89O.jpg",
      "popularity": 10.339,
      "adult": false,
      "known_for_department": "Acting"
    },
    {
      "id": 256725,
      "name": "Ivo Gregurević",
      "profile_path": "/3OdYvAaLiuNN6UCMvMb28zTDrpu.jpg",
      "popularity": 10.338,
      "adult": false,
      "known_for_department": "Acting"
    },
    {
      "id": 84927,
      "name": "Benjamin Whitrow",
      "profile_path": "/etHniAfcrMBSlLW7s8xWxcCFtuY.jpg",
      "popularity": 10.338,
      "adult": false,
      "known_for_department": "Acting"
    },
    {
      "id": 1496155,
      "name": "Go Won-hee",
      "profile_path": "/iHGHhIe4keVyxzUKNB0skR1wfGW.jpg",
      "popularity": 10.337,
      "adult": false,
      "known_for_department": "Acting"
    }
  ]
}