{
  "page": 366,
  "total_results": 10000,
  "total_pages": 500,
  "results": [
    {
      "id": 65240,
      "name": "Leila Arcieri",
      "profile_path": "/cTZP18UgEwU0anDFCYDiWPxxIjI.jpg",
      "popularity": 8.973,
      "adult": false,
      "known_for_department": "Acting"
    },
    {
      "id": 29427,
      "name": "Terry-Thomas",
      "profile_path": "/8DISWwlhkrzq2SL7vjnsd5iE1f2.jpg",
      "popularity": 8.972,
      "adult": false,
      "known_for_department": "Acting"
    },
    {
      "id": 19270,
      "name": "Michèle Mercier",
      "profile_path": "/eRAZgxJ5laS84HwSTFDVGjqmZEe.jpg",
      "popularity": 8.972,
      "adult": false,
      "known_for_department": "Acting"
    },
    {
      "id": 1694435,
      "name": "Park Myung-hoon",
      "profile_path": "/8IgD7YBQKi2K94RSCwXCCrKcQrA.jpg",
      "popularity": 8.971,
      "adult": false,
      "known_for_department": "Acting"
    },
    {
      "id": 110531,
      "name": "Shanola Hampton",
      "profile_path": "/3H3zLTBH3ThD0G4IJ4TACKhRzIw.jpg",
      "popularity": 8.969,
      "adult": false,
      "known_for_department": "Acting"
    },
    {
      "id": 105647,
      "name": "Justine Bateman",
      "profile_path": "/rYEbU778cutjGORs5uxebYehhyy.jpg",
      "popularity": 8.969,
      "adult": false,
      "known_for_department": "Acting"
    },
    {
      "id": 53261,
      "name": "Kim Richards",
      "profile_path": "/betz2bO9DSpz3cMThwynxKOwQ0r.jpg",
      "popularity": 8.969,
      "adult": false,
      "known_for_department": "Acting"
    },
    {
      "id": 8260,
      "name": "Strother Martin",
      "profile_path": "/kriWi94NlAg2Nff1FOMhDf7AOEA.jpg",
      "popularity": 8.969,
      "adult": false,
      "known_for_department": "Acting"
    },
    {
      "id": 574658,
      "name": "Jelena Gavrilović",
      "profile_path": "/jsg6n5qSCQ30KfrZd4H3WExIyiV.jpg",
      "popularity": 8.968,
      "adult": false,
      "known_for_department": "Acting"
    },
    {
      "id": 1219517,
      "name": "Lauren Schmidt Hissrich",
      "profile_path": "/gIYkS3iNC8gMrldAHF09QHPGELb.jpg",
      "popularity": 8.967,
      "adult": false,
      "known_for_department": "Writing"
    },
    {
      "id": 78062,
      "name": "Aml Ameen",
      "profile_path": "/wQ5zWlzmhvp2wG6gJiqoocEYHPJ.jpg",
      "popularity": 8.967,
      "adult": false,
      "known_for_department": "Acting"
    },
    {
      "id": 1855300,
      "name": "Liang Jie",
      "profile_path": "/pYYvBkKizMO8vulvZNNdqEkEYPL.jpg",
      "popularity": 8.966,
      "adult": false,
      "known_for_department": "Acting"
    },
    {
      "id": 1229895,
      "name": "Tomohisa Yamashita",
      "profile_path": "/oWjRPp17jVrLJLt55Wrzad3s4vb.jpg",
      "popularity": 8.966,
      "adult": false,
      "known_for_department": "Acting"
    },
    {
      "id": 89113,
      "name": "John Robert Hoffman",
      "profile_path": "",
      "popularity": 8.964,
      "adult": false,
      "known_for_department": "Writing"
    },
    {
      "id": 56930,
      "name": "David Selby",
      "profile_path": "/w7OUsn0tXFV3p056704eP7DkrcP.jpg",
      "popularity": 8.964,
      "adult": false,
      "known_for_department": "Acting"
    },
    {
      "id": 3492,
      "name": "Colin Hanks",
      "profile_path": "/xe44rLf5CbEY0ovNaOD0RIy5VCJ.jpg",
      "popularity": 8.963,
      "adult": false,
      "known_for_department": "Acting"
    },
    {
      "id": 1234728,
      "name": "Geno Segers",
      "profile_path": "/wBrpM22iabuY2B9Um35J7ctiu8i.jpg",
      "popularity": 8.961,
      "adult": false,
      "known_for_department": "Acting"
    },
    {
      "id": 57744,
      "name": "Jonathan Aibel",
      "profile_path": "/nKKXpwXrkZawLhrbyKBSCpEJzT7.jpg",
      "popularity": 8.961,
      "adult": false,
      "known_for_department": "Writing"
    },
    {
      "id": 21662,
      "name": "Ed Westwick",
      "profile_path": "/1IfkKI3zxASJSrlMpnlEPpofacD.jpg",
      "popularity": 8.96,
      "adult": false,
      "known_for_department": "Acting"
    },
    {
      "id": 1875651,
      "name": "Momo Hirai",
      "profile_path": "/eYcE1O1oOyse1b7zFSgw25FY6WS.jpg",
      "popularity": 8.959,
      "adult": false,
      "known_for_department": "Acting"
    }
  ]
}