{
  "page": 418,
  "total_results": 10000,
  "total_pages": 500,
  "results": [
    {
      "id": 3121957,
      "name": "Candy Loving",
      "profile_path": "/kFccPNPddWXpnnVGkxo1CNKWfeg.jpg",
      "popularity": 9.35,
      "adult": false,
      "known_for_department": "Acting"
    },
    {
      "id": 173964,
      "name": "Andrew Leeds",
      "profile_path": "/w9aIFV2E4qIA19wEaarPR3Dxtbu.jpg",
      "popularity": 9.349,
      "adult": false,
      "known_for_department": "Acting"
    },
    {
      "id": 128026,
      "name": "Huang Bo",
      "profile_path": "/zOzz4woq7dfcll9AR1yGiQbjY4.jpg",
      "popularity": 9.349,
      "adult": false,
      "known_for_department": "Acting"
    },
    {
      "id": 11179,
      "name": "Sean Biggerstaff",
      "profile_path": "/6g9cQWg3ikD3xboDtyF8qKdpmgl.jpg",
      "popularity": 9.349,
      "adult": false,
      "known_for_department": "Acting"
    },
    {
      "id": 1924458,
      "name": "Cameron Cowperthwaite",
      "profile_path": "/uT8SXIWieodbiVxjzSavuVr5rM1.jpg",
      "popularity": 9.348,
      "adult": false,
      "known_for_department": "Acting"
    },
    {
      "id": 535191,
      "name": "Lino Brocka",
      "profile_path": "/yPnGnnARkP4fgTNFNGDbAo7HqNj.jpg",
      "popularity": 9.347,
      "adult": false,
      "known_for_department": "Directing"
    },
    {
      "id": 33022,
      "name": "Dennis Morgan",
      "profile_path": "/lRNp0iYnLhP8A12ZYvTLeOxCwFt.jpg",
      "popularity": 9.346,
      "adult": false,
      "known_for_department": "Acting"
    },
    {
      "id": 1324296,
      "name": "Yasemin Kay Allen",
      "profile_path": "/gYigFf5WDnMBG3SCDVuyQpNyQCK.jpg",
      "popularity": 9.345,
      "adult": false,
      "known_for_department": "Acting"
    },
    {
      "id": 238432,
      "name": "Ryoko Nakano",
      "profile_path": "/joR7YvQHtDqQn85uKeISoPGMGMF.jpg",
      "popularity": 9.345,
      "adult": false,
      "known_for_department": "Acting"
    },
    {
      "id": 225996,
      "name": "Hiroyuki Yoshino",
      "profile_path": "/314Wyamnl7mZKVmiDm5SPGroNB0.jpg",
      "popularity": 9.345,
      "adult": false,
      "known_for_department": "Acting"
    },
    {
      "id": 64896,
      "name": "Michael Wong",
      "profile_path": "/vZ54bIBr2OQ0d3Sy0icHFDL9ugU.jpg",
      "popularity": 9.345,
      "adult": false,
      "known_for_department": "Acting"
    },
    {
      "id": 1445671,
      "name": "Nicholas Phillips",
      "profile_path": "",
      "popularity": 9.344,
      "adult": false,
      "known_for_department": "Acting"
    },
    {
      "id": 92582,
      "name": "Alley Mills",
      "profile_path": "/9MwgBLOpdaeIKcjUEV72f3S0StQ.jpg",
      "popularity": 9.344,
      "adult": false,
      "known_for_department": "Acting"
    },
    {
      "id": 19184,
      "name": "Mark-Paul Gosselaar",
      "profile_path": "/6TbZu1RXaBu3gvwoPlNWBqFoqxw.jpg",
      "popularity": 9.344,
      "adult": false,
      "known_for_department": "Acting"
    },
    {
      "id": 10502,
      "name": "Lynn-Holly Johnson",
      "profile_path": "/otNAP9RUhGwzJ9vlQ8i4KWAc2Sc.jpg",
      "popularity": 9.344,
      "adult": false,
      "known_for_department": "Acting"
    },
    {
      "id": 30083,
      "name": "Lindsay Duncan",
      "profile_path": "/v91oNKrP713n5NQI4dg6LY425Pr.jpg",
      "popularity": 9.343,
      "adult": false,
      "known_for_department": "Acting"
    },
    {
      "id": 1107765,
      "name": "Hiroshi Harada",
      "profile_path": "/qzIPlpJeSaeztRzz3cmRb90r4ef.jpg",
      "popularity": 9.341,
      "adult": false,
      "known_for_department": "Directing"
    },
    {
      "id": 117975,
      "name": "Eita Nagayama",
      "profile_path": "/10Q2xdJyMJ4Bngx8NDYtFbBcWLQ.jpg",
      "popularity": 9.341,
      "adult": false,
      "known_for_department": "Acting"
    },
    {
      "id": 55907,
      "name": "Lucy Gutteridge",
      "profile_path": "/atVD6PfgrBN1gGagnI63nNaQYdJ.jpg",
      "popularity": 9.34,
      "adult": false,
      "known_for_department": "Acting"
    },
    {
      "id": 1346173,
      "name": "Push Puttichai Kasetsin",
      "profile_path": "/wKeGJSqX4txNq996nrOmfoFoloA.jpg",
      "popularity": 9.339,
      "adult": false,
      "known_for_department": "Acting"
    }
  ]
}