{
  "page": 464,
  "total_results": 10000,
  "total_pages": 500,
  "results": [
    {
      "id": 94482,
      "name": "Natasha Calis",
      "profile_path": "/6pnuZuVyTWq0GFHSpdvDGL1urhs.jpg",
      "popularity": 7.188,
      "adult": false,
      "known_for_department": "Acting"
    },
    {
      "id": 60279,
      "name": "Fred Tatasciore",
      "profile_path": "/busoEz4khUJ0hOoKHexjXwGrsit.jpg",
      "popularity": 7.188,
      "adult": false,
      "known_for_department": "Acting"
    },
    {
      "id": 53185,
      "name": "Texas Battle",
      "profile_path": "/zPzagAtKxbHKrQLAQ69KSYLZxjA.jpg",
      "popularity": 7.188,
      "adult": false,
      "known_for_department": "Acting"
    },
    {
      "id": 1204379,
      "name": "Kevin Guthrie",
      "profile_path": "/uT6ju0dmnA6GjukgRrbfZPUDMnL.jpg",
      "popularity": 7.187,
      "adult": false,
      "known_for_department": "Acting"
    },
    {
      "id": 149670,
      "name": "Kevin Weisman",
      "profile_path": "/c0YWHu02cHGynufhOM7eNtIQ5ze.jpg",
      "popularity": 7.187,
      "adult": false,
      "known_for_department": "Acting"
    },
    {
      "id": 67378,
      "name": "Travis Tedford",
      "profile_path": "/mVfFFVKhxADeJgyZkdmUmWTY9R1.jpg",
      "popularity": 7.187,
      "adult": false,
      "known_for_department": "Acting"
    },
    {
      "id": 63708,
      "name": "Hiroko Yashiki",
      "profile_path": "/7fS6mfkfJ11nhPAkq502Lvj70eE.jpg",
      "popularity": 7.186,
      "adult": false,
      "known_for_department": "Acting"
    },
    {
      "id": 25909,
      "name": "Ian Hyland",
      "profile_path": "/v1CISuebV0M9VVFG1fkmNWpLhbC.jpg",
      "popularity": 7.186,
      "adult": false,
      "known_for_department": "Acting"
    },
    {
      "id": 8676,
      "name": "Dean Devlin",
      "profile_path": "/lO8HDHI3aVrpVubWb2DH1jeqM40.jpg",
      "popularity": 7.185,
      "adult": false,
      "known_for_department": "Writing"
    },
    {
      "id": 1490176,
      "name": "Lee Seung-chae",
      "profile_path": "/92wSHOzEonbyftcylfnc0DW1hT2.jpg",
      "popularity": 7.184,
      "adult": false,
      "known_for_department": "Acting"
    },
    {
      "id": 112328,
      "name": "Christopher Backus",
      "profile_path": "/g48BUWwmbbZDD8fgZACIO5G9NuN.jpg",
      "popularity": 7.184,
      "adult": false,
      "known_for_department": "Acting"
    },
    {
      "id": 47080,
      "name": "Gloria Talbott",
      "profile_path": "/dMx3GnOpQirJS33zx7fs6aUXi7t.jpg",
      "popularity": 7.184,
      "adult": false,
      "known_for_department": "Acting"
    },
    {
      "id": 1826430,
      "name": "Hasan Denizyaran",
      "profile_path": "/156VHV5rUXaRdTqVi7ZYZxhXr0P.jpg",
      "popularity": 7.183,
      "adult": false,
      "known_for_department": "Acting"
    },
    {
      "id": 1298729,
      "name": "Tong Yao",
      "profile_path": "/r5yiSVDkxTvQzJFD9cngR4c2ij8.jpg",
      "popularity": 7.183,
      "adult": false,
      "known_for_department": "Acting"
    },
    {
      "id": 119713,
      "name": "Bruce Vilanch",
      "profile_path": "/2XMRxwHF5uCTxNf9qkq8IKG12Jj.jpg",
      "popularity": 7.183,
      "adult": false,
      "known_for_department": "Acting"
    },
    {
      "id": 79632,
      "name": "Liz Fraser",
      "profile_path": "/6EHP1atrqvDj7iPzGMhbDV9fMHe.jpg",
      "popularity": 7.183,
      "adult": false,
      "known_for_department": "Acting"
    },
    {
      "id": 1243270,
      "name": "Carolyn Dunn",
      "profile_path": "/vfYTBOvUWtbaoLQ2JMl9DxtKl3l.jpg",
      "popularity": 7.182,
      "adult": false,
      "known_for_department": "Acting"
    },
    {
      "id": 88167,
      "name": "Anushka Shetty",
      "profile_path": "/zpe6Es8kdNOXuPdXiJvqxzsmN6z.jpg",
      "popularity": 7.182,
      "adult": false,
      "known_for_department": "Acting"
    },
    {
      "id": 60878,
      "name": "Warren Kole",
      "profile_path": "/rwJHDXng0zn4QWhAP36tfhkXWjt.jpg",
      "popularity": 7.182,
      "adult": false,
      "known_for_department": "Acting"
    },
    {
      "id": 34981,
      "name": "Efrem Zimbalist Jr.",
      "profile_path": "/nMfmluUYjgQODrLwwUDHh7QQtww.jpg",
      "popularity": 7.182,
      "adult": false,
      "known_for_department": "Acting"
    }
  ]
}