{
  "page": 460,
  "total_results": 10000,
  "total_pages": 500,
  "results": [
    {
      "id": 5375,
      "name": "Geoffrey Arend",
      "profile_path": "/bpqF3V5lK5GxuIU4VuTaVaztIvw.jpg",
      "popularity": 7.378,
      "adult": false,
      "known_for_department": "Acting"
    },
    {
      "id": 1034197,
      "name": "Samira Wiley",
      "profile_path": "/m45A0hYcpnGckwxqs7j0I6Sp2Dj.jpg",
      "popularity": 7.377,
      "adult": false,
      "known_for_department": "Acting"
    },
    {
      "id": 65301,
      "name": "Phil Daniels",
      "profile_path": "/6yNFNjo3cWEcuAUrl0CNQnAnQ5M.jpg",
      "popularity": 7.377,
      "adult": false,
      "known_for_department": "Acting"
    },
    {
      "id": 18738,
      "name": "George Stevens",
      "profile_path": "/mblM3Kg4YbD4Jxil1aCs9qBNt7s.jpg",
      "popularity": 7.377,
      "adult": false,
      "known_for_department": "Directing"
    },
    {
      "id": 1770525,
      "name": "Emma Appleton",
      "profile_path": "/jiwxHk5BsbIlaUROkW99vRwvtvJ.jpg",
      "popularity": 7.376,
      "adult": false,
      "known_for_department": "Acting"
    },
    {
      "id": 85906,
      "name": "Neel Rønholt",
      "profile_path": "/pwMOe6brSlIjZ7OOIGOfzoy0Mbb.jpg",
      "popularity": 7.375,
      "adult": false,
      "known_for_department": "Acting"
    },
    {
      "id": 21710,
      "name": "Michael O'Neill",
      "profile_path": "/u9Ejl9iS4ZJ36Y653UCe8huLaOn.jpg",
      "popularity": 7.375,
      "adult": false,
      "known_for_department": "Acting"
    },
    {
      "id": 2567,
      "name": "Peter van Eyck",
      "profile_path": "/104PEiOgll349FBLQZJtOzkv5Ns.jpg",
      "popularity": 7.375,
      "adult": false,
      "known_for_department": "Acting"
    },
    {
      "id": 1252618,
      "name": "Junpei Morita",
      "profile_path": "/szXXoRCrmWZ9lzM2hL4H9MhkNHJ.jpg",
      "popularity": 7.374,
      "adult": false,
      "known_for_department": "Acting"
    },
    {
      "id": 1080933,
      "name": "Cho Eun-ji",
      "profile_path": "/knJQND4Pgo7ZJoEEs9bsioqdVLt.jpg",
      "popularity": 7.374,
      "adult": false,
      "known_for_department": "Acting"
    },
    {
      "id": 41903,
      "name": "Jakob Cedergren",
      "profile_path": "/vLpbFAPhNfbQPpgkMVAJDd3uXCB.jpg",
      "popularity": 7.374,
      "adult": false,
      "known_for_department": "Acting"
    },
    {
      "id": 140407,
      "name": "Ksenia Solo",
      "profile_path": "/iWMeGas6GpzCKvOcQpe1M7Y1i0U.jpg",
      "popularity": 7.373,
      "adult": false,
      "known_for_department": "Acting"
    },
    {
      "id": 1043938,
      "name": "María Elena Velasco",
      "profile_path": "/oQ9IBfB38EepJZcuvsdNXSOHexg.jpg",
      "popularity": 7.372,
      "adult": false,
      "known_for_department": "Acting"
    },
    {
      "id": 27128,
      "name": "Aaron Pearl",
      "profile_path": "/kwc5qUmHwFv78ToK6Uewu3rRr0N.jpg",
      "popularity": 7.372,
      "adult": false,
      "known_for_department": "Acting"
    },
    {
      "id": 7504,
      "name": "Carol Lynley",
      "profile_path": "/9dxF0lP9OOKXZjSaidxIXXvKT4p.jpg",
      "popularity": 7.372,
      "adult": false,
      "known_for_department": "Acting"
    },
    {
      "id": 74086,
      "name": "Bill Maher",
      "profile_path": "/sVTF90nhXB3jIw05eJFklbGpnlC.jpg",
      "popularity": 7.371,
      "adult": false,
      "known_for_department": "Acting"
    },
    {
      "id": 54228,
      "name": "Déborah François",
      "profile_path": "/6eDjVmPDRDCN6B25pt0h1fNSj9o.jpg",
      "popularity": 7.371,
      "adult": false,
      "known_for_department": "Acting"
    },
    {
      "id": 1545928,
      "name": "Sunwoo Jae-duk",
      "profile_path": "/516ALbrKMs0BO2QtPWeNQIqFhUB.jpg",
      "popularity": 7.37,
      "adult": false,
      "known_for_department": "Acting"
    },
    {
      "id": 1392140,
      "name": "Annie Murphy",
      "profile_path": "/5oIT8B2YrlRfxSDUTpuN8fCki53.jpg",
      "popularity": 7.37,
      "adult": false,
      "known_for_department": "Acting"
    },
    {
      "id": 1251582,
      "name": "Song Jong-ho",
      "profile_path": "/8z78er9RFcR2dij9B0bDiuSJgry.jpg",
      "popularity": 7.37,
      "adult": false,
      "known_for_department": "Acting"
    }
  ]
}