{
  "page": 362,
  "total_results": 10000,
  "total_pages": 500,
  "results": [
    {
      "id": 29847,
      "name": "Mariya Mironova",
      "profile_path": "/sS1KCWTpIi0wPqrzSoiBxeeG3nW.jpg",
      "popularity": 8.572,
      "adult": false,
      "known_for_department": "Acting"
    },
    {
      "id": 1439488,
      "name": "Claudia Jessie",
      "profile_path": "/ijIRR5c3Ig5tU4jSkP1JX52apTr.jpg",
      "popularity": 8.569,
      "adult": false,
      "known_for_department": "Acting"
    },
    {
      "id": 12312,
      "name": "Richard Anderson",
      "profile_path": "/AiAPSDhMNu7zoZRngj8dISNk1rA.jpg",
      "popularity": 8.569,
      "adult": false,
      "known_for_department": "Acting"
    },
    {
      "id": 1491538,
      "name": "Lorenzo Vigas",
      "profile_path": "/fLOpnzSAXFTHuMgnB4n51kmJb8F.jpg",
      "popularity": 8.567,
      "adult": false,
      "known_for_department": "Directing"
    },
    {
      "id": 7167,
      "name": "Don Rickles",
      "profile_path": "/iJLQV4dcbTUgxlWJakjDldzlMXS.jpg",
      "popularity": 8.567,
      "adult": false,
      "known_for_department": "Acting"
    },
    {
      "id": 920,
      "name": "Jürgen Prochnow",
      "profile_path": "/xjakZgQRw4NXefazNuvQEaGhT1U.jpg",
      "popularity": 8.567,
      "adult": false,
      "known_for_department": "Acting"
    },
    {
      "id": 3160,
      "name": "Nehemiah Persoff",
      "profile_path": "/k32WMgl0GncvKOwnVTEB6LIfmEv.jpg",
      "popularity": 8.564,
      "adult": false,
      "known_for_department": "Acting"
    },
    {
      "id": 86039,
      "name": "Mario Cimarro",
      "profile_path": "/ATRS6h9uF35XvBUZ2NJifXDfYI.jpg",
      "popularity": 8.563,
      "adult": false,
      "known_for_department": "Acting"
    },
    {
      "id": 44959,
      "name": "Daria Nicolodi",
      "profile_path": "/7BeyE9kpWZ6SuwR0onXLvteKRXW.jpg",
      "popularity": 8.562,
      "adult": false,
      "known_for_department": "Acting"
    },
    {
      "id": 1683093,
      "name": "Terayle Hill",
      "profile_path": "/6AuY4EWa5lKBhWTWHpKvuNqtrQq.jpg",
      "popularity": 8.56,
      "adult": false,
      "known_for_department": "Acting"
    },
    {
      "id": 13401,
      "name": "Peter Mark Richman",
      "profile_path": "/4sRK2iHXPNTkFANNPLn9hHlG0n5.jpg",
      "popularity": 8.56,
      "adult": false,
      "known_for_department": "Acting"
    },
    {
      "id": 107727,
      "name": "Ekaterina Vilkova",
      "profile_path": "/1WAHeyFthIrTbAr43nVTDw8zNzi.jpg",
      "popularity": 8.559,
      "adult": false,
      "known_for_department": "Acting"
    },
    {
      "id": 77353,
      "name": "Jasmine Guy",
      "profile_path": "/dSuTS6DE7d8VEpHEoEFcNjNXtsW.jpg",
      "popularity": 8.559,
      "adult": false,
      "known_for_department": "Acting"
    },
    {
      "id": 49824,
      "name": "Kathryn Erbe",
      "profile_path": "/gJ3hlTzTjpTVBsGadvUQGiBgjsV.jpg",
      "popularity": 8.559,
      "adult": false,
      "known_for_department": "Acting"
    },
    {
      "id": 1117,
      "name": "Dennis Farina",
      "profile_path": "/4hEWe0ZcDpGlB3nRizLkVMcG13B.jpg",
      "popularity": 8.559,
      "adult": false,
      "known_for_department": "Acting"
    },
    {
      "id": 969412,
      "name": "Ximena Romo",
      "profile_path": "/fFGnB7qbbIT0yc2yjn5SRLefd7R.jpg",
      "popularity": 8.558,
      "adult": false,
      "known_for_department": "Acting"
    },
    {
      "id": 583051,
      "name": "Diana Bang",
      "profile_path": "/8DTmzeUY4R1x8tYj1e1rvHZbB4y.jpg",
      "popularity": 8.557,
      "adult": false,
      "known_for_department": "Acting"
    },
    {
      "id": 28079,
      "name": "Alisa Freyndlikh",
      "profile_path": "/psK6Vqmz2e6DAjxfZb9HJuBbtWd.jpg",
      "popularity": 8.557,
      "adult": false,
      "known_for_department": "Acting"
    },
    {
      "id": 2778354,
      "name": "Richard Ouyang",
      "profile_path": "/sMmTDhf0VWMWnXTAvcyLA3ngx4A.jpg",
      "popularity": 8.556,
      "adult": false,
      "known_for_department": "Acting"
    },
    {
      "id": 1969661,
      "name": "Sevda Erginci",
      "profile_path": "/tl2cuFqy0YO5n8BCW1DCJFO3wkj.jpg",
      "popularity": 8.556,
      "adult": false,
      "known_for_department": "Acting"
    }
  ]
}