{
  "page": 272,
  "total_results": 10000,
  "total_pages": 500,
  "results": [
    {
      "id": 2839,
      "name": "Brendan Sexton III",
      "profile_path": "/kfvO3Mdk5yqzuaN8aIeaFfVl4T5.jpg",
      "popularity": 10.496,
      "adult": false,
      "known_for_department": "Acting"
    },
    {
      "id": 468,
      "name": "Stephen Daldry",
      "profile_path": "/3nxFXIgMXhqU1aCOp7TOOEnhKCq.jpg",
      "popularity": 10.496,
      "adult": false,
      "known_for_department": "Directing"
    },
    {
      "id": 1115068,
      "name": "Mei Nagano",
      "profile_path": "/zI30FzyetpAENTcADmswChoKZlz.jpg",
      "popularity": 10.495,
      "adult": false,
      "known_for_department": "Acting"
    },
    {
      "id": 1075020,
      "name": "Saskia Rosendahl",
      "profile_path": "/cuUFQveV590Qnfr4CgVq9Tp0ecV.jpg",
      "popularity": 10.495,
      "adult": false,
      "known_for_department": "Acting"
    },
    {
      "id": 31511,
      "name": "Grant Heslov",
      "profile_path": "/xNkGkkRN2I2Ly57PqDNk9QgAPJs.jpg",
      "popularity": 10.495,
      "adult": false,
      "known_for_department": "Acting"
    },
    {
      "id": 119759,
      "name": "Brandy Ledford",
      "profile_path": "/1PE7olSfYiXHFKXyNhgB8NmNcyP.jpg",
      "popularity": 10.494,
      "adult": false,
      "known_for_department": "Acting"
    },
    {
      "id": 14503,
      "name": "Herbert Lom",
      "profile_path": "/j5H9KKuVTosFLB2hLxNH9uEg5OV.jpg",
      "popularity": 10.494,
      "adult": false,
      "known_for_department": "Acting"
    },
    {
      "id": 3126,
      "name": "Ione Skye",
      "profile_path": "/ye8qsi6fn51HW93c7065Jogbh9p.jpg",
      "popularity": 10.493,
      "adult": false,
      "known_for_department": "Acting"
    },
    {
      "id": 3174,
      "name": "Richard Bright",
      "profile_path": "/potMaJ2u5PRjXZb7qF9lSW1ldNZ.jpg",
      "popularity": 10.492,
      "adult": false,
      "known_for_department": "Acting"
    },
    {
      "id": 132180,
      "name": "Ji Sung",
      "profile_path": "/6RBiKyGLczeCrgnu1tfw5URRvEg.jpg",
      "popularity": 10.491,
      "adult": false,
      "known_for_department": "Acting"
    },
    {
      "id": 204723,
      "name": "Yara Martinez",
      "profile_path": "/h7FcuyLMJ96EMqzcyjzrS5cYg34.jpg",
      "popularity": 10.49,
      "adult": false,
      "known_for_department": "Acting"
    },
    {
      "id": 214556,
      "name": "Indiana Evans",
      "profile_path": "/rZHqKjXYPFndiri2rVTzHfYSVBc.jpg",
      "popularity": 10.489,
      "adult": false,
      "known_for_department": "Acting"
    },
    {
      "id": 52801,
      "name": "Patrick Fischler",
      "profile_path": "/z5et9sdI57E9VRYbCbivqbDt523.jpg",
      "popularity": 10.489,
      "adult": false,
      "known_for_department": "Acting"
    },
    {
      "id": 1240,
      "name": "Jack Kehler",
      "profile_path": "/5vPBJw92OKtD5pNO0TTPZvvxooV.jpg",
      "popularity": 10.489,
      "adult": false,
      "known_for_department": "Acting"
    },
    {
      "id": 1219,
      "name": "Amy Yasbeck",
      "profile_path": "/blg3oda5734ndB8l4rWkFXjSsqv.jpg",
      "popularity": 10.488,
      "adult": false,
      "known_for_department": "Acting"
    },
    {
      "id": 1795280,
      "name": "Georgina Leeming",
      "profile_path": "/A3FWv2nznrm1c8A1O3CUlo2ZwFp.jpg",
      "popularity": 10.487,
      "adult": false,
      "known_for_department": "Acting"
    },
    {
      "id": 1476994,
      "name": "Ma Sichun",
      "profile_path": "/veuPzmY9HXcHL6qprX6m4SkUa4D.jpg",
      "popularity": 10.487,
      "adult": false,
      "known_for_department": "Acting"
    },
    {
      "id": 62123,
      "name": "David Moscow",
      "profile_path": "/b0tUWBy7Ia2JcaLtepeZvYUkUZm.jpg",
      "popularity": 10.485,
      "adult": false,
      "known_for_department": "Acting"
    },
    {
      "id": 1972476,
      "name": "Jayden Fowora-Knight",
      "profile_path": "/5BVoFIkq4gQuRdRbRwVXKwFMUiM.jpg",
      "popularity": 10.484,
      "adult": false,
      "known_for_department": "Acting"
    },
    {
      "id": 9825,
      "name": "Saffron Burrows",
      "profile_path": "/2qMLZh9XWquBt7TZF9wmDiOtJdm.jpg",
      "popularity": 10.483,
      "adult": false,
      "known_for_department": "Acting"
    }
  ]
}