{
  "page": 77,
  "total_results": 10000,
  "total_pages": 500,
  "results": [
    {
      "id": 2595502,
      "name": "Vachirawit Chivaaree",
      "profile_path": "/ArcPka0Fxpq6QLXiarf89bEIEXZ.jpg",
      "popularity": 17.312,
      "adult": false,
      "known_for_department": "Acting"
    },
    {
      "id": 21356,
      "name": "D.B. Woodside",
      "profile_path": "/xdyGewr108rQWojpYlKw2QjrxCz.jpg",
      "popularity": 17.305,
      "adult": false,
      "known_for_department": "Acting"
    },
    {
      "id": 50,
      "name": "Catherine Deneuve",
      "profile_path": "/pZ1GpsaK2aBQ8jHQen0h3RB3TNP.jpg",
      "popularity": 17.303,
      "adult": false,
      "known_for_department": "Acting"
    },
    {
      "id": 1767250,
      "name": "Ariana Greenblatt",
      "profile_path": "/rm6yLSvxHsmyHUmKy10DmBrB4SH.jpg",
      "popularity": 17.299,
      "adult": false,
      "known_for_department": "Acting"
    },
    {
      "id": 52783,
      "name": "Rachel Bilson",
      "profile_path": "/8n3bZ0WJyE9gzYh2kDqohh1xfh6.jpg",
      "popularity": 17.291,
      "adult": false,
      "known_for_department": "Acting"
    },
    {
      "id": 1187068,
      "name": "Charlbi Dean",
      "profile_path": "/bdWguLfrKPfRVIFvEOsVNMdeqw9.jpg",
      "popularity": 17.289,
      "adult": false,
      "known_for_department": "Acting"
    },
    {
      "id": 2405,
      "name": "Audrey Tautou",
      "profile_path": "/k66PCmlqbduszP4nFUDBdwrDr6r.jpg",
      "popularity": 17.289,
      "adult": false,
      "known_for_department": "Acting"
    },
    {
      "id": 1252045,
      "name": "Yoona",
      "profile_path": "/bYsSlDKTRL4uZwiHDjVJUrCQhMd.jpg",
      "popularity": 17.287,
      "adult": false,
      "known_for_department": "Acting"
    },
    {
      "id": 21658,
      "name": "Ryoko Hirosue",
      "profile_path": "/r8cFZwZzmoM0vYgFrmDJpKDKyDx.jpg",
      "popularity": 17.268,
      "adult": false,
      "known_for_department": "Acting"
    },
    {
      "id": 1152083,
      "name": "Sabrina Carpenter",
      "profile_path": "/2zAdQGwdnVsKbmpktJ7VCfJbrJy.jpg",
      "popularity": 17.267,
      "adult": false,
      "known_for_department": "Acting"
    },
    {
      "id": 150698,
      "name": "Song Joong-ki",
      "profile_path": "/kgjb5OppOVTh5tz3hhnfDVnTvDv.jpg",
      "popularity": 17.247,
      "adult": false,
      "known_for_department": "Acting"
    },
    {
      "id": 2684,
      "name": "Emmanuelle Vaugier",
      "profile_path": "/auIhYK3sSfWE6tuMOhw8KHhWqK7.jpg",
      "popularity": 17.247,
      "adult": false,
      "known_for_department": "Acting"
    },
    {
      "id": 1467350,
      "name": "J.R. Ramirez",
      "profile_path": "/nNSMr1fuFjRFTu6QcxPCZGkyyI9.jpg",
      "popularity": 17.246,
      "adult": false,
      "known_for_department": "Acting"
    },
    {
      "id": 17881,
      "name": "Jason Schwartzman",
      "profile_path": "/gCjMdmW1DiPAClHVl4zHEIffIsE.jpg",
      "popularity": 17.246,
      "adult": false,
      "known_for_department": "Acting"
    },
    {
      "id": 2200292,
      "name": "Laura Sohn",
      "profile_path": "/iABra2b6kO0JfHdBnVMROYtkuuM.jpg",
      "popularity": 17.244,
      "adult": false,
      "known_for_department": "Acting"
    },
    {
      "id": 6573,
      "name": "William Sadler",
      "profile_path": "/xC9sijoDnjS3oDZ5eszcGKHKAOp.jpg",
      "popularity": 17.237,
      "adult": false,
      "known_for_department": "Acting"
    },
    {
      "id": 11148,
      "name": "Joan Allen",
      "profile_path": "/2w40UhN3WoW9G9EkLzhDcfF3t9W.jpg",
      "popularity": 17.233,
      "adult": false,
      "known_for_department": "Acting"
    },
    {
      "id": 55277,
      "name": "Courtney Thorne-Smith",
      "profile_path": "/32QJmSbDsyoiCu2cpyyebdcH4Nv.jpg",
      "popularity": 17.231,
      "adult": false,
      "known_for_department": "Acting"
    },
    {
      "id": 17287,
      "name": "Dominic West",
      "profile_path": "/xOr7REvhVy9Ax83dlk2qRiwLC1G.jpg",
      "popularity": 17.23,
      "adult": false,
      "known_for_department": "Acting"
    },
    {
      "id": 84613,
      "name": "Madeline Zima",
      "profile_path": "/6hmUs5Q1EETapn32yKNt3c3i1sn.jpg",
      "popularity": 17.224,
      "adult": false,
      "known_for_department": "Acting"
    }
  ]
}