{
  "page": 434,
  "total_results": 10000,
  "total_pages": 500,
  "results": [
    {
      "id": 12431,
      "name": "Carey Loftin",
      "profile_path": "/wpQnSduMm2iCtVrNT9kHo8c8aMH.jpg",
      "popularity": 7.811,
      "adult": false,
      "known_for_department": "Acting"
    },
    {
      "id": 1682648,
      "name": "Aurora Aksnes",
      "profile_path": "/ydepZq9W2iQrZ6rvBgktwrVz1Zu.jpg",
      "popularity": 7.81,
      "adult": false,
      "known_for_department": "Acting"
    },
    {
      "id": 98105,
      "name": "Noel Fielding",
      "profile_path": "/1s5hoRdVVQJOX1OAetGfYvfZZrZ.jpg",
      "popularity": 7.81,
      "adult": false,
      "known_for_department": "Acting"
    },
    {
      "id": 557935,
      "name": "Dandara Guerra",
      "profile_path": "/7CwYXZD0QxRMqXjrpKduJvkXryq.jpg",
      "popularity": 7.809,
      "adult": false,
      "known_for_department": "Acting"
    },
    {
      "id": 204031,
      "name": "Alanna Masterson",
      "profile_path": "/1tuyTwayZOcu81sYMzlmkLMMb1z.jpg",
      "popularity": 7.809,
      "adult": false,
      "known_for_department": "Acting"
    },
    {
      "id": 119145,
      "name": "Hiro Shimono",
      "profile_path": "/i5CaaqKmHH0vKCloqZyrCwn5mWy.jpg",
      "popularity": 7.809,
      "adult": false,
      "known_for_department": "Acting"
    },
    {
      "id": 55422,
      "name": "Elaine Hendrix",
      "profile_path": "/ajnxlCCO0IYQeaL2KOJwjFWkFG0.jpg",
      "popularity": 7.808,
      "adult": false,
      "known_for_department": "Acting"
    },
    {
      "id": 2056902,
      "name": "Koo Ja-sung",
      "profile_path": "/ak3M9xh2UYkCbY6JjGsNqoY3Y8U.jpg",
      "popularity": 7.806,
      "adult": false,
      "known_for_department": "Acting"
    },
    {
      "id": 154769,
      "name": "Allison Munn",
      "profile_path": "/naWXYBk5OWNWB5uV4V0b0qZ3pgq.jpg",
      "popularity": 7.806,
      "adult": false,
      "known_for_department": "Acting"
    },
    {
      "id": 39641,
      "name": "Zachi Noy",
      "profile_path": "/fDJtJ8T4Kkv4R9vlUFP0W1LSuvK.jpg",
      "popularity": 7.806,
      "adult": false,
      "known_for_department": "Acting"
    },
    {
      "id": 35824,
      "name": "Alice Cooper",
      "profile_path": "/w3DuyqNVaKFsbTPxOKjLAGb2InO.jpg",
      "popularity": 7.806,
      "adult": false,
      "known_for_department": "Acting"
    },
    {
      "id": 18708,
      "name": "Courtney Gains",
      "profile_path": "/elGU2wmQXpZghgG74QxMvd8B4hf.jpg",
      "popularity": 7.806,
      "adult": false,
      "known_for_department": "Acting"
    },
    {
      "id": 2072075,
      "name": "Anıl Çelik",
      "profile_path": "/jCWgSPNALnAaBEKebhgtkX1cZaM.jpg",
      "popularity": 7.805,
      "adult": false,
      "known_for_department": "Acting"
    },
    {
      "id": 1767252,
      "name": "Kayla Maisonet",
      "profile_path": "/6E1trYDMjFeLLYozBVqXLxnD27C.jpg",
      "popularity": 7.805,
      "adult": false,
      "known_for_department": "Acting"
    },
    {
      "id": 1257215,
      "name": "Mizuki Yamamoto",
      "profile_path": "/mT5H0Gery2WsGXrA9ZRbxWb7oKP.jpg",
      "popularity": 7.805,
      "adult": false,
      "known_for_department": "Acting"
    },
    {
      "id": 154000,
      "name": "Essence Atkins",
      "profile_path": "/5cBdIVRJmy7IntOk3E3yyqGk2fJ.jpg",
      "popularity": 7.805,
      "adult": false,
      "known_for_department": "Acting"
    },
    {
      "id": 2063831,
      "name": "Sumire",
      "profile_path": "/sJG1Akd34wrhXqDnBASt7oPOSC9.jpg",
      "popularity": 7.803,
      "adult": false,
      "known_for_department": "Acting"
    },
    {
      "id": 16180,
      "name": "Robert Picardo",
      "profile_path": "/9TOY0mhWRMlU5Ur8QHMoDecWs2n.jpg",
      "popularity": 7.802,
      "adult": false,
      "known_for_department": "Acting"
    },
    {
      "id": 35350,
      "name": "Marc Singer",
      "profile_path": "/npgKM5FfPKnAukzV11pXOlLeBnZ.jpg",
      "popularity": 7.801,
      "adult": false,
      "known_for_department": "Acting"
    },
    {
      "id": 1834391,
      "name": "Julia Minesci",
      "profile_path": "/gnaYzsPxBlevEzeH4nUTdWFTuCa.jpg",
      "popularity": 7.8,
      "adult": false,
      "known_for_department": "Acting"
    }
  ]
}