{
  "page": 312,
  "total_results": 10000,
  "total_pages": 500,
  "results": [
    {
      "id": 559457,
      "name": "Steve Agee",
      "profile_path": "/sbMpatWydjTl2cTcDXFMTgCkEBO.jpg",
      "popularity": 8.922,
      "adult": false,
      "known_for_department": "Acting"
    },
    {
      "id": 1172316,
      "name": "Andrea Deck",
      "profile_path": "/4iwugYTL9eXAsP2RnyjgJN6rM6x.jpg",
      "popularity": 8.921,
      "adult": false,
      "known_for_department": "Acting"
    },
    {
      "id": 120689,
      "name": "Yuriko Yoshitaka",
      "profile_path": "/Zqd3qjiVAfNtBcMAAUNPtvYDV8.jpg",
      "popularity": 8.921,
      "adult": false,
      "known_for_department": "Acting"
    },
    {
      "id": 1864378,
      "name": "Matt Visser",
      "profile_path": "/fvDV9gS9mIHUKfhzardxI6KjTUZ.jpg",
      "popularity": 8.92,
      "adult": false,
      "known_for_department": "Acting"
    },
    {
      "id": 1093434,
      "name": "Masakazu Tamura",
      "profile_path": "/c9Sqoe3Am3MYP5Y5knZhwKOU2qm.jpg",
      "popularity": 8.92,
      "adult": false,
      "known_for_department": "Acting"
    },
    {
      "id": 176475,
      "name": "Ted White",
      "profile_path": "/c6YvRrH8uSKxw9hCjD0qBj3wBot.jpg",
      "popularity": 8.92,
      "adult": false,
      "known_for_department": "Acting"
    },
    {
      "id": 71641,
      "name": "Hitomi Kuroki",
      "profile_path": "/9PN8O5jIcOICX29MNMWj1EZMlzB.jpg",
      "popularity": 8.92,
      "adult": false,
      "known_for_department": "Acting"
    },
    {
      "id": 1224431,
      "name": "Anastasia Baranova",
      "profile_path": "/uRHueGuazAI9r7WMS4ck5Az4amD.jpg",
      "popularity": 8.919,
      "adult": false,
      "known_for_department": "Acting"
    },
    {
      "id": 117431,
      "name": "Shaun Johnston",
      "profile_path": "/8QeE3VvD3Gin7xSkfc24iqcs716.jpg",
      "popularity": 8.919,
      "adult": false,
      "known_for_department": "Acting"
    },
    {
      "id": 1208,
      "name": "Ralph Bellamy",
      "profile_path": "/vC6cdrUUewgurTlVXt36eRAtQKb.jpg",
      "popularity": 8.919,
      "adult": false,
      "known_for_department": "Acting"
    },
    {
      "id": 1733923,
      "name": "Beren Gökyıldız",
      "profile_path": "/3FoMB5P8zlP6VZ5P7eI33z91qHo.jpg",
      "popularity": 8.918,
      "adult": false,
      "known_for_department": "Acting"
    },
    {
      "id": 76793,
      "name": "Irrfan Khan",
      "profile_path": "/qkA9PpWJRw3rNjVkWfNZdwLvRZx.jpg",
      "popularity": 8.918,
      "adult": false,
      "known_for_department": "Acting"
    },
    {
      "id": 1607523,
      "name": "Saniyya Sidney",
      "profile_path": "/y47xWvuXipPgPEkz7uOvYx5XR7s.jpg",
      "popularity": 8.917,
      "adult": false,
      "known_for_department": "Acting"
    },
    {
      "id": 1504186,
      "name": "Hakan Kurtaş",
      "profile_path": "/bPqpPuQddPLqMNxbSwVYl4nc5O2.jpg",
      "popularity": 8.917,
      "adult": false,
      "known_for_department": "Acting"
    },
    {
      "id": 1486208,
      "name": "Emeraude Toubia",
      "profile_path": "/9e1Y9zBHBAFg2dby7trdFMPbWdP.jpg",
      "popularity": 8.917,
      "adult": false,
      "known_for_department": "Acting"
    },
    {
      "id": 1385600,
      "name": "Noémie Merlant",
      "profile_path": "/dAqJ8KqmEBbABYmIjSwtNHttAJu.jpg",
      "popularity": 8.916,
      "adult": false,
      "known_for_department": "Acting"
    },
    {
      "id": 1024396,
      "name": "Kim Sung-kyun",
      "profile_path": "/pii4fmXdkSEppsHSIhJ9jV5izX1.jpg",
      "popularity": 8.916,
      "adult": false,
      "known_for_department": "Acting"
    },
    {
      "id": 63234,
      "name": "Wendi McLendon-Covey",
      "profile_path": "/2soHGwyGIGEWEwEjy6iW6NX2UKT.jpg",
      "popularity": 8.916,
      "adult": false,
      "known_for_department": "Acting"
    },
    {
      "id": 23182,
      "name": "Volker Bruch",
      "profile_path": "/vRlIMyCSISdh2d2pdOMQlLyV0ce.jpg",
      "popularity": 8.916,
      "adult": false,
      "known_for_department": "Acting"
    },
    {
      "id": 113928,
      "name": "Michael Trevino",
      "profile_path": "/oeiwIwNVk2yRpndp8gxtSFMEfDO.jpg",
      "popularity": 8.912,
      "adult": false,
      "known_for_department": "Acting"
    }
  ]
}