{
  "page": 246,
  "total_results": 10000,
  "total_pages": 500,
  "results": [
    {
      "id": 52697,
      "name": "Georgia Engel",
      "profile_path": "/r3IvaTUWvjGduj4ifikrzEOrKOM.jpg",
      "popularity": 10.079,
      "adult": false,
      "known_for_department": "Acting"
    },
    {
      "id": 146443,
      "name": "Büşra Pekin",
      "profile_path": "/sZbyXHEXTVY1rvbwOmeOh8VZK8K.jpg",
      "popularity": 10.078,
      "adult": false,
      "known_for_department": "Acting"
    },
    {
      "id": 2098557,
      "name": "Suppapong Udomkaewkanjana",
      "profile_path": "/94V6IXbrsYI0Auaf0Vi5S7tsmI4.jpg",
      "popularity": 10.077,
      "adult": false,
      "known_for_department": "Acting"
    },
    {
      "id": 40259,
      "name": "Malcolm-Jamal Warner",
      "profile_path": "/qtYEEvWUZLvZ9eot0iNZGudgeKF.jpg",
      "popularity": 10.077,
      "adult": false,
      "known_for_department": "Acting"
    },
    {
      "id": 62863,
      "name": "Jorma Taccone",
      "profile_path": "/x7x4NvDauuQ7HA6psLZYZ6m3zTd.jpg",
      "popularity": 10.075,
      "adult": false,
      "known_for_department": "Acting"
    },
    {
      "id": 9707,
      "name": "Ayumi Ito",
      "profile_path": "/5Lon3bBtHjiFCyNLpiDNI2oVinj.jpg",
      "popularity": 10.075,
      "adult": false,
      "known_for_department": "Acting"
    },
    {
      "id": 1171128,
      "name": "Tom Austen",
      "profile_path": "/6TC9gW3ZJzrNyFgsYDeWj8V6RYo.jpg",
      "popularity": 10.073,
      "adult": false,
      "known_for_department": "Acting"
    },
    {
      "id": 70175,
      "name": "Chelah Horsdal",
      "profile_path": "/3r0Ij5Ok4E1cYWAKa0slDqGn9R8.jpg",
      "popularity": 10.073,
      "adult": false,
      "known_for_department": "Acting"
    },
    {
      "id": 33923,
      "name": "Mel Blanc",
      "profile_path": "/8fevv4K06TmHsYom2XfmxgKrTcd.jpg",
      "popularity": 10.069,
      "adult": false,
      "known_for_department": "Acting"
    },
    {
      "id": 11212,
      "name": "Josh Herdman",
      "profile_path": "/hebwDG5XsbfMaEaWJ0X6OrvlXwW.jpg",
      "popularity": 10.067,
      "adult": false,
      "known_for_department": "Acting"
    },
    {
      "id": 2094677,
      "name": "Park Hyun-jung",
      "profile_path": "/eusDEoshtATjOrafgBdLh4lES98.jpg",
      "popularity": 10.065,
      "adult": false,
      "known_for_department": "Acting"
    },
    {
      "id": 1257205,
      "name": "Rowan Blanchard",
      "profile_path": "/51qWnocFUKfUPeLMi81XtATFct2.jpg",
      "popularity": 10.065,
      "adult": false,
      "known_for_department": "Acting"
    },
    {
      "id": 236695,
      "name": "John Boyega",
      "profile_path": "/Aso09k70hwBmO9pqMNUespCx0m2.jpg",
      "popularity": 10.065,
      "adult": false,
      "known_for_department": "Acting"
    },
    {
      "id": 34759,
      "name": "Sterling Holloway",
      "profile_path": "/qZt4J4yj645Ted9C38DzwQiQZYc.jpg",
      "popularity": 10.063,
      "adult": false,
      "known_for_department": "Acting"
    },
    {
      "id": 20231,
      "name": "Enrique Iglesias",
      "profile_path": "/hz21f8xF6l5PLYW0MuKe8RTyRzA.jpg",
      "popularity": 10.063,
      "adult": false,
      "known_for_department": "Acting"
    },
    {
      "id": 1844777,
      "name": "Daniah De Villiers",
      "profile_path": "/bs4sO5DFotOBBgaE9Cka0AiSl3y.jpg",
      "popularity": 10.06,
      "adult": false,
      "known_for_department": "Acting"
    },
    {
      "id": 1217648,
      "name": "Chris Diamantopoulos",
      "profile_path": "/rCp2ZVOFnQt2vvVn4QmOOPz5WVh.jpg",
      "popularity": 10.06,
      "adult": false,
      "known_for_department": "Acting"
    },
    {
      "id": 2842,
      "name": "Jeannetta Arnette",
      "profile_path": "/8QnbJRo9PkDrkFeqqr4mxij4sjj.jpg",
      "popularity": 10.06,
      "adult": false,
      "known_for_department": "Acting"
    },
    {
      "id": 2020670,
      "name": "Stasya Miloslavskaya",
      "profile_path": "/keh4PDuW1sxGUfsPPk3jwNt6ujm.jpg",
      "popularity": 10.059,
      "adult": false,
      "known_for_department": "Acting"
    },
    {
      "id": 2909208,
      "name": "Kina Yazaki",
      "profile_path": "",
      "popularity": 10.058,
      "adult": false,
      "known_for_department": "Acting"
    }
  ]
}