{
  "page": 153,
  "total_results": 10000,
  "total_pages": 500,
  "results": [
    {
      "id": 186448,
      "name": "Peter Tait",
      "profile_path": "/pizbLpSObBReMNDi5RyJIJdEN62.jpg",
      "popularity": 13.308,
      "adult": false,
      "known_for_department": "Acting"
    },
    {
      "id": 1254059,
      "name": "Jo Yoon-hee",
      "profile_path": "/ssfCP8aUgx7gcyBxzZAPAInEs5f.jpg",
      "popularity": 13.301,
      "adult": false,
      "known_for_department": "Acting"
    },
    {
      "id": 213315,
      "name": "Lucas Bryant",
      "profile_path": "/5UUlXdQzKMxinn5aMJF1IFvUFd8.jpg",
      "popularity": 13.301,
      "adult": false,
      "known_for_department": "Acting"
    },
    {
      "id": 6905,
      "name": "Bruce Dern",
      "profile_path": "/24aH1ahmFFImPiBA5N4NhemshH9.jpg",
      "popularity": 13.299,
      "adult": false,
      "known_for_department": "Acting"
    },
    {
      "id": 8252,
      "name": "William Holden",
      "profile_path": "/eMdXRtJVvescfdxHAINVf7dcpAV.jpg",
      "popularity": 13.294,
      "adult": false,
      "known_for_department": "Acting"
    },
    {
      "id": 49271,
      "name": "Brian Geraghty",
      "profile_path": "/4sqeUc4xYyzQ3Qpl5oxlQBTAAQk.jpg",
      "popularity": 13.293,
      "adult": false,
      "known_for_department": "Acting"
    },
    {
      "id": 1875841,
      "name": "Jennie Kim",
      "profile_path": "/17A6a2ZJQWXbMTPfhpTNBQhtDv7.jpg",
      "popularity": 13.291,
      "adult": false,
      "known_for_department": "Acting"
    },
    {
      "id": 110382,
      "name": "Yoo Seung-ho",
      "profile_path": "/cDkIwmfjChprlO7qaoDQl1Em54P.jpg",
      "popularity": 13.287,
      "adult": false,
      "known_for_department": "Acting"
    },
    {
      "id": 23790,
      "name": "Dominic Keating",
      "profile_path": "/eRe4BJz9fTztlRKikDRHhmss6ee.jpg",
      "popularity": 13.287,
      "adult": false,
      "known_for_department": "Acting"
    },
    {
      "id": 1452046,
      "name": "Lana Condor",
      "profile_path": "/vWn27Fk2GLwH7o9fBG9hBWZI6OR.jpg",
      "popularity": 13.285,
      "adult": false,
      "known_for_department": "Acting"
    },
    {
      "id": 1908,
      "name": "Robert Oliveri",
      "profile_path": "/nVQaZ3cBGPXYzPheCoYpCV2Vz7I.jpg",
      "popularity": 13.285,
      "adult": false,
      "known_for_department": "Acting"
    },
    {
      "id": 1031261,
      "name": "Alyshia Ochse",
      "profile_path": "/6gI5qlYJrWZkAqt167B5BNq9M6W.jpg",
      "popularity": 13.283,
      "adult": false,
      "known_for_department": "Acting"
    },
    {
      "id": 15374,
      "name": "Leon Rippy",
      "profile_path": "/55GaqeKzIwbKBDW9RT1CYIZaUKO.jpg",
      "popularity": 13.283,
      "adult": false,
      "known_for_department": "Acting"
    },
    {
      "id": 61697,
      "name": "Sung Kang",
      "profile_path": "/ox4ti0WmpJoN19n3iYJ2T2vHP5f.jpg",
      "popularity": 13.281,
      "adult": false,
      "known_for_department": "Acting"
    },
    {
      "id": 15860,
      "name": "Miguel Ferrer",
      "profile_path": "/n6VZ8OQmozHmnJQRwR55gBH8Tl0.jpg",
      "popularity": 13.28,
      "adult": false,
      "known_for_department": "Acting"
    },
    {
      "id": 3623,
      "name": "Elena Anaya",
      "profile_path": "/hSkjzOfvRQ8DUJdhWveIKgRlyXb.jpg",
      "popularity": 13.277,
      "adult": false,
      "known_for_department": "Acting"
    },
    {
      "id": 1078568,
      "name": "Emma Rigby",
      "profile_path": "/8SE2b9U9JFCDSKjehCkP0qVKdI5.jpg",
      "popularity": 13.275,
      "adult": false,
      "known_for_department": "Acting"
    },
    {
      "id": 1253431,
      "name": "Takuya Sato",
      "profile_path": "/wVzBJ6Qj1aURhnfkjP6nLfVwQqz.jpg",
      "popularity": 13.269,
      "adult": false,
      "known_for_department": "Acting"
    },
    {
      "id": 220142,
      "name": "Suranne Jones",
      "profile_path": "/mwoX6TauWmPOgmRyvgMwp7nAXVB.jpg",
      "popularity": 13.269,
      "adult": false,
      "known_for_department": "Acting"
    },
    {
      "id": 26086,
      "name": "Michael Shanks",
      "profile_path": "/4YkOrSUmfKljqTMwGIo50oviKe1.jpg",
      "popularity": 13.269,
      "adult": false,
      "known_for_department": "Acting"
    }
  ]
}