{
  "page": 56,
  "total_results": 10000,
  "total_pages": 500,
  "results": [
    {
      "id": 18992,
      "name": "Aidan Quinn",
      "profile_path": "/ySdUCF6ln1d7yrfGXcs50lMAfBC.jpg",
      "popularity": 23.086,
      "adult": false,
      "known_for_department": "Acting"
    },
    {
      "id": 125660,
      "name": "Andrew Scott",
      "profile_path": "/4F8XpjyQCvtuu21WFm5d8RF5Rl.jpg",
      "popularity": 23.08,
      "adult": false,
      "known_for_department": "Acting"
    },
    {
      "id": 53122,
      "name": "Fran Drescher",
      "profile_path": "/kQzvZ4ksLunfs3QZQtzRhzLJPBY.jpg",
      "popularity": 23.078,
      "adult": false,
      "known_for_department": "Acting"
    },
    {
      "id": 76788,
      "name": "Dev Patel",
      "profile_path": "/jt08kAMlC7s9MJ8PupHBUjY0Ruc.jpg",
      "popularity": 23.044,
      "adult": false,
      "known_for_department": "Acting"
    },
    {
      "id": 10168,
      "name": "Diana Rigg",
      "profile_path": "/Ak0V4XwKNNqPOXhByCUa85jXkKu.jpg",
      "popularity": 23.033,
      "adult": false,
      "known_for_department": "Acting"
    },
    {
      "id": 21200,
      "name": "Will Arnett",
      "profile_path": "/cXupYqk2ERP13XBkw816skYdVDO.jpg",
      "popularity": 23.027,
      "adult": false,
      "known_for_department": "Acting"
    },
    {
      "id": 6681,
      "name": "Sherilyn Fenn",
      "profile_path": "/wHWnkSh3vQhjNKRHsOsDA4NE5XJ.jpg",
      "popularity": 23.007,
      "adult": false,
      "known_for_department": "Acting"
    },
    {
      "id": 934243,
      "name": "Halston Sage",
      "profile_path": "/7BYb7GIry4wbHTNSFCfuCkMexuH.jpg",
      "popularity": 22.998,
      "adult": false,
      "known_for_department": "Acting"
    },
    {
      "id": 1228880,
      "name": "Rodger Corser",
      "profile_path": "/rLbavghxoVicnUgXKeuITHCboG3.jpg",
      "popularity": 22.992,
      "adult": false,
      "known_for_department": "Acting"
    },
    {
      "id": 5587,
      "name": "Hank Azaria",
      "profile_path": "/yFDw4b0jucuFWNnGcBPfpYUtn16.jpg",
      "popularity": 22.979,
      "adult": false,
      "known_for_department": "Acting"
    },
    {
      "id": 5529,
      "name": "Anna Popplewell",
      "profile_path": "/fs5uYzzseA94fKC9sr0iWuCULup.jpg",
      "popularity": 22.979,
      "adult": false,
      "known_for_department": "Acting"
    },
    {
      "id": 1065,
      "name": "Thomas F. Wilson",
      "profile_path": "/mVhm65ZVBIRIptWGiMIvoUy0Khi.jpg",
      "popularity": 22.974,
      "adult": false,
      "known_for_department": "Acting"
    },
    {
      "id": 3265,
      "name": "Eli Wallach",
      "profile_path": "/880EvYjyIG9BcrM3Jfof0QofmRe.jpg",
      "popularity": 22.946,
      "adult": false,
      "known_for_department": "Acting"
    },
    {
      "id": 7180,
      "name": "John Candy",
      "profile_path": "/xOoA2gFdnl0qe9esbG0FJvCY0Fh.jpg",
      "popularity": 22.945,
      "adult": false,
      "known_for_department": "Acting"
    },
    {
      "id": 57194,
      "name": "Dan Harmon",
      "profile_path": "/gDwFosoyPTd0pmnKParzGj3kaMg.jpg",
      "popularity": 22.914,
      "adult": false,
      "known_for_department": "Writing"
    },
    {
      "id": 3489,
      "name": "Naomi Watts",
      "profile_path": "/k6l8BWX1yqfGt95enzEkHoPvON4.jpg",
      "popularity": 22.912,
      "adult": false,
      "known_for_department": "Acting"
    },
    {
      "id": 8602,
      "name": "Alice Braga",
      "profile_path": "/ykVmsm3For9dCBfWLRtTL0EU24b.jpg",
      "popularity": 22.878,
      "adult": false,
      "known_for_department": "Acting"
    },
    {
      "id": 1908241,
      "name": "Georgie Farmer",
      "profile_path": "/r3AC3MDS81mWAsxoVNCSi8trLiP.jpg",
      "popularity": 22.863,
      "adult": false,
      "known_for_department": "Acting"
    },
    {
      "id": 3901,
      "name": "Richard Brake",
      "profile_path": "/JwsiErANShzPSdYsNoiNYdrSg1.jpg",
      "popularity": 22.857,
      "adult": false,
      "known_for_department": "Acting"
    },
    {
      "id": 83105,
      "name": "Debra Wilson",
      "profile_path": "/2bsguOhkeCrSFMhWQZ9xUrQcaFw.jpg",
      "popularity": 22.856,
      "adult": false,
      "known_for_department": "Acting"
    }
  ]
}