{
  "page": 437,
  "total_results": 10000,
  "total_pages": 500,
  "results": [
    {
      "id": 78804,
      "name": "Jocelin Donahue",
      "profile_path": "/eQXBzPjo9K8MG9TVOoQDNoHEFwv.jpg",
      "popularity": 8.229,
      "adult": false,
      "known_for_department": "Acting"
    },
    {
      "id": 45453,
      "name": "Eleanor Bron",
      "profile_path": "/jQbsHbeh9AdMyeLf8sS3UkGGHl.jpg",
      "popularity": 8.229,
      "adult": false,
      "known_for_department": "Acting"
    },
    {
      "id": 1479143,
      "name": "Kira Kosarin",
      "profile_path": "/geOLjMK5TCPoQlHQLNEh1JMleFA.jpg",
      "popularity": 8.228,
      "adult": false,
      "known_for_department": "Acting"
    },
    {
      "id": 1006864,
      "name": "Ni Ni",
      "profile_path": "/vKDj4szquQSnp7TIJ6VSXUO6B0f.jpg",
      "popularity": 8.228,
      "adult": false,
      "known_for_department": "Acting"
    },
    {
      "id": 452205,
      "name": "Bobby Moynihan",
      "profile_path": "/gOvwNz5joi5yWJ7dAhuF8WA2aas.jpg",
      "popularity": 8.228,
      "adult": false,
      "known_for_department": "Acting"
    },
    {
      "id": 69310,
      "name": "Ricardo Darín",
      "profile_path": "/v5QjMW1Pc6ham06EejNzIkaJsb9.jpg",
      "popularity": 8.228,
      "adult": false,
      "known_for_department": "Acting"
    },
    {
      "id": 17258,
      "name": "Kerry Fox",
      "profile_path": "/qTN8PjqgOdICj6egcAhJ7qXfEk1.jpg",
      "popularity": 8.228,
      "adult": false,
      "known_for_department": "Acting"
    },
    {
      "id": 10135,
      "name": "Jesse James",
      "profile_path": "/o8YSLAAQfW5QmOGyzeZEdOEUhTt.jpg",
      "popularity": 8.228,
      "adult": false,
      "known_for_department": "Acting"
    },
    {
      "id": 2349063,
      "name": "Nicole Brydon Bloom",
      "profile_path": "/ixQ6PRu1RveKX3dNKeNMG32Y8ft.jpg",
      "popularity": 8.226,
      "adult": false,
      "known_for_department": "Acting"
    },
    {
      "id": 1266313,
      "name": "Royce Pierreson",
      "profile_path": "/oybeyUuA9zx1zo6RcJsMWt3lsip.jpg",
      "popularity": 8.226,
      "adult": false,
      "known_for_department": "Acting"
    },
    {
      "id": 62066,
      "name": "Faizon Love",
      "profile_path": "/jsJZKirOMwv45ohX0dFDad7yRgq.jpg",
      "popularity": 8.226,
      "adult": false,
      "known_for_department": "Acting"
    },
    {
      "id": 46773,
      "name": "Parisa Fitz-Henley",
      "profile_path": "/dM1DAi2IzBgq1Qb7o8JcrRa89dY.jpg",
      "popularity": 8.226,
      "adult": false,
      "known_for_department": "Acting"
    },
    {
      "id": 42656,
      "name": "Heidi Mark",
      "profile_path": "/icJ4VaPkMGS4S2cb19Ix9o8zfRT.jpg",
      "popularity": 8.226,
      "adult": false,
      "known_for_department": "Acting"
    },
    {
      "id": 30037,
      "name": "Michael Cochrane",
      "profile_path": "/isFApZVvrDbel37SmOJZcJG2Bf2.jpg",
      "popularity": 8.226,
      "adult": false,
      "known_for_department": "Acting"
    },
    {
      "id": 2036975,
      "name": "Çağrı Çıtanak",
      "profile_path": "/nqTLDXza08h4iOl9Jsa5SmdiV6x.jpg",
      "popularity": 8.225,
      "adult": false,
      "known_for_department": "Acting"
    },
    {
      "id": 1702039,
      "name": "Choi Woo-seong",
      "profile_path": "",
      "popularity": 8.225,
      "adult": false,
      "known_for_department": "Directing"
    },
    {
      "id": 20588,
      "name": "Vincenzo Amato",
      "profile_path": "/h1cwmBKjFxGgIX4RcPhdcjJGpBa.jpg",
      "popularity": 8.225,
      "adult": false,
      "known_for_department": "Acting"
    },
    {
      "id": 1144473,
      "name": "Garance Marillier",
      "profile_path": "/oGF1oAa4myOc6QUCA1AgvWA1CGx.jpg",
      "popularity": 8.224,
      "adult": false,
      "known_for_department": "Acting"
    },
    {
      "id": 33492,
      "name": "Robert Costanzo",
      "profile_path": "/6HZSkvBcorNRTrHCDgBiSFms4OJ.jpg",
      "popularity": 8.224,
      "adult": false,
      "known_for_department": "Acting"
    },
    {
      "id": 2481,
      "name": "Ian Bannen",
      "profile_path": "/oJgSAb0Bi5ONjZmDTbiggvqIsst.jpg",
      "popularity": 8.224,
      "adult": false,
      "known_for_department": "Acting"
    }
  ]
}