{
  "page": 320,
  "total_results": 10000,
  "total_pages": 500,
  "results": [
    {
      "id": 66166,
      "name": "Kim Rossi Stuart",
      "profile_path": "/YKMQ3qYwg7Y1CbhEv9wXdV6nBl.jpg",
      "popularity": 8.458,
      "adult": false,
      "known_for_department": "Acting"
    },
    {
      "id": 1318869,
      "name": "Sohn Su-hyun",
      "profile_path": "/hgihMhudc2HURhtLbTXBXIlBLoe.jpg",
      "popularity": 8.457,
      "adult": false,
      "known_for_department": "Acting"
    },
    {
      "id": 1050248,
      "name": "Art Parkinson",
      "profile_path": "/ejAKOJME1DsvHECLWdQ7dEtXyyc.jpg",
      "popularity": 8.457,
      "adult": false,
      "known_for_department": "Acting"
    },
    {
      "id": 40242,
      "name": "Max Baer Jr.",
      "profile_path": "/rACUZQUIiF7bM4lSfmmBpNZBoUR.jpg",
      "popularity": 8.457,
      "adult": false,
      "known_for_department": "Acting"
    },
    {
      "id": 21909,
      "name": "Ekin Cheng",
      "profile_path": "/dS42D99itm6n5ROUoGxJFRH802j.jpg",
      "popularity": 8.457,
      "adult": false,
      "known_for_department": "Acting"
    },
    {
      "id": 1373210,
      "name": "Ayami Nakajo",
      "profile_path": "/jutp3enr6Xako0CQegQwpMTJP6u.jpg",
      "popularity": 8.456,
      "adult": false,
      "known_for_department": "Acting"
    },
    {
      "id": 1254169,
      "name": "Yoo In-na",
      "profile_path": "/zkw2hJv40No9ugqzr818e1Y8iDL.jpg",
      "popularity": 8.455,
      "adult": false,
      "known_for_department": "Acting"
    },
    {
      "id": 469759,
      "name": "Astrid Bergès-Frisbey",
      "profile_path": "/2mcTwrg61M7beQv05YQFPLWADmc.jpg",
      "popularity": 8.455,
      "adult": false,
      "known_for_department": "Acting"
    },
    {
      "id": 20011,
      "name": "Margot Kidder",
      "profile_path": "/bqFP3Tnd40ff9GzaBzqfNxWZkFq.jpg",
      "popularity": 8.454,
      "adult": false,
      "known_for_department": "Acting"
    },
    {
      "id": 1499832,
      "name": "Nicholas Banks",
      "profile_path": "/anIfuSU68OJ7r7TpkCr0GMnDJmi.jpg",
      "popularity": 8.453,
      "adult": false,
      "known_for_department": "Acting"
    },
    {
      "id": 117669,
      "name": "Portia Doubleday",
      "profile_path": "/aCbp5EX9vC7K1N426qOfUuIByOa.jpg",
      "popularity": 8.452,
      "adult": false,
      "known_for_department": "Acting"
    },
    {
      "id": 80378,
      "name": "Preston Bailey",
      "profile_path": "/nQg1MXzhTHtzTLe4i5fNofXm261.jpg",
      "popularity": 8.452,
      "adult": false,
      "known_for_department": "Acting"
    },
    {
      "id": 12139,
      "name": "Lolita Davidovich",
      "profile_path": "/cDpuHwPkWkLy8LSBXKIn5Gx3JUF.jpg",
      "popularity": 8.452,
      "adult": false,
      "known_for_department": "Acting"
    },
    {
      "id": 87066,
      "name": "Ike Eisenmann",
      "profile_path": "/w2JV3xw2cKMRvYRzshnkKKD2arB.jpg",
      "popularity": 8.451,
      "adult": false,
      "known_for_department": "Acting"
    },
    {
      "id": 53010,
      "name": "John McIntire",
      "profile_path": "/knjm7tflaLTysmynYUnvJgv5wIq.jpg",
      "popularity": 8.451,
      "adult": false,
      "known_for_department": "Acting"
    },
    {
      "id": 2341794,
      "name": "Rish Shah",
      "profile_path": "/mxk7ArOC6QjtGitmLDqLvJn6Ra6.jpg",
      "popularity": 8.45,
      "adult": false,
      "known_for_department": "Acting"
    },
    {
      "id": 1648936,
      "name": "Paniz Zade",
      "profile_path": "/iancD8TNzdOOQ0bZn17tLeslmsW.jpg",
      "popularity": 8.45,
      "adult": false,
      "known_for_department": "Acting"
    },
    {
      "id": 224167,
      "name": "Ben Schnetzer",
      "profile_path": "/drpFFDyWj2jeoX5I1D1WhUfcCCx.jpg",
      "popularity": 8.448,
      "adult": false,
      "known_for_department": "Acting"
    },
    {
      "id": 12951,
      "name": "O.J. Simpson",
      "profile_path": "/atFSL7hthG9D3p8kNvCpHN1ILDk.jpg",
      "popularity": 8.448,
      "adult": false,
      "known_for_department": "Acting"
    },
    {
      "id": 14063,
      "name": "Simon Oakland",
      "profile_path": "/nA6CmjgGE6HKT2SGoQM87h5fu24.jpg",
      "popularity": 8.447,
      "adult": false,
      "known_for_department": "Acting"
    }
  ]
}