{
  "page": 225,
  "total_results": 10000,
  "total_pages": 500,
  "results": [
    {
      "id": 116606,
      "name": "Toby Regbo",
      "profile_path": "/fENRlBMvArGdJr6AvfK3lsWqbRx.jpg",
      "popularity": 13.789,
      "adult": false,
      "known_for_department": "Acting"
    },
    {
      "id": 933558,
      "name": "John Mulaney",
      "profile_path": "/dCvVHa6dI0zcavzzcaN2qNCYcoI.jpg",
      "popularity": 13.788,
      "adult": false,
      "known_for_department": "Acting"
    },
    {
      "id": 1409121,
      "name": "Fumika Baba",
      "profile_path": "/8OMeO92lSLYwvu4VcHKGXnd5FBG.jpg",
      "popularity": 13.783,
      "adult": false,
      "known_for_department": "Acting"
    },
    {
      "id": 1393180,
      "name": "Madisyn Shipman",
      "profile_path": "/490oN5ldGzzKIcdzTsxwIYTzF2L.jpg",
      "popularity": 13.783,
      "adult": false,
      "known_for_department": "Acting"
    },
    {
      "id": 71403,
      "name": "Rob Riggle",
      "profile_path": "/hQgOp8vWxl6KPZbqzKSSL4k6G1j.jpg",
      "popularity": 13.782,
      "adult": false,
      "known_for_department": "Acting"
    },
    {
      "id": 13637,
      "name": "Joan Collins",
      "profile_path": "/aUJUdbCDN0SnP9nVam9Xbqv3QcX.jpg",
      "popularity": 13.782,
      "adult": false,
      "known_for_department": "Acting"
    },
    {
      "id": 12152,
      "name": "Werner Klemperer",
      "profile_path": "/lvQHzvzhwVep1qhkWiSUJafYr3p.jpg",
      "popularity": 13.781,
      "adult": false,
      "known_for_department": "Acting"
    },
    {
      "id": 2691051,
      "name": "Elçin Afacan",
      "profile_path": "/A2WIUT1o3fgXepgELNLshLRisqh.jpg",
      "popularity": 13.78,
      "adult": false,
      "known_for_department": "Acting"
    },
    {
      "id": 7489,
      "name": "Parker Posey",
      "profile_path": "/yoFt75JfGUqQ6EV8qN6fckQuElk.jpg",
      "popularity": 13.778,
      "adult": false,
      "known_for_department": "Acting"
    },
    {
      "id": 84214,
      "name": "Taylor Lautner",
      "profile_path": "/Abkz13gHDBDpqrPl2P51zUheVeE.jpg",
      "popularity": 13.777,
      "adult": false,
      "known_for_department": "Acting"
    },
    {
      "id": 91724,
      "name": "Joyce Hyser",
      "profile_path": "/maG38Xi4zYiHrg0VVGi1HyQR0PX.jpg",
      "popularity": 13.776,
      "adult": false,
      "known_for_department": "Acting"
    },
    {
      "id": 1224269,
      "name": "Aimee-Ffion Edwards",
      "profile_path": "/iwk8yjyWd46R5BFAYQLImFUvlHh.jpg",
      "popularity": 13.775,
      "adult": false,
      "known_for_department": "Acting"
    },
    {
      "id": 110068,
      "name": "Ryan Dunn",
      "profile_path": "/wp7KVifjknG6KMa6GDeXuh8eLXm.jpg",
      "popularity": 13.773,
      "adult": false,
      "known_for_department": "Acting"
    },
    {
      "id": 41527,
      "name": "Remo Girone",
      "profile_path": "/gRS90yn20ZMlq4pvVQjtUM5DLqN.jpg",
      "popularity": 13.773,
      "adult": false,
      "known_for_department": "Acting"
    },
    {
      "id": 5578,
      "name": "Debi Mazar",
      "profile_path": "/mSGSJwr0RsmN0WBDcxabYqhLpUM.jpg",
      "popularity": 13.773,
      "adult": false,
      "known_for_department": "Acting"
    },
    {
      "id": 58707,
      "name": "Sunny Mabrey",
      "profile_path": "/kY4QiKUYVBfCV7SJaWstug7hVE7.jpg",
      "popularity": 13.771,
      "adult": false,
      "known_for_department": "Acting"
    },
    {
      "id": 58014,
      "name": "Rossif Sutherland",
      "profile_path": "/25N7FFIGuPxSTCMqe0vrywzPwnv.jpg",
      "popularity": 13.771,
      "adult": false,
      "known_for_department": "Acting"
    },
    {
      "id": 2839,
      "name": "Brendan Sexton III",
      "profile_path": "/kfvO3Mdk5yqzuaN8aIeaFfVl4T5.jpg",
      "popularity": 13.771,
      "adult": false,
      "known_for_department": "Acting"
    },
    {
      "id": 8854,
      "name": "Bill Cobbs",
      "profile_path": "/cP2ETKFdk93z4e1oXZVG0utI3IM.jpg",
      "popularity": 13.77,
      "adult": false,
      "known_for_department": "Acting"
    },
    {
      "id": 133822,
      "name": "Ufuk Bayraktar",
      "profile_path": "/jxY36l1fTeddA47wKFcSGmBiq7k.jpg",
      "popularity": 13.769,
      "adult": false,
      "known_for_department": "Acting"
    }
  ]
}