{
  "page": 33,
  "total_results": 10000,
  "total_pages": 500,
  "results": [
    {
      "id": 3460359,
      "name": "Kat Dovey",
      "profile_path": "/ra5VYcLI0NWyN9xiN1zjpAIOHc.jpg",
      "popularity": 26.158,
      "adult": false,
      "known_for_department": "Acting"
    },
    {
      "id": 1274510,
      "name": "Alyvia Alyn Lind",
      "profile_path": "/9aX80h2TA5OGXOlNap3EYir3qPa.jpg",
      "popularity": 26.146,
      "adult": false,
      "known_for_department": "Acting"
    },
    {
      "id": 2282,
      "name": "Ben Kingsley",
      "profile_path": "/vQtBqpF2HDdzbfXHDzR4u37i1Ac.jpg",
      "popularity": 26.105,
      "adult": false,
      "known_for_department": "Acting"
    },
    {
      "id": 85065,
      "name": "Jack O'Connell",
      "profile_path": "/tCzR4clrIkbkijuJBYsNoEuwRDa.jpg",
      "popularity": 26.094,
      "adult": false,
      "known_for_department": "Acting"
    },
    {
      "id": 6952,
      "name": "Charlie Sheen",
      "profile_path": "/npEqnIw321opMKuu3lsFNKNKQdX.jpg",
      "popularity": 26.093,
      "adult": false,
      "known_for_department": "Acting"
    },
    {
      "id": 404,
      "name": "Melora Hardin",
      "profile_path": "/w8yg5ZPXelD47sfDRQFvGHD7jP0.jpg",
      "popularity": 26.074,
      "adult": false,
      "known_for_department": "Acting"
    },
    {
      "id": 74929,
      "name": "Madison Pettis",
      "profile_path": "/7dbpk8WTC5kujGxkvd8P3WW3nqG.jpg",
      "popularity": 26.023,
      "adult": false,
      "known_for_department": "Acting"
    },
    {
      "id": 21595,
      "name": "Alyson Hannigan",
      "profile_path": "/aKSbDKRlinaviQIkkg3mYXCVaGQ.jpg",
      "popularity": 26.013,
      "adult": false,
      "known_for_department": "Acting"
    },
    {
      "id": 2038314,
      "name": "Brecken Merrill",
      "profile_path": "/1lhgCdQzAfypTY9wXPvXCahTpt3.jpg",
      "popularity": 25.993,
      "adult": false,
      "known_for_department": "Acting"
    },
    {
      "id": 18589,
      "name": "Lee Majors",
      "profile_path": "/gKrnQP7cICGhQuTOoJIBcOtQixZ.jpg",
      "popularity": 25.968,
      "adult": false,
      "known_for_department": "Acting"
    },
    {
      "id": 6684,
      "name": "Lara Flynn Boyle",
      "profile_path": "/1eOd7t7acV4Rtk6Kj3EeceRJbLZ.jpg",
      "popularity": 25.953,
      "adult": false,
      "known_for_department": "Acting"
    },
    {
      "id": 51579,
      "name": "Steven Williams",
      "profile_path": "/okrQsLdE6hCGJ1M4p5nXPC3mJTW.jpg",
      "popularity": 25.945,
      "adult": false,
      "known_for_department": "Acting"
    },
    {
      "id": 1400939,
      "name": "Jacqueline Byers",
      "profile_path": "/vgj4zlU5sqJ1EzRgUP3ikRwK4lW.jpg",
      "popularity": 25.921,
      "adult": false,
      "known_for_department": "Acting"
    },
    {
      "id": 9015,
      "name": "Kelly Macdonald",
      "profile_path": "/k0yVocTnTMWlNdaeOO7YRViCdhO.jpg",
      "popularity": 25.91,
      "adult": false,
      "known_for_department": "Acting"
    },
    {
      "id": 6413,
      "name": "Danny Huston",
      "profile_path": "/iiVgafHitV0IbJYbaSNtHcWHF7P.jpg",
      "popularity": 25.882,
      "adult": false,
      "known_for_department": "Acting"
    },
    {
      "id": 64856,
      "name": "Michael Jai White",
      "profile_path": "/YPoHYuzR37wFpPpwEXZYQlhLln.jpg",
      "popularity": 25.865,
      "adult": false,
      "known_for_department": "Acting"
    },
    {
      "id": 1388593,
      "name": "Jodie Comer",
      "profile_path": "/xBe6WquQa0fqPS8DZQBGEoJk4c6.jpg",
      "popularity": 25.859,
      "adult": false,
      "known_for_department": "Acting"
    },
    {
      "id": 1545693,
      "name": "Zazie Beetz",
      "profile_path": "/ijrT4pvALvxU0gphea4YxDnDh6e.jpg",
      "popularity": 25.844,
      "adult": false,
      "known_for_department": "Acting"
    },
    {
      "id": 882,
      "name": "Liv Tyler",
      "profile_path": "/9IlcL0MWSNz8YLzqSooRHCQD4Dt.jpg",
      "popularity": 25.839,
      "adult": false,
      "known_for_department": "Acting"
    },
    {
      "id": 1903874,
      "name": "Maya Hawke",
      "profile_path": "/abroQsos8bGN0ATm8j05z2THoOw.jpg",
      "popularity": 25.83,
      "adult": false,
      "known_for_department": "Acting"
    }
  ]
}