{
  "page": 45,
  "total_results": 10000,
  "total_pages": 500,
  "results": [
    {
      "id": 1895788,
      "name": "Trinity Bliss",
      "profile_path": "/tIrKB4Lp2n6fiNO3v9rG8NLOFLa.jpg",
      "popularity": 22.784,
      "adult": false,
      "known_for_department": "Acting"
    },
    {
      "id": 9594,
      "name": "Katharine Ross",
      "profile_path": "/m6PKHjvkGAWVBVMYQfjTxdXnUHD.jpg",
      "popularity": 22.772,
      "adult": false,
      "known_for_department": "Acting"
    },
    {
      "id": 12949,
      "name": "Priscilla Presley",
      "profile_path": "/AkHLzziAPK1NVI5lfELYt6u0kRP.jpg",
      "popularity": 22.77,
      "adult": false,
      "known_for_department": "Acting"
    },
    {
      "id": 10478,
      "name": "Jeanne Tripplehorn",
      "profile_path": "/q7D9MDnMVc5PAm99853gszHwJy7.jpg",
      "popularity": 22.764,
      "adult": false,
      "known_for_department": "Acting"
    },
    {
      "id": 1100,
      "name": "Arnold Schwarzenegger",
      "profile_path": "/zEMhugsgXIpnQqO31GpAJYMUZZ1.jpg",
      "popularity": 22.759,
      "adult": false,
      "known_for_department": "Acting"
    },
    {
      "id": 2876,
      "name": "Matt Dillon",
      "profile_path": "/wVoSUexYH79igPgxIXKWRlV2uBk.jpg",
      "popularity": 22.75,
      "adult": false,
      "known_for_department": "Acting"
    },
    {
      "id": 2127,
      "name": "James Wan",
      "profile_path": "/bNJccMIKzCtYnndcOKniSKCzo5Y.jpg",
      "popularity": 22.747,
      "adult": false,
      "known_for_department": "Production"
    },
    {
      "id": 1888322,
      "name": "Devrim Lingnau",
      "profile_path": "/vRKhVZFPhtpPv6VbXRGXTdbucZZ.jpg",
      "popularity": 22.738,
      "adult": false,
      "known_for_department": "Acting"
    },
    {
      "id": 126,
      "name": "Fran Walsh",
      "profile_path": "/roXPta5fAmGzqdOIvUQbDavZy8Y.jpg",
      "popularity": 22.736,
      "adult": false,
      "known_for_department": "Writing"
    },
    {
      "id": 1814297,
      "name": "Lee Soo",
      "profile_path": "/lTFqzIB2GuHDjZh9LidNERWdCXg.jpg",
      "popularity": 22.716,
      "adult": false,
      "known_for_department": "Acting"
    },
    {
      "id": 2538604,
      "name": "Shae Robins",
      "profile_path": "/vfOLdbrzCzKQgMQNU6wMDbSAMi5.jpg",
      "popularity": 22.714,
      "adult": false,
      "known_for_department": "Acting"
    },
    {
      "id": 1532,
      "name": "Bill Murray",
      "profile_path": "/nnCsJc9x3ZiG3AFyiyc3FPehppy.jpg",
      "popularity": 22.714,
      "adult": false,
      "known_for_department": "Acting"
    },
    {
      "id": 240724,
      "name": "Naomi Scott",
      "profile_path": "/nNqqgP2yF1jkLZq9ndYcXOzTD2G.jpg",
      "popularity": 22.711,
      "adult": false,
      "known_for_department": "Acting"
    },
    {
      "id": 198149,
      "name": "Bobby Lee",
      "profile_path": "/90TyhVb7OfyHPmj3ZVX6hEjHGlD.jpg",
      "popularity": 22.698,
      "adult": false,
      "known_for_department": "Acting"
    },
    {
      "id": 51579,
      "name": "Steven Williams",
      "profile_path": "/okrQsLdE6hCGJ1M4p5nXPC3mJTW.jpg",
      "popularity": 22.691,
      "adult": false,
      "known_for_department": "Acting"
    },
    {
      "id": 53930,
      "name": "Tina Majorino",
      "profile_path": "/XIRdySP4PTPiS1oV12FqoNvrZn.jpg",
      "popularity": 22.675,
      "adult": false,
      "known_for_department": "Acting"
    },
    {
      "id": 955,
      "name": "Penélope Cruz",
      "profile_path": "/tU2ATiHHBAKn4SHqKOagYqdpHiy.jpg",
      "popularity": 22.668,
      "adult": false,
      "known_for_department": "Acting"
    },
    {
      "id": 11367,
      "name": "Bradley Whitford",
      "profile_path": "/oeDv2qZWTxELLaNtOIoeG72leNY.jpg",
      "popularity": 22.667,
      "adult": false,
      "known_for_department": "Acting"
    },
    {
      "id": 45379,
      "name": "Shannon Tweed",
      "profile_path": "/cfYQt6VtZD3vJUlsEVGYMD5bebl.jpg",
      "popularity": 22.641,
      "adult": false,
      "known_for_department": "Acting"
    },
    {
      "id": 38582,
      "name": "David Krumholtz",
      "profile_path": "/6M2kk44Z1DyUhuVGyy2UDbCKZuM.jpg",
      "popularity": 22.629,
      "adult": false,
      "known_for_department": "Acting"
    }
  ]
}