{
  "page": 10,
  "total_results": 10000,
  "total_pages": 500,
  "results": [
    {
      "id": 9273,
      "name": "Amy Adams",
      "profile_path": "/bp7PLjL2fHVuLRFsw6ccpGrGjrA.jpg",
      "popularity": 41.234,
      "adult": false,
      "known_for_department": "Acting"
    },
    {
      "id": 211596,
      "name": "Inbar Lavi",
      "profile_path": "/mymW9BD3nTj2sHQkK9IBo3nLHmo.jpg",
      "popularity": 27.996,
      "adult": false,
      "known_for_department": "Acting"
    },
    {
      "id": 1006731,
      "name": "Melissa Roxburgh",
      "profile_path": "/mworc2R4hnmPk6EvogFqoqlVdhD.jpg",
      "popularity": 46.752,
      "adult": false,
      "known_for_department": "Acting"
    },
    {
      "id": 54882,
      "name": "Morena Baccarin",
      "profile_path": "/kIL3zOqiC0xSXuCED6tB3KJWnSh.jpg",
      "popularity": 51.915,
      "adult": false,
      "known_for_department": "Acting"
    },
    {
      "id": 8210,
      "name": "Wes Bentley",
      "profile_path": "/oDjtxTiEuCdyrcAtlCOEWUjhsaT.jpg",
      "popularity": 35.904,
      "adult": false,
      "known_for_department": "Acting"
    },
    {
      "id": 1164,
      "name": "F. Murray Abraham",
      "profile_path": "/p2RYVGdrcP0m70BkkiKcwyrDeim.jpg",
      "popularity": 51.734,
      "adult": false,
      "known_for_department": "Acting"
    },
    {
      "id": 69597,
      "name": "Drew Barrymore",
      "profile_path": "/vCg538wASd6UlZcqD0a0KdgwMIQ.jpg",
      "popularity": 41.815,
      "adult": false,
      "known_for_department": "Acting"
    },
    {
      "id": 1173984,
      "name": "Olivia Cooke",
      "profile_path": "/qkOP1LnoOrQBMKrqmhrhrKiyxSj.jpg",
      "popularity": 36.578,
      "adult": false,
      "known_for_department": "Acting"
    },
    {
      "id": 11006,
      "name": "James Marsden",
      "profile_path": "/mk142GG0saiSXALY6V4wWcmPROW.jpg",
      "popularity": 45.372,
      "adult": false,
      "known_for_department": "Acting"
    },
    {
      "id": 1920,
      "name": "Winona Ryder",
      "profile_path": "/f7cJ1MQeXep19jlzvyJOstnkHMV.jpg",
      "popularity": 35.364,
      "adult": false,
      "known_for_department": "Acting"
    },
    {
      "id": 5293,
      "name": "Willem Dafoe",
      "profile_path": "/ui8e4sgZAwMPi3hzEO53jyBJF9B.jpg",
      "popularity": 43.268,
      "adult": false,
      "known_for_department": "Acting"
    },
    {
      "id": 63942,
      "name": "Julie Michaels",
      "profile_path": "/hXYvvPhWbXNULOV2kge9EyH5OIC.jpg",
      "popularity": 21.717,
      "adult": false,
      "known_for_department": "Acting"
    },
    {
      "id": 7499,
      "name": "Jared Leto",
      "profile_path": "/i6zIpHiKBnaHtacJU6qgeoDjiw1.jpg",
      "popularity": 32.857,
      "adult": false,
      "known_for_department": "Acting"
    },
    {
      "id": 7673,
      "name": "Bonnie Bedelia",
      "profile_path": "/2dCd7HGOfmn4x7v97EcNIwy12io.jpg",
      "popularity": 47.639,
      "adult": false,
      "known_for_department": "Acting"
    },
    {
      "id": 25837,
      "name": "Elisha Cuthbert",
      "profile_path": "/ym30LsFVLBFYkZ2eQvcraajSYCE.jpg",
      "popularity": 43.594,
      "adult": false,
      "known_for_department": "Acting"
    },
    {
      "id": 70962,
      "name": "Donatella Damiani",
      "profile_path": "/7Z7y4kJgNHGut67ftaRdi8vnclE.jpg",
      "popularity": 31.55,
      "adult": false,
      "known_for_department": "Acting"
    },
    {
      "id": 1059597,
      "name": "Zoey Deutch",
      "profile_path": "/jApADmomPJWX8UZHEwTLie2zMGd.jpg",
      "popularity": 49.934,
      "adult": false,
      "known_for_department": "Acting"
    },
    {
      "id": 1442069,
      "name": "Finn Wolfhard",
      "profile_path": "/5OVmquAk0W5BIsRlVKslEP497JD.jpg",
      "popularity": 35.655,
      "adult": false,
      "known_for_department": "Acting"
    },
    {
      "id": 62105,
      "name": "Kerry Condon",
      "profile_path": "/8l5zehb9sc9cgRCLD713rf5Xmz3.jpg",
      "popularity": 36.69,
      "adult": false,
      "known_for_department": "Acting"
    },
    {
      "id": 2176,
      "name": "Tommy Lee Jones",
      "profile_path": "/5EtT8QsmaJTzI11d3S3GKokut3h.jpg",
      "popularity": 49.752,
      "adult": false,
      "known_for_department": "Acting"
    }
  ]
}