{
  "page": 118,
  "total_results": 10000,
  "total_pages": 500,
  "results": [
    {
      "id": 1565993,
      "name": "Lee Si-woo",
      "profile_path": "/btlUCyukAppRNbmfzFyV2vZOPQz.jpg",
      "popularity": 15.26,
      "adult": false,
      "known_for_department": "Acting"
    },
    {
      "id": 1245733,
      "name": "Justin Roiland",
      "profile_path": "/wYApP38aXe6ZcEtlBAfNRxJTQQi.jpg",
      "popularity": 15.258,
      "adult": false,
      "known_for_department": "Acting"
    },
    {
      "id": 4483,
      "name": "Dustin Hoffman",
      "profile_path": "/yFjTzJHE6AFbwQifOlnNDzmiwlq.jpg",
      "popularity": 15.245,
      "adult": false,
      "known_for_department": "Acting"
    },
    {
      "id": 11703,
      "name": "Kerry Washington",
      "profile_path": "/hCi43gRO7zfv3Mu8X1bpqtloyHT.jpg",
      "popularity": 15.238,
      "adult": false,
      "known_for_department": "Acting"
    },
    {
      "id": 4014,
      "name": "Paul W. S. Anderson",
      "profile_path": "/AeYYSi30WCkowdk04Awa0kr1E4S.jpg",
      "popularity": 15.235,
      "adult": false,
      "known_for_department": "Directing"
    },
    {
      "id": 19838,
      "name": "Marg Helgenberger",
      "profile_path": "/wPfXSAsk1l9Ry2sqN1Ei8GwjI9E.jpg",
      "popularity": 15.232,
      "adult": false,
      "known_for_department": "Acting"
    },
    {
      "id": 11486,
      "name": "Michael Imperioli",
      "profile_path": "/jfoEHR6BRMg8emtujXdM3G4JHIm.jpg",
      "popularity": 15.229,
      "adult": false,
      "known_for_department": "Acting"
    },
    {
      "id": 56266,
      "name": "Fred Gwynne",
      "profile_path": "/nO5ufGwURxJ20zYnSgb6l4nYDQO.jpg",
      "popularity": 15.228,
      "adult": false,
      "known_for_department": "Acting"
    },
    {
      "id": 132157,
      "name": "Ezra Miller",
      "profile_path": "/6wmTpbYpmhthaxzM5ss3377F9IV.jpg",
      "popularity": 15.227,
      "adult": false,
      "known_for_department": "Acting"
    },
    {
      "id": 60650,
      "name": "Michael Paré",
      "profile_path": "/jxrXW8OL6hwJgtJgePdMO5yHuAM.jpg",
      "popularity": 15.225,
      "adult": false,
      "known_for_department": "Acting"
    },
    {
      "id": 209674,
      "name": "RJ Mitte",
      "profile_path": "/aG6NYV2EgzBFLRIl7vvbtd7go1j.jpg",
      "popularity": 15.221,
      "adult": false,
      "known_for_department": "Acting"
    },
    {
      "id": 4068,
      "name": "Gary Cooper",
      "profile_path": "/67svKX2KuFwwBvrijIb7bBtBgIM.jpg",
      "popularity": 15.213,
      "adult": false,
      "known_for_department": "Acting"
    },
    {
      "id": 472632,
      "name": "Christina Chong",
      "profile_path": "/quzkaUEarfiHHpG0IeYgyJgZ6EL.jpg",
      "popularity": 15.206,
      "adult": false,
      "known_for_department": "Acting"
    },
    {
      "id": 207442,
      "name": "Tom Pelphrey",
      "profile_path": "/ztbTooEf7E5CDpd8LEzD6Y4XWbO.jpg",
      "popularity": 15.204,
      "adult": false,
      "known_for_department": "Acting"
    },
    {
      "id": 42722,
      "name": "Michael T. Weiss",
      "profile_path": "/blubry0tJA9kqEkwYl1b7VUgRlM.jpg",
      "popularity": 15.203,
      "adult": false,
      "known_for_department": "Acting"
    },
    {
      "id": 1224072,
      "name": "Emy Coligado",
      "profile_path": "/fwbuK9EevdeUxwuL0QGf3MUdZZt.jpg",
      "popularity": 15.2,
      "adult": false,
      "known_for_department": "Acting"
    },
    {
      "id": 56857,
      "name": "Peter Facinelli",
      "profile_path": "/dedS4MpictN0kjQsPjjZSQwZoee.jpg",
      "popularity": 15.197,
      "adult": false,
      "known_for_department": "Acting"
    },
    {
      "id": 135532,
      "name": "Danielle C. Ryan",
      "profile_path": "/90vVCIw1T3JMt75ARNE3fEfZACL.jpg",
      "popularity": 15.194,
      "adult": false,
      "known_for_department": "Acting"
    },
    {
      "id": 3124,
      "name": "Valeria Golino",
      "profile_path": "/k7LQlRNI2YU3u6QGlvAMNbhq3AA.jpg",
      "popularity": 15.189,
      "adult": false,
      "known_for_department": "Acting"
    },
    {
      "id": 1344374,
      "name": "Sepideh Moafi",
      "profile_path": "/cxkwu0yTWUKtKutNAx7ZlsnjTlW.jpg",
      "popularity": 15.186,
      "adult": false,
      "known_for_department": "Acting"
    }
  ]
}