{
  "page": 48,
  "total_results": 10000,
  "total_pages": 500,
  "results": [
    {
      "id": 59201,
      "name": "Lisa Emery",
      "profile_path": "/n1BUX990xFUXtvY8fDkbUox6sHh.jpg",
      "popularity": 25.273,
      "adult": false,
      "known_for_department": "Acting"
    },
    {
      "id": 3150,
      "name": "Tony Curtis",
      "profile_path": "/9uvBrPuowWclxhWXsDUl6KsOjin.jpg",
      "popularity": 25.265,
      "adult": false,
      "known_for_department": "Acting"
    },
    {
      "id": 2804658,
      "name": "Katerina Kovalchuk",
      "profile_path": "/aC2td7EO8DyG9rmUtz1imQfEyZM.jpg",
      "popularity": 25.255,
      "adult": false,
      "known_for_department": "Acting"
    },
    {
      "id": 938,
      "name": "Djimon Hounsou",
      "profile_path": "/kC2AoZV3Wgtm854rEmaMt7YN2i.jpg",
      "popularity": 25.234,
      "adult": false,
      "known_for_department": "Acting"
    },
    {
      "id": 44735,
      "name": "Jesse Eisenberg",
      "profile_path": "/iA3ha8OZU7fULwQvmg2f1ipscCN.jpg",
      "popularity": 25.225,
      "adult": false,
      "known_for_department": "Acting"
    },
    {
      "id": 8783,
      "name": "Eric Bana",
      "profile_path": "/xIjQVywxkymHbbSO7lD2F9f377W.jpg",
      "popularity": 25.206,
      "adult": false,
      "known_for_department": "Acting"
    },
    {
      "id": 195544,
      "name": "Matilda Ziegler",
      "profile_path": "/1vGZvZYl6K7KFEgGqYVvseeJMcp.jpg",
      "popularity": 25.185,
      "adult": false,
      "known_for_department": "Acting"
    },
    {
      "id": 1134734,
      "name": "Pauline Chan",
      "profile_path": "/lwEjTPAOCWJCftIQ3H1kvt1d5cd.jpg",
      "popularity": 25.169,
      "adult": false,
      "known_for_department": "Acting"
    },
    {
      "id": 530,
      "name": "Carrie-Anne Moss",
      "profile_path": "/xD4jTA3KmVp5Rq3aHcymL9DUGjD.jpg",
      "popularity": 25.164,
      "adult": false,
      "known_for_department": "Acting"
    },
    {
      "id": 9781,
      "name": "Nia Long",
      "profile_path": "/2HnplqKDWkLyReeeAPsbEctkpPQ.jpg",
      "popularity": 25.163,
      "adult": false,
      "known_for_department": "Acting"
    },
    {
      "id": 58225,
      "name": "Zach Galifianakis",
      "profile_path": "/hghR9AhS8OKsO4ziq5Yf7w2ZguB.jpg",
      "popularity": 25.162,
      "adult": false,
      "known_for_department": "Acting"
    },
    {
      "id": 198149,
      "name": "Bobby Lee",
      "profile_path": "/90TyhVb7OfyHPmj3ZVX6hEjHGlD.jpg",
      "popularity": 25.148,
      "adult": false,
      "known_for_department": "Acting"
    },
    {
      "id": 2047,
      "name": "Danny Glover",
      "profile_path": "/m3wq4FEXL9oyh8sk1to4GI8A2dc.jpg",
      "popularity": 25.143,
      "adult": false,
      "known_for_department": "Acting"
    },
    {
      "id": 4491,
      "name": "Jennifer Aniston",
      "profile_path": "/o5jCZTBv49mh2JhIpsw3FkGuns7.jpg",
      "popularity": 25.131,
      "adult": false,
      "known_for_department": "Acting"
    },
    {
      "id": 17838,
      "name": "Rami Malek",
      "profile_path": "/ewr46CGOdsx5NzAJdIzEBz2yIQh.jpg",
      "popularity": 25.115,
      "adult": false,
      "known_for_department": "Acting"
    },
    {
      "id": 78198,
      "name": "Tyler Hoechlin",
      "profile_path": "/n2hXiC2MABZnZoQKtWLkP73LKWe.jpg",
      "popularity": 25.1,
      "adult": false,
      "known_for_department": "Acting"
    },
    {
      "id": 18067,
      "name": "Rachael Stirling",
      "profile_path": "/nk0evvx3mScy3kRnbXWi1g64ZMw.jpg",
      "popularity": 25.093,
      "adult": false,
      "known_for_department": "Acting"
    },
    {
      "id": 3165040,
      "name": "Rika",
      "profile_path": "/vwYqrhcSRVrnra4S0NopnywN8rK.jpg",
      "popularity": 25.061,
      "adult": false,
      "known_for_department": "Acting"
    },
    {
      "id": 3380,
      "name": "Bette Davis",
      "profile_path": "/h8JJeSEB7jc6Ce33Lh7XDQfXaVr.jpg",
      "popularity": 25.061,
      "adult": false,
      "known_for_department": "Acting"
    },
    {
      "id": 1565392,
      "name": "Kang Tae-oh",
      "profile_path": "/aMenmaLlcK6YMZnN7NBvvaVuq4O.jpg",
      "popularity": 25.06,
      "adult": false,
      "known_for_department": "Acting"
    }
  ]
}