{
  "page": 167,
  "total_results": 10000,
  "total_pages": 500,
  "results": [
    {
      "id": 41090,
      "name": "Maude Apatow",
      "profile_path": "/xWj49QAsGlC92YcguaEEYvoMEsg.jpg",
      "popularity": 11.265,
      "adult": false,
      "known_for_department": "Acting"
    },
    {
      "id": 98591,
      "name": "Belinda Gavin",
      "profile_path": "/mKaV0ClUBBl6oJtPPEGW5BK48ej.jpg",
      "popularity": 11.264,
      "adult": false,
      "known_for_department": "Acting"
    },
    {
      "id": 2482,
      "name": "David O'Hara",
      "profile_path": "/uxKK3U61hSpJuw0YdGmkiAoPSVz.jpg",
      "popularity": 11.264,
      "adult": false,
      "known_for_department": "Acting"
    },
    {
      "id": 2053219,
      "name": "Kim Da-mi",
      "profile_path": "/tpb0eZLDvIaBVNLXFpxXAdPxooo.jpg",
      "popularity": 11.263,
      "adult": false,
      "known_for_department": "Acting"
    },
    {
      "id": 5823,
      "name": "Julie Andrews",
      "profile_path": "/kTXM2KfsXh2vSav0s9vaDKfs4lR.jpg",
      "popularity": 11.261,
      "adult": false,
      "known_for_department": "Acting"
    },
    {
      "id": 84076,
      "name": "Nick Zano",
      "profile_path": "/t47PZJOUehQV4RFOEXoszMiOEjx.jpg",
      "popularity": 11.258,
      "adult": false,
      "known_for_department": "Acting"
    },
    {
      "id": 50095,
      "name": "Jason Ritter",
      "profile_path": "/2WcaYXqe1AhxqezTffgIc7HmSmX.jpg",
      "popularity": 11.258,
      "adult": false,
      "known_for_department": "Acting"
    },
    {
      "id": 1241267,
      "name": "Tina Datta",
      "profile_path": "/214uCGxfBbdNkJtd5G2YlCWX1w2.jpg",
      "popularity": 11.257,
      "adult": false,
      "known_for_department": "Acting"
    },
    {
      "id": 1483976,
      "name": "Maddie Ziegler",
      "profile_path": "/aOMV9lJpfV58LfA7ovylNkqwcp3.jpg",
      "popularity": 11.254,
      "adult": false,
      "known_for_department": "Acting"
    },
    {
      "id": 1298489,
      "name": "Megan Montaner",
      "profile_path": "/gLYNeCfqmogzDlByi9KFSQiR1lq.jpg",
      "popularity": 11.254,
      "adult": false,
      "known_for_department": "Acting"
    },
    {
      "id": 3288,
      "name": "Chris Weitz",
      "profile_path": "/4HONbwCefKNKBXafRRjXZN00wJE.jpg",
      "popularity": 11.252,
      "adult": false,
      "known_for_department": "Production"
    },
    {
      "id": 1254411,
      "name": "Karissa Lee Staples",
      "profile_path": "/uLAYi4IpF3UYcgsndZroU5aMRsk.jpg",
      "popularity": 11.251,
      "adult": false,
      "known_for_department": "Acting"
    },
    {
      "id": 2091742,
      "name": "Parveen Kaur",
      "profile_path": "/s2xn0rY0BytP06aqM35OJX03CqZ.jpg",
      "popularity": 11.247,
      "adult": false,
      "known_for_department": "Acting"
    },
    {
      "id": 1731959,
      "name": "Tanya Reynolds",
      "profile_path": "/m5FP6lzbxYon8W6hEvj9d4h21i4.jpg",
      "popularity": 11.247,
      "adult": false,
      "known_for_department": "Acting"
    },
    {
      "id": 2000335,
      "name": "Darren Barnet",
      "profile_path": "/z3hQP19QgHsKZ4j0sXNzrhScDMO.jpg",
      "popularity": 11.246,
      "adult": false,
      "known_for_department": "Acting"
    },
    {
      "id": 20387,
      "name": "Clea DuVall",
      "profile_path": "/yueygn1Lmmni7EaMQD9LslexDlu.jpg",
      "popularity": 11.245,
      "adult": false,
      "known_for_department": "Acting"
    },
    {
      "id": 530618,
      "name": "Jane Levy",
      "profile_path": "/tRcoWflBT1ozZpWwOIPbOvmvgy6.jpg",
      "popularity": 11.241,
      "adult": false,
      "known_for_department": "Acting"
    },
    {
      "id": 14500,
      "name": "Jean Simmons",
      "profile_path": "/iCF8imUDR2jzQtg8SlD7ca9wOu3.jpg",
      "popularity": 11.241,
      "adult": false,
      "known_for_department": "Acting"
    },
    {
      "id": 18,
      "name": "Brad Garrett",
      "profile_path": "/813ffbpoaoaJRdoe1yrbivboWKp.jpg",
      "popularity": 11.241,
      "adult": false,
      "known_for_department": "Acting"
    },
    {
      "id": 1094091,
      "name": "Maika Monroe",
      "profile_path": "/g4z8Gq8oWbhhGcS51pGBm8xv5I1.jpg",
      "popularity": 11.24,
      "adult": false,
      "known_for_department": "Acting"
    }
  ]
}