{
  "page": 172,
  "total_results": 10000,
  "total_pages": 500,
  "results": [
    {
      "id": 95706,
      "name": "Laura Donnelly",
      "profile_path": "/osajwo2LqtHSLOrH3E3dTVZHP1Z.jpg",
      "popularity": 13.832,
      "adult": false,
      "known_for_department": "Acting"
    },
    {
      "id": 2185341,
      "name": "Cho Yi-hyun",
      "profile_path": "/gXN9DiFTwri92HkKSjfbMyYEELR.jpg",
      "popularity": 13.831,
      "adult": false,
      "known_for_department": "Acting"
    },
    {
      "id": 53761,
      "name": "Christopher Gorham",
      "profile_path": "/u3D21bfXweqiGWalFxMq2jONcYi.jpg",
      "popularity": 13.831,
      "adult": false,
      "known_for_department": "Acting"
    },
    {
      "id": 34521,
      "name": "Maurice LaMarche",
      "profile_path": "/qCiL3EYAhLcNo0rNj5pczWo9MwG.jpg",
      "popularity": 13.831,
      "adult": false,
      "known_for_department": "Acting"
    },
    {
      "id": 46897,
      "name": "Erica Durance",
      "profile_path": "/aYxUKI2sPNvtMNt8vmOP0LVmoGZ.jpg",
      "popularity": 13.829,
      "adult": false,
      "known_for_department": "Acting"
    },
    {
      "id": 60458,
      "name": "Liana Liberato",
      "profile_path": "/5EEvVU9EDZ1ricNizDYUgclG1BF.jpg",
      "popularity": 13.826,
      "adult": false,
      "known_for_department": "Acting"
    },
    {
      "id": 52762,
      "name": "Pasha D. Lychnikoff",
      "profile_path": "/xftO8wDW9j4RBO91g9wWzDAAHbz.jpg",
      "popularity": 13.826,
      "adult": false,
      "known_for_department": "Acting"
    },
    {
      "id": 54499,
      "name": "Briana Evigan",
      "profile_path": "/x927HOCSfZuuBtuQT2yAVHM5GSD.jpg",
      "popularity": 13.825,
      "adult": false,
      "known_for_department": "Acting"
    },
    {
      "id": 10680,
      "name": "Talisa Soto",
      "profile_path": "/tpEGbGgASne8m1iHzncuxdSLIkX.jpg",
      "popularity": 13.818,
      "adult": false,
      "known_for_department": "Acting"
    },
    {
      "id": 1608974,
      "name": "Daan Lennard Liebrenz",
      "profile_path": "/dYJWxmuhKvSjx7vCQdybZsoe38X.jpg",
      "popularity": 13.817,
      "adult": false,
      "known_for_department": "Acting"
    },
    {
      "id": 591519,
      "name": "Laura Spencer",
      "profile_path": "/gaAIgczfFhGl1SSHijO6ZytEGjX.jpg",
      "popularity": 13.814,
      "adult": false,
      "known_for_department": "Acting"
    },
    {
      "id": 22675,
      "name": "Damon Wayans",
      "profile_path": "/pdSOalf1r7GKlcUhpKeBntAqgA6.jpg",
      "popularity": 13.808,
      "adult": false,
      "known_for_department": "Acting"
    },
    {
      "id": 31923,
      "name": "Oliver Ford Davies",
      "profile_path": "/hDdpoEWtNd0c46PcuORomdEI5j0.jpg",
      "popularity": 13.807,
      "adult": false,
      "known_for_department": "Acting"
    },
    {
      "id": 3420718,
      "name": "Günter Zschimmer",
      "profile_path": "/vkgqzQWYfaqibUrKoDw4SE7EN0P.jpg",
      "popularity": 13.805,
      "adult": false,
      "known_for_department": "Acting"
    },
    {
      "id": 1543364,
      "name": "Diane Morgan",
      "profile_path": "/3Igu5RqKZePRLBw8Y3aWWlVBnrM.jpg",
      "popularity": 13.805,
      "adult": false,
      "known_for_department": "Acting"
    },
    {
      "id": 137427,
      "name": "Denis Villeneuve",
      "profile_path": "/zdDx9Xs93UIrJFWYApYR28J8M6b.jpg",
      "popularity": 13.805,
      "adult": false,
      "known_for_department": "Directing"
    },
    {
      "id": 78030,
      "name": "Ashley Benson",
      "profile_path": "/8EeEDClttH50DRv4dl74Edi4In7.jpg",
      "popularity": 13.802,
      "adult": false,
      "known_for_department": "Acting"
    },
    {
      "id": 1179419,
      "name": "Matt Duffer",
      "profile_path": "/kXO5CnSxC0znMAICGxnPeuGP73U.jpg",
      "popularity": 13.8,
      "adult": false,
      "known_for_department": "Writing"
    },
    {
      "id": 34398,
      "name": "Bill Fagerbakke",
      "profile_path": "/wOZl6yPLhDyqGf8T6WJO4Vc1FYt.jpg",
      "popularity": 13.8,
      "adult": false,
      "known_for_department": "Acting"
    },
    {
      "id": 36219,
      "name": "Marsha Thomason",
      "profile_path": "/47H21k0kKBGQjwPT8b5CebTkRhB.jpg",
      "popularity": 13.799,
      "adult": false,
      "known_for_department": "Acting"
    }
  ]
}