{
  "page": 400,
  "total_results": 10000,
  "total_pages": 500,
  "results": [
    {
      "id": 40060,
      "name": "Tina Holmes",
      "profile_path": "/4c8vuZTCIqCFxX1NRqRKmuOCJMy.jpg",
      "popularity": 8.262,
      "adult": false,
      "known_for_department": "Acting"
    },
    {
      "id": 27659,
      "name": "Tim Woodward",
      "profile_path": "/zxPCPmDkVxUI1qoeeK7lqrgdXVJ.jpg",
      "popularity": 8.262,
      "adult": false,
      "known_for_department": "Acting"
    },
    {
      "id": 1220947,
      "name": "Ami Koshimizu",
      "profile_path": "/e5sU0stGjTMtFoj0jjHH7OFUqYC.jpg",
      "popularity": 8.261,
      "adult": false,
      "known_for_department": "Acting"
    },
    {
      "id": 144288,
      "name": "Maiara Walsh",
      "profile_path": "/n5qik3XnpPEwa76SrQQJVgei7RP.jpg",
      "popularity": 8.261,
      "adult": false,
      "known_for_department": "Acting"
    },
    {
      "id": 55432,
      "name": "Jamie Farr",
      "profile_path": "/SNxQti5OQwYoVP6EPFmjKFpGs9.jpg",
      "popularity": 8.259,
      "adult": false,
      "known_for_department": "Acting"
    },
    {
      "id": 27533,
      "name": "Cox Habbema",
      "profile_path": "/v4EEAwrZiYrP8IgmwVrQvr9u7vx.jpg",
      "popularity": 8.259,
      "adult": false,
      "known_for_department": "Acting"
    },
    {
      "id": 2380397,
      "name": "Micheal Ward",
      "profile_path": "/fnVDz5q9Vtocm2VY5tU3voP6RxG.jpg",
      "popularity": 8.258,
      "adult": false,
      "known_for_department": "Acting"
    },
    {
      "id": 239239,
      "name": "Lita Grey",
      "profile_path": "/gvPSOLyNwhQorFuXvT6ta64v5Wo.jpg",
      "popularity": 8.258,
      "adult": false,
      "known_for_department": "Acting"
    },
    {
      "id": 210829,
      "name": "Karolina Wydra",
      "profile_path": "/3JHvlz5pTSaeuDBX8pMN1Kxj6as.jpg",
      "popularity": 8.258,
      "adult": false,
      "known_for_department": "Acting"
    },
    {
      "id": 10403,
      "name": "Shelley Berman",
      "profile_path": "/2BSAgiQ1vuD7I04mteW0BGw89ro.jpg",
      "popularity": 8.258,
      "adult": false,
      "known_for_department": "Acting"
    },
    {
      "id": 2425,
      "name": "Hervé Schneid",
      "profile_path": "/iXvTlGk7EhcHav9oe3v8F8BGuHd.jpg",
      "popularity": 8.258,
      "adult": false,
      "known_for_department": "Editing"
    },
    {
      "id": 1251337,
      "name": "Cristina Urgel",
      "profile_path": "/iRVInzgSAfsckgyydJCUP3KZm1M.jpg",
      "popularity": 8.257,
      "adult": false,
      "known_for_department": "Acting"
    },
    {
      "id": 58661,
      "name": "Richard Mulligan",
      "profile_path": "/tYy2aV5dzOLruCYNQIFYSAaRF1j.jpg",
      "popularity": 8.257,
      "adult": false,
      "known_for_department": "Acting"
    },
    {
      "id": 33229,
      "name": "Carole Landis",
      "profile_path": "/9A5fTYXO61B7u0nQydpsywB7ih2.jpg",
      "popularity": 8.256,
      "adult": false,
      "known_for_department": "Acting"
    },
    {
      "id": 239507,
      "name": "Asami Ogawa",
      "profile_path": "/Ar5rDel8pIzh59KEL1bJrUayFbM.jpg",
      "popularity": 8.255,
      "adult": false,
      "known_for_department": "Acting"
    },
    {
      "id": 10134,
      "name": "Mako",
      "profile_path": "/qrt9yI5sEEemzVAEh8mtI6E68L0.jpg",
      "popularity": 8.254,
      "adult": false,
      "known_for_department": "Acting"
    },
    {
      "id": 1353288,
      "name": "David Lim",
      "profile_path": "/sTDggvTKtNIIl5zj4Zd4BbYI3lt.jpg",
      "popularity": 8.253,
      "adult": false,
      "known_for_department": "Acting"
    },
    {
      "id": 33210,
      "name": "Robert Ross",
      "profile_path": "/aKBZhgklyB59MK91J1nkFbr8Mz6.jpg",
      "popularity": 8.252,
      "adult": false,
      "known_for_department": "Acting"
    },
    {
      "id": 1834243,
      "name": "Park Se-wan",
      "profile_path": "/yRaB00ZVVQ6DMjJmictDEaNf6t8.jpg",
      "popularity": 8.249,
      "adult": false,
      "known_for_department": "Acting"
    },
    {
      "id": 1109,
      "name": "Kevin Peter Hall",
      "profile_path": "/bg8ohLqgj1v9XzY927PfYNAu9nk.jpg",
      "popularity": 8.249,
      "adult": false,
      "known_for_department": "Acting"
    }
  ]
}