{
  "page": 484,
  "total_results": 10000,
  "total_pages": 500,
  "results": [
    {
      "id": 7683,
      "name": "Wendell Corey",
      "profile_path": "/eA8sjsZzDz0MywoxfbdRs9Ejwnu.jpg",
      "popularity": 6.965,
      "adult": false,
      "known_for_department": "Acting"
    },
    {
      "id": 7632,
      "name": "Shelley Winters",
      "profile_path": "/sY7LVp0M8yJgFD0o2uAIJgfLGm9.jpg",
      "popularity": 6.965,
      "adult": false,
      "known_for_department": "Acting"
    },
    {
      "id": 68109,
      "name": "Sheila Kelley",
      "profile_path": "/6tgtM6ZPTo8JbtVGsthUmMh7p7B.jpg",
      "popularity": 6.964,
      "adult": false,
      "known_for_department": "Acting"
    },
    {
      "id": 9899,
      "name": "Francis de Wolff",
      "profile_path": "/jrzEw4yWzkDhDrQ54oo21xWnllo.jpg",
      "popularity": 6.964,
      "adult": false,
      "known_for_department": "Acting"
    },
    {
      "id": 2092133,
      "name": "Hank Greenspan",
      "profile_path": "/aQyDLtwSuY6kPecytxawo3DmeX5.jpg",
      "popularity": 6.963,
      "adult": false,
      "known_for_department": "Acting"
    },
    {
      "id": 556275,
      "name": "Matthew Mercer",
      "profile_path": "/fe1S317253vfMuNuIDjhp9vtNSs.jpg",
      "popularity": 6.963,
      "adult": false,
      "known_for_department": "Acting"
    },
    {
      "id": 59673,
      "name": "Jeff Daniel Phillips",
      "profile_path": "/8U2mqgRt0mMaCBFnINQxYzqREGm.jpg",
      "popularity": 6.963,
      "adult": false,
      "known_for_department": "Acting"
    },
    {
      "id": 74290,
      "name": "Travis Van Winkle",
      "profile_path": "/thanvrjfpP9h8E9QmPbtutZoEHa.jpg",
      "popularity": 6.962,
      "adult": false,
      "known_for_department": "Acting"
    },
    {
      "id": 44033,
      "name": "Barbara Alyn Woods",
      "profile_path": "/9mEaXMGP03gsCkqW3svWxTk2lXi.jpg",
      "popularity": 6.962,
      "adult": false,
      "known_for_department": "Acting"
    },
    {
      "id": 1290,
      "name": "Jordan Fry",
      "profile_path": "/sYOwt75vhzZsVOJr44myYj0fpyW.jpg",
      "popularity": 6.962,
      "adult": false,
      "known_for_department": "Acting"
    },
    {
      "id": 1187037,
      "name": "Adam Bakri",
      "profile_path": "/oIrbcTWIfPFSRs9JefPy3DSFnmx.jpg",
      "popularity": 6.961,
      "adult": false,
      "known_for_department": "Acting"
    },
    {
      "id": 21605,
      "name": "Dirk Bogarde",
      "profile_path": "/5QsoxIxNEdbkD4fpLgmTdZ31Z8F.jpg",
      "popularity": 6.961,
      "adult": false,
      "known_for_department": "Acting"
    },
    {
      "id": 7073,
      "name": "Michael Berryman",
      "profile_path": "/jnyXbS5NqYdfZyvRUX2PHeKuOg4.jpg",
      "popularity": 6.961,
      "adult": false,
      "known_for_department": "Acting"
    },
    {
      "id": 2207,
      "name": "Lois Smith",
      "profile_path": "/unvPSZshdNoj7c5wl6D30gPwKtS.jpg",
      "popularity": 6.961,
      "adult": false,
      "known_for_department": "Acting"
    },
    {
      "id": 74607,
      "name": "Autumn Reeser",
      "profile_path": "/ftDOWocmtT9YSZhV6bVrbsywIad.jpg",
      "popularity": 6.96,
      "adult": false,
      "known_for_department": "Acting"
    },
    {
      "id": 69033,
      "name": "Vivian Wu",
      "profile_path": "/6XLjcLxICMms0YLS4tpUNg8GhHR.jpg",
      "popularity": 6.96,
      "adult": false,
      "known_for_department": "Acting"
    },
    {
      "id": 1907,
      "name": "Kathy Baker",
      "profile_path": "/c5MAs0tvUg9pdxbayxRAFLm0Qz5.jpg",
      "popularity": 6.96,
      "adult": false,
      "known_for_department": "Acting"
    },
    {
      "id": 2616093,
      "name": "Kim Yeon-koung",
      "profile_path": "/26McODbDVHAivAV7VBBKhc7r5bd.jpg",
      "popularity": 6.959,
      "adult": false,
      "known_for_department": "Acting"
    },
    {
      "id": 1882314,
      "name": "Seo Eun-Soo",
      "profile_path": "/67wDFUg7bBf4MBvt4GZnOesOWZy.jpg",
      "popularity": 6.959,
      "adult": false,
      "known_for_department": "Acting"
    },
    {
      "id": 45396,
      "name": "Ross Partridge",
      "profile_path": "/4GCbT5B0WeoDkl5gor8NuAvy4mV.jpg",
      "popularity": 6.959,
      "adult": false,
      "known_for_department": "Acting"
    }
  ]
}