{
  "page": 182,
  "total_results": 10000,
  "total_pages": 500,
  "results": [
    {
      "id": 1937,
      "name": "Mickey Rooney",
      "profile_path": "/eYuayEC3xhXQf3Z1Cy6AVMEcgZb.jpg",
      "popularity": 13.135,
      "adult": false,
      "known_for_department": "Acting"
    },
    {
      "id": 1335315,
      "name": "Georgina Campbell",
      "profile_path": "/AwFvnApH8nxzfEw3inQw7Dvc0qq.jpg",
      "popularity": 13.133,
      "adult": false,
      "known_for_department": "Acting"
    },
    {
      "id": 5344,
      "name": "Meg Ryan",
      "profile_path": "/veFWqcGqFiKdYMJ6uqYdabK9Jma.jpg",
      "popularity": 13.133,
      "adult": false,
      "known_for_department": "Acting"
    },
    {
      "id": 22384,
      "name": "John Amos",
      "profile_path": "/b2zYGkMG28wYDHC9CunfYAeoeMQ.jpg",
      "popularity": 13.132,
      "adult": false,
      "known_for_department": "Acting"
    },
    {
      "id": 213596,
      "name": "Clemens Schick",
      "profile_path": "/3ANnyM49vTvcT9MyyVvjl5UAdpj.jpg",
      "popularity": 13.131,
      "adult": false,
      "known_for_department": "Acting"
    },
    {
      "id": 12422,
      "name": "Dennis Weaver",
      "profile_path": "/1uHHqfZNjxrm6g2MJbNsTuHeLXA.jpg",
      "popularity": 13.131,
      "adult": false,
      "known_for_department": "Acting"
    },
    {
      "id": 1537784,
      "name": "Freddie Thorp",
      "profile_path": "/pSmKNQY8LeZ4H3ZsTd9bZiE8uFV.jpg",
      "popularity": 13.128,
      "adult": false,
      "known_for_department": "Acting"
    },
    {
      "id": 1452005,
      "name": "Gizem Erdogan",
      "profile_path": "/k4K9hKFyCdTUD0Ywhsy8Q5kWbh8.jpg",
      "popularity": 13.127,
      "adult": false,
      "known_for_department": "Acting"
    },
    {
      "id": 87879,
      "name": "Ingrid Bolsø Berdal",
      "profile_path": "/saw2W7IRIVgdgCqrmNSjZnFjqBn.jpg",
      "popularity": 13.127,
      "adult": false,
      "known_for_department": "Acting"
    },
    {
      "id": 87773,
      "name": "Aishwarya Rai Bachchan",
      "profile_path": "/zuiS5bWvwjOJ1BYh1WEH8q9EKJx.jpg",
      "popularity": 13.127,
      "adult": false,
      "known_for_department": "Acting"
    },
    {
      "id": 18794,
      "name": "Kate Nelligan",
      "profile_path": "/a2BUOy9A9WlvTfe8s4gn0MZfPa5.jpg",
      "popularity": 13.126,
      "adult": false,
      "known_for_department": "Acting"
    },
    {
      "id": 25787,
      "name": "Ava Gardner",
      "profile_path": "/4wpCcL2zFgP0K5bhY79Dl7zO60K.jpg",
      "popularity": 13.125,
      "adult": false,
      "known_for_department": "Acting"
    },
    {
      "id": 93252,
      "name": "Kim Hae-sook",
      "profile_path": "/gbWb5gXuhGCnTSogCrmMPD65F8w.jpg",
      "popularity": 13.124,
      "adult": false,
      "known_for_department": "Acting"
    },
    {
      "id": 37158,
      "name": "Carmen Ejogo",
      "profile_path": "/pJkBfxuifYtuigcjM8qnvNklZNX.jpg",
      "popularity": 13.122,
      "adult": false,
      "known_for_department": "Acting"
    },
    {
      "id": 3265,
      "name": "Eli Wallach",
      "profile_path": "/880EvYjyIG9BcrM3Jfof0QofmRe.jpg",
      "popularity": 13.122,
      "adult": false,
      "known_for_department": "Acting"
    },
    {
      "id": 15048,
      "name": "Robby Benson",
      "profile_path": "/rYcDiM9LrStdlcb80N3WAR2CsHX.jpg",
      "popularity": 13.121,
      "adult": false,
      "known_for_department": "Acting"
    },
    {
      "id": 1267369,
      "name": "Barrett Carnahan",
      "profile_path": "/weSB0L6oVHWhVkNjUTZnmt6wpvX.jpg",
      "popularity": 13.12,
      "adult": false,
      "known_for_department": "Acting"
    },
    {
      "id": 1109976,
      "name": "Izabela Vidovic",
      "profile_path": "/q8lxW2OaUmP5OF8SkntIp2vPcDX.jpg",
      "popularity": 13.118,
      "adult": false,
      "known_for_department": "Acting"
    },
    {
      "id": 19426,
      "name": "Jackie Coogan",
      "profile_path": "/l9wiXgf7kLiuxgArVVeOqgPYHrm.jpg",
      "popularity": 13.116,
      "adult": false,
      "known_for_department": "Acting"
    },
    {
      "id": 14541,
      "name": "Chris Sarandon",
      "profile_path": "/jP92Lq3JHl8mbdxzcZ6PyCQDwa5.jpg",
      "popularity": 13.114,
      "adult": false,
      "known_for_department": "Acting"
    }
  ]
}