{
  "page": 9,
  "total_results": 10000,
  "total_pages": 500,
  "results": [
    {
      "id": 13445,
      "name": "Tia Carrere",
      "profile_path": "/rnHioNQkSmBAMgEBseu9bu6vw9l.jpg",
      "popularity": 42.308,
      "adult": false,
      "known_for_department": "Acting"
    },
    {
      "id": 1620,
      "name": "Michelle Yeoh",
      "profile_path": "/wPI2wn6WJEtJr1oAMTLBLh92Ryc.jpg",
      "popularity": 42.303,
      "adult": false,
      "known_for_department": "Acting"
    },
    {
      "id": 51988,
      "name": "Lizzy Caplan",
      "profile_path": "/lS9DOi0kF8xZdN8tzvJWUKZ6ANY.jpg",
      "popularity": 41.728,
      "adult": false,
      "known_for_department": "Acting"
    },
    {
      "id": 41421,
      "name": "Jennifer Morrison",
      "profile_path": "/i6dkHIME0BOPhbcPESHZND3vmtk.jpg",
      "popularity": 41.716,
      "adult": false,
      "known_for_department": "Acting"
    },
    {
      "id": 227454,
      "name": "Alicia Vikander",
      "profile_path": "/9pmHTbXeRxUF51jJKthmHI49u9z.jpg",
      "popularity": 41.715,
      "adult": false,
      "known_for_department": "Acting"
    },
    {
      "id": 11510,
      "name": "Macaulay Culkin",
      "profile_path": "/hVagDqi5o8lZ21b1kXAl45Sj9wt.jpg",
      "popularity": 41.7,
      "adult": false,
      "known_for_department": "Acting"
    },
    {
      "id": 18973,
      "name": "Mila Kunis",
      "profile_path": "/6Lp9qPkMO740Hcp8NBYZZLWWvJF.jpg",
      "popularity": 41.644,
      "adult": false,
      "known_for_department": "Acting"
    },
    {
      "id": 2390029,
      "name": "Ren Chengwei",
      "profile_path": "/aWIJHtSpL998kbWzbWBY03GMHEW.jpg",
      "popularity": 41.59,
      "adult": false,
      "known_for_department": "Acting"
    },
    {
      "id": 3063,
      "name": "Tilda Swinton",
      "profile_path": "/gWbX3a7V2MgRMRzekfITNcb27xV.jpg",
      "popularity": 41.505,
      "adult": false,
      "known_for_department": "Acting"
    },
    {
      "id": 3444018,
      "name": "Amie Donald",
      "profile_path": "/rYMbQYfL0GHQHWywmiBBHcdqSvy.jpg",
      "popularity": 41.392,
      "adult": false,
      "known_for_department": "Acting"
    },
    {
      "id": 15737,
      "name": "Helen McCrory",
      "profile_path": "/3FyO7Z8WigeCQsUpW4B1x3qfmFx.jpg",
      "popularity": 41.388,
      "adult": false,
      "known_for_department": "Acting"
    },
    {
      "id": 287,
      "name": "Brad Pitt",
      "profile_path": "/oTB9vGIBacH5aQNS0pUM74QSWuf.jpg",
      "popularity": 41.268,
      "adult": false,
      "known_for_department": "Acting"
    },
    {
      "id": 1230687,
      "name": "Jennifer Landon",
      "profile_path": "/o1XDkIoyZTwjSXF9SE7mTZb8Xeb.jpg",
      "popularity": 40.919,
      "adult": false,
      "known_for_department": "Acting"
    },
    {
      "id": 1016168,
      "name": "Lily James",
      "profile_path": "/hi9MRy2WhlMqlDZJP1SEvK1256V.jpg",
      "popularity": 40.912,
      "adult": false,
      "known_for_department": "Acting"
    },
    {
      "id": 16828,
      "name": "Chris Evans",
      "profile_path": "/3bOGNsHlrswhyW79uvIHH1V43JI.jpg",
      "popularity": 40.813,
      "adult": false,
      "known_for_department": "Acting"
    },
    {
      "id": 1590797,
      "name": "Sadie Sink",
      "profile_path": "/tEHNLdwPmxu3Ikkvq8I6FUfGdZL.jpg",
      "popularity": 40.803,
      "adult": false,
      "known_for_department": "Acting"
    },
    {
      "id": 569,
      "name": "Ethan Hawke",
      "profile_path": "/a7rgJl8TYUWAfJuM4fxbLHgD7BL.jpg",
      "popularity": 40.796,
      "adult": false,
      "known_for_department": "Acting"
    },
    {
      "id": 92614,
      "name": "Dawn Olivieri",
      "profile_path": "/tet7ZVbzhLWwT44m9j94folyl5N.jpg",
      "popularity": 40.666,
      "adult": false,
      "known_for_department": "Acting"
    },
    {
      "id": 934,
      "name": "Russell Crowe",
      "profile_path": "/mGTtPuwE8OR00tkJGmVLJmt8KpW.jpg",
      "popularity": 40.615,
      "adult": false,
      "known_for_department": "Acting"
    },
    {
      "id": 56365,
      "name": "Charlie Hunnam",
      "profile_path": "/ibWWSRGqgxNw9SC8E8hNv1Lvob1.jpg",
      "popularity": 40.575,
      "adult": false,
      "known_for_department": "Acting"
    }
  ]
}