{
  "page": 296,
  "total_results": 10000,
  "total_pages": 500,
  "results": [
    {
      "id": 496731,
      "name": "Ali Cobrin",
      "profile_path": "/d7fXaZpKtvOWUaTpWwAVzp9fZ4g.jpg",
      "popularity": 12.073,
      "adult": false,
      "known_for_department": "Acting"
    },
    {
      "id": 856,
      "name": "Ben Gazzara",
      "profile_path": "/8txEeGGlh728VMDEGTs3CjlawPn.jpg",
      "popularity": 12.073,
      "adult": false,
      "known_for_department": "Acting"
    },
    {
      "id": 552683,
      "name": "Hochu Otsuka",
      "profile_path": "/ouMRSpccmkS6iOMVkSc4fEOBiN2.jpg",
      "popularity": 12.072,
      "adult": false,
      "known_for_department": "Acting"
    },
    {
      "id": 656,
      "name": "Denholm Elliott",
      "profile_path": "/knXXDDYckQ0yQsR0OFbEL8O8RtF.jpg",
      "popularity": 12.071,
      "adult": false,
      "known_for_department": "Acting"
    },
    {
      "id": 989411,
      "name": "Ella Hunt",
      "profile_path": "/g4xwqi7hs7vq4yuDY1bQSCMnJSl.jpg",
      "popularity": 12.07,
      "adult": false,
      "known_for_department": "Acting"
    },
    {
      "id": 70119,
      "name": "Catherine Spaak",
      "profile_path": "/5WILB2hN0BUCz4HgmoLu7OVq2Hn.jpg",
      "popularity": 12.067,
      "adult": false,
      "known_for_department": "Acting"
    },
    {
      "id": 1041440,
      "name": "Emory Cohen",
      "profile_path": "/tRxidrQ0mKMapO27JFA5anb12ud.jpg",
      "popularity": 12.066,
      "adult": false,
      "known_for_department": "Acting"
    },
    {
      "id": 235262,
      "name": "Aki Toyosaki",
      "profile_path": "/zEqx8Nq0VvstKuRSElAA8X6V1gS.jpg",
      "popularity": 12.066,
      "adult": false,
      "known_for_department": "Acting"
    },
    {
      "id": 2874730,
      "name": "Regina Lei",
      "profile_path": "/gnd2t2Ya9AfAKAlOovqXZbMVXp2.jpg",
      "popularity": 12.065,
      "adult": false,
      "known_for_department": "Acting"
    },
    {
      "id": 2025254,
      "name": "Omar Ayuso",
      "profile_path": "/c4bAqv3PoSVK4ov7cw076NNqg6f.jpg",
      "popularity": 12.064,
      "adult": false,
      "known_for_department": "Acting"
    },
    {
      "id": 1674162,
      "name": "Jonathan Majors",
      "profile_path": "/6hI9NKqF7J6FtrQu9Afr7ZqipIL.jpg",
      "popularity": 12.062,
      "adult": false,
      "known_for_department": "Acting"
    },
    {
      "id": 1177278,
      "name": "Park Jae Young",
      "profile_path": "/uSpV4VUiwffp6SdFxSmD56Sf6qU.jpg",
      "popularity": 12.062,
      "adult": false,
      "known_for_department": "Acting"
    },
    {
      "id": 26491,
      "name": "Vernon Wells",
      "profile_path": "/rpKjskAbftBMFi1HWZ0Jo6lZgod.jpg",
      "popularity": 12.061,
      "adult": false,
      "known_for_department": "Acting"
    },
    {
      "id": 557743,
      "name": "Lee Yong-nyeo",
      "profile_path": "/vU2LIGOlVEUGfXfGWTdvEdz2rbT.jpg",
      "popularity": 12.059,
      "adult": false,
      "known_for_department": "Acting"
    },
    {
      "id": 1173214,
      "name": "Tong Liya",
      "profile_path": "/9FkK9VgNFspdp1PLYDZTrVIjNv6.jpg",
      "popularity": 12.058,
      "adult": false,
      "known_for_department": "Acting"
    },
    {
      "id": 77120,
      "name": "Steve Austin",
      "profile_path": "/xLc81J33tXrzlMjEFxBTKP4kgO0.jpg",
      "popularity": 12.058,
      "adult": false,
      "known_for_department": "Acting"
    },
    {
      "id": 1816917,
      "name": "Natacha Karam",
      "profile_path": "/9lbNoQ6LxPHPqbdIHhXTMHhebrM.jpg",
      "popularity": 12.054,
      "adult": false,
      "known_for_department": "Acting"
    },
    {
      "id": 1128902,
      "name": "Camille Rowe",
      "profile_path": "/vMrYMXMGr5w4NHVt0DbVjA004s7.jpg",
      "popularity": 12.053,
      "adult": false,
      "known_for_department": "Acting"
    },
    {
      "id": 19227,
      "name": "Brad Beyer",
      "profile_path": "/8c9M5MPYA5hFXHqmmoJSO0BBGTD.jpg",
      "popularity": 12.051,
      "adult": false,
      "known_for_department": "Acting"
    },
    {
      "id": 1361876,
      "name": "Dominique Tipper",
      "profile_path": "/tYsdlDNJON9hTdqrkFL0twkNTjo.jpg",
      "popularity": 12.05,
      "adult": false,
      "known_for_department": "Acting"
    }
  ]
}