{
  "page": 438,
  "total_results": 10000,
  "total_pages": 500,
  "results": [
    {
      "id": 14151,
      "name": "Leopoldo Trieste",
      "profile_path": "/3DEbCzT2gL4ebP4zAYROH0QWeGA.jpg",
      "popularity": 7.672,
      "adult": false,
      "known_for_department": "Acting"
    },
    {
      "id": 1413827,
      "name": "Lee Hye-ri",
      "profile_path": "/kOevyh6gFOJrygx08et5rz7E3Cu.jpg",
      "popularity": 7.671,
      "adult": false,
      "known_for_department": "Acting"
    },
    {
      "id": 11088,
      "name": "Barry Tubb",
      "profile_path": "/sKzDWQWecmA5iuCxVCuMrYvn9Wf.jpg",
      "popularity": 7.671,
      "adult": false,
      "known_for_department": "Acting"
    },
    {
      "id": 1445350,
      "name": "Rei Ayana",
      "profile_path": "/tORkG5cC1unAkmA7O1hxiUHdC3S.jpg",
      "popularity": 7.669,
      "adult": false,
      "known_for_department": "Acting"
    },
    {
      "id": 653,
      "name": "Ronald Lacey",
      "profile_path": "/mHWfZjEevMaIqjcyrrnFKFRUHV6.jpg",
      "popularity": 7.669,
      "adult": false,
      "known_for_department": "Acting"
    },
    {
      "id": 2649290,
      "name": "Fernando Lindez",
      "profile_path": "/quHSt84xNfEqCk9v5fv3qVxlbaX.jpg",
      "popularity": 7.668,
      "adult": false,
      "known_for_department": "Acting"
    },
    {
      "id": 1251847,
      "name": "Ana Golja",
      "profile_path": "/nAbK9EeAXXzlbABwBeVTBzEQPPE.jpg",
      "popularity": 7.668,
      "adult": false,
      "known_for_department": "Acting"
    },
    {
      "id": 447183,
      "name": "Spiros Papadopoulos",
      "profile_path": "/3WJoiXAMzHQbJeIb23uMdRfCad7.jpg",
      "popularity": 7.668,
      "adult": false,
      "known_for_department": "Acting"
    },
    {
      "id": 44795,
      "name": "Louie Anderson",
      "profile_path": "/6yxIwla3vi06Hd3l16S5kaXgSI0.jpg",
      "popularity": 7.668,
      "adult": false,
      "known_for_department": "Acting"
    },
    {
      "id": 1256370,
      "name": "Kaan Taşaner",
      "profile_path": "/38epscf5fZ4HsNwgFgFBRJGBt7y.jpg",
      "popularity": 7.667,
      "adult": false,
      "known_for_department": "Acting"
    },
    {
      "id": 151246,
      "name": "Nicole Scherzinger",
      "profile_path": "/wO4HTtGVKghqiuIr1pkaAP5iqtr.jpg",
      "popularity": 7.667,
      "adult": false,
      "known_for_department": "Acting"
    },
    {
      "id": 16578,
      "name": "Julia Nickson",
      "profile_path": "/lLtwvseiNe9pIjhC293nPmyRAET.jpg",
      "popularity": 7.667,
      "adult": false,
      "known_for_department": "Acting"
    },
    {
      "id": 2083051,
      "name": "Michael Kho",
      "profile_path": "/3xDZsij8mAj0QjSglJxh5h6f4ad.jpg",
      "popularity": 7.666,
      "adult": false,
      "known_for_department": "Acting"
    },
    {
      "id": 117296,
      "name": "Claudia Koll",
      "profile_path": "/eciHuBo18R1CebFlOtQLONDOGxL.jpg",
      "popularity": 7.666,
      "adult": false,
      "known_for_department": "Acting"
    },
    {
      "id": 52422,
      "name": "Michael DeLorenzo",
      "profile_path": "/dAYG7AcOYG4ZNEvC8isxBxe5Vjx.jpg",
      "popularity": 7.666,
      "adult": false,
      "known_for_department": "Acting"
    },
    {
      "id": 47757,
      "name": "Kelly Rowan",
      "profile_path": "/xPBHrefHV3yqtvdo9nUlPG7jCO9.jpg",
      "popularity": 7.665,
      "adult": false,
      "known_for_department": "Acting"
    },
    {
      "id": 42567,
      "name": "Kika Markham",
      "profile_path": "/ia15nIOLMCeaTygAzvc1eZsUS5M.jpg",
      "popularity": 7.665,
      "adult": false,
      "known_for_department": "Acting"
    },
    {
      "id": 1304335,
      "name": "Jimmy Tatro",
      "profile_path": "/xehT2IK65qXKSctcYChrWLE04pI.jpg",
      "popularity": 7.664,
      "adult": false,
      "known_for_department": "Acting"
    },
    {
      "id": 1188193,
      "name": "John Hoogenakker",
      "profile_path": "/wjA5d3Mcv0uqwQqKqEKbQtF7BuH.jpg",
      "popularity": 7.664,
      "adult": false,
      "known_for_department": "Acting"
    },
    {
      "id": 149486,
      "name": "Carlease Burke",
      "profile_path": "/watMlWszsYx1MBLdmAvahZ8KkgR.jpg",
      "popularity": 7.664,
      "adult": false,
      "known_for_department": "Acting"
    }
  ]
}