{
  "page": 377,
  "total_results": 10000,
  "total_pages": 500,
  "results": [
    {
      "id": 79331,
      "name": "Ellen Dorrit Petersen",
      "profile_path": "/x4uC3kQJCIhKvBGc2tTeeKWFldj.jpg",
      "popularity": 9.264,
      "adult": false,
      "known_for_department": "Acting"
    },
    {
      "id": 72040,
      "name": "Isabella Leong",
      "profile_path": "/goc7CVYEW0Fd6cB5hjUjOG8KY9N.jpg",
      "popularity": 9.263,
      "adult": false,
      "known_for_department": "Acting"
    },
    {
      "id": 66745,
      "name": "Emma Caulfield",
      "profile_path": "/tYQURD5pl4iGHjyA2yVwmmhaoPt.jpg",
      "popularity": 9.263,
      "adult": false,
      "known_for_department": "Acting"
    },
    {
      "id": 77920,
      "name": "Howie Mandel",
      "profile_path": "/lX5HyGJ6X6aVPwirx5Tt9CJcMzA.jpg",
      "popularity": 9.262,
      "adult": false,
      "known_for_department": "Acting"
    },
    {
      "id": 41249,
      "name": "Tess Harper",
      "profile_path": "/8Z770Kk13MK1NP7skWmTxvRGx3V.jpg",
      "popularity": 9.262,
      "adult": false,
      "known_for_department": "Acting"
    },
    {
      "id": 1256310,
      "name": "Boncuk Yilmaz",
      "profile_path": "/zOBcaBPmWD3bY0zcmJKuLVwyYbC.jpg",
      "popularity": 9.261,
      "adult": false,
      "known_for_department": "Acting"
    },
    {
      "id": 999787,
      "name": "Tish Cyrus",
      "profile_path": "/nzuBsyuzSAsV6Kfci5UeFBw2uHh.jpg",
      "popularity": 9.261,
      "adult": false,
      "known_for_department": "Production"
    },
    {
      "id": 127609,
      "name": "Dawn Dunlap",
      "profile_path": "/vSGbf7O8XcMmM3Kiq5S4b2VtaqU.jpg",
      "popularity": 9.261,
      "adult": false,
      "known_for_department": "Acting"
    },
    {
      "id": 33310,
      "name": "Tandi Wright",
      "profile_path": "/1k0LrkSEHnvWJhkU6hdQTZp9Lg6.jpg",
      "popularity": 9.261,
      "adult": false,
      "known_for_department": "Acting"
    },
    {
      "id": 20197,
      "name": "Mylène Jampanoï",
      "profile_path": "/mTEI86ajYXgOLimGrOKxtHFV1Ek.jpg",
      "popularity": 9.261,
      "adult": false,
      "known_for_department": "Acting"
    },
    {
      "id": 1221134,
      "name": "Jennifer Ferrin",
      "profile_path": "/2Zk0EN29OsHBEykECJ7VGZ0s5Rk.jpg",
      "popularity": 9.26,
      "adult": false,
      "known_for_department": "Acting"
    },
    {
      "id": 82057,
      "name": "Chie Nakamura",
      "profile_path": "/evB6vKUbm0CKgBcgikPeFXdwd29.jpg",
      "popularity": 9.26,
      "adult": false,
      "known_for_department": "Acting"
    },
    {
      "id": 55958,
      "name": "Kim Myers",
      "profile_path": "/21FoWiGVhEHHUgIzSMv2aDuyotm.jpg",
      "popularity": 9.26,
      "adult": false,
      "known_for_department": "Acting"
    },
    {
      "id": 16662,
      "name": "Richard Gant",
      "profile_path": "/25vUWxrUY7hjLdAeNaJYkvaMKcW.jpg",
      "popularity": 9.26,
      "adult": false,
      "known_for_department": "Acting"
    },
    {
      "id": 1192906,
      "name": "Jiang Yiyi",
      "profile_path": "/mK8YofvarxZuOU83Lhn9UCub0Cd.jpg",
      "popularity": 9.259,
      "adult": false,
      "known_for_department": "Acting"
    },
    {
      "id": 228173,
      "name": "Jaye Davidson",
      "profile_path": "/1gvLTgrBpRreybxQ56dgjjKkVrh.jpg",
      "popularity": 9.259,
      "adult": false,
      "known_for_department": "Acting"
    },
    {
      "id": 25442,
      "name": "Joss Stone",
      "profile_path": "/kFbmkxR4RjvEhKQ4Ad7LFVoevR4.jpg",
      "popularity": 9.259,
      "adult": false,
      "known_for_department": "Acting"
    },
    {
      "id": 12410,
      "name": "Bo Hopkins",
      "profile_path": "/9gZjIsw8dyHI9BJnfnkvGk2dmaH.jpg",
      "popularity": 9.259,
      "adult": false,
      "known_for_department": "Acting"
    },
    {
      "id": 1121198,
      "name": "Amber Anderson",
      "profile_path": "/Am5h8Ons8tA9qaxf2H4mjcow048.jpg",
      "popularity": 9.258,
      "adult": false,
      "known_for_department": "Acting"
    },
    {
      "id": 20354,
      "name": "Amber Tamblyn",
      "profile_path": "/bzw0lxvtbEnYT7fZ8fn6NeSzMn9.jpg",
      "popularity": 9.256,
      "adult": false,
      "known_for_department": "Acting"
    }
  ]
}