{
  "page": 234,
  "total_results": 10000,
  "total_pages": 500,
  "results": [
    {
      "id": 9111,
      "name": "Peter Graves",
      "profile_path": "/4Zyc3GHgmA0302cOziQa0HCwEmD.jpg",
      "popularity": 10.74,
      "adult": false,
      "known_for_department": "Acting"
    },
    {
      "id": 4689,
      "name": "Bronson Pinchot",
      "profile_path": "/oBQE58X65ANq4jY1d8iMDohl72w.jpg",
      "popularity": 10.74,
      "adult": false,
      "known_for_department": "Acting"
    },
    {
      "id": 1348591,
      "name": "Marcus Scribner",
      "profile_path": "/2liLo4QWQK4knFb9xJeW7hwvhv9.jpg",
      "popularity": 10.737,
      "adult": false,
      "known_for_department": "Acting"
    },
    {
      "id": 125938,
      "name": "Robyn Malcolm",
      "profile_path": "/c0j6N1gxHayVAG45lZxK6lA7rea.jpg",
      "popularity": 10.737,
      "adult": false,
      "known_for_department": "Acting"
    },
    {
      "id": 1872292,
      "name": "Wachirawit Ruangwiwat",
      "profile_path": "/seXGBUEL7yV1RqW6wzT1DOWGB9f.jpg",
      "popularity": 10.735,
      "adult": false,
      "known_for_department": "Acting"
    },
    {
      "id": 81243,
      "name": "Romi Park",
      "profile_path": "/fl9vyA3HEkOyTiZBJBhAR3OSmrO.jpg",
      "popularity": 10.732,
      "adult": false,
      "known_for_department": "Acting"
    },
    {
      "id": 22109,
      "name": "Peter Firth",
      "profile_path": "/o7zbRKlhY8v9mhxyBvAwou7l200.jpg",
      "popularity": 10.728,
      "adult": false,
      "known_for_department": "Acting"
    },
    {
      "id": 76478,
      "name": "Dom Hetrakul",
      "profile_path": "/3yjEcnMGeigyjyfDa1znycBhvkh.jpg",
      "popularity": 10.727,
      "adult": false,
      "known_for_department": "Acting"
    },
    {
      "id": 74607,
      "name": "Autumn Reeser",
      "profile_path": "/ftDOWocmtT9YSZhV6bVrbsywIad.jpg",
      "popularity": 10.727,
      "adult": false,
      "known_for_department": "Acting"
    },
    {
      "id": 16479,
      "name": "Andrew Lawrence",
      "profile_path": "/q1u0j3MiBWLP4JPU8XOzWoJZY3o.jpg",
      "popularity": 10.727,
      "adult": false,
      "known_for_department": "Acting"
    },
    {
      "id": 1145003,
      "name": "Stéfi Celma",
      "profile_path": "/kyB5o93J4vhPLriy1NrSDuxY9IP.jpg",
      "popularity": 10.726,
      "adult": false,
      "known_for_department": "Acting"
    },
    {
      "id": 30083,
      "name": "Lindsay Duncan",
      "profile_path": "/v91oNKrP713n5NQI4dg6LY425Pr.jpg",
      "popularity": 10.724,
      "adult": false,
      "known_for_department": "Acting"
    },
    {
      "id": 1686321,
      "name": "Vengo Gao",
      "profile_path": "/gjLxfzFRdIUXLDsA4GWCIIDyiof.jpg",
      "popularity": 10.721,
      "adult": false,
      "known_for_department": "Acting"
    },
    {
      "id": 37233,
      "name": "Kareena Kapoor Khan",
      "profile_path": "/pJZJJ93NwJq3kb3RWtaZBYVga1x.jpg",
      "popularity": 10.721,
      "adult": false,
      "known_for_department": "Acting"
    },
    {
      "id": 16021,
      "name": "Barbara Bouchet",
      "profile_path": "/fVrl3R8UQGFrhfuId7MRqWpnOsA.jpg",
      "popularity": 10.721,
      "adult": false,
      "known_for_department": "Acting"
    },
    {
      "id": 2496644,
      "name": "Asher Yasbincek",
      "profile_path": "",
      "popularity": 10.72,
      "adult": false,
      "known_for_department": "Acting"
    },
    {
      "id": 932076,
      "name": "Kate Siegel",
      "profile_path": "/evcYTh6jktP0O9UF8Ua7RXIyNbb.jpg",
      "popularity": 10.719,
      "adult": false,
      "known_for_department": "Acting"
    },
    {
      "id": 83631,
      "name": "Elvis Tsui",
      "profile_path": "/x110WbXYXMQjVNoPjEMoPo7qEKi.jpg",
      "popularity": 10.717,
      "adult": false,
      "known_for_department": "Acting"
    },
    {
      "id": 1420605,
      "name": "Valerie Pachner",
      "profile_path": "/vnBh34dxhXIpGPtlI7hZS57qAnc.jpg",
      "popularity": 10.716,
      "adult": false,
      "known_for_department": "Acting"
    },
    {
      "id": 4003,
      "name": "Christine Ebersole",
      "profile_path": "/6Y2O0MrCWNsrvDIkjyK6cZ6KjK3.jpg",
      "popularity": 10.716,
      "adult": false,
      "known_for_department": "Acting"
    }
  ]
}