{
  "page": 319,
  "total_results": 10000,
  "total_pages": 500,
  "results": [
    {
      "id": 78102,
      "name": "David Anthony Higgins",
      "profile_path": "/oyyXzxtHMA8LeZ5oYm8tgxhnqm2.jpg",
      "popularity": 10.425,
      "adult": false,
      "known_for_department": "Acting"
    },
    {
      "id": 47368,
      "name": "Barry Watson",
      "profile_path": "/PjjFRCn8s8tgjO9nWmVlBVzpha.jpg",
      "popularity": 10.422,
      "adult": false,
      "known_for_department": "Acting"
    },
    {
      "id": 18818,
      "name": "Tómas Lemarquis",
      "profile_path": "/1wZgvorVaIoTu8sCNJQrc6Ykr0u.jpg",
      "popularity": 10.419,
      "adult": false,
      "known_for_department": "Acting"
    },
    {
      "id": 1200395,
      "name": "Lee Na-ra",
      "profile_path": "/xgO62zJSOVNVd6nXFJJ3LDzUlFe.jpg",
      "popularity": 10.416,
      "adult": false,
      "known_for_department": "Acting"
    },
    {
      "id": 2391228,
      "name": "Matthew James Dowden",
      "profile_path": "/cYS0XUkUpWdqbtCon5TnO1meUEA.jpg",
      "popularity": 10.415,
      "adult": false,
      "known_for_department": "Acting"
    },
    {
      "id": 51119,
      "name": "Will Keen",
      "profile_path": "/dtErvubLEIjGPpLppBATdFpZ4NR.jpg",
      "popularity": 10.415,
      "adult": false,
      "known_for_department": "Acting"
    },
    {
      "id": 44810,
      "name": "Cassandra Peterson",
      "profile_path": "/ykrDhr0lBHjVLjxvclbpvHaEi5L.jpg",
      "popularity": 10.415,
      "adult": false,
      "known_for_department": "Acting"
    },
    {
      "id": 1256370,
      "name": "Kaan Taşaner",
      "profile_path": "/38epscf5fZ4HsNwgFgFBRJGBt7y.jpg",
      "popularity": 10.414,
      "adult": false,
      "known_for_department": "Acting"
    },
    {
      "id": 449513,
      "name": "Meredith Hagner",
      "profile_path": "/k4SQGzj6k2HqYfed0NU3KtJi78o.jpg",
      "popularity": 10.414,
      "adult": false,
      "known_for_department": "Acting"
    },
    {
      "id": 1439488,
      "name": "Claudia Jessie",
      "profile_path": "/ijIRR5c3Ig5tU4jSkP1JX52apTr.jpg",
      "popularity": 10.413,
      "adult": false,
      "known_for_department": "Acting"
    },
    {
      "id": 1212530,
      "name": "Carol Ann Susi",
      "profile_path": "/9O1sHiZOzNjR4hRcvXugtWxx5hD.jpg",
      "popularity": 10.413,
      "adult": false,
      "known_for_department": "Acting"
    },
    {
      "id": 11395,
      "name": "Victor Wong",
      "profile_path": "/3XvU2mK3i5V8Un7HyZn5pVnp4qw.jpg",
      "popularity": 10.413,
      "adult": false,
      "known_for_department": "Acting"
    },
    {
      "id": 2717020,
      "name": "Widad Orfa",
      "profile_path": "",
      "popularity": 10.412,
      "adult": false,
      "known_for_department": "Directing"
    },
    {
      "id": 2709354,
      "name": "Masashi Matsumoto",
      "profile_path": "",
      "popularity": 10.412,
      "adult": false,
      "known_for_department": "Crew"
    },
    {
      "id": 2646905,
      "name": "Bokhee An",
      "profile_path": "",
      "popularity": 10.412,
      "adult": false,
      "known_for_department": "Acting"
    },
    {
      "id": 1586567,
      "name": "Lee Hyun-wook",
      "profile_path": "/hU8tF6BsZdhDWtQk7rItZ4CiJwR.jpg",
      "popularity": 10.412,
      "adult": false,
      "known_for_department": "Acting"
    },
    {
      "id": 271575,
      "name": "Vladimir Fokin",
      "profile_path": "/nCxTJ5FAuKsEIVzlQe5Ysx40BT3.jpg",
      "popularity": 10.412,
      "adult": false,
      "known_for_department": "Directing"
    },
    {
      "id": 113236,
      "name": "Mia McKenna-Bruce",
      "profile_path": "/3CbwQW082wmd8C0IpmgDvxJUjog.jpg",
      "popularity": 10.412,
      "adult": false,
      "known_for_department": "Acting"
    },
    {
      "id": 1678451,
      "name": "Go Bo-gyeol",
      "profile_path": "/7F3kb0p0ZXUz07Wg9VCm0thzhns.jpg",
      "popularity": 10.41,
      "adult": false,
      "known_for_department": "Acting"
    },
    {
      "id": 52647,
      "name": "Shawn Hatosy",
      "profile_path": "/ck89JiJcY9ovd7hXHatZsKMQvhm.jpg",
      "popularity": 10.41,
      "adult": false,
      "known_for_department": "Acting"
    }
  ]
}