{
  "page": 402,
  "total_results": 10000,
  "total_pages": 500,
  "results": [
    {
      "id": 71861,
      "name": "Liliana Mumy",
      "profile_path": "/rjwfUdZYb1P7y2DR8pekZ5tusHZ.jpg",
      "popularity": 8.168,
      "adult": false,
      "known_for_department": "Acting"
    },
    {
      "id": 53109,
      "name": "Marie Bäumer",
      "profile_path": "/i7wHCunlgpHnxJaoyMEHBCzNOP8.jpg",
      "popularity": 8.168,
      "adult": false,
      "known_for_department": "Acting"
    },
    {
      "id": 1421398,
      "name": "Brenna D'Amico",
      "profile_path": "/2sKU6P5RsAg2YocLXOtcQUiDFp4.jpg",
      "popularity": 8.167,
      "adult": false,
      "known_for_department": "Acting"
    },
    {
      "id": 1146392,
      "name": "Gerardo Celasco",
      "profile_path": "/xNw7Gte8BnUm8AJco6EDoRJzkFU.jpg",
      "popularity": 8.167,
      "adult": false,
      "known_for_department": "Acting"
    },
    {
      "id": 122876,
      "name": "Laura Bertram",
      "profile_path": "/f726f8MdTOtke12QtNjvGbXVjVQ.jpg",
      "popularity": 8.167,
      "adult": false,
      "known_for_department": "Acting"
    },
    {
      "id": 179188,
      "name": "Neil Summers",
      "profile_path": "/2ESnlgBQzWM17KvSao5GrJInd0u.jpg",
      "popularity": 8.166,
      "adult": false,
      "known_for_department": "Acting"
    },
    {
      "id": 100681,
      "name": "Orchidea De Santis",
      "profile_path": "/7wHC8DBxcGjeMsDtoU5gRLCrSZn.jpg",
      "popularity": 8.166,
      "adult": false,
      "known_for_department": "Acting"
    },
    {
      "id": 88351,
      "name": "Chen Kuan-tai",
      "profile_path": "/3YdfSpsrj7pjtmN1GwSS8WNL3QT.jpg",
      "popularity": 8.166,
      "adult": false,
      "known_for_department": "Acting"
    },
    {
      "id": 5419,
      "name": "Saïd Taghmaoui",
      "profile_path": "/kuxI08YpwQFGweIXK7TELknwexr.jpg",
      "popularity": 8.166,
      "adult": false,
      "known_for_department": "Acting"
    },
    {
      "id": 99235,
      "name": "Tim Abell",
      "profile_path": "/4LnqUNsQWUrF4Gq6YQdFiRHKEoP.jpg",
      "popularity": 8.165,
      "adult": false,
      "known_for_department": "Acting"
    },
    {
      "id": 31921,
      "name": "Sophie Ward",
      "profile_path": "/2ePiAlSa7djGfSF12RKiwgQE4KR.jpg",
      "popularity": 8.164,
      "adult": false,
      "known_for_department": "Acting"
    },
    {
      "id": 1252060,
      "name": "Ezgi Eyüboğlu",
      "profile_path": "/nRR4nb15Q2B1l5NiITvXISdqbhb.jpg",
      "popularity": 8.163,
      "adult": false,
      "known_for_department": "Acting"
    },
    {
      "id": 59521,
      "name": "Jaume Collet-Serra",
      "profile_path": "/saAeTFfgt9YRAybXmzfmIz01UCB.jpg",
      "popularity": 8.163,
      "adult": false,
      "known_for_department": "Directing"
    },
    {
      "id": 54502,
      "name": "Cassie Ventura",
      "profile_path": "/hrKZTgQyvPJBh2t9WvBWgpdaqE8.jpg",
      "popularity": 8.163,
      "adult": false,
      "known_for_department": "Acting"
    },
    {
      "id": 8789,
      "name": "Mathieu Amalric",
      "profile_path": "/fMhfoTbjlXQy2Iojp7oYx49hLQl.jpg",
      "popularity": 8.163,
      "adult": false,
      "known_for_department": "Directing"
    },
    {
      "id": 1010,
      "name": "Michael Badalucco",
      "profile_path": "/ntqAjxrBsyXbRzAaln4ynSBTE1r.jpg",
      "popularity": 8.163,
      "adult": false,
      "known_for_department": "Acting"
    },
    {
      "id": 1747503,
      "name": "Li Muchen",
      "profile_path": "/7n13Ou26unVhKfA8ms65mgEbfZ7.jpg",
      "popularity": 8.162,
      "adult": false,
      "known_for_department": "Acting"
    },
    {
      "id": 92728,
      "name": "Amy Hargreaves",
      "profile_path": "/jwE1G6jVtBi20ZGjC8U4GOWSIxw.jpg",
      "popularity": 8.162,
      "adult": false,
      "known_for_department": "Acting"
    },
    {
      "id": 160728,
      "name": "Julie Gregg",
      "profile_path": "/8Kx71BnZNtpzb86jH7fcArWhJBh.jpg",
      "popularity": 8.161,
      "adult": false,
      "known_for_department": "Acting"
    },
    {
      "id": 2068758,
      "name": "Julia Wieniawa-Narkiewicz",
      "profile_path": "/kGvEMk6QOfkREky0iU5eHlQtBcX.jpg",
      "popularity": 8.16,
      "adult": false,
      "known_for_department": "Acting"
    }
  ]
}