{
  "page": 91,
  "total_results": 10000,
  "total_pages": 500,
  "results": [
    {
      "id": 63681,
      "name": "Julie Warner",
      "profile_path": "/zsuQf2FhJB4vER6xcNJVXemn4i4.jpg",
      "popularity": 17.154,
      "adult": false,
      "known_for_department": "Acting"
    },
    {
      "id": 49706,
      "name": "Adam Rodríguez",
      "profile_path": "/qFSbLvyNPZK40hY9gZXJDvq0qVK.jpg",
      "popularity": 17.153,
      "adult": false,
      "known_for_department": "Acting"
    },
    {
      "id": 1753962,
      "name": "Yoon Se-na",
      "profile_path": "/2waOiAa2yBWZMDzXqV2Lm1vTfVy.jpg",
      "popularity": 17.151,
      "adult": false,
      "known_for_department": "Acting"
    },
    {
      "id": 11218,
      "name": "Alfonso Cuarón",
      "profile_path": "/gaHhrzPfxfc3cbQLkDt54gtP3n1.jpg",
      "popularity": 17.151,
      "adult": false,
      "known_for_department": "Directing"
    },
    {
      "id": 21165,
      "name": "Kim Dickens",
      "profile_path": "/bYIQGHeSIt4G2tLrLt61FJ2CD7h.jpg",
      "popularity": 17.15,
      "adult": false,
      "known_for_department": "Acting"
    },
    {
      "id": 1566805,
      "name": "Mackenyu",
      "profile_path": "/amnbjSvI19ZfxkZNj8WOa9tr7yu.jpg",
      "popularity": 17.149,
      "adult": false,
      "known_for_department": "Acting"
    },
    {
      "id": 585211,
      "name": "Masaki Suda",
      "profile_path": "/g7gXu0bE9jZ5LHjSqn1zHdNtiA1.jpg",
      "popularity": 17.147,
      "adult": false,
      "known_for_department": "Acting"
    },
    {
      "id": 39464,
      "name": "Tamara Taylor",
      "profile_path": "/4hvMoHSki7mZUPxcJXysLEw5Z5I.jpg",
      "popularity": 17.141,
      "adult": false,
      "known_for_department": "Acting"
    },
    {
      "id": 24647,
      "name": "Katsuyuki Konishi",
      "profile_path": "/nYM5cH6U7cp4x9dIzW0enmEKmeV.jpg",
      "popularity": 17.131,
      "adult": false,
      "known_for_department": "Acting"
    },
    {
      "id": 19538,
      "name": "Rachael Taylor",
      "profile_path": "/mE5iwD349fQ4BTvwhofLYgkgIfe.jpg",
      "popularity": 17.13,
      "adult": false,
      "known_for_department": "Acting"
    },
    {
      "id": 11770,
      "name": "John Carpenter",
      "profile_path": "/ghBgALx0z2hGdY32eG9VL6dPyhz.jpg",
      "popularity": 17.128,
      "adult": false,
      "known_for_department": "Directing"
    },
    {
      "id": 23498,
      "name": "Alexander Ludwig",
      "profile_path": "/unP5YUgEdECL2gMLs0zCNya6is6.jpg",
      "popularity": 17.126,
      "adult": false,
      "known_for_department": "Acting"
    },
    {
      "id": 1278487,
      "name": "Hannah Waddingham",
      "profile_path": "/eHAICyhvjiRZCgzKyJCk9hWnnjr.jpg",
      "popularity": 17.124,
      "adult": false,
      "known_for_department": "Acting"
    },
    {
      "id": 58019,
      "name": "Ethan Embry",
      "profile_path": "/oC5m2pfIcfAD6jrPTNhR77Uldm9.jpg",
      "popularity": 17.119,
      "adult": false,
      "known_for_department": "Acting"
    },
    {
      "id": 1629663,
      "name": "Alp Navruz",
      "profile_path": "/l1hxKyCzLbitYlve7HwIDfRAUqn.jpg",
      "popularity": 17.118,
      "adult": false,
      "known_for_department": "Acting"
    },
    {
      "id": 50347,
      "name": "Rachel Nichols",
      "profile_path": "/bMv117SLOJoseim6qvuHFc1gntZ.jpg",
      "popularity": 17.114,
      "adult": false,
      "known_for_department": "Acting"
    },
    {
      "id": 1834,
      "name": "Shirley Henderson",
      "profile_path": "/dxVvLjGNKVMl5lDXXInJ7xWpCvl.jpg",
      "popularity": 17.108,
      "adult": false,
      "known_for_department": "Acting"
    },
    {
      "id": 57905,
      "name": "Lindsay Wagner",
      "profile_path": "/rcHRY1JrEJO03leVE3TqNIS6pe8.jpg",
      "popularity": 17.103,
      "adult": false,
      "known_for_department": "Acting"
    },
    {
      "id": 61962,
      "name": "D.B. Sweeney",
      "profile_path": "/enY28APVRWfyHjGAkh6VCkYCWOA.jpg",
      "popularity": 17.101,
      "adult": false,
      "known_for_department": "Acting"
    },
    {
      "id": 19154,
      "name": "Daniel Gillies",
      "profile_path": "/zasTOfb8TNyVGwRfb4jNdHnsZ2m.jpg",
      "popularity": 17.092,
      "adult": false,
      "known_for_department": "Acting"
    }
  ]
}