{
  "page": 194,
  "total_results": 10000,
  "total_pages": 500,
  "results": [
    {
      "id": 3218,
      "name": "Louis Lombardi",
      "profile_path": "/cYxbGCEf0mnsACuxCIX0faCjGUQ.jpg",
      "popularity": 13.412,
      "adult": false,
      "known_for_department": "Acting"
    },
    {
      "id": 1350,
      "name": "Irène Jacob",
      "profile_path": "/yDpLjFtglSDlq3pvITr7O5AQfvg.jpg",
      "popularity": 13.41,
      "adult": false,
      "known_for_department": "Acting"
    },
    {
      "id": 1422517,
      "name": "Oakes Fegley",
      "profile_path": "/jDiuzOh12xmrkwtnZWBPEEjpNva.jpg",
      "popularity": 13.405,
      "adult": false,
      "known_for_department": "Acting"
    },
    {
      "id": 20805,
      "name": "Louise Lombard",
      "profile_path": "/6znYbOI2Z8PfzZ6p9jHG5QdAeb2.jpg",
      "popularity": 13.403,
      "adult": false,
      "known_for_department": "Acting"
    },
    {
      "id": 180986,
      "name": "Cassie Steele",
      "profile_path": "/2QEVPBwgpKr2Iu7SXR6ywjNqn0x.jpg",
      "popularity": 13.402,
      "adult": false,
      "known_for_department": "Acting"
    },
    {
      "id": 65760,
      "name": "Marin Hinkle",
      "profile_path": "/igxP1pOjJxOYFJIb3PA55XkSPzn.jpg",
      "popularity": 13.401,
      "adult": false,
      "known_for_department": "Acting"
    },
    {
      "id": 1927,
      "name": "Blake Edwards",
      "profile_path": "/tEUBu225EVmJKGxJSX936OvRet5.jpg",
      "popularity": 13.399,
      "adult": false,
      "known_for_department": "Writing"
    },
    {
      "id": 30695,
      "name": "Mary Kay Bergman",
      "profile_path": "/heTLLKqi4g7QqFa2JtOfoOGNpWh.jpg",
      "popularity": 13.398,
      "adult": false,
      "known_for_department": "Acting"
    },
    {
      "id": 1578220,
      "name": "Levy Tran",
      "profile_path": "/ungYHOdC0DETelUD8I6FR1bFdn.jpg",
      "popularity": 13.396,
      "adult": false,
      "known_for_department": "Acting"
    },
    {
      "id": 527,
      "name": "Jonathan Nolan",
      "profile_path": "/qd8d381vz2skpreY1BfVuSfLJts.jpg",
      "popularity": 13.388,
      "adult": false,
      "known_for_department": "Writing"
    },
    {
      "id": 1498646,
      "name": "Sarah Dugdale",
      "profile_path": "/6v8Y8z2D2agAGhLvpI0JXwQ5e2E.jpg",
      "popularity": 13.387,
      "adult": false,
      "known_for_department": "Acting"
    },
    {
      "id": 1124925,
      "name": "Juergen Maurer",
      "profile_path": "/w1zikDTuvzm3JJHsMg5wVYVUzin.jpg",
      "popularity": 13.384,
      "adult": false,
      "known_for_department": "Acting"
    },
    {
      "id": 582512,
      "name": "Anna Chipovskaya",
      "profile_path": "/sEvuuclZdZ8wP8quzclCQrzud7Z.jpg",
      "popularity": 13.384,
      "adult": false,
      "known_for_department": "Acting"
    },
    {
      "id": 1180346,
      "name": "Anthony Carrigan",
      "profile_path": "/6YtczDvE4eI8lkU6KXE6pkXaTIi.jpg",
      "popularity": 13.38,
      "adult": false,
      "known_for_department": "Acting"
    },
    {
      "id": 68472,
      "name": "Kappei Yamaguchi",
      "profile_path": "/sbeWiK7FuUvPqF4yG6XR5CkPAqF.jpg",
      "popularity": 13.378,
      "adult": false,
      "known_for_department": "Acting"
    },
    {
      "id": 67767,
      "name": "Hal Needham",
      "profile_path": "/9nObbakzuM5aeCMIgY5yRASnkNQ.jpg",
      "popularity": 13.378,
      "adult": false,
      "known_for_department": "Acting"
    },
    {
      "id": 25382,
      "name": "Megalyn Echikunwoke",
      "profile_path": "/6MlcgFphohSBTvOTDMEQwQzs66A.jpg",
      "popularity": 13.377,
      "adult": false,
      "known_for_department": "Acting"
    },
    {
      "id": 45391,
      "name": "Beth Broderick",
      "profile_path": "/9vzc9HkvbAw0RDXrSEPcoazTb9.jpg",
      "popularity": 13.376,
      "adult": false,
      "known_for_department": "Acting"
    },
    {
      "id": 24299,
      "name": "Jean-Claude Brialy",
      "profile_path": "/1R8I5fJhnPc13eKBPY11Bdp3YsY.jpg",
      "popularity": 13.376,
      "adult": false,
      "known_for_department": "Acting"
    },
    {
      "id": 1897,
      "name": "Bernie Mac",
      "profile_path": "/bwMmpeu3whjhhaxt1UTCk7S5jmv.jpg",
      "popularity": 13.376,
      "adult": false,
      "known_for_department": "Acting"
    }
  ]
}