{
  "page": 335,
  "total_results": 10000,
  "total_pages": 500,
  "results": [
    {
      "id": 16422,
      "name": "Don Messick",
      "profile_path": "/iT3okvWCKy6RAdo6dbx09RP0I3p.jpg",
      "popularity": 9.848,
      "adult": false,
      "known_for_department": "Acting"
    },
    {
      "id": 1257592,
      "name": "Yoon Kye-sang",
      "profile_path": "/iAIQfbPa965C0yfhUWKk9ESnt7w.jpg",
      "popularity": 9.847,
      "adult": false,
      "known_for_department": "Acting"
    },
    {
      "id": 2158642,
      "name": "Luis Mesa",
      "profile_path": "/dISc5QIvqlcuzjxn6PVBARlGrZx.jpg",
      "popularity": 9.846,
      "adult": false,
      "known_for_department": "Acting"
    },
    {
      "id": 983707,
      "name": "Elise Eberle",
      "profile_path": "/a7WryvVIkfvdne82GrI7hZQ0tcP.jpg",
      "popularity": 9.845,
      "adult": false,
      "known_for_department": "Acting"
    },
    {
      "id": 124546,
      "name": "John Wesley Shipp",
      "profile_path": "/pL60jl0QdKx9oESZqRzA3kiXXbs.jpg",
      "popularity": 9.845,
      "adult": false,
      "known_for_department": "Acting"
    },
    {
      "id": 220442,
      "name": "Hayley McElhinney",
      "profile_path": "/206161F52HL1pVIwD2pRHuaCcA5.jpg",
      "popularity": 9.844,
      "adult": false,
      "known_for_department": "Acting"
    },
    {
      "id": 24516,
      "name": "Daniel Baldwin",
      "profile_path": "/8dp3G3EvnQrp3awh4gc1nNsI60j.jpg",
      "popularity": 9.844,
      "adult": false,
      "known_for_department": "Acting"
    },
    {
      "id": 8263,
      "name": "Andrea Martin",
      "profile_path": "/syS5bfwIeFAFzAWtn0dqPbfPadM.jpg",
      "popularity": 9.844,
      "adult": false,
      "known_for_department": "Acting"
    },
    {
      "id": 6394,
      "name": "John Lurie",
      "profile_path": "/xP4eHVjPMDSEcCs4eQvTgDJyKsB.jpg",
      "popularity": 9.844,
      "adult": false,
      "known_for_department": "Acting"
    },
    {
      "id": 1216751,
      "name": "Donna Pescow",
      "profile_path": "/4GblWAvSkQ7d6UXYXbNBBISUiW.jpg",
      "popularity": 9.843,
      "adult": false,
      "known_for_department": "Acting"
    },
    {
      "id": 1311205,
      "name": "Kim Ga-eun",
      "profile_path": "/t2haTBmIk1ru5gBj9lnVzWXIyAK.jpg",
      "popularity": 9.842,
      "adult": false,
      "known_for_department": "Acting"
    },
    {
      "id": 83221,
      "name": "Kim Sun-a",
      "profile_path": "/xzS16c1pZwjrhrbj5SGENtRaQkk.jpg",
      "popularity": 9.842,
      "adult": false,
      "known_for_department": "Acting"
    },
    {
      "id": 16525,
      "name": "Joe Spinell",
      "profile_path": "/sKDNRMC7gBfDgL93EZdXE84r0x2.jpg",
      "popularity": 9.842,
      "adult": false,
      "known_for_department": "Acting"
    },
    {
      "id": 10655,
      "name": "Leslie Phillips",
      "profile_path": "/d3Zz0Nsww3xJhVkm6QVx6nTpv7v.jpg",
      "popularity": 9.842,
      "adult": false,
      "known_for_department": "Acting"
    },
    {
      "id": 1238990,
      "name": "Lee Bo-young",
      "profile_path": "/xjKMiyzYCcR5MRvWMe4sQOzBoMB.jpg",
      "popularity": 9.841,
      "adult": false,
      "known_for_department": "Acting"
    },
    {
      "id": 1064167,
      "name": "Merve Dizdar",
      "profile_path": "/vavzO90HguAjXXWNPl5PMzcZ2Sv.jpg",
      "popularity": 9.841,
      "adult": false,
      "known_for_department": "Acting"
    },
    {
      "id": 2341794,
      "name": "Rish Shah",
      "profile_path": "/mxk7ArOC6QjtGitmLDqLvJn6Ra6.jpg",
      "popularity": 9.84,
      "adult": false,
      "known_for_department": "Acting"
    },
    {
      "id": 2307149,
      "name": "Daniella Rahme",
      "profile_path": "/o68TV7UmWreZjnrjXZtMbC3hhSe.jpg",
      "popularity": 9.84,
      "adult": false,
      "known_for_department": "Acting"
    },
    {
      "id": 1257600,
      "name": "Kim Ji-hun",
      "profile_path": "/k9Uq26mNkRzoPMu5jGfVoxS3M2V.jpg",
      "popularity": 9.839,
      "adult": false,
      "known_for_department": "Acting"
    },
    {
      "id": 565433,
      "name": "Stephanie McMahon",
      "profile_path": "/494Aq5Aez5As9ypR6qxAwzSUyf4.jpg",
      "popularity": 9.838,
      "adult": false,
      "known_for_department": "Writing"
    }
  ]
}