{
  "page": 168,
  "total_results": 10000,
  "total_pages": 500,
  "results": [
    {
      "id": 2895589,
      "name": "Anna Cobb",
      "profile_path": "/cpUnue88oxxHgrM3yf4BPEygkQx.jpg",
      "popularity": 13.039,
      "adult": false,
      "known_for_department": "Acting"
    },
    {
      "id": 12709,
      "name": "Ian Petrella",
      "profile_path": "/78oI40ybhcn273MpwA6UHzYdf4v.jpg",
      "popularity": 8.477,
      "adult": false,
      "known_for_department": "Acting"
    },
    {
      "id": 208539,
      "name": "Anna Hopkins",
      "profile_path": "/uL44Lc0ql6y3bmuGz9r7NvhBSKR.jpg",
      "popularity": 14.638,
      "adult": false,
      "known_for_department": "Acting"
    },
    {
      "id": 1454946,
      "name": "Milana Vayntrub",
      "profile_path": "/i5Cou9ExwTZvRRtl79V75CsI7oC.jpg",
      "popularity": 12.238,
      "adult": false,
      "known_for_department": "Acting"
    },
    {
      "id": 1335315,
      "name": "Georgina Campbell",
      "profile_path": "/kgXHKjI728Nv7FLVf38S9QzHU2n.jpg",
      "popularity": 13.838,
      "adult": false,
      "known_for_department": "Acting"
    },
    {
      "id": 99241,
      "name": "Jamie-Lynn Sigler",
      "profile_path": "/gzlpJeYY1ByXOGb6mksEzuvetTN.jpg",
      "popularity": 15.438,
      "adult": false,
      "known_for_department": "Acting"
    },
    {
      "id": 199,
      "name": "Julie Kavner",
      "profile_path": "/qXZXmvqQauL7TDVKj9yJzkxIxjF.jpg",
      "popularity": 10.238,
      "adult": false,
      "known_for_department": "Acting"
    },
    {
      "id": 1058633,
      "name": "Peri Baumeister",
      "profile_path": "/bfWBGT1b8kB22hhUc4WQWWUvzln.jpg",
      "popularity": 14.637,
      "adult": false,
      "known_for_department": "Acting"
    },
    {
      "id": 34983,
      "name": "Tress MacNeille",
      "profile_path": "/gI2LsgByvSffQY34vabVnPmrHzw.jpg",
      "popularity": 10.236,
      "adult": false,
      "known_for_department": "Acting"
    },
    {
      "id": 212429,
      "name": "Italia Ricci",
      "profile_path": "/sLQAYErTlb9DiiLlXmUH7me47vK.jpg",
      "popularity": 11.435,
      "adult": false,
      "known_for_department": "Acting"
    },
    {
      "id": 17917,
      "name": "Lillo Brancato",
      "profile_path": "/2CS16gyQ07MZDCCur9mPlGQ9QDB.jpg",
      "popularity": 11.035,
      "adult": false,
      "known_for_department": "Acting"
    },
    {
      "id": 3120144,
      "name": "Sophia Tatum",
      "profile_path": "/oOP4YW68JAcNCdHn7Itqe3HsDzV.jpg",
      "popularity": 14.116,
      "adult": false,
      "known_for_department": "Acting"
    },
    {
      "id": 41419,
      "name": "Hugh Laurie",
      "profile_path": "/akArncggHnusP5jxzMBKmJDRrMo.jpg",
      "popularity": 13.435,
      "adult": false,
      "known_for_department": "Acting"
    },
    {
      "id": 10070,
      "name": "Mie Hama",
      "profile_path": "/6FcFY54cYhu0r0l5zdtYk5pNjhx.jpg",
      "popularity": 14.234,
      "adult": false,
      "known_for_department": "Acting"
    },
    {
      "id": 52995,
      "name": "Edward Herrmann",
      "profile_path": "/sO9IoAlw3CLJZT6UF35cZBcTYRV.jpg",
      "popularity": 17.834,
      "adult": false,
      "known_for_department": "Acting"
    },
    {
      "id": 22227,
      "name": "Christopher Meloni",
      "profile_path": "/hTQk4fLmGY7T7nBpK8LE3Y5Oq61.jpg",
      "popularity": 13.033,
      "adult": false,
      "known_for_department": "Acting"
    },
    {
      "id": 99854,
      "name": "John LaMotta",
      "profile_path": "/bBWjpmT920RgHx8wmPWMK4KaD0E.jpg",
      "popularity": 13.432,
      "adult": false,
      "known_for_department": "Acting"
    },
    {
      "id": 94064,
      "name": "Svetlana Khodchenkova",
      "profile_path": "/xldEh62hTjgxcmJPAyDeBnwKFCg.jpg",
      "popularity": 14.232,
      "adult": false,
      "known_for_department": "Acting"
    },
    {
      "id": 137323,
      "name": "Winter Ave Zoli",
      "profile_path": "/yRgIbo4eUA6jkP8URMOnb6kda0d.jpg",
      "popularity": 12.631,
      "adult": false,
      "known_for_department": "Acting"
    },
    {
      "id": 79351,
      "name": "Alison Araya",
      "profile_path": "/wnpzNYpekkq1n85OvqjAoVzJwEo.jpg",
      "popularity": 8.629,
      "adult": false,
      "known_for_department": "Acting"
    }
  ]
}