{
  "page": 92,
  "total_results": 10000,
  "total_pages": 500,
  "results": [
    {
      "id": 85174,
      "name": "Song Ji-hyo",
      "profile_path": "/f3QRDGEqHkeLBQZfWe3GbmHeuuX.jpg",
      "popularity": 12.626,
      "adult": false,
      "known_for_department": "Acting"
    },
    {
      "id": 123148,
      "name": "Brandon Quinn",
      "profile_path": "/zM9OI7oIyEPVuIdK1EcUrkJK8QC.jpg",
      "popularity": 13.824,
      "adult": false,
      "known_for_department": "Acting"
    },
    {
      "id": 31508,
      "name": "Reed Diamond",
      "profile_path": "/z3ESNaXSeHiGmmhm49Og9FeXwG8.jpg",
      "popularity": 12.622,
      "adult": false,
      "known_for_department": "Acting"
    },
    {
      "id": 1721740,
      "name": "Camila Mendes",
      "profile_path": "/7FLdgmrCXK5hEWGbvKfH0Eu8D99.jpg",
      "popularity": 14.221,
      "adult": false,
      "known_for_department": "Acting"
    },
    {
      "id": 3648366,
      "name": "Nuttarat Tangwai",
      "profile_path": "/uWWj9Zj3uixTRc8VHp8goeVrFZc.jpg",
      "popularity": 18.069,
      "adult": false,
      "known_for_department": "Acting"
    },
    {
      "id": 11855,
      "name": "Geraldine James",
      "profile_path": "/4FMJYeTIUxSE9SwCtnrwJzMsuC3.jpg",
      "popularity": 15.02,
      "adult": false,
      "known_for_department": "Acting"
    },
    {
      "id": 123725,
      "name": "Abigail Spencer",
      "profile_path": "/ka5RVER07tqrkD25C7p7FKYgwJJ.jpg",
      "popularity": 20.62,
      "adult": false,
      "known_for_department": "Acting"
    },
    {
      "id": 2394,
      "name": "Alan Ruck",
      "profile_path": "/hj7CuWinT12hMKjRhSO4XEMVq7w.jpg",
      "popularity": 10.836,
      "adult": false,
      "known_for_department": "Acting"
    },
    {
      "id": 60898,
      "name": "Sebastian Stan",
      "profile_path": "/nKZgixTbHFXpkzzIpMFdLX98GYh.jpg",
      "popularity": 17.816,
      "adult": false,
      "known_for_department": "Acting"
    },
    {
      "id": 109870,
      "name": "Tom Woodruff Jr.",
      "profile_path": "/o5MW7KiROaA5uf9zzJmpHJfUjh3.jpg",
      "popularity": 16.613,
      "adult": false,
      "known_for_department": "Acting"
    },
    {
      "id": 566331,
      "name": "Oona Chaplin",
      "profile_path": "/8OVfD7mPFGntaSjEb4sqCUNieTQ.jpg",
      "popularity": 15.412,
      "adult": false,
      "known_for_department": "Acting"
    },
    {
      "id": 824,
      "name": "Ethan Suplee",
      "profile_path": "/gGSb8P9nQdDNu0JC65zyAyMUFhS.jpg",
      "popularity": 15.81,
      "adult": false,
      "known_for_department": "Acting"
    },
    {
      "id": 1768319,
      "name": "Madeline Wise",
      "profile_path": "/8au11zMSOm2dRPUi6akSf3FpSdz.jpg",
      "popularity": 13.809,
      "adult": false,
      "known_for_department": "Acting"
    },
    {
      "id": 141034,
      "name": "Billy Magnussen",
      "profile_path": "/nFynnk2Ut9R5r2xcTNEMKnFhZ6z.jpg",
      "popularity": 16.209,
      "adult": false,
      "known_for_department": "Acting"
    },
    {
      "id": 1206,
      "name": "Jason Alexander",
      "profile_path": "/67pvqalQz6zCkMrcm6dk4lRneaC.jpg",
      "popularity": 15.809,
      "adult": false,
      "known_for_department": "Acting"
    },
    {
      "id": 4443,
      "name": "Christopher McDonald",
      "profile_path": "/gK1XhbfD9Xd8s3VXRPpgDCluyZp.jpg",
      "popularity": 11.809,
      "adult": false,
      "known_for_department": "Acting"
    },
    {
      "id": 289,
      "name": "Madeleine Stowe",
      "profile_path": "/u86lNd3YTKqIVZb49DqbNtd1nOZ.jpg",
      "popularity": 19.809,
      "adult": false,
      "known_for_department": "Acting"
    },
    {
      "id": 450,
      "name": "Mike Colter",
      "profile_path": "/rTcfLDlcQ78tVVUDHSFJYiodJtb.jpg",
      "popularity": 15.005,
      "adult": false,
      "known_for_department": "Acting"
    },
    {
      "id": 1474123,
      "name": "Caleb McLaughlin",
      "profile_path": "/xKXJtSOcgGmzSXExU6kz2FXAysC.jpg",
      "popularity": 23.002,
      "adult": false,
      "known_for_department": "Acting"
    },
    {
      "id": 11863,
      "name": "Sarah Michelle Gellar",
      "profile_path": "/sCpCv2ldnrAQN9NVQOE6PYxG8TN.jpg",
      "popularity": 18.601,
      "adult": false,
      "known_for_department": "Acting"
    }
  ]
}