{
  "page": 136,
  "total_results": 10000,
  "total_pages": 500,
  "results": [
    {
      "id": 2340180,
      "name": "Hunter Schafer",
      "profile_path": "/npAsOblFIk6vCyWaymt8rDmJXNK.jpg",
      "popularity": 14.155,
      "adult": false,
      "known_for_department": "Acting"
    },
    {
      "id": 238164,
      "name": "Jóhannes Haukur Jóhannesson",
      "profile_path": "/oqZftP0WS1rD5NFpR7vLp6JU52I.jpg",
      "popularity": 14.15,
      "adult": false,
      "known_for_department": "Acting"
    },
    {
      "id": 1292329,
      "name": "Kimberley Sustad",
      "profile_path": "/w6LpI0W09gvGqthPvVBwCf3WF6c.jpg",
      "popularity": 14.149,
      "adult": false,
      "known_for_department": "Acting"
    },
    {
      "id": 9857,
      "name": "Karl Malden",
      "profile_path": "/njDua2jZ1X1f5SYLzpxDt0hIhYu.jpg",
      "popularity": 14.145,
      "adult": false,
      "known_for_department": "Acting"
    },
    {
      "id": 55207,
      "name": "Eliza Roberts",
      "profile_path": "/dnVfqF9qBajS19dmZ9AHrUMoSpb.jpg",
      "popularity": 14.14,
      "adult": false,
      "known_for_department": "Acting"
    },
    {
      "id": 570784,
      "name": "Aliette Opheim",
      "profile_path": "/mAmTygwd20C3bHEZbusLfPOFmmi.jpg",
      "popularity": 14.133,
      "adult": false,
      "known_for_department": "Acting"
    },
    {
      "id": 73249,
      "name": "Lee Jung-jae",
      "profile_path": "/3h5Cfm0X8ohWn7psZkqdNWqXAHH.jpg",
      "popularity": 14.126,
      "adult": false,
      "known_for_department": "Acting"
    },
    {
      "id": 100765,
      "name": "Hikari Mitsushima",
      "profile_path": "/6hMpJpT86KFSEPIyfTVkDmwUh4b.jpg",
      "popularity": 14.125,
      "adult": false,
      "known_for_department": "Acting"
    },
    {
      "id": 1568455,
      "name": "Park Ha-na",
      "profile_path": "/fKun3ZjVbRoshh0mljc0ZQ5ePyD.jpg",
      "popularity": 14.122,
      "adult": false,
      "known_for_department": "Acting"
    },
    {
      "id": 10222,
      "name": "Roger Moore",
      "profile_path": "/qUjeguNlZzpwh2bGUwEq2n2GNPx.jpg",
      "popularity": 14.119,
      "adult": false,
      "known_for_department": "Acting"
    },
    {
      "id": 32823,
      "name": "Gedeon Burkhard",
      "profile_path": "/oC2C7AEh5WUa7XShz7SMpuNwheP.jpg",
      "popularity": 14.116,
      "adult": false,
      "known_for_department": "Acting"
    },
    {
      "id": 2877,
      "name": "Ralph Macchio",
      "profile_path": "/kehn6kNTFPlAYrWJzBzrEu6WHJp.jpg",
      "popularity": 14.115,
      "adult": false,
      "known_for_department": "Acting"
    },
    {
      "id": 60072,
      "name": "Sara Paxton",
      "profile_path": "/DWrjFhjSLY4EFanCMKNPrUmP2p.jpg",
      "popularity": 14.113,
      "adult": false,
      "known_for_department": "Acting"
    },
    {
      "id": 18794,
      "name": "Kate Nelligan",
      "profile_path": "/a2BUOy9A9WlvTfe8s4gn0MZfPa5.jpg",
      "popularity": 14.11,
      "adult": false,
      "known_for_department": "Acting"
    },
    {
      "id": 60961,
      "name": "Jared Sandler",
      "profile_path": "/jlr4YZUUfrhxKx592mJnY9nQEMO.jpg",
      "popularity": 14.109,
      "adult": false,
      "known_for_department": "Acting"
    },
    {
      "id": 17289,
      "name": "Rodrigo Santoro",
      "profile_path": "/d3MaF9SPHDn2PMYHuqdnO0Csik6.jpg",
      "popularity": 14.109,
      "adult": false,
      "known_for_department": "Acting"
    },
    {
      "id": 2454,
      "name": "Matt Clark",
      "profile_path": "/n5TJz5CaTqRXLpAOl0wHJXrPQOk.jpg",
      "popularity": 14.106,
      "adult": false,
      "known_for_department": "Acting"
    },
    {
      "id": 13333,
      "name": "Vanessa Redgrave",
      "profile_path": "/ngBS6mLHn1in3kLJlTMR7w0J68r.jpg",
      "popularity": 14.102,
      "adult": false,
      "known_for_department": "Acting"
    },
    {
      "id": 1897,
      "name": "Bernie Mac",
      "profile_path": "/bwMmpeu3whjhhaxt1UTCk7S5jmv.jpg",
      "popularity": 14.102,
      "adult": false,
      "known_for_department": "Acting"
    },
    {
      "id": 1411561,
      "name": "Sasha Luss",
      "profile_path": "/pviPtS13SzKiUCGIjBO4cUnQ2XE.jpg",
      "popularity": 14.1,
      "adult": false,
      "known_for_department": "Acting"
    }
  ]
}