{
  "page": 350,
  "total_results": 10000,
  "total_pages": 500,
  "results": [
    {
      "id": 1307408,
      "name": "Yui Tatsumi",
      "profile_path": "/9snaRN0mUrzfTlpjXRd7bdeuDR3.jpg",
      "popularity": 4.465,
      "adult": false,
      "known_for_department": "Acting"
    },
    {
      "id": 476163,
      "name": "Nasim Pedrad",
      "profile_path": "/43rcDWcZHQXhC9COWQKdkLMufRj.jpg",
      "popularity": 9.638,
      "adult": false,
      "known_for_department": "Acting"
    },
    {
      "id": 8895,
      "name": "Didi Conn",
      "profile_path": "/j5vV7rFoVLCg0pRPiODseGm8e68.jpg",
      "popularity": 8.865,
      "adult": false,
      "known_for_department": "Acting"
    },
    {
      "id": 192855,
      "name": "Honeysuckle Weeks",
      "profile_path": "/wCxTamAxpEnzW4mhpWQWxdAHLon.jpg",
      "popularity": 6.865,
      "adult": false,
      "known_for_department": "Acting"
    },
    {
      "id": 4169,
      "name": "Dave Chappelle",
      "profile_path": "/8n64np7IAXbpQQJKxUncihJpq0G.jpg",
      "popularity": 9.636,
      "adult": false,
      "known_for_department": "Acting"
    },
    {
      "id": 557921,
      "name": "Leo Howard",
      "profile_path": "/gMpV1XHvmLTdpmBfN2yGB8fh1Ny.jpg",
      "popularity": 9.635,
      "adult": false,
      "known_for_department": "Acting"
    },
    {
      "id": 1021684,
      "name": "Charlotte Le Bon",
      "profile_path": "/1i7YlempXFCbXLjt3joshgGW1XY.jpg",
      "popularity": 9.264,
      "adult": false,
      "known_for_department": "Acting"
    },
    {
      "id": 57251,
      "name": "Linden Ashby",
      "profile_path": "/nflhvj2uJAr2S9aWvnbQWCUXC9a.jpg",
      "popularity": 9.633,
      "adult": false,
      "known_for_department": "Acting"
    },
    {
      "id": 63296,
      "name": "J. C. MacKenzie",
      "profile_path": "/aAy2hzMku50aM2lUYg7yNQYdpMW.jpg",
      "popularity": 7.664,
      "adult": false,
      "known_for_department": "Acting"
    },
    {
      "id": 1905209,
      "name": "Valerie Huber",
      "profile_path": "/xVQkh8FwhX0kI5NTSotQBC4Vllz.jpg",
      "popularity": 6.878,
      "adult": false,
      "known_for_department": "Acting"
    },
    {
      "id": 1776040,
      "name": "Asia Kate Dillon",
      "profile_path": "/jJutYe9XAaCrHyKGi3nIpCOwwkR.jpg",
      "popularity": 6.878,
      "adult": false,
      "known_for_department": "Acting"
    },
    {
      "id": 1770525,
      "name": "Emma Appleton",
      "profile_path": "/jiwxHk5BsbIlaUROkW99vRwvtvJ.jpg",
      "popularity": 6.877,
      "adult": false,
      "known_for_department": "Acting"
    },
    {
      "id": 1152019,
      "name": "Ashton Sanders",
      "profile_path": "/p113ohjLG0bjukQK7QnNIGe8Gn3.jpg",
      "popularity": 9.628,
      "adult": false,
      "known_for_department": "Acting"
    },
    {
      "id": 121500,
      "name": "Whitney Blake",
      "profile_path": "/yFjn1bU5lQzXOwQv1DfEtlDLaj0.jpg",
      "popularity": 9.628,
      "adult": false,
      "known_for_department": "Acting"
    },
    {
      "id": 149010,
      "name": "Orlando Brown",
      "profile_path": "/bedZmTFMkTLmXwbSn2z0IQqQE02.jpg",
      "popularity": 7.263,
      "adult": false,
      "known_for_department": "Acting"
    },
    {
      "id": 122750,
      "name": "Leslie Uggams",
      "profile_path": "/8zQO5GNWQwJG4we5AYfjopblRFe.jpg",
      "popularity": 8.863,
      "adult": false,
      "known_for_department": "Acting"
    },
    {
      "id": 38160,
      "name": "Patti D'Arbanville",
      "profile_path": "/gBv2vxPFPLpnqbIYw8Xu0xkVtFF.jpg",
      "popularity": 9.625,
      "adult": false,
      "known_for_department": "Acting"
    },
    {
      "id": 4743,
      "name": "Jonathan Togo",
      "profile_path": "/s6SVfTHfn4VLXmsl8l3QjJzpako.jpg",
      "popularity": 9.625,
      "adult": false,
      "known_for_department": "Acting"
    },
    {
      "id": 66223,
      "name": "Sondra Locke",
      "profile_path": "/kVSqS93rJfQ1ozmzhI5w92aWPVo.jpg",
      "popularity": 9.624,
      "adult": false,
      "known_for_department": "Acting"
    },
    {
      "id": 13475,
      "name": "Patricia Quinn",
      "profile_path": "/hi7k5zEI6iXBki1E1jsPrE28n5H.jpg",
      "popularity": 7.662,
      "adult": false,
      "known_for_department": "Acting"
    }
  ]
}