{
  "page": 326,
  "total_results": 10000,
  "total_pages": 500,
  "results": [
    {
      "id": 132133,
      "name": "Aimi Satsukawa",
      "profile_path": "/3AFPVBclZGnr1pC4lvQDSKrxBau.jpg",
      "popularity": 8.809,
      "adult": false,
      "known_for_department": "Acting"
    },
    {
      "id": 80948,
      "name": "William Lau",
      "profile_path": "/8DuNyjHLMquVFyWwqBeQ5sa03UY.jpg",
      "popularity": 8.809,
      "adult": false,
      "known_for_department": "Directing"
    },
    {
      "id": 71403,
      "name": "Rob Riggle",
      "profile_path": "/hQgOp8vWxl6KPZbqzKSSL4k6G1j.jpg",
      "popularity": 8.809,
      "adult": false,
      "known_for_department": "Acting"
    },
    {
      "id": 90046,
      "name": "Liz White",
      "profile_path": "/8DLHz7kZFl0bUwPm67NRnDTaG8.jpg",
      "popularity": 8.808,
      "adult": false,
      "known_for_department": "Acting"
    },
    {
      "id": 1127406,
      "name": "Lionel Messi",
      "profile_path": "/a1EuvL7XzKDXRPe0a6CEMJWF6Vd.jpg",
      "popularity": 8.807,
      "adult": false,
      "known_for_department": "Acting"
    },
    {
      "id": 543523,
      "name": "Britne Oldford",
      "profile_path": "/1htdyAfrsgyiqmm5GguAoLLu6aM.jpg",
      "popularity": 8.807,
      "adult": false,
      "known_for_department": "Acting"
    },
    {
      "id": 1496392,
      "name": "Joe Alwyn",
      "profile_path": "/npvlAf0f2zciFdB6uwPx9j8xJHj.jpg",
      "popularity": 8.806,
      "adult": false,
      "known_for_department": "Acting"
    },
    {
      "id": 111466,
      "name": "Mona Marshall",
      "profile_path": "/A2RCAt0Xmm3jLBKZogQAJX6eD9n.jpg",
      "popularity": 8.806,
      "adult": false,
      "known_for_department": "Acting"
    },
    {
      "id": 76618,
      "name": "Rune Temte",
      "profile_path": "/6vfrlTNDyHhMgzFMzmg0IbOmHM2.jpg",
      "popularity": 8.806,
      "adult": false,
      "known_for_department": "Acting"
    },
    {
      "id": 10386,
      "name": "Debra Monk",
      "profile_path": "/qdb43ggK8PhAoQO357hE5f5Gw3O.jpg",
      "popularity": 8.806,
      "adult": false,
      "known_for_department": "Acting"
    },
    {
      "id": 1578631,
      "name": "Rebecca Olson",
      "profile_path": "/t529etG08eJRPnpAZEUv2Vi1oNL.jpg",
      "popularity": 8.805,
      "adult": false,
      "known_for_department": "Acting"
    },
    {
      "id": 1042162,
      "name": "Vana Barba",
      "profile_path": "/bdRcIFfuADfrO0MCXZFE1anzyUB.jpg",
      "popularity": 8.803,
      "adult": false,
      "known_for_department": "Acting"
    },
    {
      "id": 127849,
      "name": "Choo Ja-hyun",
      "profile_path": "/iyDFZehw7cbQLZc2MHRxzJdgLZZ.jpg",
      "popularity": 8.803,
      "adult": false,
      "known_for_department": "Acting"
    },
    {
      "id": 5502,
      "name": "Bill Nunn",
      "profile_path": "/5dphDw0EDkKvxrolhvOFv6v91yj.jpg",
      "popularity": 8.803,
      "adult": false,
      "known_for_department": "Acting"
    },
    {
      "id": 2380397,
      "name": "Micheal Ward",
      "profile_path": "/fnVDz5q9Vtocm2VY5tU3voP6RxG.jpg",
      "popularity": 8.802,
      "adult": false,
      "known_for_department": "Acting"
    },
    {
      "id": 218923,
      "name": "Tyler Hynes",
      "profile_path": "/zUOaRemLs0qS3Xoe7MDzyduRE4R.jpg",
      "popularity": 8.802,
      "adult": false,
      "known_for_department": "Acting"
    },
    {
      "id": 14414,
      "name": "Kareem Abdul-Jabbar",
      "profile_path": "/uk21qXLJut0x0o5tKbts6SDdrg9.jpg",
      "popularity": 8.801,
      "adult": false,
      "known_for_department": "Acting"
    },
    {
      "id": 12080,
      "name": "Conrad Vernon",
      "profile_path": "/c7MIz3sy6UPhBh9YnThd7j8ypdl.jpg",
      "popularity": 8.801,
      "adult": false,
      "known_for_department": "Acting"
    },
    {
      "id": 1772827,
      "name": "Şafak Pekdemir",
      "profile_path": "/A2HjXMSqg4or2TGAYunbYsdXWQT.jpg",
      "popularity": 8.8,
      "adult": false,
      "known_for_department": "Acting"
    },
    {
      "id": 64933,
      "name": "Chris Lemmon",
      "profile_path": "/rgJVXdRLj5XRxjQw5r2fN3I9cq7.jpg",
      "popularity": 8.8,
      "adult": false,
      "known_for_department": "Acting"
    }
  ]
}