{
  "page": 122,
  "total_results": 10000,
  "total_pages": 500,
  "results": [
    {
      "id": 1238927,
      "name": "Rika Izumi",
      "profile_path": "/QD3yOzTTszuMGDZBMUnbam0ToL.jpg",
      "popularity": 14.776,
      "adult": false,
      "known_for_department": "Acting"
    },
    {
      "id": 44922,
      "name": "Bill Tung",
      "profile_path": "/z8tQQpjKjjgP6Fv9SXlhbP9EZkZ.jpg",
      "popularity": 14.773,
      "adult": false,
      "known_for_department": "Acting"
    },
    {
      "id": 49818,
      "name": "Jacqueline Obradors",
      "profile_path": "/weJqLT6j8AYiZ9hBvFYjr3WG8DV.jpg",
      "popularity": 14.772,
      "adult": false,
      "known_for_department": "Acting"
    },
    {
      "id": 1503909,
      "name": "Raffiella Chapman",
      "profile_path": "/u3vzRCht6RaULefF6EpBocmD30d.jpg",
      "popularity": 14.766,
      "adult": false,
      "known_for_department": "Acting"
    },
    {
      "id": 192855,
      "name": "Honeysuckle Weeks",
      "profile_path": "/wCxTamAxpEnzW4mhpWQWxdAHLon.jpg",
      "popularity": 14.763,
      "adult": false,
      "known_for_department": "Acting"
    },
    {
      "id": 20652,
      "name": "Cecilia Cheung",
      "profile_path": "/3vaMtd9Xh54v31qrFAo3gZQ8hkh.jpg",
      "popularity": 14.762,
      "adult": false,
      "known_for_department": "Acting"
    },
    {
      "id": 1112244,
      "name": "Susan Radder",
      "profile_path": "/n3Bwzcdz57nXBtBtrry0XzPS01v.jpg",
      "popularity": 14.757,
      "adult": false,
      "known_for_department": "Acting"
    },
    {
      "id": 140335,
      "name": "Kim You-jung",
      "profile_path": "/dqlafA1MFlJnZJutyT7trs4RpC4.jpg",
      "popularity": 14.756,
      "adult": false,
      "known_for_department": "Acting"
    },
    {
      "id": 63608,
      "name": "Jason Watkins",
      "profile_path": "/jGQOdzZ1sCz7WKtYSROMWv4menu.jpg",
      "popularity": 14.753,
      "adult": false,
      "known_for_department": "Acting"
    },
    {
      "id": 6930,
      "name": "Diane Baker",
      "profile_path": "/604pSqQ2EuieEv1P2BErJoCE5hJ.jpg",
      "popularity": 14.752,
      "adult": false,
      "known_for_department": "Acting"
    },
    {
      "id": 23988,
      "name": "Fumiko Orikasa",
      "profile_path": "/nbphHwfqBIp6de1Fd38Dt1Z8KCR.jpg",
      "popularity": 14.751,
      "adult": false,
      "known_for_department": "Acting"
    },
    {
      "id": 12645,
      "name": "Jeffrey DeMunn",
      "profile_path": "/eSouAAduXaziFpqLw59AG55jtGY.jpg",
      "popularity": 14.751,
      "adult": false,
      "known_for_department": "Acting"
    },
    {
      "id": 2371,
      "name": "Feodor Chaliapin Jr.",
      "profile_path": "/5UGVHeLTHgKyO9SiJ4rrtpRWQHI.jpg",
      "popularity": 14.743,
      "adult": false,
      "known_for_department": "Acting"
    },
    {
      "id": 27762,
      "name": "Ian McDiarmid",
      "profile_path": "/cqEAblt0KJRIGyMXhj5OM5WJ9SN.jpg",
      "popularity": 14.741,
      "adult": false,
      "known_for_department": "Acting"
    },
    {
      "id": 19429,
      "name": "Bruce Lee",
      "profile_path": "/uUC3N3sIuFLD0ZpNyc58NxW1Pzf.jpg",
      "popularity": 14.736,
      "adult": false,
      "known_for_department": "Acting"
    },
    {
      "id": 39388,
      "name": "Amy Ryan",
      "profile_path": "/bItqd1QUNpdegjBXNaVuFFPEZU4.jpg",
      "popularity": 14.734,
      "adult": false,
      "known_for_department": "Acting"
    },
    {
      "id": 15739,
      "name": "Alex Jennings",
      "profile_path": "/8U9T8b2V4AWlENgSmuy4SIAckM9.jpg",
      "popularity": 14.729,
      "adult": false,
      "known_for_department": "Acting"
    },
    {
      "id": 14501,
      "name": "Peter Ustinov",
      "profile_path": "/7GHLBhcNCiRugTcUt76HgtkZCUg.jpg",
      "popularity": 14.729,
      "adult": false,
      "known_for_department": "Acting"
    },
    {
      "id": 45863,
      "name": "Doris Roberts",
      "profile_path": "/bfJjsAKKRqUhm1lh2QC8u2atrov.jpg",
      "popularity": 14.727,
      "adult": false,
      "known_for_department": "Acting"
    },
    {
      "id": 1283843,
      "name": "Alba Flores",
      "profile_path": "/9ExASXw097MyNuSy6N23fpkqpXq.jpg",
      "popularity": 14.723,
      "adult": false,
      "known_for_department": "Acting"
    }
  ]
}