{
  "page": 103,
  "total_results": 10000,
  "total_pages": 500,
  "results": [
    {
      "id": 62065,
      "name": "Bree Turner",
      "profile_path": "/a6mpCcLHQpnkyjJVBtXH6oxfPGy.jpg",
      "popularity": 16.959,
      "adult": false,
      "known_for_department": "Acting"
    },
    {
      "id": 11512,
      "name": "John Heard",
      "profile_path": "/zjhcxrCFK4q0C1gtVmeN8FeqCw0.jpg",
      "popularity": 16.959,
      "adult": false,
      "known_for_department": "Acting"
    },
    {
      "id": 1309844,
      "name": "Mariana Treviño",
      "profile_path": "/d1N3CLQzrARgFLTLTJdKNgtlapB.jpg",
      "popularity": 16.957,
      "adult": false,
      "known_for_department": "Acting"
    },
    {
      "id": 2717,
      "name": "Rick Rossovich",
      "profile_path": "/uShNdPWbDHMejpMxuoNsqaaDbuc.jpg",
      "popularity": 16.95,
      "adult": false,
      "known_for_department": "Acting"
    },
    {
      "id": 15758,
      "name": "Queen Latifah",
      "profile_path": "/AeNoPcSWTsl1mOxiyXAKjVnzrwl.jpg",
      "popularity": 16.942,
      "adult": false,
      "known_for_department": "Acting"
    },
    {
      "id": 588,
      "name": "M. Emmet Walsh",
      "profile_path": "/cirz2AGsQgh34yMoMaEmttAq0qS.jpg",
      "popularity": 16.94,
      "adult": false,
      "known_for_department": "Acting"
    },
    {
      "id": 1100144,
      "name": "Ismael Cruz Córdova",
      "profile_path": "/gx59ZkpGgGLEH79ciDgyWpUG8nt.jpg",
      "popularity": 16.936,
      "adult": false,
      "known_for_department": "Acting"
    },
    {
      "id": 1457999,
      "name": "Arturo Castro",
      "profile_path": "/pbLoDCfjm3fLtGHVqQcnbM2d0cu.jpg",
      "popularity": 16.935,
      "adult": false,
      "known_for_department": "Acting"
    },
    {
      "id": 1153821,
      "name": "Edvin Endre",
      "profile_path": "/csP0OxPMM41Ri5pN39YX72mOV2z.jpg",
      "popularity": 16.927,
      "adult": false,
      "known_for_department": "Acting"
    },
    {
      "id": 5503,
      "name": "Gabrielle Anwar",
      "profile_path": "/v0zVLAM7kv7ZP0j95HWfNPr1fvp.jpg",
      "popularity": 16.926,
      "adult": false,
      "known_for_department": "Acting"
    },
    {
      "id": 54422,
      "name": "Tupac Shakur",
      "profile_path": "/gWWXv7zo40ZiLHjoh7z76ap1qA1.jpg",
      "popularity": 16.914,
      "adult": false,
      "known_for_department": "Acting"
    },
    {
      "id": 33292,
      "name": "Brooke Nevin",
      "profile_path": "/xt9ps5BkPMB5NSZbdQUfPIADork.jpg",
      "popularity": 16.91,
      "adult": false,
      "known_for_department": "Acting"
    },
    {
      "id": 86132,
      "name": "Claire Holt",
      "profile_path": "/98d3peGDj0vPKcz8YyphJlkYrQO.jpg",
      "popularity": 16.909,
      "adult": false,
      "known_for_department": "Acting"
    },
    {
      "id": 1182597,
      "name": "Denise Gough",
      "profile_path": "/uGs5oHN1MK4tmU850fCw7d3Nx0h.jpg",
      "popularity": 16.908,
      "adult": false,
      "known_for_department": "Acting"
    },
    {
      "id": 5586,
      "name": "Yeardley Smith",
      "profile_path": "/9AjPwbb3uz4GfgOPBYsy2ILvwkB.jpg",
      "popularity": 16.905,
      "adult": false,
      "known_for_department": "Acting"
    },
    {
      "id": 5248,
      "name": "Lee J. Cobb",
      "profile_path": "/yxMxBvM0PZwu7YXQamG0kFwt9DZ.jpg",
      "popularity": 16.905,
      "adult": false,
      "known_for_department": "Acting"
    },
    {
      "id": 1245733,
      "name": "Justin Roiland",
      "profile_path": "/wYApP38aXe6ZcEtlBAfNRxJTQQi.jpg",
      "popularity": 16.904,
      "adult": false,
      "known_for_department": "Acting"
    },
    {
      "id": 15217,
      "name": "Zack Snyder",
      "profile_path": "/iD0GDqkvJXDXiNEZej198hjt3Tt.jpg",
      "popularity": 16.902,
      "adult": false,
      "known_for_department": "Directing"
    },
    {
      "id": 129298,
      "name": "Brendan Penny",
      "profile_path": "/zxT6AiVGlWpVuRx4VcaoJ8X0tk7.jpg",
      "popularity": 16.898,
      "adult": false,
      "known_for_department": "Acting"
    },
    {
      "id": 28641,
      "name": "Terence Stamp",
      "profile_path": "/v0htmOknJWTMWmt4DIhZlc0VC7.jpg",
      "popularity": 16.893,
      "adult": false,
      "known_for_department": "Acting"
    }
  ]
}