{
  "page": 155,
  "total_results": 10000,
  "total_pages": 500,
  "results": [
    {
      "id": 66717,
      "name": "Anthony Wong",
      "profile_path": "/7UYRnOZXSmJFcQGPBUSFbyY07zZ.jpg",
      "popularity": 13.108,
      "adult": false,
      "known_for_department": "Acting"
    },
    {
      "id": 156648,
      "name": "Joel de la Fuente",
      "profile_path": "/xRDyGJpIYG0IFEv1nLD3C23WSeA.jpg",
      "popularity": 13.107,
      "adult": false,
      "known_for_department": "Acting"
    },
    {
      "id": 26716,
      "name": "Heather Burns",
      "profile_path": "/h9FejPeZ5n8U5rYB5Yqd73l2ZID.jpg",
      "popularity": 13.105,
      "adult": false,
      "known_for_department": "Acting"
    },
    {
      "id": 6573,
      "name": "William Sadler",
      "profile_path": "/xC9sijoDnjS3oDZ5eszcGKHKAOp.jpg",
      "popularity": 13.103,
      "adult": false,
      "known_for_department": "Acting"
    },
    {
      "id": 18025,
      "name": "Ben Miller",
      "profile_path": "/ij5nhtBWhCaOl4IEn8XhOYAGqB1.jpg",
      "popularity": 13.096,
      "adult": false,
      "known_for_department": "Acting"
    },
    {
      "id": 1340020,
      "name": "Álvaro Morte",
      "profile_path": "/2TGPhdpRC5wjdFEJqnLYiN5kbwg.jpg",
      "popularity": 13.091,
      "adult": false,
      "known_for_department": "Acting"
    },
    {
      "id": 239975,
      "name": "Jay Manalo",
      "profile_path": "/3DrWIJmaKDwOP5kOIZRsNwd2yok.jpg",
      "popularity": 13.085,
      "adult": false,
      "known_for_department": "Acting"
    },
    {
      "id": 27643,
      "name": "Marco Leonardi",
      "profile_path": "/5VVhO9rPvRgKsZME2gZKtG9WgWD.jpg",
      "popularity": 13.082,
      "adult": false,
      "known_for_department": "Acting"
    },
    {
      "id": 2208367,
      "name": "Kaori Maeda",
      "profile_path": "/i1yTlI3z5BvIuXQ26XtJ0PyLEAX.jpg",
      "popularity": 13.079,
      "adult": false,
      "known_for_department": "Acting"
    },
    {
      "id": 17401,
      "name": "Stephen Root",
      "profile_path": "/ihcP1Bbnj9QkC9tEoDA4IkmV2tX.jpg",
      "popularity": 13.077,
      "adult": false,
      "known_for_department": "Acting"
    },
    {
      "id": 83453,
      "name": "Victor French",
      "profile_path": "/mtvywlfKrr0DgY72CONUmWcCYwV.jpg",
      "popularity": 13.074,
      "adult": false,
      "known_for_department": "Acting"
    },
    {
      "id": 1169685,
      "name": "Eliana Jones",
      "profile_path": "/uY2EH2ZXjoMtsq9KWcPox4efgVk.jpg",
      "popularity": 13.071,
      "adult": false,
      "known_for_department": "Acting"
    },
    {
      "id": 19270,
      "name": "Michèle Mercier",
      "profile_path": "/eRAZgxJ5laS84HwSTFDVGjqmZEe.jpg",
      "popularity": 13.071,
      "adult": false,
      "known_for_department": "Acting"
    },
    {
      "id": 61186,
      "name": "Nicola Peltz Beckham",
      "profile_path": "/rTaeR2ijxQGlVD3ztL7QmJTdEY4.jpg",
      "popularity": 13.069,
      "adult": false,
      "known_for_department": "Acting"
    },
    {
      "id": 1081875,
      "name": "Joe Cole",
      "profile_path": "/33oo1eKMjLtknBWJBqtWvJQ8Xgv.jpg",
      "popularity": 13.058,
      "adult": false,
      "known_for_department": "Acting"
    },
    {
      "id": 53926,
      "name": "Jon Heder",
      "profile_path": "/xGLRJEKKmNsDpz6MefPMU4gqQj1.jpg",
      "popularity": 13.054,
      "adult": false,
      "known_for_department": "Acting"
    },
    {
      "id": 31549,
      "name": "Phil LaMarr",
      "profile_path": "/l5w0qABfsFBxjfWNnpFiaXnh4Nm.jpg",
      "popularity": 13.053,
      "adult": false,
      "known_for_department": "Acting"
    },
    {
      "id": 38085,
      "name": "Michael O'Keefe",
      "profile_path": "/wQsTL887RWvAJljzLhiPP52kjec.jpg",
      "popularity": 13.051,
      "adult": false,
      "known_for_department": "Acting"
    },
    {
      "id": 2273501,
      "name": "Alexis Louder",
      "profile_path": "/fCLuN1yyzMYPIuw7WndyYQ02cfv.jpg",
      "popularity": 13.047,
      "adult": false,
      "known_for_department": "Acting"
    },
    {
      "id": 209674,
      "name": "RJ Mitte",
      "profile_path": "/aG6NYV2EgzBFLRIl7vvbtd7go1j.jpg",
      "popularity": 13.045,
      "adult": false,
      "known_for_department": "Acting"
    }
  ]
}