{
  "page": 197,
  "total_results": 10000,
  "total_pages": 500,
  "results": [
    {
      "id": 113861,
      "name": "Luisa d'Oliveira",
      "profile_path": "/AqqrE7zKHBxtxeEvYHcwSzIgWlc.jpg",
      "popularity": 11.735,
      "adult": false,
      "known_for_department": "Acting"
    },
    {
      "id": 71403,
      "name": "Rob Riggle",
      "profile_path": "/hQgOp8vWxl6KPZbqzKSSL4k6G1j.jpg",
      "popularity": 11.735,
      "adult": false,
      "known_for_department": "Acting"
    },
    {
      "id": 2691051,
      "name": "Elçin Afacan",
      "profile_path": "/A2WIUT1o3fgXepgELNLshLRisqh.jpg",
      "popularity": 11.734,
      "adult": false,
      "known_for_department": "Acting"
    },
    {
      "id": 1224269,
      "name": "Aimee-Ffion Edwards",
      "profile_path": "/iwk8yjyWd46R5BFAYQLImFUvlHh.jpg",
      "popularity": 11.733,
      "adult": false,
      "known_for_department": "Acting"
    },
    {
      "id": 84214,
      "name": "Taylor Lautner",
      "profile_path": "/Abkz13gHDBDpqrPl2P51zUheVeE.jpg",
      "popularity": 11.733,
      "adult": false,
      "known_for_department": "Acting"
    },
    {
      "id": 1037348,
      "name": "Louis Hofmann",
      "profile_path": "/m3Mo38afbKmy9EOsfmUagvTFM9q.jpg",
      "popularity": 11.731,
      "adult": false,
      "known_for_department": "Acting"
    },
    {
      "id": 56861,
      "name": "Tony Leung Ka-fai",
      "profile_path": "/ksrZeHeEKqPm5GS1IrmJ9WC9sRS.jpg",
      "popularity": 11.731,
      "adult": false,
      "known_for_department": "Acting"
    },
    {
      "id": 1240868,
      "name": "Chelsea Peretti",
      "profile_path": "/4sy7TD87DEbGm0Tgv1ZgYumexqj.jpg",
      "popularity": 11.725,
      "adult": false,
      "known_for_department": "Acting"
    },
    {
      "id": 15293,
      "name": "Keisha Castle-Hughes",
      "profile_path": "/9lBukGiFVV0pKNwndaNhRQVnNmt.jpg",
      "popularity": 11.723,
      "adult": false,
      "known_for_department": "Acting"
    },
    {
      "id": 62863,
      "name": "Jorma Taccone",
      "profile_path": "/x7x4NvDauuQ7HA6psLZYZ6m3zTd.jpg",
      "popularity": 11.722,
      "adult": false,
      "known_for_department": "Acting"
    },
    {
      "id": 53240,
      "name": "Riz Ahmed",
      "profile_path": "/1uP9RaX7BGVx7XGTEmwObBJJzsC.jpg",
      "popularity": 11.721,
      "adult": false,
      "known_for_department": "Acting"
    },
    {
      "id": 12139,
      "name": "Lolita Davidovich",
      "profile_path": "/cDpuHwPkWkLy8LSBXKIn5Gx3JUF.jpg",
      "popularity": 11.72,
      "adult": false,
      "known_for_department": "Acting"
    },
    {
      "id": 2442126,
      "name": "Caylee Cowan",
      "profile_path": "/w4Z1ZmcLJt4plQ2tXaRXTRpOWcU.jpg",
      "popularity": 11.717,
      "adult": false,
      "known_for_department": "Acting"
    },
    {
      "id": 1429453,
      "name": "Sam Richardson",
      "profile_path": "/9GonbfsghKD33PZlvAttAhCS8S8.jpg",
      "popularity": 11.716,
      "adult": false,
      "known_for_department": "Acting"
    },
    {
      "id": 83014,
      "name": "Gang Dong-won",
      "profile_path": "/xGPT8rgvWuK8Qh7BKNd7fhKs8Sk.jpg",
      "popularity": 11.714,
      "adult": false,
      "known_for_department": "Acting"
    },
    {
      "id": 2253047,
      "name": "Banks Repeta",
      "profile_path": "/xx6aE6A1RnsDjtDd32CyGecr5tx.jpg",
      "popularity": 11.711,
      "adult": false,
      "known_for_department": "Acting"
    },
    {
      "id": 2098560,
      "name": "Katsamonnat Namwirote",
      "profile_path": "/19agT0l3D0KaHuehYlSlq9nIk9P.jpg",
      "popularity": 11.708,
      "adult": false,
      "known_for_department": "Acting"
    },
    {
      "id": 1257899,
      "name": "Kang Ha-neul",
      "profile_path": "/274YLNlty9xpLWtq5HEp3x97mLm.jpg",
      "popularity": 11.708,
      "adult": false,
      "known_for_department": "Acting"
    },
    {
      "id": 33292,
      "name": "Brooke Nevin",
      "profile_path": "/xt9ps5BkPMB5NSZbdQUfPIADork.jpg",
      "popularity": 11.708,
      "adult": false,
      "known_for_department": "Acting"
    },
    {
      "id": 1645312,
      "name": "Kate Rachesky",
      "profile_path": "/vTDjoDoDkXxhjXmCLtTgw4nu9Wy.jpg",
      "popularity": 11.705,
      "adult": false,
      "known_for_department": "Acting"
    }
  ]
}