{
  "page": 123,
  "total_results": 10000,
  "total_pages": 500,
  "results": [
    {
      "id": 2496632,
      "name": "Han Sung-min",
      "profile_path": "/5NOFzEDoVidworEG7VX3gzp1ONR.jpg",
      "popularity": 15.098,
      "adult": false,
      "known_for_department": "Acting"
    },
    {
      "id": 544797,
      "name": "Chin Siu-ho",
      "profile_path": "/6Xs2S8kF3pwDLXDmik02BwEmeCR.jpg",
      "popularity": 15.094,
      "adult": false,
      "known_for_department": "Acting"
    },
    {
      "id": 1902,
      "name": "Dianne Wiest",
      "profile_path": "/axqtFLgJNNz0N9i443USHCOvrmY.jpg",
      "popularity": 15.093,
      "adult": false,
      "known_for_department": "Acting"
    },
    {
      "id": 1188567,
      "name": "Morgan Turner",
      "profile_path": "/oIpJr6lOOwixCGfpcTT42n7VKsO.jpg",
      "popularity": 15.084,
      "adult": false,
      "known_for_department": "Acting"
    },
    {
      "id": 1369,
      "name": "Bernard Hill",
      "profile_path": "/5i8bj2nsTrFU2ddSynleOjapxor.jpg",
      "popularity": 15.084,
      "adult": false,
      "known_for_department": "Acting"
    },
    {
      "id": 5694,
      "name": "Robert Forster",
      "profile_path": "/vGDifxN2PnO69rnpg6FoWkocFCD.jpg",
      "popularity": 15.079,
      "adult": false,
      "known_for_department": "Acting"
    },
    {
      "id": 54645,
      "name": "Nia Vardalos",
      "profile_path": "/mHRTesN4HdyR89cXHoEtT9k8pIq.jpg",
      "popularity": 15.077,
      "adult": false,
      "known_for_department": "Acting"
    },
    {
      "id": 52760,
      "name": "Alan Dale",
      "profile_path": "/3BcpSoKBOwHX0wxaPZpOJ5buO89.jpg",
      "popularity": 15.075,
      "adult": false,
      "known_for_department": "Acting"
    },
    {
      "id": 19119,
      "name": "Mélanie Laurent",
      "profile_path": "/i99ogEo4gQyanCmHWYYoS6hsUqL.jpg",
      "popularity": 15.071,
      "adult": false,
      "known_for_department": "Acting"
    },
    {
      "id": 72873,
      "name": "Michael Stuhlbarg",
      "profile_path": "/aYB3SQm3h6ZyAdlbGyiNfakjx56.jpg",
      "popularity": 15.063,
      "adult": false,
      "known_for_department": "Acting"
    },
    {
      "id": 8537,
      "name": "Jonathan Hyde",
      "profile_path": "/1jYyW3B5omvMTVfEswqQQBrHN2.jpg",
      "popularity": 15.062,
      "adult": false,
      "known_for_department": "Acting"
    },
    {
      "id": 7624,
      "name": "Stan Lee",
      "profile_path": "/kKeyWoFtTqOPsbmwylNHmuB3En9.jpg",
      "popularity": 15.061,
      "adult": false,
      "known_for_department": "Writing"
    },
    {
      "id": 1181353,
      "name": "Ryan Eggold",
      "profile_path": "/6YZfGMzcugWwMquOIzGlsgx4wYN.jpg",
      "popularity": 15.06,
      "adult": false,
      "known_for_department": "Acting"
    },
    {
      "id": 3418,
      "name": "Vincent Schiavelli",
      "profile_path": "/8wq2WF9ohUUZZjfVxEEiUGxLHzp.jpg",
      "popularity": 15.06,
      "adult": false,
      "known_for_department": "Acting"
    },
    {
      "id": 78729,
      "name": "Nathan Lane",
      "profile_path": "/nEYS0KO1qVO3y0RAt8V8pFxnPb7.jpg",
      "popularity": 15.059,
      "adult": false,
      "known_for_department": "Acting"
    },
    {
      "id": 142660,
      "name": "Lisa Vicari",
      "profile_path": "/vgcvazU9vTHBrWacGc5lGKUNECz.jpg",
      "popularity": 15.057,
      "adult": false,
      "known_for_department": "Acting"
    },
    {
      "id": 2058708,
      "name": "Isabella Sermon",
      "profile_path": "/17lNC9C1mNuP0o5AJamwTJ9oaD5.jpg",
      "popularity": 15.056,
      "adult": false,
      "known_for_department": "Acting"
    },
    {
      "id": 21316,
      "name": "Nestor Carbonell",
      "profile_path": "/wAk4Me2INiNSpRvzU8K98743Uc1.jpg",
      "popularity": 15.055,
      "adult": false,
      "known_for_department": "Acting"
    },
    {
      "id": 1494304,
      "name": "Elçin Sangu",
      "profile_path": "/aqGaRjArErGpv2CjCuFazGiNpXu.jpg",
      "popularity": 15.053,
      "adult": false,
      "known_for_department": "Acting"
    },
    {
      "id": 1368795,
      "name": "Manny Jacinto",
      "profile_path": "/cjkZzaVR5StB4fqnl58NAOSsH0o.jpg",
      "popularity": 15.051,
      "adult": false,
      "known_for_department": "Acting"
    }
  ]
}