{
  "page": 486,
  "total_results": 10000,
  "total_pages": 500,
  "results": [
    {
      "id": 10555,
      "name": "Tony Roberts",
      "profile_path": "/jWFr0V9zwg4DF2Ya9AmUQARottN.jpg",
      "popularity": 7.764,
      "adult": false,
      "known_for_department": "Acting"
    },
    {
      "id": 570784,
      "name": "Aliette Opheim",
      "profile_path": "/mAmTygwd20C3bHEZbusLfPOFmmi.jpg",
      "popularity": 7.763,
      "adult": false,
      "known_for_department": "Acting"
    },
    {
      "id": 9708,
      "name": "Keiji Fujiwara",
      "profile_path": "/hbfBiFiEvD8u3vikl6hUNLKF7Lv.jpg",
      "popularity": 7.763,
      "adult": false,
      "known_for_department": "Acting"
    },
    {
      "id": 1718957,
      "name": "Nicole Maines",
      "profile_path": "/4LBk3R26NpjH78hJ2W1T8h3luil.jpg",
      "popularity": 7.762,
      "adult": false,
      "known_for_department": "Acting"
    },
    {
      "id": 1221143,
      "name": "Nobuo Tobita",
      "profile_path": "/rmghX9dlaATeebKkTNhtAmWGNuG.jpg",
      "popularity": 7.762,
      "adult": false,
      "known_for_department": "Acting"
    },
    {
      "id": 10593,
      "name": "George Harrison",
      "profile_path": "/rbcU4QSEWTKvLoJCRXGPati4KjJ.jpg",
      "popularity": 7.762,
      "adult": false,
      "known_for_department": "Acting"
    },
    {
      "id": 553810,
      "name": "Naoko Watanabe",
      "profile_path": "/68bJm1HEuITFObfpu5K9QvfaFQr.jpg",
      "popularity": 7.761,
      "adult": false,
      "known_for_department": "Acting"
    },
    {
      "id": 67767,
      "name": "Hal Needham",
      "profile_path": "/9nObbakzuM5aeCMIgY5yRASnkNQ.jpg",
      "popularity": 7.761,
      "adult": false,
      "known_for_department": "Acting"
    },
    {
      "id": 62854,
      "name": "Akiva Schaffer",
      "profile_path": "/1Om7CQXHoUr4rrVrsmyutDwWfck.jpg",
      "popularity": 7.761,
      "adult": false,
      "known_for_department": "Directing"
    },
    {
      "id": 1234600,
      "name": "Jung Il-woo",
      "profile_path": "/znYZO1v1oJr48YXA3UNY62h3ZFp.jpg",
      "popularity": 7.76,
      "adult": false,
      "known_for_department": "Acting"
    },
    {
      "id": 33835,
      "name": "Tim Hopper",
      "profile_path": "/7QlEV2Bl4mEw5JS14cJGwRjNJBV.jpg",
      "popularity": 7.76,
      "adult": false,
      "known_for_department": "Acting"
    },
    {
      "id": 1897341,
      "name": "Jiang Peiyao",
      "profile_path": "/a7fB9Uwg4gu3SIqlXn55saH76DL.jpg",
      "popularity": 7.759,
      "adult": false,
      "known_for_department": "Acting"
    },
    {
      "id": 17403,
      "name": "Mike Judge",
      "profile_path": "/8jEumAVtJ23rE4XZ0YrvVKAUKjk.jpg",
      "popularity": 7.759,
      "adult": false,
      "known_for_department": "Acting"
    },
    {
      "id": 964,
      "name": "Eloy Azorín",
      "profile_path": "/xSBOlzQC3NwchCDRuWvPrS1pASB.jpg",
      "popularity": 7.759,
      "adult": false,
      "known_for_department": "Acting"
    },
    {
      "id": 100653,
      "name": "Vanessa Bell Calloway",
      "profile_path": "/6gJua6IKvhGrCTU1UzgRhOM9oyl.jpg",
      "popularity": 7.758,
      "adult": false,
      "known_for_department": "Acting"
    },
    {
      "id": 45369,
      "name": "Ty Hardin",
      "profile_path": "/f7X1PohBLN9ZgXcVpI9R15wqHPk.jpg",
      "popularity": 7.758,
      "adult": false,
      "known_for_department": "Acting"
    },
    {
      "id": 20313,
      "name": "Asumi Miwa",
      "profile_path": "/gQwPBSNPBFfaW3FaDNmPY2wrMo6.jpg",
      "popularity": 7.758,
      "adult": false,
      "known_for_department": "Acting"
    },
    {
      "id": 1274232,
      "name": "Ariane Rinehart",
      "profile_path": "/bOVhAoSJzJtM1DqBGiONNOpkiuE.jpg",
      "popularity": 7.757,
      "adult": false,
      "known_for_department": "Acting"
    },
    {
      "id": 1116802,
      "name": "Jet Jurgensmeyer",
      "profile_path": "/gxZeJjBYmIvxuOOa1Ql1kFTNC6L.jpg",
      "popularity": 7.757,
      "adult": false,
      "known_for_department": "Acting"
    },
    {
      "id": 84044,
      "name": "Shota Matsuda",
      "profile_path": "/bQH3yD2GZRA5LSwf0oAAXYTO7zd.jpg",
      "popularity": 7.757,
      "adult": false,
      "known_for_department": "Acting"
    }
  ]
}