{
  "page": 324,
  "total_results": 10000,
  "total_pages": 500,
  "results": [
    {
      "id": 10938,
      "name": "Barbara Carrera",
      "profile_path": "/a7U7R803rUUxPFow2vhHloQ6BSZ.jpg",
      "popularity": 11.503,
      "adult": false,
      "known_for_department": "Acting"
    },
    {
      "id": 1479774,
      "name": "Marie Blokhus",
      "profile_path": "/eifQ9Sa5x4bbeDhcwuELniU8AdV.jpg",
      "popularity": 11.501,
      "adult": false,
      "known_for_department": "Acting"
    },
    {
      "id": 52762,
      "name": "Pasha D. Lychnikoff",
      "profile_path": "/xftO8wDW9j4RBO91g9wWzDAAHbz.jpg",
      "popularity": 11.5,
      "adult": false,
      "known_for_department": "Acting"
    },
    {
      "id": 1630438,
      "name": "Ceci Balagot",
      "profile_path": "/dGTjxYsfR6UIKq7sBwtG6Q6T3FB.jpg",
      "popularity": 11.499,
      "adult": false,
      "known_for_department": "Acting"
    },
    {
      "id": 151975,
      "name": "Christopher Russell",
      "profile_path": "/6lqQsR2Ot7nYthCGxfKBzmPzyV3.jpg",
      "popularity": 11.499,
      "adult": false,
      "known_for_department": "Acting"
    },
    {
      "id": 1368794,
      "name": "Dianne Doan",
      "profile_path": "/1qOHNQerubLL28fkAX2swY9bAIz.jpg",
      "popularity": 11.498,
      "adult": false,
      "known_for_department": "Acting"
    },
    {
      "id": 228371,
      "name": "Chad Michael Collins",
      "profile_path": "/9lcEpAYRBCylYIVMZYXHqfmRzfP.jpg",
      "popularity": 11.497,
      "adult": false,
      "known_for_department": "Acting"
    },
    {
      "id": 97823,
      "name": "Joe Estevez",
      "profile_path": "/5Ptl8apcuessOd2SpSYdt1lLcZl.jpg",
      "popularity": 11.497,
      "adult": false,
      "known_for_department": "Acting"
    },
    {
      "id": 3429744,
      "name": "Oscar Novak",
      "profile_path": "/1szSUGDHFQjCZDdnKVBf9iVti1V.jpg",
      "popularity": 11.496,
      "adult": false,
      "known_for_department": "Acting"
    },
    {
      "id": 1684142,
      "name": "Paola Lázaro",
      "profile_path": "/yoIuxBYuTkQQu5jXI8F6Bdu59vf.jpg",
      "popularity": 11.495,
      "adult": false,
      "known_for_department": "Acting"
    },
    {
      "id": 3695511,
      "name": "Ayesha Aure",
      "profile_path": "",
      "popularity": 11.494,
      "adult": false,
      "known_for_department": "Acting"
    },
    {
      "id": 30551,
      "name": "Jeffrey Hunter",
      "profile_path": "/enQuu8yfrL0VX7BL3FqsM7DGcqF.jpg",
      "popularity": 11.493,
      "adult": false,
      "known_for_department": "Acting"
    },
    {
      "id": 19589,
      "name": "Mari Natsuki",
      "profile_path": "/aRs3dGqA2bCuGSZ7lJGhQKe8rhp.jpg",
      "popularity": 11.493,
      "adult": false,
      "known_for_department": "Acting"
    },
    {
      "id": 3596934,
      "name": "Andrea Garcia",
      "profile_path": "",
      "popularity": 11.492,
      "adult": false,
      "known_for_department": "Acting"
    },
    {
      "id": 1295126,
      "name": "Alice Ozawa",
      "profile_path": "/ox2AUa3RgL5onej4DPvz7mkFOHD.jpg",
      "popularity": 11.492,
      "adult": false,
      "known_for_department": "Acting"
    },
    {
      "id": 31923,
      "name": "Oliver Ford Davies",
      "profile_path": "/hDdpoEWtNd0c46PcuORomdEI5j0.jpg",
      "popularity": 11.491,
      "adult": false,
      "known_for_department": "Acting"
    },
    {
      "id": 31029,
      "name": "Kristen Wilson",
      "profile_path": "/ld2W1mIvaS0yAd3pHW2wyeacg8v.jpg",
      "popularity": 11.491,
      "adult": false,
      "known_for_department": "Acting"
    },
    {
      "id": 46773,
      "name": "Parisa Fitz-Henley",
      "profile_path": "/dM1DAi2IzBgq1Qb7o8JcrRa89dY.jpg",
      "popularity": 11.49,
      "adult": false,
      "known_for_department": "Acting"
    },
    {
      "id": 58691,
      "name": "Heather Locklear",
      "profile_path": "/qDyoFs0GzYIIp3kxg0znfqEq5Vp.jpg",
      "popularity": 11.488,
      "adult": false,
      "known_for_department": "Acting"
    },
    {
      "id": 41547,
      "name": "Georgina Chapman",
      "profile_path": "/qglKMFB8JP3LoHFPStl2nxxubjC.jpg",
      "popularity": 11.488,
      "adult": false,
      "known_for_department": "Acting"
    }
  ]
}