{
  "page": 150,
  "total_results": 10000,
  "total_pages": 500,
  "results": [
    {
      "id": 1318650,
      "name": "Willa Fitzgerald",
      "profile_path": "/l2xGZi2091DxdCSNEu9xbJ0XRYK.jpg",
      "popularity": 15.123,
      "adult": false,
      "known_for_department": "Acting"
    },
    {
      "id": 1565993,
      "name": "Lee Si-woo",
      "profile_path": "/btlUCyukAppRNbmfzFyV2vZOPQz.jpg",
      "popularity": 15.122,
      "adult": false,
      "known_for_department": "Acting"
    },
    {
      "id": 18892,
      "name": "Goldie Hawn",
      "profile_path": "/u2g5VUylAJoXGWhoxFTLUmaX6O7.jpg",
      "popularity": 15.12,
      "adult": false,
      "known_for_department": "Acting"
    },
    {
      "id": 2058708,
      "name": "Isabella Sermon",
      "profile_path": "/17lNC9C1mNuP0o5AJamwTJ9oaD5.jpg",
      "popularity": 15.119,
      "adult": false,
      "known_for_department": "Acting"
    },
    {
      "id": 26485,
      "name": "Jim Belushi",
      "profile_path": "/wIvFYH110ER7ukwR0qryQJJDQYH.jpg",
      "popularity": 15.118,
      "adult": false,
      "known_for_department": "Acting"
    },
    {
      "id": 294813,
      "name": "Ali Afshar",
      "profile_path": "/9Z7OqjfsZtg6ifDhiA3AwMQlIXV.jpg",
      "popularity": 15.117,
      "adult": false,
      "known_for_department": "Acting"
    },
    {
      "id": 116573,
      "name": "Martin Cummins",
      "profile_path": "/gnc1YUrHiYciRWB4ZCJFk9boAHg.jpg",
      "popularity": 15.113,
      "adult": false,
      "known_for_department": "Acting"
    },
    {
      "id": 34053,
      "name": "Ana Wagener",
      "profile_path": "/1UteQMIFBSdcYpZ5zDPI2VNOQYU.jpg",
      "popularity": 15.112,
      "adult": false,
      "known_for_department": "Acting"
    },
    {
      "id": 1168704,
      "name": "Amy Johnston",
      "profile_path": "/mZ35eWr4m2I4ufswUAwx7v0D8ZF.jpg",
      "popularity": 15.107,
      "adult": false,
      "known_for_department": "Acting"
    },
    {
      "id": 57136,
      "name": "Ryan Merriman",
      "profile_path": "/rVx3MB8tbt9V5gaIHB4zQQM9N0z.jpg",
      "popularity": 15.103,
      "adult": false,
      "known_for_department": "Acting"
    },
    {
      "id": 33656,
      "name": "Heather Matarazzo",
      "profile_path": "/afZhMKmsAHZA9jHq7F9tNUFZci6.jpg",
      "popularity": 15.103,
      "adult": false,
      "known_for_department": "Acting"
    },
    {
      "id": 15992,
      "name": "William Schallert",
      "profile_path": "/862YCXRbmhADXVC0RaxfwNT9g4E.jpg",
      "popularity": 15.103,
      "adult": false,
      "known_for_department": "Acting"
    },
    {
      "id": 7133,
      "name": "Max Casella",
      "profile_path": "/3IdkJnQIoSwPkF0FN5YYEsQsG0P.jpg",
      "popularity": 15.103,
      "adult": false,
      "known_for_department": "Acting"
    },
    {
      "id": 245,
      "name": "Keir Dullea",
      "profile_path": "/dL9i0nCk2fCgInZNaYVjGck2IBp.jpg",
      "popularity": 15.103,
      "adult": false,
      "known_for_department": "Acting"
    },
    {
      "id": 3090060,
      "name": "Simone Susinna",
      "profile_path": "/ave6292vdlcySUKee9T3oMUVhvY.jpg",
      "popularity": 15.1,
      "adult": false,
      "known_for_department": "Acting"
    },
    {
      "id": 1447224,
      "name": "Sara Vickers",
      "profile_path": "/4p4OAdzxZ7jyo2lwMEoXu6Fk1zx.jpg",
      "popularity": 15.1,
      "adult": false,
      "known_for_department": "Acting"
    },
    {
      "id": 1325230,
      "name": "Ayumu Murase",
      "profile_path": "/3aGM6KpcCIEKOXP9510tzaKc8uw.jpg",
      "popularity": 15.099,
      "adult": false,
      "known_for_department": "Acting"
    },
    {
      "id": 44935,
      "name": "Lynda Carter",
      "profile_path": "/qZJgjBKEL4ioZywSGzYzxldEAvf.jpg",
      "popularity": 15.095,
      "adult": false,
      "known_for_department": "Acting"
    },
    {
      "id": 3008,
      "name": "Alan Rosenberg",
      "profile_path": "/fk5nR9aLZBjGA67J5SOK3FWjjWF.jpg",
      "popularity": 15.091,
      "adult": false,
      "known_for_department": "Acting"
    },
    {
      "id": 8332,
      "name": "Laurie Holden",
      "profile_path": "/h0iQdEl4cnxBIhDHepsU9Jy8br7.jpg",
      "popularity": 15.09,
      "adult": false,
      "known_for_department": "Acting"
    }
  ]
}