{
  "page": 273,
  "total_results": 10000,
  "total_pages": 500,
  "results": [
    {
      "id": 20057,
      "name": "Michelle Fairley",
      "profile_path": "/j8lQfEPHCKWV2QCiJJuH97CnoBX.jpg",
      "popularity": 9.834,
      "adult": false,
      "known_for_department": "Acting"
    },
    {
      "id": 15905,
      "name": "Robyn Lively",
      "profile_path": "/tz4oKXOkJhHZezaQUTgo66gPn77.jpg",
      "popularity": 9.834,
      "adult": false,
      "known_for_department": "Acting"
    },
    {
      "id": 142213,
      "name": "Nazanin Boniadi",
      "profile_path": "/ftBadbFBgRZJcWn9YfbPv8Btyg0.jpg",
      "popularity": 9.832,
      "adult": false,
      "known_for_department": "Acting"
    },
    {
      "id": 106837,
      "name": "Cory Everson",
      "profile_path": "/ijOGlyqynxmdIkuVe6kFP2Rn3Qr.jpg",
      "popularity": 9.831,
      "adult": false,
      "known_for_department": "Acting"
    },
    {
      "id": 75036,
      "name": "Natalya Rudakova",
      "profile_path": "/7439tb7LAfZGRtZq2GyMts8RKDn.jpg",
      "popularity": 9.831,
      "adult": false,
      "known_for_department": "Acting"
    },
    {
      "id": 154784,
      "name": "Dominic Fumusa",
      "profile_path": "/cggOfZTrfQTRfmLJURaPQfk6jdS.jpg",
      "popularity": 9.828,
      "adult": false,
      "known_for_department": "Acting"
    },
    {
      "id": 1597386,
      "name": "Sheila Flitton",
      "profile_path": "/4kmscr7OwIUQGGqCsneCEZ2sVfc.jpg",
      "popularity": 9.825,
      "adult": false,
      "known_for_department": "Acting"
    },
    {
      "id": 17345,
      "name": "Rockmond Dunbar",
      "profile_path": "/jPeVjtCH3bo1tzbDogdXyZpNrir.jpg",
      "popularity": 9.825,
      "adult": false,
      "known_for_department": "Acting"
    },
    {
      "id": 11866,
      "name": "Joshua Jackson",
      "profile_path": "/mH2a5YFd8J7upjjWwEzM75vitA2.jpg",
      "popularity": 9.824,
      "adult": false,
      "known_for_department": "Acting"
    },
    {
      "id": 2272490,
      "name": "Luna Fulgencio",
      "profile_path": "/bg4TTV3Ix4S3AQWtvxDC0AkwwIw.jpg",
      "popularity": 9.823,
      "adult": false,
      "known_for_department": "Acting"
    },
    {
      "id": 235492,
      "name": "Weronika Rosati",
      "profile_path": "/6GUOUPkpY5UODU6srmYGL9l0fI0.jpg",
      "popularity": 9.822,
      "adult": false,
      "known_for_department": "Acting"
    },
    {
      "id": 2014560,
      "name": "Fuju Kamio",
      "profile_path": "/rrc33XH7CDXMqTPJ4ORn9o1TMIb.jpg",
      "popularity": 9.821,
      "adult": false,
      "known_for_department": "Acting"
    },
    {
      "id": 81097,
      "name": "Shawn Roberts",
      "profile_path": "/vrA6GKTV7TuRHYlNFGLuqmCweBu.jpg",
      "popularity": 9.821,
      "adult": false,
      "known_for_department": "Acting"
    },
    {
      "id": 13275,
      "name": "Tadanobu Asano",
      "profile_path": "/wDw1z9Pk9dEzopzlZQ4X8wTbj1t.jpg",
      "popularity": 9.821,
      "adult": false,
      "known_for_department": "Acting"
    },
    {
      "id": 11359,
      "name": "Robert Tapert",
      "profile_path": "/tAtStnFgeJaTm9QmhajADZGiQi9.jpg",
      "popularity": 9.82,
      "adult": false,
      "known_for_department": "Production"
    },
    {
      "id": 19803,
      "name": "Leonardo Sbaraglia",
      "profile_path": "/jCpIcRZ2Md8iO5PnYYytGCKC2T5.jpg",
      "popularity": 9.818,
      "adult": false,
      "known_for_department": "Acting"
    },
    {
      "id": 7666,
      "name": "Henry Travers",
      "profile_path": "/7qsZdxnngfOqXVaJOodfzeH6OGx.jpg",
      "popularity": 9.816,
      "adult": false,
      "known_for_department": "Acting"
    },
    {
      "id": 79343,
      "name": "Laura Mennell",
      "profile_path": "/onIPcCc3swg2q2k2vRcNtqYdwaQ.jpg",
      "popularity": 9.814,
      "adult": false,
      "known_for_department": "Acting"
    },
    {
      "id": 117443,
      "name": "Dick Wolf",
      "profile_path": "/tRMEuYNVFjXYJ7gh1sGJSxq9Vwq.jpg",
      "popularity": 9.812,
      "adult": false,
      "known_for_department": "Creator"
    },
    {
      "id": 17414,
      "name": "Jill Talley",
      "profile_path": "/Agn37LbeahPpzrUxPFGSlMo52sX.jpg",
      "popularity": 9.812,
      "adult": false,
      "known_for_department": "Acting"
    }
  ]
}