{
  "page": 108,
  "total_results": 10000,
  "total_pages": 500,
  "results": [
    {
      "id": 18847,
      "name": "Irene Papas",
      "profile_path": "/ql3alLBiMWv6AkV0izHbXfpgcau.jpg",
      "popularity": 15.505,
      "adult": false,
      "known_for_department": "Acting"
    },
    {
      "id": 6639,
      "name": "Emilia Fox",
      "profile_path": "/lZpNRsHAOW8m0f7bRfgUDmRRjo.jpg",
      "popularity": 15.505,
      "adult": false,
      "known_for_department": "Acting"
    },
    {
      "id": 59017,
      "name": "Jurnee Smollett",
      "profile_path": "/ohvV70Ar4rlL5I3WzxQGtRjpsgS.jpg",
      "popularity": 15.504,
      "adult": false,
      "known_for_department": "Acting"
    },
    {
      "id": 83586,
      "name": "Ken Jeong",
      "profile_path": "/qyQjrabai21fueat4oPVylRbBwC.jpg",
      "popularity": 15.503,
      "adult": false,
      "known_for_department": "Acting"
    },
    {
      "id": 1436106,
      "name": "Patrick Page",
      "profile_path": "/zNlSyYR7JIbXhcmfseLgJnJY2LS.jpg",
      "popularity": 15.502,
      "adult": false,
      "known_for_department": "Acting"
    },
    {
      "id": 16848,
      "name": "Rob Zombie",
      "profile_path": "/kkl4gjIJ1pyEJhNp2B2HricD2v7.jpg",
      "popularity": 15.502,
      "adult": false,
      "known_for_department": "Acting"
    },
    {
      "id": 87316,
      "name": "Lindsay Price",
      "profile_path": "/zlwhEOTUWOoiXHBUAMjScFy1qyu.jpg",
      "popularity": 15.494,
      "adult": false,
      "known_for_department": "Acting"
    },
    {
      "id": 4455,
      "name": "Ulrich Thomsen",
      "profile_path": "/tfbcIIvi8ArK001GAn0k0oCheWc.jpg",
      "popularity": 15.492,
      "adult": false,
      "known_for_department": "Acting"
    },
    {
      "id": 21163,
      "name": "Gary Cole",
      "profile_path": "/gPxHlVK9vNQSa5DkTFKYvLMASdE.jpg",
      "popularity": 15.486,
      "adult": false,
      "known_for_department": "Acting"
    },
    {
      "id": 521,
      "name": "Michael J. Fox",
      "profile_path": "/2JB4FMgQmnhbBlQ4SxWFN9EIVDi.jpg",
      "popularity": 15.479,
      "adult": false,
      "known_for_department": "Acting"
    },
    {
      "id": 8169,
      "name": "Tyrese Gibson",
      "profile_path": "/jxYVyr2UFlQ9TxPBCnj8cvcKi3F.jpg",
      "popularity": 15.475,
      "adult": false,
      "known_for_department": "Acting"
    },
    {
      "id": 1822751,
      "name": "Raquel Xu",
      "profile_path": "/kTtlxvYvkxOOEKZbd3xPreE5MX5.jpg",
      "popularity": 15.474,
      "adult": false,
      "known_for_department": "Acting"
    },
    {
      "id": 2012560,
      "name": "Evgeniya Gromova",
      "profile_path": "/pvSKmtlH8q9fVqXZwlFIl3CgKie.jpg",
      "popularity": 15.467,
      "adult": false,
      "known_for_department": "Acting"
    },
    {
      "id": 3027,
      "name": "Stephen King",
      "profile_path": "/7r5nEzNanuEhmxtpsKE1uCBU5Jd.jpg",
      "popularity": 15.465,
      "adult": false,
      "known_for_department": "Writing"
    },
    {
      "id": 221840,
      "name": "Sara Canning",
      "profile_path": "/55AL7y8ybTE7uvpQALughR7bkkB.jpg",
      "popularity": 15.461,
      "adult": false,
      "known_for_department": "Acting"
    },
    {
      "id": 4154,
      "name": "Brenda Blethyn",
      "profile_path": "/yUq4vKJ3SmvDZNKvXmA4OdXehDj.jpg",
      "popularity": 15.46,
      "adult": false,
      "known_for_department": "Acting"
    },
    {
      "id": 1399228,
      "name": "Sabrina Qiu",
      "profile_path": "/cXuhzwtSqPpWPCUW3tJW9J6oHGP.jpg",
      "popularity": 15.458,
      "adult": false,
      "known_for_department": "Acting"
    },
    {
      "id": 52886,
      "name": "Jeffrey Donovan",
      "profile_path": "/wlDXfXpu6Uz32LUmbFzU8QPDoQH.jpg",
      "popularity": 15.457,
      "adult": false,
      "known_for_department": "Acting"
    },
    {
      "id": 3901,
      "name": "Richard Brake",
      "profile_path": "/JwsiErANShzPSdYsNoiNYdrSg1.jpg",
      "popularity": 15.446,
      "adult": false,
      "known_for_department": "Acting"
    },
    {
      "id": 9208,
      "name": "Robert Wagner",
      "profile_path": "/dgIN3MrOfX8Q4pzchO58dhMgrFb.jpg",
      "popularity": 15.441,
      "adult": false,
      "known_for_department": "Acting"
    }
  ]
}