{
  "page": 473,
  "total_results": 10000,
  "total_pages": 500,
  "results": [
    {
      "id": 1295762,
      "name": "Keerthy Suresh",
      "profile_path": "/fTdgSinsAitdujBBEUEA72GY0pv.jpg",
      "popularity": 7.445,
      "adult": false,
      "known_for_department": "Acting"
    },
    {
      "id": 62870,
      "name": "Chris Eastman",
      "profile_path": "/9ZZXhy4pzyJvZLrmINpugJzZNAg.jpg",
      "popularity": 7.445,
      "adult": false,
      "known_for_department": "Acting"
    },
    {
      "id": 2476984,
      "name": "Song Chae-yoon",
      "profile_path": "/8JiL0bnYy3SxQa8eGEmtQtRuvOe.jpg",
      "popularity": 7.442,
      "adult": false,
      "known_for_department": "Acting"
    },
    {
      "id": 85955,
      "name": "Emma Lahana",
      "profile_path": "/d3PLvcS569DSV7GiJnKi0o5awn2.jpg",
      "popularity": 7.442,
      "adult": false,
      "known_for_department": "Acting"
    },
    {
      "id": 64655,
      "name": "Dennis Alexio",
      "profile_path": "/52JnJl2obmRKsOTHtJLriQsEQuK.jpg",
      "popularity": 7.442,
      "adult": false,
      "known_for_department": "Acting"
    },
    {
      "id": 3146,
      "name": "Billy Wilder",
      "profile_path": "/tfVte6h2dlLn59Q0Mi6AvWAyRLP.jpg",
      "popularity": 7.442,
      "adult": false,
      "known_for_department": "Directing"
    },
    {
      "id": 141464,
      "name": "Natalie Becker",
      "profile_path": "/61BYuT0gYCGkCk7anrhm590pbAN.jpg",
      "popularity": 7.441,
      "adult": false,
      "known_for_department": "Acting"
    },
    {
      "id": 67849,
      "name": "Mary-Kate Olsen",
      "profile_path": "/iKQ5OoUrPtQU0BMtKhR0joVWQZT.jpg",
      "popularity": 7.441,
      "adult": false,
      "known_for_department": "Acting"
    },
    {
      "id": 1386418,
      "name": "Min Do-hee",
      "profile_path": "/7dBJa03FiOZPd1KNeU5cE40aQEW.jpg",
      "popularity": 7.44,
      "adult": false,
      "known_for_department": "Acting"
    },
    {
      "id": 17755,
      "name": "Beulah Bondi",
      "profile_path": "/eMBdRplrMZfv7xC5FjzfOiOOb3E.jpg",
      "popularity": 7.44,
      "adult": false,
      "known_for_department": "Acting"
    },
    {
      "id": 1555603,
      "name": "Victor Meutelet",
      "profile_path": "/zROH5MBP1XCjLUaeBSmCyVi27i9.jpg",
      "popularity": 7.439,
      "adult": false,
      "known_for_department": "Acting"
    },
    {
      "id": 169469,
      "name": "Jesse Hutch",
      "profile_path": "/3gMEoFGaIO3hBP6cURsEtxNozGI.jpg",
      "popularity": 7.439,
      "adult": false,
      "known_for_department": "Acting"
    },
    {
      "id": 40621,
      "name": "Kristine DeBell",
      "profile_path": "/5YP11AMU4oJxL0rP6yAMbhaDDxo.jpg",
      "popularity": 7.439,
      "adult": false,
      "known_for_department": "Acting"
    },
    {
      "id": 2013140,
      "name": "Roberto García Ruiz",
      "profile_path": "/zaEYmC7DhMHgbdPovfmYVZD8spJ.jpg",
      "popularity": 7.438,
      "adult": false,
      "known_for_department": "Acting"
    },
    {
      "id": 1033745,
      "name": "Camille Rutherford",
      "profile_path": "/cyozLQQZRlJ7VPiF3roNoJLfoBR.jpg",
      "popularity": 7.438,
      "adult": false,
      "known_for_department": "Acting"
    },
    {
      "id": 228029,
      "name": "Mel Lisboa",
      "profile_path": "/co3jLgFeut9qnoMLwPIHvV96IAk.jpg",
      "popularity": 7.438,
      "adult": false,
      "known_for_department": "Acting"
    },
    {
      "id": 41252,
      "name": "Pat Crowley",
      "profile_path": "/2woVjN3Tf2HTXmWvW84alnwpRFZ.jpg",
      "popularity": 7.438,
      "adult": false,
      "known_for_department": "Acting"
    },
    {
      "id": 26142,
      "name": "Millie Perkins",
      "profile_path": "/go1PNFwnfuUuMcVLSKpua2dUIRk.jpg",
      "popularity": 7.438,
      "adult": false,
      "known_for_department": "Acting"
    },
    {
      "id": 146356,
      "name": "Elizabeth Cervantes",
      "profile_path": "/sSnfUpOchwH8RCHIHenJxv751eN.jpg",
      "popularity": 7.437,
      "adult": false,
      "known_for_department": "Acting"
    },
    {
      "id": 589923,
      "name": "Nana Eikura",
      "profile_path": "/xzVbPnEvqePnULOq86MpEBc3UUr.jpg",
      "popularity": 7.436,
      "adult": false,
      "known_for_department": "Acting"
    }
  ]
}