{
  "page": 111,
  "total_results": 10000,
  "total_pages": 500,
  "results": [
    {
      "id": 9033,
      "name": "Christopher McQuarrie",
      "profile_path": "/82W339V8turXUdaCajqOyekxhmD.jpg",
      "popularity": 16.087,
      "adult": false,
      "known_for_department": "Writing"
    },
    {
      "id": 212934,
      "name": "Avan Jogia",
      "profile_path": "/7BX0Lg39bHlgtvWZpszTr1YjTAW.jpg",
      "popularity": 16.082,
      "adult": false,
      "known_for_department": "Acting"
    },
    {
      "id": 42279,
      "name": "Laura Fraser",
      "profile_path": "/4aD3xDLA22CIf6jdK0IAs75h8pp.jpg",
      "popularity": 16.082,
      "adult": false,
      "known_for_department": "Acting"
    },
    {
      "id": 5176,
      "name": "Sam McMurray",
      "profile_path": "/pbZSG0hprUcRkUF3q4NUUzvQX3E.jpg",
      "popularity": 16.079,
      "adult": false,
      "known_for_department": "Acting"
    },
    {
      "id": 23931,
      "name": "Mira Sorvino",
      "profile_path": "/nThgMCWdMpNgjGmHQrKMUAYKoQa.jpg",
      "popularity": 16.072,
      "adult": false,
      "known_for_department": "Acting"
    },
    {
      "id": 1146,
      "name": "Julie Delpy",
      "profile_path": "/rd40f4QpAUUne3hMaUhHrZtcK2c.jpg",
      "popularity": 16.062,
      "adult": false,
      "known_for_department": "Acting"
    },
    {
      "id": 74289,
      "name": "Amanda Righetti",
      "profile_path": "/glAhErOplmToSjCf5QB8mjAnuXt.jpg",
      "popularity": 16.058,
      "adult": false,
      "known_for_department": "Acting"
    },
    {
      "id": 21624,
      "name": "Judd Nelson",
      "profile_path": "/7kRf8vE0ZjMuunh8BaD50B3EhS5.jpg",
      "popularity": 16.058,
      "adult": false,
      "known_for_department": "Acting"
    },
    {
      "id": 1798797,
      "name": "Froy Gutierrez",
      "profile_path": "/8sCm6Jl8jDUwRBin6k7CIFIm0yg.jpg",
      "popularity": 16.057,
      "adult": false,
      "known_for_department": "Acting"
    },
    {
      "id": 144275,
      "name": "Karla Souza",
      "profile_path": "/d4iLj14HOwgo1KDAGVOpL0T8iFm.jpg",
      "popularity": 16.053,
      "adult": false,
      "known_for_department": "Acting"
    },
    {
      "id": 72873,
      "name": "Michael Stuhlbarg",
      "profile_path": "/aYB3SQm3h6ZyAdlbGyiNfakjx56.jpg",
      "popularity": 16.053,
      "adult": false,
      "known_for_department": "Acting"
    },
    {
      "id": 52480,
      "name": "Eddie Kaye Thomas",
      "profile_path": "/glUDeCvXfoLXgE0JJ5CboDpFW4R.jpg",
      "popularity": 16.05,
      "adult": false,
      "known_for_department": "Acting"
    },
    {
      "id": 13314,
      "name": "Dana Ivey",
      "profile_path": "/oQEeRwEb9w4TuSVp334OP9z6Ljm.jpg",
      "popularity": 16.049,
      "adult": false,
      "known_for_department": "Acting"
    },
    {
      "id": 36042,
      "name": "Rachel Ward",
      "profile_path": "/8jksGCUaR1MgWSo2nqxY7SCSyYj.jpg",
      "popularity": 16.041,
      "adult": false,
      "known_for_department": "Acting"
    },
    {
      "id": 8487,
      "name": "Gregory Peck",
      "profile_path": "/1inRvnNChyobOnEpIdCUZsNStRW.jpg",
      "popularity": 16.036,
      "adult": false,
      "known_for_department": "Acting"
    },
    {
      "id": 88699,
      "name": "Steven R. McQueen",
      "profile_path": "/y07CdWjGxsDU5qiukWpSEFDZT91.jpg",
      "popularity": 16.033,
      "adult": false,
      "known_for_department": "Acting"
    },
    {
      "id": 36628,
      "name": "Kate del Castillo",
      "profile_path": "/7m4oa23hAsqW3cE8cDF72QhIv9t.jpg",
      "popularity": 16.026,
      "adult": false,
      "known_for_department": "Acting"
    },
    {
      "id": 21798,
      "name": "Johnny Messner",
      "profile_path": "/1TL83UaGFeBg0Se3h9r066VcHjo.jpg",
      "popularity": 16.026,
      "adult": false,
      "known_for_department": "Acting"
    },
    {
      "id": 12836,
      "name": "Ted Danson",
      "profile_path": "/2QUEYVhrKbOkRKeFEUnc5sJby6a.jpg",
      "popularity": 16.026,
      "adult": false,
      "known_for_department": "Acting"
    },
    {
      "id": 2092377,
      "name": "Aya Wolf",
      "profile_path": "/f7XpkkPTzJXutXVdjrs6lXtDdNc.jpg",
      "popularity": 16.023,
      "adult": false,
      "known_for_department": "Acting"
    }
  ]
}