{
  "page": 82,
  "total_results": 10000,
  "total_pages": 500,
  "results": [
    {
      "id": 5367,
      "name": "Zach Braff",
      "profile_path": "/wUAj6juL6HErqEJ1GtuI63rbVea.jpg",
      "popularity": 17.928,
      "adult": false,
      "known_for_department": "Acting"
    },
    {
      "id": 11662,
      "name": "Jason Lee",
      "profile_path": "/pkFyLSq2SiJPWywLEpSV0uxOYlU.jpg",
      "popularity": 17.926,
      "adult": false,
      "known_for_department": "Acting"
    },
    {
      "id": 110388,
      "name": "Kim Nam-gil",
      "profile_path": "/jTMr4gpGMXfHZUeoPyaa2Rq9ZU4.jpg",
      "popularity": 17.923,
      "adult": false,
      "known_for_department": "Acting"
    },
    {
      "id": 53368,
      "name": "Scott Porter",
      "profile_path": "/1FLeU180KAUbMCpCmNsuYJhT84G.jpg",
      "popularity": 17.92,
      "adult": false,
      "known_for_department": "Acting"
    },
    {
      "id": 20051,
      "name": "Alakina Mann",
      "profile_path": "/1tajfrhdqQXqXhbYZsdx9Q7pO6e.jpg",
      "popularity": 17.917,
      "adult": false,
      "known_for_department": "Acting"
    },
    {
      "id": 57675,
      "name": "Daryl Sabara",
      "profile_path": "/q4TZWwSVoBE2Vau1YVrH7HFQB7N.jpg",
      "popularity": 17.916,
      "adult": false,
      "known_for_department": "Acting"
    },
    {
      "id": 2453169,
      "name": "Lilly Krug",
      "profile_path": "/6TA1LMrmCXtPu3iDW8S7y8rkn0R.jpg",
      "popularity": 17.908,
      "adult": false,
      "known_for_department": "Acting"
    },
    {
      "id": 83141,
      "name": "Paul Wesley",
      "profile_path": "/hBQ8yYZpjRNDbzfR0r83VTmPooJ.jpg",
      "popularity": 17.903,
      "adult": false,
      "known_for_department": "Acting"
    },
    {
      "id": 87637,
      "name": "Masami Nagasawa",
      "profile_path": "/g5m4nwA95afODsscBkUEzX8Qq0Y.jpg",
      "popularity": 17.893,
      "adult": false,
      "known_for_department": "Acting"
    },
    {
      "id": 21416,
      "name": "William Devane",
      "profile_path": "/7MGLsJXn3URkYeZzqzAcgpYXFum.jpg",
      "popularity": 17.89,
      "adult": false,
      "known_for_department": "Acting"
    },
    {
      "id": 1550587,
      "name": "Tomer Capone",
      "profile_path": "/r6s7dkYZUJpd00C7p9itT6Gp8XB.jpg",
      "popularity": 17.881,
      "adult": false,
      "known_for_department": "Acting"
    },
    {
      "id": 21702,
      "name": "Ming-Na Wen",
      "profile_path": "/eqCzFF83It56cUdjpskzvg8jgq.jpg",
      "popularity": 17.868,
      "adult": false,
      "known_for_department": "Acting"
    },
    {
      "id": 61186,
      "name": "Nicola Peltz Beckham",
      "profile_path": "/rTaeR2ijxQGlVD3ztL7QmJTdEY4.jpg",
      "popularity": 17.867,
      "adult": false,
      "known_for_department": "Acting"
    },
    {
      "id": 49265,
      "name": "Lindsay Lohan",
      "profile_path": "/y59roEK1QZqoWhWPlzgWVDmJarq.jpg",
      "popularity": 17.865,
      "adult": false,
      "known_for_department": "Acting"
    },
    {
      "id": 66441,
      "name": "Talulah Riley",
      "profile_path": "/wIfzSnKvvREEi8lJ6cbuX04HiNG.jpg",
      "popularity": 17.861,
      "adult": false,
      "known_for_department": "Acting"
    },
    {
      "id": 5251,
      "name": "Jack Warden",
      "profile_path": "/hSShXiYMfRpMByaB5euZ59qCKN.jpg",
      "popularity": 17.849,
      "adult": false,
      "known_for_department": "Acting"
    },
    {
      "id": 27105,
      "name": "Ed Helms",
      "profile_path": "/gPZ8tZaNQGAc3KZRIPp9rgGbEnN.jpg",
      "popularity": 17.843,
      "adult": false,
      "known_for_department": "Acting"
    },
    {
      "id": 1525047,
      "name": "Dacre Montgomery",
      "profile_path": "/38jnyqD2HCQVs4zNHktxA2Ko8KN.jpg",
      "popularity": 17.841,
      "adult": false,
      "known_for_department": "Acting"
    },
    {
      "id": 204392,
      "name": "Cristin Milioti",
      "profile_path": "/jRkZ1k2kZGnKhCJ3iqA9Pf8p17c.jpg",
      "popularity": 17.841,
      "adult": false,
      "known_for_department": "Acting"
    },
    {
      "id": 49271,
      "name": "Brian Geraghty",
      "profile_path": "/4sqeUc4xYyzQ3Qpl5oxlQBTAAQk.jpg",
      "popularity": 17.837,
      "adult": false,
      "known_for_department": "Acting"
    }
  ]
}