{
  "page": 241,
  "total_results": 10000,
  "total_pages": 500,
  "results": [
    {
      "id": 75341,
      "name": "Gary Coleman",
      "profile_path": "/77YIEd2tastsT3fjEraKOjCvgyD.jpg",
      "popularity": 11.55,
      "adult": false,
      "known_for_department": "Acting"
    },
    {
      "id": 56825,
      "name": "Sarah Carter",
      "profile_path": "/hjH8vNv9LSZPmo56ikNbIX5UAKu.jpg",
      "popularity": 11.549,
      "adult": false,
      "known_for_department": "Acting"
    },
    {
      "id": 10921,
      "name": "Charles Laughton",
      "profile_path": "/uRjU0xwv87A7ZEIX4GS38Xw0W2v.jpg",
      "popularity": 11.547,
      "adult": false,
      "known_for_department": "Acting"
    },
    {
      "id": 14812,
      "name": "Jeanne Moreau",
      "profile_path": "/mYRXwbzmZgqQOr1mYqbtcdugCkV.jpg",
      "popularity": 11.546,
      "adult": false,
      "known_for_department": "Acting"
    },
    {
      "id": 212700,
      "name": "Candice Patton",
      "profile_path": "/7HUcygrInxDKrRbwCV3jpVwC75c.jpg",
      "popularity": 11.545,
      "adult": false,
      "known_for_department": "Acting"
    },
    {
      "id": 10447,
      "name": "Mariel Hemingway",
      "profile_path": "/vKALX9Ib1fQFpTE2c0iEsxaRcfM.jpg",
      "popularity": 11.545,
      "adult": false,
      "known_for_department": "Acting"
    },
    {
      "id": 1149341,
      "name": "Ryo Yoshizawa",
      "profile_path": "/qnJ2BL0l4c6tsRtkM0CENNAm6L.jpg",
      "popularity": 11.544,
      "adult": false,
      "known_for_department": "Acting"
    },
    {
      "id": 570784,
      "name": "Aliette Opheim",
      "profile_path": "/mAmTygwd20C3bHEZbusLfPOFmmi.jpg",
      "popularity": 11.542,
      "adult": false,
      "known_for_department": "Acting"
    },
    {
      "id": 3999,
      "name": "Tom Hulce",
      "profile_path": "/ufgpuuU900NOi1vKupCmWpq7UgW.jpg",
      "popularity": 11.538,
      "adult": false,
      "known_for_department": "Acting"
    },
    {
      "id": 6804,
      "name": "Graham Greene",
      "profile_path": "/ubX9pwrzQqnR41gAGyY1GoSZr1G.jpg",
      "popularity": 11.536,
      "adult": false,
      "known_for_department": "Acting"
    },
    {
      "id": 1615316,
      "name": "Lee Hak-joo",
      "profile_path": "/9PuGmzY1nm8uYYiOanEKJHEcdbZ.jpg",
      "popularity": 11.532,
      "adult": false,
      "known_for_department": "Acting"
    },
    {
      "id": 1540825,
      "name": "Cho Hye-jung",
      "profile_path": "/zzxYi8W2Vcv1VV6dMkgbVSTNYnz.jpg",
      "popularity": 11.532,
      "adult": false,
      "known_for_department": "Acting"
    },
    {
      "id": 60072,
      "name": "Sara Paxton",
      "profile_path": "/DWrjFhjSLY4EFanCMKNPrUmP2p.jpg",
      "popularity": 11.53,
      "adult": false,
      "known_for_department": "Acting"
    },
    {
      "id": 12446,
      "name": "Peter Sellers",
      "profile_path": "/k68WsOAixUuzaTCLFLy5JsODdKL.jpg",
      "popularity": 11.53,
      "adult": false,
      "known_for_department": "Acting"
    },
    {
      "id": 291263,
      "name": "Jordan Peele",
      "profile_path": "/hQzDPiMQtO4GqtKj4CcuUBoYaJD.jpg",
      "popularity": 11.528,
      "adult": false,
      "known_for_department": "Directing"
    },
    {
      "id": 64896,
      "name": "Michael Wong",
      "profile_path": "/vZ54bIBr2OQ0d3Sy0icHFDL9ugU.jpg",
      "popularity": 11.528,
      "adult": false,
      "known_for_department": "Acting"
    },
    {
      "id": 54470,
      "name": "Lauren Ambrose",
      "profile_path": "/67oLiPwWKhy0zqdfm6NX9cXD5is.jpg",
      "popularity": 11.528,
      "adult": false,
      "known_for_department": "Acting"
    },
    {
      "id": 2761889,
      "name": "Victoria White",
      "profile_path": "/7ij0anmXowWcNbTHLo2buUiTWSy.jpg",
      "popularity": 11.526,
      "adult": false,
      "known_for_department": "Acting"
    },
    {
      "id": 2194273,
      "name": "Evan Roderick",
      "profile_path": "/nyvCM1XGkh3bAIx1IFgZFuBfpVh.jpg",
      "popularity": 11.525,
      "adult": false,
      "known_for_department": "Acting"
    },
    {
      "id": 1052854,
      "name": "Sangeetha Krish",
      "profile_path": "/s0jx36aN50nO2eFOlsqJzS9RoAl.jpg",
      "popularity": 11.524,
      "adult": false,
      "known_for_department": "Acting"
    }
  ]
}