{
  "page": 308,
  "total_results": 10000,
  "total_pages": 500,
  "results": [
    {
      "id": 60719,
      "name": "Hiro Kanagawa",
      "profile_path": "/dyWOPJmZTfy3r3R5eDY2d7yf8Ze.jpg",
      "popularity": 9.553,
      "adult": false,
      "known_for_department": "Acting"
    },
    {
      "id": 113905,
      "name": "Ann Jillian",
      "profile_path": "/p1UxgvAatZUDhy6DQZBB8SbqDYZ.jpg",
      "popularity": 9.55,
      "adult": false,
      "known_for_department": "Acting"
    },
    {
      "id": 1243881,
      "name": "KENN",
      "profile_path": "/y7Gtn1PchXJ1MxmUxU9jtt138EO.jpg",
      "popularity": 9.549,
      "adult": false,
      "known_for_department": "Acting"
    },
    {
      "id": 11059,
      "name": "Lyle Lovett",
      "profile_path": "/s0Xoyte9LF8JZc9uM03XRsxDk3c.jpg",
      "popularity": 9.548,
      "adult": false,
      "known_for_department": "Acting"
    },
    {
      "id": 1352921,
      "name": "Devyn Nekoda",
      "profile_path": "/rCODfNA6cRIkSKNPnkkk9ewDwQU.jpg",
      "popularity": 9.547,
      "adult": false,
      "known_for_department": "Acting"
    },
    {
      "id": 3033,
      "name": "Wil Wheaton",
      "profile_path": "/yqEW17L7Fdg2RDRLLo4SqRHkjyw.jpg",
      "popularity": 9.546,
      "adult": false,
      "known_for_department": "Acting"
    },
    {
      "id": 1728810,
      "name": "Dilara Aksüyek",
      "profile_path": "/gq5pkxa0mXKLpjc5YjIFSVbNkFd.jpg",
      "popularity": 9.545,
      "adult": false,
      "known_for_department": "Acting"
    },
    {
      "id": 66071,
      "name": "Charlotte Rae",
      "profile_path": "/mlIYeP5icLsQwQR6sQXPQGXLMnc.jpg",
      "popularity": 9.544,
      "adult": false,
      "known_for_department": "Acting"
    },
    {
      "id": 6806,
      "name": "Doug Hutchison",
      "profile_path": "/1E4yWgUs2VQsr8MRBTFOusY44lm.jpg",
      "popularity": 9.544,
      "adult": false,
      "known_for_department": "Acting"
    },
    {
      "id": 2035488,
      "name": "Son Suk-ku",
      "profile_path": "/natZWFVBAWLKWCYebgVGywHtsME.jpg",
      "popularity": 9.543,
      "adult": false,
      "known_for_department": "Acting"
    },
    {
      "id": 15424,
      "name": "Michael Vartan",
      "profile_path": "/5HCb1CxwIgiZAjKMe9BG8VtHE80.jpg",
      "popularity": 9.543,
      "adult": false,
      "known_for_department": "Acting"
    },
    {
      "id": 72040,
      "name": "Isabella Leong",
      "profile_path": "/goc7CVYEW0Fd6cB5hjUjOG8KY9N.jpg",
      "popularity": 9.542,
      "adult": false,
      "known_for_department": "Acting"
    },
    {
      "id": 1072882,
      "name": "Mindy Robinson",
      "profile_path": "/wRStB9kFS531TAtjP3UoR8ODd9S.jpg",
      "popularity": 9.541,
      "adult": false,
      "known_for_department": "Acting"
    },
    {
      "id": 912632,
      "name": "Jella Haase",
      "profile_path": "/uOfKMmIY0AruxUeeroESXTT9C74.jpg",
      "popularity": 9.541,
      "adult": false,
      "known_for_department": "Acting"
    },
    {
      "id": 93801,
      "name": "Hiroshi Kamiya",
      "profile_path": "/u2r0u8tOa0cyh7nawcEOPpcEZr1.jpg",
      "popularity": 9.541,
      "adult": false,
      "known_for_department": "Acting"
    },
    {
      "id": 4604,
      "name": "Theresa Randle",
      "profile_path": "/myBU9qG6wXHJfYF9cl07rvQmhUB.jpg",
      "popularity": 9.541,
      "adult": false,
      "known_for_department": "Acting"
    },
    {
      "id": 1148455,
      "name": "Wyatt Oleff",
      "profile_path": "/oBOWREuQvpj83PkArHBEghRv0FI.jpg",
      "popularity": 9.539,
      "adult": false,
      "known_for_department": "Acting"
    },
    {
      "id": 2398197,
      "name": "Ava Michelle",
      "profile_path": "/lDsBWUw5udOE1CEOp5nASN6QSKJ.jpg",
      "popularity": 9.538,
      "adult": false,
      "known_for_department": "Acting"
    },
    {
      "id": 125736,
      "name": "Sulli",
      "profile_path": "/vvP4Swmfkz6fYTOFP2g867uyvu3.jpg",
      "popularity": 9.538,
      "adult": false,
      "known_for_department": "Acting"
    },
    {
      "id": 22223,
      "name": "Marguerite Moreau",
      "profile_path": "/e0joYMTL9HzL2fnGKCrZJvcRZCp.jpg",
      "popularity": 9.537,
      "adult": false,
      "known_for_department": "Acting"
    }
  ]
}