{
  "page": 20,
  "total_results": 10000,
  "total_pages": 500,
  "results": [
    {
      "id": 25933,
      "name": "Emily Deschanel",
      "profile_path": "/bS4F39NlQAURKtO5r1CD3ivSf62.jpg",
      "popularity": 30.325,
      "adult": false,
      "known_for_department": "Acting"
    },
    {
      "id": 10982,
      "name": "Harry Melling",
      "profile_path": "/b0pHwi2MeqxEpeWnF4Llihu53aJ.jpg",
      "popularity": 30.318,
      "adult": false,
      "known_for_department": "Acting"
    },
    {
      "id": 25702,
      "name": "Rhona Mitra",
      "profile_path": "/fcNw2EGkmlO0zlFh72KvubMbsjH.jpg",
      "popularity": 30.314,
      "adult": false,
      "known_for_department": "Acting"
    },
    {
      "id": 1636738,
      "name": "Katherine Langford",
      "profile_path": "/kQVkmu1f5DqbcujxKDCwVnzqXJY.jpg",
      "popularity": 30.278,
      "adult": false,
      "known_for_department": "Acting"
    },
    {
      "id": 110,
      "name": "Viggo Mortensen",
      "profile_path": "/vH5gVSpHAMhDaFWfh0Q7BG61O1y.jpg",
      "popularity": 30.23,
      "adult": false,
      "known_for_department": "Acting"
    },
    {
      "id": 5723,
      "name": "John Leguizamo",
      "profile_path": "/kEbXDtcPJ46GEhj5QlCTLZS6PWE.jpg",
      "popularity": 30.208,
      "adult": false,
      "known_for_department": "Acting"
    },
    {
      "id": 16644,
      "name": "Dolph Lundgren",
      "profile_path": "/t3hMzibYVUS1KBXFgtxuNnax8qX.jpg",
      "popularity": 30.192,
      "adult": false,
      "known_for_department": "Acting"
    },
    {
      "id": 3031398,
      "name": "Nguyễn Bá Vinh",
      "profile_path": "/xEKTcEJyaNaK32z7HPwzFcJ0Vlx.jpg",
      "popularity": 30.175,
      "adult": false,
      "known_for_department": "Acting"
    },
    {
      "id": 53714,
      "name": "Rachel McAdams",
      "profile_path": "/2zyOjda95OfAAsJvuwTV0UaznPZ.jpg",
      "popularity": 30.152,
      "adult": false,
      "known_for_department": "Acting"
    },
    {
      "id": 1545693,
      "name": "Zazie Beetz",
      "profile_path": "/ijrT4pvALvxU0gphea4YxDnDh6e.jpg",
      "popularity": 30.145,
      "adult": false,
      "known_for_department": "Acting"
    },
    {
      "id": 17142,
      "name": "Paul Dano",
      "profile_path": "/1nwO8yqlFmIXFjYCMv7ExmYAatK.jpg",
      "popularity": 30.12,
      "adult": false,
      "known_for_department": "Acting"
    },
    {
      "id": 1312450,
      "name": "Melanie Zanetti",
      "profile_path": "/lbUQ7ilvBtWMU23reKsHg3jRmsf.jpg",
      "popularity": 30.075,
      "adult": false,
      "known_for_department": "Acting"
    },
    {
      "id": 1321628,
      "name": "Morfydd Clark",
      "profile_path": "/wFAzDxVwpEbkWYK4tb9k2aKiNp9.jpg",
      "popularity": 30.065,
      "adult": false,
      "known_for_department": "Acting"
    },
    {
      "id": 55638,
      "name": "Kevin Hart",
      "profile_path": "/7OwsFfoxNGIfWwSmdORyB7v8XNj.jpg",
      "popularity": 30.039,
      "adult": false,
      "known_for_department": "Acting"
    },
    {
      "id": 518,
      "name": "Danny DeVito",
      "profile_path": "/gNHF2SNXFFCRqwIQ2Xv6r6aV6UD.jpg",
      "popularity": 30.011,
      "adult": false,
      "known_for_department": "Acting"
    },
    {
      "id": 62220,
      "name": "Lauren Cohan",
      "profile_path": "/zJ9nZ5jqQTUD55GLKbgfiKlUoBN.jpg",
      "popularity": 30.006,
      "adult": false,
      "known_for_department": "Acting"
    },
    {
      "id": 2025252,
      "name": "Ester Expósito",
      "profile_path": "/jBJLlQL0HSOpVI8igtudVWUBXra.jpg",
      "popularity": 29.989,
      "adult": false,
      "known_for_department": "Acting"
    },
    {
      "id": 1922,
      "name": "Catherine Zeta-Jones",
      "profile_path": "/8S3F1zdbQolPG6W0AW4u70F6xj9.jpg",
      "popularity": 29.984,
      "adult": false,
      "known_for_department": "Acting"
    },
    {
      "id": 82809,
      "name": "Annabelle Wallis",
      "profile_path": "/b6PltW1e18BdmRz3nKZ7ID9uZ24.jpg",
      "popularity": 29.957,
      "adult": false,
      "known_for_department": "Acting"
    },
    {
      "id": 74688,
      "name": "Keke Palmer",
      "profile_path": "/f5i3WzdMt02mlfm9I9LHKRJtZ4J.jpg",
      "popularity": 29.925,
      "adult": false,
      "known_for_department": "Acting"
    }
  ]
}