{
  "page": 142,
  "total_results": 10000,
  "total_pages": 500,
  "results": [
    {
      "id": 14500,
      "name": "Jean Simmons",
      "profile_path": "/iCF8imUDR2jzQtg8SlD7ca9wOu3.jpg",
      "popularity": 12.925,
      "adult": false,
      "known_for_department": "Acting"
    },
    {
      "id": 1660452,
      "name": "Betty Gabriel",
      "profile_path": "/n67i3H3VM5quDQfcS591EbotPby.jpg",
      "popularity": 12.924,
      "adult": false,
      "known_for_department": "Acting"
    },
    {
      "id": 76543,
      "name": "Chris Browning",
      "profile_path": "/jKsUctww9FbZXlY04kyzIM0tBse.jpg",
      "popularity": 12.918,
      "adult": false,
      "known_for_department": "Acting"
    },
    {
      "id": 122756,
      "name": "Dulé Hill",
      "profile_path": "/fPJ8lIx6WwBgO2AhnHQSeiZiAUy.jpg",
      "popularity": 12.917,
      "adult": false,
      "known_for_department": "Acting"
    },
    {
      "id": 42276,
      "name": "Rupert Penry-Jones",
      "profile_path": "/4qRzWtQtxjbSZKOrV68hDQWGZgE.jpg",
      "popularity": 12.916,
      "adult": false,
      "known_for_department": "Acting"
    },
    {
      "id": 11856,
      "name": "Daniel Day-Lewis",
      "profile_path": "/3kNA9VcmymoEwT0btQ4bvMYxzcP.jpg",
      "popularity": 12.916,
      "adult": false,
      "known_for_department": "Acting"
    },
    {
      "id": 40978,
      "name": "Larisa Oleynik",
      "profile_path": "/i3W6ztn8kTKAaZoLS77Tz9GhP7C.jpg",
      "popularity": 12.914,
      "adult": false,
      "known_for_department": "Acting"
    },
    {
      "id": 1222330,
      "name": "Kim Rae-won",
      "profile_path": "/kurTk5eMygE1EuOt1WD5FiNTddd.jpg",
      "popularity": 12.912,
      "adult": false,
      "known_for_department": "Acting"
    },
    {
      "id": 591,
      "name": "Brion James",
      "profile_path": "/9I5MBiK0o6Nup1YjsGuzsIc2tZZ.jpg",
      "popularity": 12.911,
      "adult": false,
      "known_for_department": "Acting"
    },
    {
      "id": 21214,
      "name": "Jill Teed",
      "profile_path": "/pRu4qqDcb8ze3RKgoKxPwzW9SRP.jpg",
      "popularity": 12.91,
      "adult": false,
      "known_for_department": "Acting"
    },
    {
      "id": 1909,
      "name": "Conchata Ferrell",
      "profile_path": "/1CuSudlDbvrhFSpXPckzlMfzLiJ.jpg",
      "popularity": 12.907,
      "adult": false,
      "known_for_department": "Acting"
    },
    {
      "id": 145396,
      "name": "Kenan Ece",
      "profile_path": "/dhDb73Bxf9MphqaUOciJKAjxYDt.jpg",
      "popularity": 12.906,
      "adult": false,
      "known_for_department": "Acting"
    },
    {
      "id": 50668,
      "name": "Jamie Bamber",
      "profile_path": "/kP1YvBoutrDMK8FWQseR3rfL5Yn.jpg",
      "popularity": 12.898,
      "adult": false,
      "known_for_department": "Acting"
    },
    {
      "id": 2099497,
      "name": "Fred Hechinger",
      "profile_path": "/dLFy4KFR556j4Z9WstsslhJCwyZ.jpg",
      "popularity": 12.897,
      "adult": false,
      "known_for_department": "Acting"
    },
    {
      "id": 41894,
      "name": "Zhang Jingchu",
      "profile_path": "/nQdau9zu3e91AZZv471hKBnjIHo.jpg",
      "popularity": 12.896,
      "adult": false,
      "known_for_department": "Acting"
    },
    {
      "id": 120689,
      "name": "Yuriko Yoshitaka",
      "profile_path": "/Zqd3qjiVAfNtBcMAAUNPtvYDV8.jpg",
      "popularity": 12.894,
      "adult": false,
      "known_for_department": "Acting"
    },
    {
      "id": 19899,
      "name": "Dennis Storhøi",
      "profile_path": "/oKIPuT0L0jiXfqXIBRzpqrojsPv.jpg",
      "popularity": 12.893,
      "adult": false,
      "known_for_department": "Acting"
    },
    {
      "id": 1035194,
      "name": "Heida Reed",
      "profile_path": "/rY14D9KQk45r6K3WvwlHZGSStC.jpg",
      "popularity": 12.892,
      "adult": false,
      "known_for_department": "Acting"
    },
    {
      "id": 2154,
      "name": "Scott Bakula",
      "profile_path": "/meZvcpXmcFlrJUeme4UpH4GZeNV.jpg",
      "popularity": 12.888,
      "adult": false,
      "known_for_department": "Acting"
    },
    {
      "id": 1221085,
      "name": "Jessica Sula",
      "profile_path": "/rP0MExBh1CnsaO4HhOIog8ju7S7.jpg",
      "popularity": 12.886,
      "adult": false,
      "known_for_department": "Acting"
    }
  ]
}