{
  "page": 50,
  "total_results": 10000,
  "total_pages": 500,
  "results": [
    {
      "id": 11614,
      "name": "M. Night Shyamalan",
      "profile_path": "/tOhFWjauKvJgjCVLJFnhbBCZuxZ.jpg",
      "popularity": 23.668,
      "adult": false,
      "known_for_department": "Directing"
    },
    {
      "id": 5658,
      "name": "Michael Gambon",
      "profile_path": "/3jdWkDKf4IODbG4JKTeaC7AzxZH.jpg",
      "popularity": 23.639,
      "adult": false,
      "known_for_department": "Acting"
    },
    {
      "id": 1477273,
      "name": "Rihito Itagaki",
      "profile_path": "/g98OPX1PG4gIzEPX2ljpUPAHAmg.jpg",
      "popularity": 23.631,
      "adult": false,
      "known_for_department": "Acting"
    },
    {
      "id": 21561,
      "name": "Tim Matheson",
      "profile_path": "/trZ4QaDidCOPNy7HK9cYnmKHkg9.jpg",
      "popularity": 23.627,
      "adult": false,
      "known_for_department": "Acting"
    },
    {
      "id": 1604826,
      "name": "Cha Eun-woo",
      "profile_path": "/sp1FGshDoCLMQyEVFfsBsPLahAi.jpg",
      "popularity": 23.626,
      "adult": false,
      "known_for_department": "Acting"
    },
    {
      "id": 990393,
      "name": "Erin Moriarty",
      "profile_path": "/7SwedbpVelrZci67IVECOLITKyx.jpg",
      "popularity": 23.62,
      "adult": false,
      "known_for_department": "Acting"
    },
    {
      "id": 20480,
      "name": "Taylor Momsen",
      "profile_path": "/u0RWIWMVaUNFYnDflWIJGJ3fzWt.jpg",
      "popularity": 23.617,
      "adult": false,
      "known_for_department": "Acting"
    },
    {
      "id": 1665,
      "name": "Eddie Marsan",
      "profile_path": "/9atfOgIxhfOKvv2be8HEp6SzOct.jpg",
      "popularity": 23.598,
      "adult": false,
      "known_for_department": "Acting"
    },
    {
      "id": 1473995,
      "name": "Darren Wang",
      "profile_path": "/3CDx0mIClEqcUt8E6ToEkdQypzK.jpg",
      "popularity": 23.596,
      "adult": false,
      "known_for_department": "Acting"
    },
    {
      "id": 10730,
      "name": "Rowan Atkinson",
      "profile_path": "/uxqBoDQoDJ8cdkeB1hT56QkA3b5.jpg",
      "popularity": 23.581,
      "adult": false,
      "known_for_department": "Acting"
    },
    {
      "id": 56890,
      "name": "Malcolm McDowell",
      "profile_path": "/hL8ep4Hqj6izX7IlzE7Bbcfq62w.jpg",
      "popularity": 23.572,
      "adult": false,
      "known_for_department": "Acting"
    },
    {
      "id": 85,
      "name": "Johnny Depp",
      "profile_path": "/dHvp2FafEE5OGFy9kcX2l8oMIsH.jpg",
      "popularity": 23.557,
      "adult": false,
      "known_for_department": "Acting"
    },
    {
      "id": 53493,
      "name": "Kal Penn",
      "profile_path": "/yICM1JcxKbEpaqTUreY0yFMIc8W.jpg",
      "popularity": 23.553,
      "adult": false,
      "known_for_department": "Acting"
    },
    {
      "id": 707,
      "name": "Dan Aykroyd",
      "profile_path": "/iVMmeVJx8IpCEjlGBZWzIWvX5Qo.jpg",
      "popularity": 23.536,
      "adult": false,
      "known_for_department": "Acting"
    },
    {
      "id": 56152,
      "name": "Kari Wuhrer",
      "profile_path": "/oRuGiH81VhyUwPv9gfiahwgbZhs.jpg",
      "popularity": 23.532,
      "adult": false,
      "known_for_department": "Acting"
    },
    {
      "id": 145143,
      "name": "Aneurin Barnard",
      "profile_path": "/aiuFLvyaxmuglNi3nfQ3oL9qW97.jpg",
      "popularity": 23.52,
      "adult": false,
      "known_for_department": "Acting"
    },
    {
      "id": 1088620,
      "name": "Sophie Rundle",
      "profile_path": "/9HxJ6pG1Q0BBbIV1UXk5iU9zDM9.jpg",
      "popularity": 23.517,
      "adult": false,
      "known_for_department": "Acting"
    },
    {
      "id": 2201315,
      "name": "Emma Mackey",
      "profile_path": "/4mm4vBiul408RNMjj5XWxKpnfH4.jpg",
      "popularity": 23.505,
      "adult": false,
      "known_for_department": "Acting"
    },
    {
      "id": 10401,
      "name": "Blythe Danner",
      "profile_path": "/hO09OUblsKAy81L3B8LupByY51u.jpg",
      "popularity": 23.5,
      "adult": false,
      "known_for_department": "Acting"
    },
    {
      "id": 31363,
      "name": "Candace Cameron Bure",
      "profile_path": "/hriMbAfs8HCzj9QLcwKNEARCglp.jpg",
      "popularity": 23.495,
      "adult": false,
      "known_for_department": "Acting"
    }
  ]
}