{
  "page": 307,
  "total_results": 10000,
  "total_pages": 500,
  "results": [
    {
      "id": 1336799,
      "name": "Lee Tae-im",
      "profile_path": "/au8szcAOLtDX6vtg8zB1FobT7Ex.jpg",
      "popularity": 11.282,
      "adult": false,
      "known_for_department": "Acting"
    },
    {
      "id": 1277794,
      "name": "Hannah Barefoot",
      "profile_path": "/duMdWlldESIqFYDpaJNAcLFzTTq.jpg",
      "popularity": 8.481,
      "adult": false,
      "known_for_department": "Acting"
    },
    {
      "id": 77301,
      "name": "Jiang Wen",
      "profile_path": "/i9LPPa6JgQ42AHZS6BxOHwWtDmL.jpg",
      "popularity": 10.081,
      "adult": false,
      "known_for_department": "Acting"
    },
    {
      "id": 17421,
      "name": "Wallace Langham",
      "profile_path": "/pjc9iFeNMAAHI3zOsiP1anZ0wis.jpg",
      "popularity": 7.681,
      "adult": false,
      "known_for_department": "Acting"
    },
    {
      "id": 3091,
      "name": "Al Lettieri",
      "profile_path": "/fE5mEWPkkVJlCji0EoKht8PYw89.jpg",
      "popularity": 8.081,
      "adult": false,
      "known_for_department": "Acting"
    },
    {
      "id": 58902,
      "name": "Zahf Paroo",
      "profile_path": "/ejjvDERgLhZnKhP0QRBtBZiAyeS.jpg",
      "popularity": 7.681,
      "adult": false,
      "known_for_department": "Acting"
    },
    {
      "id": 227638,
      "name": "Ryu Seung-ryong",
      "profile_path": "/p0LjCRqVqgTyvlZScMmsVFCnTIt.jpg",
      "popularity": 13.681,
      "adult": false,
      "known_for_department": "Acting"
    },
    {
      "id": 1224115,
      "name": "Blake Jenner",
      "profile_path": "/kszxYaWRtBaaRueetSb6SJiiNBt.jpg",
      "popularity": 8.48,
      "adult": false,
      "known_for_department": "Acting"
    },
    {
      "id": 2234,
      "name": "Michael Bowen",
      "profile_path": "/vRksdXlhcjOMFRD3szytf74am1f.jpg",
      "popularity": 8.08,
      "adult": false,
      "known_for_department": "Acting"
    },
    {
      "id": 4753,
      "name": "Brian Bloom",
      "profile_path": "/9mZKhI3aVbzZ5Xq43n7fGzWAqi0.jpg",
      "popularity": 8.88,
      "adult": false,
      "known_for_department": "Acting"
    },
    {
      "id": 1353825,
      "name": "Alyssa Lynch",
      "profile_path": "/v9YIEmLd4OUsQMij1JH4ZleFU7U.jpg",
      "popularity": 10.08,
      "adult": false,
      "known_for_department": "Acting"
    },
    {
      "id": 1373681,
      "name": "Ava Morse",
      "profile_path": "/e3bkf5MHPzqvSrJALr78pp0DCWt.jpg",
      "popularity": 9.679,
      "adult": false,
      "known_for_department": "Acting"
    },
    {
      "id": 1325961,
      "name": "Suki Waterhouse",
      "profile_path": "/zr4BPEiTgStNQBjZUNDpH4CJlLM.jpg",
      "popularity": 9.679,
      "adult": false,
      "known_for_department": "Acting"
    },
    {
      "id": 84440,
      "name": "Marie Guillard",
      "profile_path": "/2ruQJ1ChERuj77ninn0MybDfFKP.jpg",
      "popularity": 6.557,
      "adult": false,
      "known_for_department": "Acting"
    },
    {
      "id": 18262,
      "name": "Richard Riehle",
      "profile_path": "/wgjBsgpzRvardVXZhNGixSw63g2.jpg",
      "popularity": 11.679,
      "adult": false,
      "known_for_department": "Acting"
    },
    {
      "id": 1255308,
      "name": "Fumino Kimura",
      "profile_path": "/eXoZLY2out78faqkvo5hZjIGA6m.jpg",
      "popularity": 9.678,
      "adult": false,
      "known_for_department": "Acting"
    },
    {
      "id": 1224288,
      "name": "Yui Ishikawa",
      "profile_path": "/7IUIHnRDWZq71EHMdomW3AvInd1.jpg",
      "popularity": 15.278,
      "adult": false,
      "known_for_department": "Acting"
    },
    {
      "id": 65310,
      "name": "Kenny Ortega",
      "profile_path": "/cZrsOBr1tp1nNPJ5xj3uao2XQbJ.jpg",
      "popularity": 8.878,
      "adult": false,
      "known_for_department": "Directing"
    },
    {
      "id": 49278,
      "name": "Olivier Rabourdin",
      "profile_path": "/r15C7VnXnyMJk8JyNQOJGaauiKA.jpg",
      "popularity": 10.878,
      "adult": false,
      "known_for_department": "Acting"
    },
    {
      "id": 161932,
      "name": "Jim Rash",
      "profile_path": "/cXat9HZ5ajQZsrAZ8xE4zIEVEcb.jpg",
      "popularity": 10.877,
      "adult": false,
      "known_for_department": "Acting"
    }
  ]
}