{
  "page": 415,
  "total_results": 10000,
  "total_pages": 500,
  "results": [
    {
      "id": 1834433,
      "name": "Hani",
      "profile_path": "/6TZ49EFsCbA9eD1Y4BO9T0Ejpbr.jpg",
      "popularity": 7.923,
      "adult": false,
      "known_for_department": "Acting"
    },
    {
      "id": 41785,
      "name": "Joel Tobeck",
      "profile_path": "/8pzK6mGsSxZ4hGAx1KFhsVRepT4.jpg",
      "popularity": 7.923,
      "adult": false,
      "known_for_department": "Acting"
    },
    {
      "id": 1190276,
      "name": "Fiona Dolman",
      "profile_path": "/uXOHx6wU4epLp7xOaax2PyB1zBR.jpg",
      "popularity": 7.922,
      "adult": false,
      "known_for_department": "Acting"
    },
    {
      "id": 587035,
      "name": "Nadji Jeter",
      "profile_path": "/cG48MotQHIvqIe6Vz82TiXXWFDz.jpg",
      "popularity": 7.922,
      "adult": false,
      "known_for_department": "Acting"
    },
    {
      "id": 105641,
      "name": "James Patrick Stuart",
      "profile_path": "/sFDP6Ahkr3LuMr1kTsLzwB5jV93.jpg",
      "popularity": 7.922,
      "adult": false,
      "known_for_department": "Acting"
    },
    {
      "id": 70334,
      "name": "Lo Wei",
      "profile_path": "/qo5dFi2icEcJPDxQy1VdU0uJgcO.jpg",
      "popularity": 7.922,
      "adult": false,
      "known_for_department": "Directing"
    },
    {
      "id": 39113,
      "name": "Christine Elise",
      "profile_path": "/hFx6YxrQAPYGFNnFnAQoM4Obqz1.jpg",
      "popularity": 7.922,
      "adult": false,
      "known_for_department": "Acting"
    },
    {
      "id": 70615,
      "name": "Rodger Bumpass",
      "profile_path": "/lGQkw6adxqB6Hcm7VK8nVHbKupe.jpg",
      "popularity": 7.921,
      "adult": false,
      "known_for_department": "Acting"
    },
    {
      "id": 20275,
      "name": "Sarita Choudhury",
      "profile_path": "/pABEOxQAns54tHpxN2w73b7SiPB.jpg",
      "popularity": 7.921,
      "adult": false,
      "known_for_department": "Acting"
    },
    {
      "id": 112140,
      "name": "Etsuko Kozakura",
      "profile_path": "/20KNVseVr2Y8Y4jziEaMcm06umL.jpg",
      "popularity": 7.92,
      "adult": false,
      "known_for_department": "Acting"
    },
    {
      "id": 76365,
      "name": "Preston Lacy",
      "profile_path": "/rJN0hgmardnLgQxmArsCPyDMSIf.jpg",
      "popularity": 7.92,
      "adult": false,
      "known_for_department": "Acting"
    },
    {
      "id": 40207,
      "name": "Clint Walker",
      "profile_path": "/33wokPhHi4j6dUjuBKYWkaB5T7D.jpg",
      "popularity": 7.92,
      "adult": false,
      "known_for_department": "Acting"
    },
    {
      "id": 4445,
      "name": "Chris Bauer",
      "profile_path": "/1AjdNxbVmy6azlOxIfnCX5OruEA.jpg",
      "popularity": 7.919,
      "adult": false,
      "known_for_department": "Acting"
    },
    {
      "id": 2549,
      "name": "Barnard Hughes",
      "profile_path": "/1gSfCpsa3u6wf3wREmv7sD05qwQ.jpg",
      "popularity": 7.918,
      "adult": false,
      "known_for_department": "Acting"
    },
    {
      "id": 1835337,
      "name": "Parzaan Dastur",
      "profile_path": "/oiUaJs2ynsXhCq6t9pDheNXrHpP.jpg",
      "popularity": 7.917,
      "adult": false,
      "known_for_department": "Acting"
    },
    {
      "id": 1079805,
      "name": "Saxon Sharbino",
      "profile_path": "/47jw2ZybyEXfl7mWHZc0B6hMZhf.jpg",
      "popularity": 7.917,
      "adult": false,
      "known_for_department": "Acting"
    },
    {
      "id": 155595,
      "name": "Jenna Lamia",
      "profile_path": "/qFHKebDa8juuH6Aw4pCIOgHC8UJ.jpg",
      "popularity": 7.917,
      "adult": false,
      "known_for_department": "Acting"
    },
    {
      "id": 10722,
      "name": "Graham Chapman",
      "profile_path": "/8U8FnqmlGtAIIsMghgtNwvVXT4U.jpg",
      "popularity": 7.917,
      "adult": false,
      "known_for_department": "Acting"
    },
    {
      "id": 7087,
      "name": "Brad Bird",
      "profile_path": "/ZX1hAfWK1zslpB6ifwgDP2uBqn.jpg",
      "popularity": 7.916,
      "adult": false,
      "known_for_department": "Directing"
    },
    {
      "id": 1204379,
      "name": "Kevin Guthrie",
      "profile_path": "/uT6ju0dmnA6GjukgRrbfZPUDMnL.jpg",
      "popularity": 7.915,
      "adult": false,
      "known_for_department": "Acting"
    }
  ]
}