{
  "page": 106,
  "total_results": 10000,
  "total_pages": 500,
  "results": [
    {
      "id": 89545,
      "name": "Lisa Ann Beley",
      "profile_path": "/5Lz5k8JKoCE4NFK82gMOlMx6cK2.jpg",
      "popularity": 16.246,
      "adult": false,
      "known_for_department": "Acting"
    },
    {
      "id": 17485,
      "name": "Oliver Platt",
      "profile_path": "/toAVx1NyoVbFkxh0ydRsD1fP6pV.jpg",
      "popularity": 16.246,
      "adult": false,
      "known_for_department": "Acting"
    },
    {
      "id": 1135177,
      "name": "Loletta Lee",
      "profile_path": "/jIPKB7HYKlRcYz9EnrOjVd1ntLz.jpg",
      "popularity": 16.244,
      "adult": false,
      "known_for_department": "Acting"
    },
    {
      "id": 123037,
      "name": "Jonathan Harris",
      "profile_path": "/ieLNe2cBJTJ2Aeb3QAXVp6w1sKu.jpg",
      "popularity": 16.243,
      "adult": false,
      "known_for_department": "Acting"
    },
    {
      "id": 11159,
      "name": "Cheech Marin",
      "profile_path": "/eecHDNRn9K80ZcuSocsMhQb2G1i.jpg",
      "popularity": 16.233,
      "adult": false,
      "known_for_department": "Acting"
    },
    {
      "id": 20495,
      "name": "Jeff Fahey",
      "profile_path": "/zRu1ZmM7ekKwKbmXn3U0VjD8Wyd.jpg",
      "popularity": 16.228,
      "adult": false,
      "known_for_department": "Acting"
    },
    {
      "id": 2532098,
      "name": "Javon Walton",
      "profile_path": "/50yQRa8dXASgkVVjDNJUQ5YqUin.jpg",
      "popularity": 16.227,
      "adult": false,
      "known_for_department": "Acting"
    },
    {
      "id": 12833,
      "name": "Edward Burns",
      "profile_path": "/i68I0bNcNd9i88cMQYQvKxX3gBr.jpg",
      "popularity": 16.227,
      "adult": false,
      "known_for_department": "Acting"
    },
    {
      "id": 9600,
      "name": "Ted Cassidy",
      "profile_path": "/wGl9g8LgfJRGcCy1qv9AZwsfOrK.jpg",
      "popularity": 16.226,
      "adult": false,
      "known_for_department": "Acting"
    },
    {
      "id": 32290,
      "name": "Brenda Bakke",
      "profile_path": "/qfL8cAbxCtpTZYbVbVOYKR3lWhz.jpg",
      "popularity": 16.221,
      "adult": false,
      "known_for_department": "Acting"
    },
    {
      "id": 65345,
      "name": "Sandrine Holt",
      "profile_path": "/77q6NM103kEFJICiuhKOM4qy3KZ.jpg",
      "popularity": 16.219,
      "adult": false,
      "known_for_department": "Acting"
    },
    {
      "id": 75037,
      "name": "Laura Bailey",
      "profile_path": "/y2szEyFy7VFAzdQjMwN3fLwEDn.jpg",
      "popularity": 16.217,
      "adult": false,
      "known_for_department": "Acting"
    },
    {
      "id": 80760,
      "name": "Rochelle Aytes",
      "profile_path": "/9njTma1gJ4RNoT1P1QkCeI7Mcdr.jpg",
      "popularity": 16.208,
      "adult": false,
      "known_for_department": "Acting"
    },
    {
      "id": 82631,
      "name": "Joseph Sikora",
      "profile_path": "/xql9QZqU9povZhRIkuXym2FtoFq.jpg",
      "popularity": 16.205,
      "adult": false,
      "known_for_department": "Acting"
    },
    {
      "id": 85174,
      "name": "Song Ji-hyo",
      "profile_path": "/f3QRDGEqHkeLBQZfWe3GbmHeuuX.jpg",
      "popularity": 16.202,
      "adult": false,
      "known_for_department": "Acting"
    },
    {
      "id": 114372,
      "name": "Danielle Campbell",
      "profile_path": "/h3kLxMJT1SL8zfTtQPTd7mYRm8S.jpg",
      "popularity": 16.201,
      "adult": false,
      "known_for_department": "Acting"
    },
    {
      "id": 1936932,
      "name": "Alicia Agneson",
      "profile_path": "/a3IrkRmyqbm7NltqvN7ilWZZkx0.jpg",
      "popularity": 16.2,
      "adult": false,
      "known_for_department": "Acting"
    },
    {
      "id": 17265,
      "name": "Hayden Panettiere",
      "profile_path": "/zth8bT2zZg3lxPMswfVdrnTbiB1.jpg",
      "popularity": 16.199,
      "adult": false,
      "known_for_department": "Acting"
    },
    {
      "id": 15762,
      "name": "Tara Strong",
      "profile_path": "/y9S3QzI3L5aARP8GYYO86rREKxU.jpg",
      "popularity": 16.195,
      "adult": false,
      "known_for_department": "Acting"
    },
    {
      "id": 1798797,
      "name": "Froy Gutierrez",
      "profile_path": "/8sCm6Jl8jDUwRBin6k7CIFIm0yg.jpg",
      "popularity": 16.19,
      "adult": false,
      "known_for_department": "Acting"
    }
  ]
}