{
  "page": 61,
  "total_results": 10000,
  "total_pages": 500,
  "results": [
    {
      "id": 968006,
      "name": "Katherine McNamara",
      "profile_path": "/4UaoNsJX1Kkb7RpaODYO5WK9Vvv.jpg",
      "popularity": 20.022,
      "adult": false,
      "known_for_department": "Acting"
    },
    {
      "id": 1925,
      "name": "Vincent Cassel",
      "profile_path": "/ykBEiVh6YQ9UmMAYUiQkZBH3VV4.jpg",
      "popularity": 20.011,
      "adult": false,
      "known_for_department": "Acting"
    },
    {
      "id": 41089,
      "name": "Martin Starr",
      "profile_path": "/gNyCdend3C5gY3ucq42Zt3swfg2.jpg",
      "popularity": 20.009,
      "adult": false,
      "known_for_department": "Acting"
    },
    {
      "id": 27755,
      "name": "Melissa George",
      "profile_path": "/pqikObF4yi5PBbMGX806QNGUVW0.jpg",
      "popularity": 19.986,
      "adult": false,
      "known_for_department": "Acting"
    },
    {
      "id": 78324,
      "name": "Jamie Chung",
      "profile_path": "/5KS919slWvKwK2fcE3jpkEodlxs.jpg",
      "popularity": 19.983,
      "adult": false,
      "known_for_department": "Acting"
    },
    {
      "id": 65220,
      "name": "Danica McKellar",
      "profile_path": "/qVasJ8uKtvrntIXaPylneLW3ykf.jpg",
      "popularity": 19.982,
      "adult": false,
      "known_for_department": "Acting"
    },
    {
      "id": 2047,
      "name": "Danny Glover",
      "profile_path": "/m3wq4FEXL9oyh8sk1to4GI8A2dc.jpg",
      "popularity": 19.976,
      "adult": false,
      "known_for_department": "Acting"
    },
    {
      "id": 20403,
      "name": "Beau Garrett",
      "profile_path": "/euee2U539o7PqvYj6VBT4z1t90u.jpg",
      "popularity": 19.975,
      "adult": false,
      "known_for_department": "Acting"
    },
    {
      "id": 39388,
      "name": "Amy Ryan",
      "profile_path": "/bItqd1QUNpdegjBXNaVuFFPEZU4.jpg",
      "popularity": 19.972,
      "adult": false,
      "known_for_department": "Acting"
    },
    {
      "id": 11870,
      "name": "Christine Baranski",
      "profile_path": "/6R9im8aNYce2Rvnvmeo7jGZjJZQ.jpg",
      "popularity": 19.972,
      "adult": false,
      "known_for_department": "Acting"
    },
    {
      "id": 8874,
      "name": "Ernie Hudson",
      "profile_path": "/kgAdQA2ItCDVvKXufeDHc6Omiso.jpg",
      "popularity": 19.96,
      "adult": false,
      "known_for_department": "Acting"
    },
    {
      "id": 258,
      "name": "Gael García Bernal",
      "profile_path": "/7mq3EQN1oJfYNXkv9xKXKu6Ccw5.jpg",
      "popularity": 19.958,
      "adult": false,
      "known_for_department": "Acting"
    },
    {
      "id": 130782,
      "name": "Jessica Szohr",
      "profile_path": "/lyOju1tWTlluW2P3pXT9jJ78KB8.jpg",
      "popularity": 19.956,
      "adult": false,
      "known_for_department": "Acting"
    },
    {
      "id": 1627812,
      "name": "Park Ha-yan",
      "profile_path": "/469yW2z5vlut2h6bSRL7sK306Bi.jpg",
      "popularity": 19.944,
      "adult": false,
      "known_for_department": "Acting"
    },
    {
      "id": 76536,
      "name": "Courtney Ford",
      "profile_path": "/9I8xtjfkSKEvrMg3E0wCosa5UkT.jpg",
      "popularity": 19.944,
      "adult": false,
      "known_for_department": "Acting"
    },
    {
      "id": 1916568,
      "name": "Lutesha",
      "profile_path": "/aSfXpXNbYlYh0tELg3kSK6BJPyl.jpg",
      "popularity": 19.943,
      "adult": false,
      "known_for_department": "Acting"
    },
    {
      "id": 4987,
      "name": "Omar Epps",
      "profile_path": "/yc9JiSiIykY4jbWrMqccneYBvIi.jpg",
      "popularity": 19.917,
      "adult": false,
      "known_for_department": "Acting"
    },
    {
      "id": 19655,
      "name": "James D'Arcy",
      "profile_path": "/6CInTvBeLwXLx2id9TgaULaVEO4.jpg",
      "popularity": 19.908,
      "adult": false,
      "known_for_department": "Acting"
    },
    {
      "id": 10814,
      "name": "Wesley Snipes",
      "profile_path": "/81D6oJ81kiQ5xnEHhaHrY29ntdO.jpg",
      "popularity": 19.897,
      "adult": false,
      "known_for_department": "Acting"
    },
    {
      "id": 78080,
      "name": "Krysten Ritter",
      "profile_path": "/vDr20j128E6Uo1XZLChPoW7FbMG.jpg",
      "popularity": 19.892,
      "adult": false,
      "known_for_department": "Acting"
    }
  ]
}