{
  "page": 334,
  "total_results": 10000,
  "total_pages": 500,
  "results": [
    {
      "id": 1945702,
      "name": "Milly Shapiro",
      "profile_path": "/cGGEVk51V3neKfqBfB0H4djfsWz.jpg",
      "popularity": 10.182,
      "adult": false,
      "known_for_department": "Acting"
    },
    {
      "id": 83529,
      "name": "Saburo Tokito",
      "profile_path": "/oaFyLZ7hdcTluInQ4Os3S7hQVjA.jpg",
      "popularity": 10.182,
      "adult": false,
      "known_for_department": "Acting"
    },
    {
      "id": 25810,
      "name": "Mariangela Melato",
      "profile_path": "/skpCWeBKIU1vwOxLGuIxl5VniQK.jpg",
      "popularity": 10.181,
      "adult": false,
      "known_for_department": "Acting"
    },
    {
      "id": 9313,
      "name": "Lisa Boyle",
      "profile_path": "/nRj7ROz2QZz93S0AGtc26a29mVb.jpg",
      "popularity": 10.181,
      "adult": false,
      "known_for_department": "Acting"
    },
    {
      "id": 1487428,
      "name": "Jang Seung-jo",
      "profile_path": "/eNuDu7SIBqgDRbaKajs3C5JXj2B.jpg",
      "popularity": 10.179,
      "adult": false,
      "known_for_department": "Acting"
    },
    {
      "id": 74302,
      "name": "Cory Hardrict",
      "profile_path": "/rxQr8r8GKumZQOLHXBL6CIpif0H.jpg",
      "popularity": 10.179,
      "adult": false,
      "known_for_department": "Acting"
    },
    {
      "id": 16217,
      "name": "Lynn Whitfield",
      "profile_path": "/wXSwJplyOgANJKTRvOAsvqURbP0.jpg",
      "popularity": 10.179,
      "adult": false,
      "known_for_department": "Acting"
    },
    {
      "id": 1309844,
      "name": "Mariana Treviño",
      "profile_path": "/d1N3CLQzrARgFLTLTJdKNgtlapB.jpg",
      "popularity": 10.178,
      "adult": false,
      "known_for_department": "Acting"
    },
    {
      "id": 12793,
      "name": "Matthew Marsden",
      "profile_path": "/qejtyAt9dQdOS9AbXxSOwbw82E.jpg",
      "popularity": 10.178,
      "adult": false,
      "known_for_department": "Acting"
    },
    {
      "id": 26069,
      "name": "Paul McGillion",
      "profile_path": "/43sfykb5iFosUHZqCnmx5GFFkro.jpg",
      "popularity": 10.177,
      "adult": false,
      "known_for_department": "Acting"
    },
    {
      "id": 1302704,
      "name": "Lucrezia Guidone",
      "profile_path": "/6XouVhMtQZZ7HE8rQW89ISHMi9s.jpg",
      "popularity": 10.176,
      "adult": false,
      "known_for_department": "Acting"
    },
    {
      "id": 1500890,
      "name": "Jackson Wang",
      "profile_path": "/yPhD9nXzmOVA4IUyVsqv7ZzvTKX.jpg",
      "popularity": 10.174,
      "adult": false,
      "known_for_department": "Acting"
    },
    {
      "id": 1235615,
      "name": "Corrine Koslo",
      "profile_path": "/rBN9GIeUeaUqBqLa7J7hI5C3hNq.jpg",
      "popularity": 10.174,
      "adult": false,
      "known_for_department": "Acting"
    },
    {
      "id": 212809,
      "name": "Carlo Marks",
      "profile_path": "/d6Hx5jVuAFUfnHFeHaSwhwjQ0U0.jpg",
      "popularity": 10.173,
      "adult": false,
      "known_for_department": "Acting"
    },
    {
      "id": 53516,
      "name": "Mark Sheppard",
      "profile_path": "/aTlqvlKgfyUAZT48AvEytqkMBC6.jpg",
      "popularity": 10.173,
      "adult": false,
      "known_for_department": "Acting"
    },
    {
      "id": 8452,
      "name": "Andrei Tarkovsky",
      "profile_path": "/j0toVLrgLNuyGnUxGPnSfnPiSf5.jpg",
      "popularity": 10.171,
      "adult": false,
      "known_for_department": "Directing"
    },
    {
      "id": 1493218,
      "name": "Cyrus Arnold",
      "profile_path": "/p9ugSy9MyfBhYrlGOMpH81lk8iT.jpg",
      "popularity": 10.17,
      "adult": false,
      "known_for_department": "Acting"
    },
    {
      "id": 1664716,
      "name": "Jharrel Jerome",
      "profile_path": "/zH840Fv86TixTLVZKzPZJJacphd.jpg",
      "popularity": 10.168,
      "adult": false,
      "known_for_department": "Acting"
    },
    {
      "id": 113867,
      "name": "Angela Kinsey",
      "profile_path": "/5CqhutPYfVQC1mcTky2IU8o1R19.jpg",
      "popularity": 10.168,
      "adult": false,
      "known_for_department": "Acting"
    },
    {
      "id": 47874,
      "name": "Richard Wilson",
      "profile_path": "/e0W6gWfmNOTiHPmxGWyjsQTrUHF.jpg",
      "popularity": 10.168,
      "adult": false,
      "known_for_department": "Acting"
    }
  ]
}