{
  "page": 49,
  "total_results": 10000,
  "total_pages": 500,
  "results": [
    {
      "id": 50877,
      "name": "Jill Hennessy",
      "profile_path": "/dCJvqrN7KXAEJLfb2JFTvMr9HXh.jpg",
      "popularity": 22.225,
      "adult": false,
      "known_for_department": "Acting"
    },
    {
      "id": 45827,
      "name": "Ashley Greene",
      "profile_path": "/d7UyEB3cm4doT5JgkZb68PmG4sT.jpg",
      "popularity": 22.214,
      "adult": false,
      "known_for_department": "Acting"
    },
    {
      "id": 35029,
      "name": "David Harbour",
      "profile_path": "/chPekukMF5SNnW6b22NbYPqAStr.jpg",
      "popularity": 22.198,
      "adult": false,
      "known_for_department": "Acting"
    },
    {
      "id": 1968436,
      "name": "Yeong Ah",
      "profile_path": "",
      "popularity": 22.188,
      "adult": false,
      "known_for_department": "Acting"
    },
    {
      "id": 2130,
      "name": "Cary Elwes",
      "profile_path": "/9UszBdQJ9PmyBydIeIBxlStozhW.jpg",
      "popularity": 22.184,
      "adult": false,
      "known_for_department": "Acting"
    },
    {
      "id": 66,
      "name": "Chris Tucker",
      "profile_path": "/xtAK4hFyDjSYhZ9oRhppuVcLi80.jpg",
      "popularity": 22.164,
      "adult": false,
      "known_for_department": "Acting"
    },
    {
      "id": 932967,
      "name": "Mahershala Ali",
      "profile_path": "/9ZmSejm5lnUVY5IJ1iNx2QEjnHb.jpg",
      "popularity": 22.14,
      "adult": false,
      "known_for_department": "Acting"
    },
    {
      "id": 4654,
      "name": "Jeremy Davies",
      "profile_path": "/b15bF582QuQjyw2Jgr5wxErWrDM.jpg",
      "popularity": 22.123,
      "adult": false,
      "known_for_department": "Acting"
    },
    {
      "id": 9640,
      "name": "Haley Joel Osment",
      "profile_path": "/jft0dGgR5bJ6mR7QRYriMVBC6QH.jpg",
      "popularity": 22.118,
      "adult": false,
      "known_for_department": "Acting"
    },
    {
      "id": 2155,
      "name": "Thora Birch",
      "profile_path": "/7rRirYcL5JJS5P2W67yhsmAfO3x.jpg",
      "popularity": 22.118,
      "adult": false,
      "known_for_department": "Acting"
    },
    {
      "id": 83356,
      "name": "Jamie Campbell Bower",
      "profile_path": "/wzuENDUCak8HKRh72Jj7p3BQ7NY.jpg",
      "popularity": 22.109,
      "adult": false,
      "known_for_department": "Acting"
    },
    {
      "id": 10699,
      "name": "Samantha Bond",
      "profile_path": "/apo13y77RnKUWTjY1FsW1DcQdkY.jpg",
      "popularity": 22.106,
      "adult": false,
      "known_for_department": "Acting"
    },
    {
      "id": 3197,
      "name": "Tom Sizemore",
      "profile_path": "/soINOuacuiThRb2LyPD4tTWve7C.jpg",
      "popularity": 22.103,
      "adult": false,
      "known_for_department": "Acting"
    },
    {
      "id": 1215663,
      "name": "Jessica Collins",
      "profile_path": "/4nBBagsBQczKSflzRVWFVdhmfz1.jpg",
      "popularity": 22.098,
      "adult": false,
      "known_for_department": "Acting"
    },
    {
      "id": 19492,
      "name": "Viola Davis",
      "profile_path": "/xDssw6vpYNRjsybvMPRE30e0dPN.jpg",
      "popularity": 22.094,
      "adult": false,
      "known_for_department": "Acting"
    },
    {
      "id": 5411,
      "name": "Sanaa Lathan",
      "profile_path": "/mYrlBt33pPbdsgscTuWdHScu7md.jpg",
      "popularity": 22.083,
      "adult": false,
      "known_for_department": "Acting"
    },
    {
      "id": 15140,
      "name": "Terence Hill",
      "profile_path": "/vBkWDZh93QRUvg3oh5d96QQZWLn.jpg",
      "popularity": 22.065,
      "adult": false,
      "known_for_department": "Acting"
    },
    {
      "id": 73357,
      "name": "Eleanor Tomlinson",
      "profile_path": "/A2lE5kvZE3tIpKwpAtKbjsMHpf2.jpg",
      "popularity": 22.064,
      "adult": false,
      "known_for_department": "Acting"
    },
    {
      "id": 84497,
      "name": "Aaron Paul",
      "profile_path": "/lowE44ffgu4UmnOT3wOTKYhtUzp.jpg",
      "popularity": 22.059,
      "adult": false,
      "known_for_department": "Acting"
    },
    {
      "id": 6383,
      "name": "Aaron Eckhart",
      "profile_path": "/5EFQvRHlpP1Iaw2e6vjOaBny6DV.jpg",
      "popularity": 22.037,
      "adult": false,
      "known_for_department": "Acting"
    }
  ]
}