{
  "page": 260,
  "total_results": 10000,
  "total_pages": 500,
  "results": [
    {
      "id": 9909,
      "name": "Shirley Eaton",
      "profile_path": "/xhQLtZO9E8jtJ1yPzMCFMknBDm8.jpg",
      "popularity": 10.033,
      "adult": false,
      "known_for_department": "Acting"
    },
    {
      "id": 118331,
      "name": "Pavel Priluchnyy",
      "profile_path": "/7dW6NrRSitLwvbeapueKM092VgA.jpg",
      "popularity": 10.032,
      "adult": false,
      "known_for_department": "Acting"
    },
    {
      "id": 112566,
      "name": "Lance Gross",
      "profile_path": "/NpdR4cBgqODZZdwXnA1I8qK7gs.jpg",
      "popularity": 10.032,
      "adult": false,
      "known_for_department": "Acting"
    },
    {
      "id": 89888,
      "name": "Adam Copeland",
      "profile_path": "/xawkWKkgbOx5atAMeFDh9rjHGWt.jpg",
      "popularity": 10.032,
      "adult": false,
      "known_for_department": "Acting"
    },
    {
      "id": 1920102,
      "name": "Liam Hughes",
      "profile_path": "/1lZLJ9Xi1cyWOoqKXgD5dBPjgmV.jpg",
      "popularity": 10.028,
      "adult": false,
      "known_for_department": "Acting"
    },
    {
      "id": 1610710,
      "name": "Chuku Modu",
      "profile_path": "/taoknxCAJcuzn71YKbCqc4hsYyR.jpg",
      "popularity": 10.028,
      "adult": false,
      "known_for_department": "Acting"
    },
    {
      "id": 38888,
      "name": "Seth Gabel",
      "profile_path": "/kY5UB2E1Rr08ikaa48om4x5ZV8Z.jpg",
      "popularity": 10.028,
      "adult": false,
      "known_for_department": "Acting"
    },
    {
      "id": 117081,
      "name": "Teresa Ganzel",
      "profile_path": "/8ZFhsWrzxBrewduX8X6rRNQWpLw.jpg",
      "popularity": 10.027,
      "adult": false,
      "known_for_department": "Acting"
    },
    {
      "id": 58068,
      "name": "Fionnula Flanagan",
      "profile_path": "/ee3vqFhrmKMRsqqHFLm1rcwGE93.jpg",
      "popularity": 10.027,
      "adult": false,
      "known_for_department": "Acting"
    },
    {
      "id": 49271,
      "name": "Brian Geraghty",
      "profile_path": "/4sqeUc4xYyzQ3Qpl5oxlQBTAAQk.jpg",
      "popularity": 10.027,
      "adult": false,
      "known_for_department": "Acting"
    },
    {
      "id": 18981,
      "name": "Amanda Bearse",
      "profile_path": "/vsigj6WmFdm6w7O7uA7UOWuxuxG.jpg",
      "popularity": 10.025,
      "adult": false,
      "known_for_department": "Directing"
    },
    {
      "id": 1325962,
      "name": "Daiki Yamashita",
      "profile_path": "/rQNdJdZewk7VGP16ZNbpfJ9ZeMd.jpg",
      "popularity": 10.024,
      "adult": false,
      "known_for_department": "Acting"
    },
    {
      "id": 1078674,
      "name": "Park Ji-hwan",
      "profile_path": "/yCxBKivLmLaoziCveVbo89aW0zW.jpg",
      "popularity": 10.024,
      "adult": false,
      "known_for_department": "Acting"
    },
    {
      "id": 2110517,
      "name": "Irene Arcos",
      "profile_path": "/o3w4Ht2aBLZRwOt69UHuEL2skY8.jpg",
      "popularity": 10.023,
      "adult": false,
      "known_for_department": "Acting"
    },
    {
      "id": 168828,
      "name": "Kristen Renton",
      "profile_path": "/8l2jVHf2ytesVNWSDWQnK54ohU3.jpg",
      "popularity": 10.023,
      "adult": false,
      "known_for_department": "Acting"
    },
    {
      "id": 1556546,
      "name": "Hande Soral",
      "profile_path": "/cOxaA99Hg5ZkUWgFZjFBX5jlZmJ.jpg",
      "popularity": 10.022,
      "adult": false,
      "known_for_department": "Acting"
    },
    {
      "id": 35690,
      "name": "Shawn Wayans",
      "profile_path": "/Cat25uXhB680QLmvg9Tu16W563.jpg",
      "popularity": 10.021,
      "adult": false,
      "known_for_department": "Acting"
    },
    {
      "id": 587753,
      "name": "Pooja Hegde",
      "profile_path": "/t09lf8vem5MRk3KaALcdgehreXg.jpg",
      "popularity": 10.02,
      "adult": false,
      "known_for_department": "Acting"
    },
    {
      "id": 588175,
      "name": "Lars Ranthe",
      "profile_path": "/ecuI4UDB9TXorw7CB7H0WhbhsKA.jpg",
      "popularity": 10.019,
      "adult": false,
      "known_for_department": "Acting"
    },
    {
      "id": 225186,
      "name": "Belçim Bilgin",
      "profile_path": "/43eIKc24pCAt47uTVcTlh51ak0x.jpg",
      "popularity": 10.019,
      "adult": false,
      "known_for_department": "Acting"
    }
  ]
}