{
  "page": 151,
  "total_results": 10000,
  "total_pages": 500,
  "results": [
    {
      "id": 53184,
      "name": "Rick Gonzalez",
      "profile_path": "/pVHDPq1a2oCZktgI3VumMRzGBd3.jpg",
      "popularity": 13.274,
      "adult": false,
      "known_for_department": "Acting"
    },
    {
      "id": 43483,
      "name": "Courtney Henggeler",
      "profile_path": "/soNsMFPhOsdW6jR7oJi6SlXsYYT.jpg",
      "popularity": 13.272,
      "adult": false,
      "known_for_department": "Acting"
    },
    {
      "id": 27011,
      "name": "Vanessa Williams",
      "profile_path": "/30O1Af0wy6UBt8EpVRuq28tTGoT.jpg",
      "popularity": 13.271,
      "adult": false,
      "known_for_department": "Acting"
    },
    {
      "id": 1829122,
      "name": "Ewan Mitchell",
      "profile_path": "/v1PqysDnx5umfA2DqGyjwuAxc9C.jpg",
      "popularity": 13.269,
      "adult": false,
      "known_for_department": "Acting"
    },
    {
      "id": 118763,
      "name": "Lúcia Moniz",
      "profile_path": "/ffrW3ZQhym3wbxvs2XbSozSh8oi.jpg",
      "popularity": 13.265,
      "adult": false,
      "known_for_department": "Acting"
    },
    {
      "id": 118589,
      "name": "Susanna Hoffs",
      "profile_path": "/qMvdKFr7rC2wzuzpow0yop2AoFw.jpg",
      "popularity": 13.265,
      "adult": false,
      "known_for_department": "Acting"
    },
    {
      "id": 2357,
      "name": "Howard Franklin",
      "profile_path": "",
      "popularity": 13.265,
      "adult": false,
      "known_for_department": "Writing"
    },
    {
      "id": 1206,
      "name": "Jason Alexander",
      "profile_path": "/67pvqalQz6zCkMrcm6dk4lRneaC.jpg",
      "popularity": 13.264,
      "adult": false,
      "known_for_department": "Acting"
    },
    {
      "id": 4940,
      "name": "Trevor Morgan",
      "profile_path": "/txZ59fUmdyyv5cowmFDu85HiBeF.jpg",
      "popularity": 13.262,
      "adult": false,
      "known_for_department": "Acting"
    },
    {
      "id": 15832,
      "name": "Gilbert Gottfried",
      "profile_path": "/hkkAgJD0HKcuyd8EuvhyN5vHcDQ.jpg",
      "popularity": 13.261,
      "adult": false,
      "known_for_department": "Acting"
    },
    {
      "id": 1397001,
      "name": "Brendon Zub",
      "profile_path": "/gLDcwvhxiHlc436WwRYwx1fJrYf.jpg",
      "popularity": 13.259,
      "adult": false,
      "known_for_department": "Acting"
    },
    {
      "id": 1240538,
      "name": "Eva De Dominici",
      "profile_path": "/9pr06jMK9DgHCQJbEvkKsALBpfN.jpg",
      "popularity": 13.257,
      "adult": false,
      "known_for_department": "Acting"
    },
    {
      "id": 2357049,
      "name": "Susanna Skaggs",
      "profile_path": "/zVrSDY1SWkkBqNfmQ1GGTIqVyPy.jpg",
      "popularity": 13.251,
      "adult": false,
      "known_for_department": "Acting"
    },
    {
      "id": 1853565,
      "name": "Victoria Agalakova",
      "profile_path": "/4iIKyph4fUKGdCuNRzXw5y4HA1H.jpg",
      "popularity": 13.25,
      "adult": false,
      "known_for_department": "Acting"
    },
    {
      "id": 1369,
      "name": "Bernard Hill",
      "profile_path": "/5i8bj2nsTrFU2ddSynleOjapxor.jpg",
      "popularity": 13.246,
      "adult": false,
      "known_for_department": "Acting"
    },
    {
      "id": 1592949,
      "name": "Victoire Du Bois",
      "profile_path": "/leXyUNkBVza8gPmIXmf9lG6ZtiR.jpg",
      "popularity": 13.245,
      "adult": false,
      "known_for_department": "Acting"
    },
    {
      "id": 28660,
      "name": "Emilie de Ravin",
      "profile_path": "/T4pyhFEPC8zSgUz9p3uQT2J5zX.jpg",
      "popularity": 13.241,
      "adult": false,
      "known_for_department": "Acting"
    },
    {
      "id": 17918,
      "name": "Francis Capra",
      "profile_path": "/iMbTbfIKNqjNwtwtdMLMRJUG1ej.jpg",
      "popularity": 13.24,
      "adult": false,
      "known_for_department": "Acting"
    },
    {
      "id": 9029,
      "name": "Stephen Rea",
      "profile_path": "/8Ej68YWZ8P2Wwf2a0UXibqq9Mu9.jpg",
      "popularity": 13.239,
      "adult": false,
      "known_for_department": "Acting"
    },
    {
      "id": 76188,
      "name": "Tony Barry",
      "profile_path": "/uRPT91lZPoGba7A67B3ZXK9PWjl.jpg",
      "popularity": 13.238,
      "adult": false,
      "known_for_department": "Acting"
    }
  ]
}