{
  "page": 254,
  "total_results": 10000,
  "total_pages": 500,
  "results": [
    {
      "id": 6197,
      "name": "Brian Dennehy",
      "profile_path": "/sWAXMe4MVvnFubZtIaN7CmWNbaO.jpg",
      "popularity": 11.705,
      "adult": false,
      "known_for_department": "Acting"
    },
    {
      "id": 1312526,
      "name": "Andrew Leung",
      "profile_path": "/hXK4gUIooj3SpQ2qwEN9JLV0B7d.jpg",
      "popularity": 11.704,
      "adult": false,
      "known_for_department": "Acting"
    },
    {
      "id": 1519588,
      "name": "Barret Swatek",
      "profile_path": "/yIQDm6KnH5hrPbMzsKi1bXOMx0u.jpg",
      "popularity": 11.7,
      "adult": false,
      "known_for_department": "Acting"
    },
    {
      "id": 77921,
      "name": "Hideaki Anno",
      "profile_path": "/AfV9h1RW6uALpx751APdUoX8ONc.jpg",
      "popularity": 11.7,
      "adult": false,
      "known_for_department": "Directing"
    },
    {
      "id": 18260,
      "name": "August Schellenberg",
      "profile_path": "/fSNg3WDMxgD7JlHs8QVhVf4dx2A.jpg",
      "popularity": 11.7,
      "adult": false,
      "known_for_department": "Acting"
    },
    {
      "id": 1849319,
      "name": "Adrian Spencer",
      "profile_path": "/ibDcS36iABXTNnbQUN10TLZ6EKT.jpg",
      "popularity": 11.699,
      "adult": false,
      "known_for_department": "Acting"
    },
    {
      "id": 53367,
      "name": "Ruth Sheen",
      "profile_path": "/l1K0aEfdMpumVlgW59A5Mf5avpW.jpg",
      "popularity": 11.697,
      "adult": false,
      "known_for_department": "Acting"
    },
    {
      "id": 12516,
      "name": "Linda Hunt",
      "profile_path": "/7Q58ghdO35UAbEJ8qGh4RPqqmQI.jpg",
      "popularity": 11.695,
      "adult": false,
      "known_for_department": "Acting"
    },
    {
      "id": 1498026,
      "name": "Nesta Cooper",
      "profile_path": "/rmHzFvZ1rDf9C0cULfsvz1WMRL9.jpg",
      "popularity": 11.693,
      "adult": false,
      "known_for_department": "Acting"
    },
    {
      "id": 586000,
      "name": "Tom Cullen",
      "profile_path": "/c3WqIFRXA6EhU6h2etA6O9u6Xnz.jpg",
      "popularity": 11.691,
      "adult": false,
      "known_for_department": "Acting"
    },
    {
      "id": 2896,
      "name": "Marlene Dietrich",
      "profile_path": "/PN5grwJ9ugrEp6v78NgXTEOMCc.jpg",
      "popularity": 11.689,
      "adult": false,
      "known_for_department": "Acting"
    },
    {
      "id": 1719168,
      "name": "Nader Khademi",
      "profile_path": "/zh0taWimUQwahnUhfQXtnkgD1me.jpg",
      "popularity": 11.687,
      "adult": false,
      "known_for_department": "Acting"
    },
    {
      "id": 123813,
      "name": "Ian Anthony Dale",
      "profile_path": "/x5ePN7j7C4ZmytO5VoUOpiPEyRm.jpg",
      "popularity": 11.687,
      "adult": false,
      "known_for_department": "Acting"
    },
    {
      "id": 12670,
      "name": "Takuya Kimura",
      "profile_path": "/rafirRSsSsZrSVV3znCUwwSGIGr.jpg",
      "popularity": 11.687,
      "adult": false,
      "known_for_department": "Acting"
    },
    {
      "id": 119065,
      "name": "Leonie Benesch",
      "profile_path": "/l4fvpY2pFO2qruOtKWseXIhao4q.jpg",
      "popularity": 11.686,
      "adult": false,
      "known_for_department": "Acting"
    },
    {
      "id": 34842,
      "name": "Tony Amendola",
      "profile_path": "/eGgQGEwO2vCqhFcmDfyyjctmWcl.jpg",
      "popularity": 11.686,
      "adult": false,
      "known_for_department": "Acting"
    },
    {
      "id": 1831272,
      "name": "Moemi Katayama",
      "profile_path": "/nQQQhq9cjk6VgfoarD9AnUyRbK6.jpg",
      "popularity": 11.684,
      "adult": false,
      "known_for_department": "Acting"
    },
    {
      "id": 145121,
      "name": "Pierre Niney",
      "profile_path": "/aMsGsnRPet7pZ2ppAxaRdBz4yGU.jpg",
      "popularity": 11.683,
      "adult": false,
      "known_for_department": "Acting"
    },
    {
      "id": 107791,
      "name": "Kelly Stables",
      "profile_path": "/1JaUl2kYhCCsLJYBNcdZkw4T0pE.jpg",
      "popularity": 11.682,
      "adult": false,
      "known_for_department": "Acting"
    },
    {
      "id": 42558,
      "name": "Charlotte Lewis",
      "profile_path": "/17nWvGDfg4lJmtMR2WdhsDwnuUb.jpg",
      "popularity": 11.682,
      "adult": false,
      "known_for_department": "Acting"
    }
  ]
}