{
  "page": 455,
  "total_results": 10000,
  "total_pages": 500,
  "results": [
    {
      "id": 97640,
      "name": "Rona Anderson",
      "profile_path": "/a4rduI06u3LU0bsFqpoqdKEGf0N.jpg",
      "popularity": 7.658,
      "adult": false,
      "known_for_department": "Acting"
    },
    {
      "id": 69033,
      "name": "Vivian Wu",
      "profile_path": "/6XLjcLxICMms0YLS4tpUNg8GhHR.jpg",
      "popularity": 7.658,
      "adult": false,
      "known_for_department": "Acting"
    },
    {
      "id": 226081,
      "name": "Ghada Abdel Razek",
      "profile_path": "/3ZciMrIf0ttF80A0E5rHukAK46g.jpg",
      "popularity": 7.657,
      "adult": false,
      "known_for_department": "Acting"
    },
    {
      "id": 64915,
      "name": "Janet Kidder",
      "profile_path": "/vQaIlXJkAa2H5TOL3MZtAqD6Yks.jpg",
      "popularity": 7.657,
      "adult": false,
      "known_for_department": "Acting"
    },
    {
      "id": 47733,
      "name": "Zoë Tapper",
      "profile_path": "/qLJ4jYVTV0MMMiu3XRlmQrh5AxQ.jpg",
      "popularity": 7.657,
      "adult": false,
      "known_for_department": "Acting"
    },
    {
      "id": 1552436,
      "name": "Austin Amelio",
      "profile_path": "/y4QTXuSSmD99n8dinMiTRBkUnAp.jpg",
      "popularity": 7.655,
      "adult": false,
      "known_for_department": "Acting"
    },
    {
      "id": 1067459,
      "name": "Nathan Parsons",
      "profile_path": "/p0J7egp89b2XOCNsCMzFKcpeRoq.jpg",
      "popularity": 7.655,
      "adult": false,
      "known_for_department": "Acting"
    },
    {
      "id": 1004565,
      "name": "Im Won-hee",
      "profile_path": "/ve0gjj2cf3t4pgrhLKvyavqgq98.jpg",
      "popularity": 7.655,
      "adult": false,
      "known_for_department": "Acting"
    },
    {
      "id": 83852,
      "name": "Liam James",
      "profile_path": "/a8qMiwUEbiohMnjwyMSOSrivUUE.jpg",
      "popularity": 7.655,
      "adult": false,
      "known_for_department": "Acting"
    },
    {
      "id": 56867,
      "name": "Mark McKinney",
      "profile_path": "/59907rm4HF2IVuMJnKpJJAOGkRU.jpg",
      "popularity": 7.655,
      "adult": false,
      "known_for_department": "Acting"
    },
    {
      "id": 3796,
      "name": "Michael Gough",
      "profile_path": "/owcwnV6dymBd9YIQKDPzVA5EtZX.jpg",
      "popularity": 7.655,
      "adult": false,
      "known_for_department": "Acting"
    },
    {
      "id": 7,
      "name": "Andrew Stanton",
      "profile_path": "/gasNitCwepbqNcYBmDHpsCgZH0I.jpg",
      "popularity": 7.655,
      "adult": false,
      "known_for_department": "Writing"
    },
    {
      "id": 1615066,
      "name": "Debs Howard",
      "profile_path": "/98Q0ZFr7MfgDWJr0aTD5M7Gb6MD.jpg",
      "popularity": 7.654,
      "adult": false,
      "known_for_department": "Acting"
    },
    {
      "id": 1172772,
      "name": "Tanner Novlan",
      "profile_path": "/rdGDe5twPhWAnXZNOp3U0uXUaNa.jpg",
      "popularity": 7.654,
      "adult": false,
      "known_for_department": "Acting"
    },
    {
      "id": 61904,
      "name": "Christina Vidal",
      "profile_path": "/crf8W71bjJIHPiFYB1ny4Dl3amY.jpg",
      "popularity": 7.654,
      "adult": false,
      "known_for_department": "Acting"
    },
    {
      "id": 82819,
      "name": "Nolan Gerard Funk",
      "profile_path": "/xZw14bRfYtP1g5V1V7iuuDmNve.jpg",
      "popularity": 7.653,
      "adult": false,
      "known_for_department": "Acting"
    },
    {
      "id": 51962,
      "name": "Bill Cosby",
      "profile_path": "/oN2wqTSYNrMliATEijuBYV4vi9z.jpg",
      "popularity": 7.652,
      "adult": false,
      "known_for_department": "Acting"
    },
    {
      "id": 18478,
      "name": "Rodrigo de la Serna",
      "profile_path": "/vMuKUJSnEGOmjjLYzVDKGukiaCr.jpg",
      "popularity": 7.652,
      "adult": false,
      "known_for_department": "Acting"
    },
    {
      "id": 10361,
      "name": "Raymond J. Barry",
      "profile_path": "/8rJs8BQMoVqEjjCHCS4i7o7joJ6.jpg",
      "popularity": 7.652,
      "adult": false,
      "known_for_department": "Acting"
    },
    {
      "id": 1893047,
      "name": "Kaan Yıldırım",
      "profile_path": "/fAQxebEakGqO3hQY6SZVSZzngQi.jpg",
      "popularity": 7.651,
      "adult": false,
      "known_for_department": "Acting"
    }
  ]
}