{
  "page": 354,
  "total_results": 10000,
  "total_pages": 500,
  "results": [
    {
      "id": 10849,
      "name": "Marek Vašut",
      "profile_path": "/1gaHNNG8MuA3meaDHGi6Tb3Vw1K.jpg",
      "popularity": 9.545,
      "adult": false,
      "known_for_department": "Acting"
    },
    {
      "id": 112987,
      "name": "Bernice Liu",
      "profile_path": "/b1yBUeYv1aUWPuIIDa95t4RngwO.jpg",
      "popularity": 9.544,
      "adult": false,
      "known_for_department": "Acting"
    },
    {
      "id": 1602697,
      "name": "Alina Lanina",
      "profile_path": "/eEC4kOVjzz0btciPHAnSvw9qCCg.jpg",
      "popularity": 9.543,
      "adult": false,
      "known_for_department": "Acting"
    },
    {
      "id": 19754,
      "name": "Tony Cox",
      "profile_path": "/sbZS0gxvRsAIgHxIEL8STINpn7u.jpg",
      "popularity": 9.543,
      "adult": false,
      "known_for_department": "Acting"
    },
    {
      "id": 131520,
      "name": "Brooklyn Decker",
      "profile_path": "/x3JWepaXTopE9k0g87Q9diRM5Nc.jpg",
      "popularity": 9.542,
      "adult": false,
      "known_for_department": "Acting"
    },
    {
      "id": 2633250,
      "name": "Park Ju-hyun",
      "profile_path": "/r27akJMJky8lWurkeWekjjay4ck.jpg",
      "popularity": 9.541,
      "adult": false,
      "known_for_department": "Acting"
    },
    {
      "id": 1700142,
      "name": "Kaito Yoshimura",
      "profile_path": "/xkKQxYhfOPHWe4CvSzo9IeZLbBP.jpg",
      "popularity": 9.541,
      "adult": false,
      "known_for_department": "Acting"
    },
    {
      "id": 103330,
      "name": "Navid Negahban",
      "profile_path": "/cPsYncbHK7J76Sm4bc1rtgRh5qf.jpg",
      "popularity": 9.541,
      "adult": false,
      "known_for_department": "Acting"
    },
    {
      "id": 74288,
      "name": "Andrea Bowen",
      "profile_path": "/A0Asp1uwbW7kMLTH3xkr2oDfKlA.jpg",
      "popularity": 9.541,
      "adult": false,
      "known_for_department": "Acting"
    },
    {
      "id": 72673,
      "name": "Irene Montalà",
      "profile_path": "/dNV3Mhbd7OBB1tF3N3eYXDrhtYm.jpg",
      "popularity": 9.541,
      "adult": false,
      "known_for_department": "Acting"
    },
    {
      "id": 1057990,
      "name": "Yui Ogura",
      "profile_path": "/vUuyLWde2CEd5G0oqeEzzFE6qqA.jpg",
      "popularity": 9.54,
      "adult": false,
      "known_for_department": "Acting"
    },
    {
      "id": 39126,
      "name": "Bai Ling",
      "profile_path": "/4NB0MRVFjwutFQCPy8kbq6MEFrb.jpg",
      "popularity": 9.54,
      "adult": false,
      "known_for_department": "Acting"
    },
    {
      "id": 30551,
      "name": "Jeffrey Hunter",
      "profile_path": "/enQuu8yfrL0VX7BL3FqsM7DGcqF.jpg",
      "popularity": 9.54,
      "adult": false,
      "known_for_department": "Acting"
    },
    {
      "id": 96555,
      "name": "Antonio Cupo",
      "profile_path": "/9DMre8ZuRg11kEeI4X0ESbVIW2.jpg",
      "popularity": 9.538,
      "adult": false,
      "known_for_department": "Acting"
    },
    {
      "id": 550869,
      "name": "Megumi Kagurazaka",
      "profile_path": "/jhHsyQTLmzdsd7cJSIHUYLxFsiy.jpg",
      "popularity": 9.537,
      "adult": false,
      "known_for_department": "Acting"
    },
    {
      "id": 1104136,
      "name": "Jason Ralph",
      "profile_path": "/i7sjPMHxKjAcvXl8bg1jpFBmsxS.jpg",
      "popularity": 9.535,
      "adult": false,
      "known_for_department": "Acting"
    },
    {
      "id": 79795,
      "name": "Shiloh Fernandez",
      "profile_path": "/nO4zJduiy3lhbpf01R1J0BKGJUc.jpg",
      "popularity": 9.535,
      "adult": false,
      "known_for_department": "Acting"
    },
    {
      "id": 5296,
      "name": "James Ransone",
      "profile_path": "/8FMRGfS1YHyqoGJfD3ymVeiGRge.jpg",
      "popularity": 9.535,
      "adult": false,
      "known_for_department": "Acting"
    },
    {
      "id": 1855709,
      "name": "Erica Peeples",
      "profile_path": "/9zqtGPUrCyxcBgZyMD3HHU0kkIt.jpg",
      "popularity": 9.534,
      "adult": false,
      "known_for_department": "Acting"
    },
    {
      "id": 1360010,
      "name": "Abby Ryder Fortson",
      "profile_path": "/xJcNxy1RV8E0mX2Kr0BMjgzMmfu.jpg",
      "popularity": 9.534,
      "adult": false,
      "known_for_department": "Acting"
    }
  ]
}