{
  "page": 445,
  "total_results": 10000,
  "total_pages": 500,
  "results": [
    {
      "id": 1827301,
      "name": "Mia Topalian",
      "profile_path": "/tDKq9BNUTjUdiJV4IMgcpBrk9nS.jpg",
      "popularity": 6.356,
      "adult": false,
      "known_for_department": "Acting"
    },
    {
      "id": 67893,
      "name": "Larry B. Scott",
      "profile_path": "/5T6qtSbpDlI7GLOdd8eZKPtjhjj.jpg",
      "popularity": 5.556,
      "adult": false,
      "known_for_department": "Acting"
    },
    {
      "id": 62168,
      "name": "Sasha Pieterse",
      "profile_path": "/cwoR5JWudzy1TnUEM5e2HqsJQv8.jpg",
      "popularity": 12.859,
      "adult": false,
      "known_for_department": "Acting"
    },
    {
      "id": 17022,
      "name": "Antonia Campbell-Hughes",
      "profile_path": "/zOaSbA6JfJuJ5Fx4RvbqumfAue8.jpg",
      "popularity": 10.355,
      "adult": false,
      "known_for_department": "Acting"
    },
    {
      "id": 1608402,
      "name": "Alvina August",
      "profile_path": "/zWeeZSqqhc7vnLKE7bGj5A3HQ0F.jpg",
      "popularity": 8.355,
      "adult": false,
      "known_for_department": "Acting"
    },
    {
      "id": 1693,
      "name": "Ryohei Suzuki",
      "profile_path": "/dZ2XU1F7F0b9E1Sk6Ml5arlDDml.jpg",
      "popularity": 9.955,
      "adult": false,
      "known_for_department": "Acting"
    },
    {
      "id": 496,
      "name": "Rick Carter",
      "profile_path": "/5QlzL72Du5zVs1E27pQ0OlFLImI.jpg",
      "popularity": 7.554,
      "adult": false,
      "known_for_department": "Art"
    },
    {
      "id": 4451,
      "name": "Mark Webber",
      "profile_path": "/kCpXM6Bmj5pZPVeu7MmQxQWYry7.jpg",
      "popularity": 7.554,
      "adult": false,
      "known_for_department": "Acting"
    },
    {
      "id": 1756,
      "name": "Stephen Collins",
      "profile_path": "/ncig7dxNlbR6URDY4nUHkh008Mx.jpg",
      "popularity": 8.354,
      "adult": false,
      "known_for_department": "Acting"
    },
    {
      "id": 2103885,
      "name": "Jack Messina",
      "profile_path": "/xmfOMPm0II74SMPwF3HSYIIODRH.jpg",
      "popularity": 6.753,
      "adult": false,
      "known_for_department": "Acting"
    },
    {
      "id": 1181358,
      "name": "Eli Goree",
      "profile_path": "/zOkWWZOjJXviZPqWTMQ2tUrMOVY.jpg",
      "popularity": 10.353,
      "adult": false,
      "known_for_department": "Acting"
    },
    {
      "id": 168986,
      "name": "Virginia Williams",
      "profile_path": "/uQ8LEqT4nJP2Ismq6RERWS4bzYC.jpg",
      "popularity": 11.953,
      "adult": false,
      "known_for_department": "Acting"
    },
    {
      "id": 3031137,
      "name": "Seo Woo-jin",
      "profile_path": "/jIK5wFy7u2Yg6PZiZWpQ7rlj3BM.jpg",
      "popularity": 9.953,
      "adult": false,
      "known_for_department": "Acting"
    },
    {
      "id": 19610,
      "name": "Michael Crawford",
      "profile_path": "/81cAX1ghOMKBpvVtoo7ya5wuno0.jpg",
      "popularity": 5.506,
      "adult": false,
      "known_for_department": "Acting"
    },
    {
      "id": 2045794,
      "name": "Casey Johnson",
      "profile_path": "/3A6J6nSe3C0EMJOUfdBwbtprn1B.jpg",
      "popularity": 8.352,
      "adult": false,
      "known_for_department": "Acting"
    },
    {
      "id": 71530,
      "name": "Romany Malco",
      "profile_path": "/q5f1rvnTGDnxsNCSSZoYXYDbu0I.jpg",
      "popularity": 8.752,
      "adult": false,
      "known_for_department": "Acting"
    },
    {
      "id": 26456,
      "name": "Lori Singer",
      "profile_path": "/anpEryFcsfbe5x3zGH27ih30SSA.jpg",
      "popularity": 9.152,
      "adult": false,
      "known_for_department": "Acting"
    },
    {
      "id": 6696,
      "name": "Mark Ivanir",
      "profile_path": "/biVPUjq1BbX3YWpvXv5OZjEuJI0.jpg",
      "popularity": 10.352,
      "adult": false,
      "known_for_department": "Acting"
    },
    {
      "id": 502397,
      "name": "Aylin Tezel",
      "profile_path": "/z4tLRgC0tg0aOQDuW8Mp2XyPmLy.jpg",
      "popularity": 8.752,
      "adult": false,
      "known_for_department": "Acting"
    },
    {
      "id": 1475808,
      "name": "Maddie Phillips",
      "profile_path": "/uuQBuEdkhgDSJ2wnE5N4tyryl4t.jpg",
      "popularity": 12.352,
      "adult": false,
      "known_for_department": "Acting"
    }
  ]
}