{
  "page": 379,
  "total_results": 10000,
  "total_pages": 500,
  "results": [
    {
      "id": 75131,
      "name": "Nash Edgerton",
      "profile_path": "/4APzupXhj00RkLJyjzYTkvk47Dw.jpg",
      "popularity": 7.336,
      "adult": false,
      "known_for_department": "Acting"
    },
    {
      "id": 18687,
      "name": "William McNamara",
      "profile_path": "/hVOdM3UUmJqpREnBxzm0J4j0b5R.jpg",
      "popularity": 7.336,
      "adult": false,
      "known_for_department": "Acting"
    },
    {
      "id": 40952,
      "name": "Sid James",
      "profile_path": "/cjldtyJMt8J0nuWwVIuBSn0o70w.jpg",
      "popularity": 7.335,
      "adult": false,
      "known_for_department": "Acting"
    },
    {
      "id": 1053423,
      "name": "Alex ter Avest",
      "profile_path": "/yACy7jx7rN5QhFcKxi1NqsYCiE1.jpg",
      "popularity": 7.334,
      "adult": false,
      "known_for_department": "Acting"
    },
    {
      "id": 55707,
      "name": "Mirai Yamamoto",
      "profile_path": "/pfwAxX4sBGrKfgcxHeFOHbqX91I.jpg",
      "popularity": 7.334,
      "adult": false,
      "known_for_department": "Acting"
    },
    {
      "id": 20354,
      "name": "Amber Tamblyn",
      "profile_path": "/bzw0lxvtbEnYT7fZ8fn6NeSzMn9.jpg",
      "popularity": 7.334,
      "adult": false,
      "known_for_department": "Acting"
    },
    {
      "id": 2214888,
      "name": "Kim Hye-yoon",
      "profile_path": "/7WFkvDHqxS6xTpKBYpJyjd22e44.jpg",
      "popularity": 7.333,
      "adult": false,
      "known_for_department": "Acting"
    },
    {
      "id": 71083,
      "name": "Kate Dickie",
      "profile_path": "/mlFYUmZycpRa7TGgDTfP0xanE1Q.jpg",
      "popularity": 7.333,
      "adult": false,
      "known_for_department": "Acting"
    },
    {
      "id": 1944274,
      "name": "Drew Scheid",
      "profile_path": "/ztj1zSSOLe5WtpvNVVIP1ir4xqa.jpg",
      "popularity": 7.332,
      "adult": false,
      "known_for_department": "Acting"
    },
    {
      "id": 8892,
      "name": "Olivia Newton-John",
      "profile_path": "/pPgHm4ToBirjWcuOTrEMxS82stP.jpg",
      "popularity": 7.332,
      "adult": false,
      "known_for_department": "Acting"
    },
    {
      "id": 1680347,
      "name": "Cree Cicchino",
      "profile_path": "/emNMxPc9ABEmmWsxSVWOMonrhzW.jpg",
      "popularity": 7.331,
      "adult": false,
      "known_for_department": "Acting"
    },
    {
      "id": 1349163,
      "name": "Oh Na-ra",
      "profile_path": "/3aZs3KSeOz17XaM1BWw1L0J8mqp.jpg",
      "popularity": 7.331,
      "adult": false,
      "known_for_department": "Acting"
    },
    {
      "id": 1569986,
      "name": "Abraham Clinkscales",
      "profile_path": "/14u7uLy3zsLPY8Fp9PsYppZkNH1.jpg",
      "popularity": 7.33,
      "adult": false,
      "known_for_department": "Acting"
    },
    {
      "id": 126,
      "name": "Fran Walsh",
      "profile_path": "/roXPta5fAmGzqdOIvUQbDavZy8Y.jpg",
      "popularity": 7.33,
      "adult": false,
      "known_for_department": "Writing"
    },
    {
      "id": 970672,
      "name": "Eréndira Ibarra",
      "profile_path": "/iDRhMVCEfKPweKuRSicBFNjCrgm.jpg",
      "popularity": 7.329,
      "adult": false,
      "known_for_department": "Acting"
    },
    {
      "id": 87108,
      "name": "Dayton Callie",
      "profile_path": "/miB43H7L4OYY5aRSxhoScjcOxu3.jpg",
      "popularity": 7.329,
      "adult": false,
      "known_for_department": "Acting"
    },
    {
      "id": 5306,
      "name": "Lasse Hallström",
      "profile_path": "/zEz9LphkDBcGAAYGdjIU5QzjB9C.jpg",
      "popularity": 7.329,
      "adult": false,
      "known_for_department": "Directing"
    },
    {
      "id": 5216,
      "name": "Gus Van Sant",
      "profile_path": "/kICHgrSh4eiICjz8piy9fTXIgph.jpg",
      "popularity": 7.329,
      "adult": false,
      "known_for_department": "Directing"
    },
    {
      "id": 2207,
      "name": "Lois Smith",
      "profile_path": "/unvPSZshdNoj7c5wl6D30gPwKtS.jpg",
      "popularity": 7.328,
      "adult": false,
      "known_for_department": "Acting"
    },
    {
      "id": 60846,
      "name": "Pat Healy",
      "profile_path": "/gWW97trwxTAi1nkY4CY1jNFMP5z.jpg",
      "popularity": 7.327,
      "adult": false,
      "known_for_department": "Acting"
    }
  ]
}