{
  "page": 478,
  "total_results": 10000,
  "total_pages": 500,
  "results": [
    {
      "id": 75316,
      "name": "Hal Sparks",
      "profile_path": "/sxmESxUf1nFEwheqXAtYDUMJP2s.jpg",
      "popularity": 6.504,
      "adult": false,
      "known_for_department": "Acting"
    },
    {
      "id": 556076,
      "name": "Rina Akiyama",
      "profile_path": "/z56gOiQPgsDPQba3xszmmVCmaCy.jpg",
      "popularity": 6.502,
      "adult": false,
      "known_for_department": "Acting"
    },
    {
      "id": 9807,
      "name": "René Auberjonois",
      "profile_path": "/qejqtzg4Ol2qIupgGAINeJoNjul.jpg",
      "popularity": 6.502,
      "adult": false,
      "known_for_department": "Acting"
    },
    {
      "id": 2895589,
      "name": "Anna Cobb",
      "profile_path": "/cpUnue88oxxHgrM3yf4BPEygkQx.jpg",
      "popularity": 6.5,
      "adult": false,
      "known_for_department": "Acting"
    },
    {
      "id": 1880562,
      "name": "Oddgeir Thune",
      "profile_path": "/j67kxbvZ8L31C65XSFEqyxXBKaJ.jpg",
      "popularity": 6.5,
      "adult": false,
      "known_for_department": "Acting"
    },
    {
      "id": 1187038,
      "name": "Leem Lubany",
      "profile_path": "/mmfXUa3WCRw2346CaU5msxzkdva.jpg",
      "popularity": 6.5,
      "adult": false,
      "known_for_department": "Acting"
    },
    {
      "id": 518627,
      "name": "Joel Courtney",
      "profile_path": "/XvlAlEedqATZcPoZcQh3cxXOA7.jpg",
      "popularity": 6.5,
      "adult": false,
      "known_for_department": "Acting"
    },
    {
      "id": 45471,
      "name": "Camille Keaton",
      "profile_path": "/t9fgW40ubqngWak2CY3zPkyFQX4.jpg",
      "popularity": 6.499,
      "adult": false,
      "known_for_department": "Acting"
    },
    {
      "id": 1340999,
      "name": "Natalya Anisimova",
      "profile_path": "/47vU0TmUnLB91XcMZPXkg34AJPe.jpg",
      "popularity": 6.498,
      "adult": false,
      "known_for_department": "Acting"
    },
    {
      "id": 78994,
      "name": "Sergio Peris-Mencheta",
      "profile_path": "/pdNIwIs0UCNEfZeUHVIcPvAVVuy.jpg",
      "popularity": 6.497,
      "adult": false,
      "known_for_department": "Acting"
    },
    {
      "id": 216448,
      "name": "Hiroki Yasumoto",
      "profile_path": "/vNIGLl0wFmdhdnulMssQ1qyNeBs.jpg",
      "popularity": 6.495,
      "adult": false,
      "known_for_department": "Acting"
    },
    {
      "id": 1181403,
      "name": "Pixie Davies",
      "profile_path": "/h7a55vLzl1FUBtguBdF6V7QFy7G.jpg",
      "popularity": 6.493,
      "adult": false,
      "known_for_department": "Acting"
    },
    {
      "id": 154141,
      "name": "Olivia Brown",
      "profile_path": "/gPagR6TAgiNh0n1dpUreTPwXvTv.jpg",
      "popularity": 6.493,
      "adult": false,
      "known_for_department": "Acting"
    },
    {
      "id": 95638,
      "name": "John Pyper-Ferguson",
      "profile_path": "/2IYFYfH67yG1UGedH49BYjigMe.jpg",
      "popularity": 6.493,
      "adult": false,
      "known_for_department": "Acting"
    },
    {
      "id": 23495,
      "name": "Jonathan Jackson",
      "profile_path": "/qOfrqsoIOXuPpdh3aW0uif8UfcJ.jpg",
      "popularity": 6.493,
      "adult": false,
      "known_for_department": "Acting"
    },
    {
      "id": 156648,
      "name": "Joel de la Fuente",
      "profile_path": "/xRDyGJpIYG0IFEv1nLD3C23WSeA.jpg",
      "popularity": 6.492,
      "adult": false,
      "known_for_department": "Acting"
    },
    {
      "id": 104894,
      "name": "Jamie Luner",
      "profile_path": "/oNlfauLLlRJ3lgSPiF3BepDkr6A.jpg",
      "popularity": 6.492,
      "adult": false,
      "known_for_department": "Acting"
    },
    {
      "id": 25638,
      "name": "Mark Lester",
      "profile_path": "/5Cyn92XDNg1tpepHZdUmttPafOR.jpg",
      "popularity": 6.491,
      "adult": false,
      "known_for_department": "Acting"
    },
    {
      "id": 19489,
      "name": "Peter McRobbie",
      "profile_path": "/dzqI3wITKVTrnFBxYGFswDxALjf.jpg",
      "popularity": 6.491,
      "adult": false,
      "known_for_department": "Acting"
    },
    {
      "id": 1331981,
      "name": "Samantha Sloyan",
      "profile_path": "/prhRQ3npp7OwssXhxNUw0RTFjFw.jpg",
      "popularity": 6.49,
      "adult": false,
      "known_for_department": "Acting"
    }
  ]
}