{
  "page": 429,
  "total_results": 10000,
  "total_pages": 500,
  "results": [
    {
      "id": 5605,
      "name": "Richard Farnsworth",
      "profile_path": "/fDW2gb090aJkGc7L5xDMPpSZYlw.jpg",
      "popularity": 7.867,
      "adult": false,
      "known_for_department": "Acting"
    },
    {
      "id": 1331652,
      "name": "Allison Tolman",
      "profile_path": "/iVe6jpSOYLn4NVb8jt2K4TXPDjy.jpg",
      "popularity": 7.866,
      "adult": false,
      "known_for_department": "Acting"
    },
    {
      "id": 2182078,
      "name": "Tawan Vihokratana",
      "profile_path": "/kwFstmLJc9z8AGrOAMMn5RmJJrO.jpg",
      "popularity": 7.865,
      "adult": false,
      "known_for_department": "Acting"
    },
    {
      "id": 2139736,
      "name": "Ahn Seung-gyun",
      "profile_path": "/pvejeYZvrKubKQlJ81mXEjx4Hkl.jpg",
      "popularity": 7.865,
      "adult": false,
      "known_for_department": "Acting"
    },
    {
      "id": 1212171,
      "name": "Josephine Tewson",
      "profile_path": "/tDy57q0NkQKvR76SKaa9ICNBqhI.jpg",
      "popularity": 7.864,
      "adult": false,
      "known_for_department": "Acting"
    },
    {
      "id": 198133,
      "name": "Thomas Craig",
      "profile_path": "/dfhAe68dMV4NK38gOfKnBg07kgM.jpg",
      "popularity": 7.862,
      "adult": false,
      "known_for_department": "Acting"
    },
    {
      "id": 1234708,
      "name": "Jodie Sweetin",
      "profile_path": "/7jeFeCWWp75GT9ztIXBiavjxczI.jpg",
      "popularity": 7.861,
      "adult": false,
      "known_for_department": "Acting"
    },
    {
      "id": 1077356,
      "name": "Zhu Zhu",
      "profile_path": "/y6CeP7yW4PLWC18C75bwzUke15v.jpg",
      "popularity": 7.861,
      "adult": false,
      "known_for_department": "Acting"
    },
    {
      "id": 85363,
      "name": "Orny Adams",
      "profile_path": "/gG89GHoiQhdJzpKpQryVpzatxJn.jpg",
      "popularity": 7.86,
      "adult": false,
      "known_for_department": "Acting"
    },
    {
      "id": 31155,
      "name": "Fred Olen Ray",
      "profile_path": "/91Y7oLIYJjpoY0YmDEsswKfeqDg.jpg",
      "popularity": 7.86,
      "adult": false,
      "known_for_department": "Directing"
    },
    {
      "id": 14502,
      "name": "John Ireland",
      "profile_path": "/uVqlrLTVzc9pqIMkAPMIuqHxhRb.jpg",
      "popularity": 7.86,
      "adult": false,
      "known_for_department": "Acting"
    },
    {
      "id": 141823,
      "name": "Tisha Campbell-Martin",
      "profile_path": "/keuc8jAfEM2fRce0P8FvLclwlYg.jpg",
      "popularity": 7.859,
      "adult": false,
      "known_for_department": "Acting"
    },
    {
      "id": 117132,
      "name": "Adrian Bower",
      "profile_path": "/cMyOhZ84mrKHml3JIG0PulhuNea.jpg",
      "popularity": 7.858,
      "adult": false,
      "known_for_department": "Acting"
    },
    {
      "id": 1047288,
      "name": "Jovan Janićijević 'Burduš'",
      "profile_path": "/nJSIST0A1Rwjbir7bUH6eAK3VG3.jpg",
      "popularity": 7.857,
      "adult": false,
      "known_for_department": "Acting"
    },
    {
      "id": 67601,
      "name": "Lucas Grabeel",
      "profile_path": "/tyhpSWU7YDKntONxqC83Ifat2w6.jpg",
      "popularity": 7.857,
      "adult": false,
      "known_for_department": "Acting"
    },
    {
      "id": 43996,
      "name": "Jean-Baptiste Maunier",
      "profile_path": "/7MFns6ANxxkG55n75z4omK5voat.jpg",
      "popularity": 7.857,
      "adult": false,
      "known_for_department": "Acting"
    },
    {
      "id": 17920,
      "name": "Kathrine Narducci",
      "profile_path": "/bOxhHtEtmhdfVmnL0KyG4SPDlwJ.jpg",
      "popularity": 7.857,
      "adult": false,
      "known_for_department": "Acting"
    },
    {
      "id": 1456888,
      "name": "Coco Jack Gillies",
      "profile_path": "/cDVjO4BfTn4O5vqrBZExwRfmrt9.jpg",
      "popularity": 7.856,
      "adult": false,
      "known_for_department": "Acting"
    },
    {
      "id": 1251169,
      "name": "Saygın Soysal",
      "profile_path": "/lSHCmGaZq0zMxZZ8HKke7qDBiwc.jpg",
      "popularity": 7.855,
      "adult": false,
      "known_for_department": "Acting"
    },
    {
      "id": 121718,
      "name": "Bill Camp",
      "profile_path": "/yZFata0EVr7TbIAz8vZFyiDKDts.jpg",
      "popularity": 7.853,
      "adult": false,
      "known_for_department": "Acting"
    }
  ]
}