{
  "page": 227,
  "total_results": 10000,
  "total_pages": 500,
  "results": [
    {
      "id": 17122,
      "name": "Ju Jin-mo",
      "profile_path": "/AdtX7KBdMXcChFO2t4DOGVEzMfG.jpg",
      "popularity": 11.363,
      "adult": false,
      "known_for_department": "Acting"
    },
    {
      "id": 8789,
      "name": "Mathieu Amalric",
      "profile_path": "/fMhfoTbjlXQy2Iojp7oYx49hLQl.jpg",
      "popularity": 11.363,
      "adult": false,
      "known_for_department": "Directing"
    },
    {
      "id": 89838,
      "name": "Leo Penn",
      "profile_path": "/efb6SAVE9jBrHaBxAWMMRiMr1CG.jpg",
      "popularity": 11.362,
      "adult": false,
      "known_for_department": "Directing"
    },
    {
      "id": 2082223,
      "name": "So Joo-yeon",
      "profile_path": "/2pRaLYEJq673t9CAYaEl8K131qR.jpg",
      "popularity": 11.361,
      "adult": false,
      "known_for_department": "Acting"
    },
    {
      "id": 205262,
      "name": "William Abadie",
      "profile_path": "/tHOkjNFmASMfq25yipHsKxfCplv.jpg",
      "popularity": 11.361,
      "adult": false,
      "known_for_department": "Acting"
    },
    {
      "id": 1256258,
      "name": "Toks Olagundoye",
      "profile_path": "/2tKnfTA0gh6QnTcHb18hj8o70uG.jpg",
      "popularity": 11.357,
      "adult": false,
      "known_for_department": "Acting"
    },
    {
      "id": 1248277,
      "name": "Maxi Iglesias",
      "profile_path": "/sX0fOdN7Urawav29j24nVAjNgaC.jpg",
      "popularity": 11.357,
      "adult": false,
      "known_for_department": "Acting"
    },
    {
      "id": 2320594,
      "name": "Bruno Gouery",
      "profile_path": "/w0JGP6mtph0PAaRmXagD9PcpQ5M.jpg",
      "popularity": 11.355,
      "adult": false,
      "known_for_department": "Acting"
    },
    {
      "id": 109434,
      "name": "Huang Xiaoming",
      "profile_path": "/eIC3tenhlbFtaGnFXhta7e25avQ.jpg",
      "popularity": 11.355,
      "adult": false,
      "known_for_department": "Acting"
    },
    {
      "id": 81243,
      "name": "Romi Park",
      "profile_path": "/fl9vyA3HEkOyTiZBJBhAR3OSmrO.jpg",
      "popularity": 11.355,
      "adult": false,
      "known_for_department": "Acting"
    },
    {
      "id": 986808,
      "name": "Wyatt Russell",
      "profile_path": "/f759e6y7uhobWRCmD0O21cBmjBA.jpg",
      "popularity": 11.353,
      "adult": false,
      "known_for_department": "Acting"
    },
    {
      "id": 39481,
      "name": "Jordana Spiro",
      "profile_path": "/lYWTKhlMG9B2gEoCOCABqeRMbx3.jpg",
      "popularity": 11.351,
      "adult": false,
      "known_for_department": "Acting"
    },
    {
      "id": 31715,
      "name": "Azura Skye",
      "profile_path": "/xy1wzIxo8RHGbwhlA8LseFt1pjm.jpg",
      "popularity": 11.349,
      "adult": false,
      "known_for_department": "Acting"
    },
    {
      "id": 588,
      "name": "M. Emmet Walsh",
      "profile_path": "/cirz2AGsQgh34yMoMaEmttAq0qS.jpg",
      "popularity": 11.349,
      "adult": false,
      "known_for_department": "Acting"
    },
    {
      "id": 3363708,
      "name": "Angela Morena",
      "profile_path": "/fgyajd1CpzMNpeKygLFbWfvNhIB.jpg",
      "popularity": 11.348,
      "adult": false,
      "known_for_department": "Acting"
    },
    {
      "id": 1279249,
      "name": "Gijs Blom",
      "profile_path": "/fBt9qOW4EA1miKaLXFIMYOHAled.jpg",
      "popularity": 11.348,
      "adult": false,
      "known_for_department": "Acting"
    },
    {
      "id": 1435838,
      "name": "Dylan Kingwell",
      "profile_path": "/832RJNMZi7rHEQBQz4FXlcIL2TW.jpg",
      "popularity": 11.346,
      "adult": false,
      "known_for_department": "Acting"
    },
    {
      "id": 69395,
      "name": "Bug Hall",
      "profile_path": "/axuZx8nn7R7ohlkfnxO9k3TIGiq.jpg",
      "popularity": 11.345,
      "adult": false,
      "known_for_department": "Acting"
    },
    {
      "id": 4492,
      "name": "Philip Baker Hall",
      "profile_path": "/mC1wmuGSCyIQ7ABkfRe1jJV1FGV.jpg",
      "popularity": 11.344,
      "adult": false,
      "known_for_department": "Acting"
    },
    {
      "id": 60952,
      "name": "Molly Sims",
      "profile_path": "/kZn5uyziBvYO0j8xaIsLEoaTwiw.jpg",
      "popularity": 11.343,
      "adult": false,
      "known_for_department": "Acting"
    }
  ]
}