{
  "page": 255,
  "total_results": 10000,
  "total_pages": 500,
  "results": [
    {
      "id": 28864,
      "name": "Landry Allbright",
      "profile_path": "/vTjroX0wuJlOtgSjev1mzAjSpGv.jpg",
      "popularity": 12.253,
      "adult": false,
      "known_for_department": "Acting"
    },
    {
      "id": 28767,
      "name": "June Carter Cash",
      "profile_path": "/gslxRUkcH3RZQOkcEFAxw6cQlYO.jpg",
      "popularity": 12.253,
      "adult": false,
      "known_for_department": "Acting"
    },
    {
      "id": 1268156,
      "name": "Jacob Buster",
      "profile_path": "/edViASYRJwGdGnLZSV5ejEUFA5Q.jpg",
      "popularity": 12.252,
      "adult": false,
      "known_for_department": "Acting"
    },
    {
      "id": 150903,
      "name": "Gong Yoo",
      "profile_path": "/ocGoFb6TrK3uWGXt4WnuibUG1vD.jpg",
      "popularity": 12.252,
      "adult": false,
      "known_for_department": "Acting"
    },
    {
      "id": 101015,
      "name": "Chin Han",
      "profile_path": "/bFrdZelxF1GW2TsIWJFZfC4IEDR.jpg",
      "popularity": 12.251,
      "adult": false,
      "known_for_department": "Acting"
    },
    {
      "id": 22125,
      "name": "Jimmi Simpson",
      "profile_path": "/nlTmd997MJX2y5bGSM9Msirwtld.jpg",
      "popularity": 12.251,
      "adult": false,
      "known_for_department": "Acting"
    },
    {
      "id": 12974,
      "name": "Leon",
      "profile_path": "/uhLVZV2rH0nnXwQKtsIT0qGsTyg.jpg",
      "popularity": 12.251,
      "adult": false,
      "known_for_department": "Acting"
    },
    {
      "id": 4970,
      "name": "Ruth Gordon",
      "profile_path": "/pkdm26bbDy1iJPsjbseJogMl1mQ.jpg",
      "popularity": 12.251,
      "adult": false,
      "known_for_department": "Acting"
    },
    {
      "id": 31079,
      "name": "Aki Maeda",
      "profile_path": "/WLSYOzH7WxyVmW0gx3qJ9fndAu.jpg",
      "popularity": 12.25,
      "adult": false,
      "known_for_department": "Acting"
    },
    {
      "id": 20141,
      "name": "Deborah Kerr",
      "profile_path": "/dHFhOEhHnn5cQjQN29IGRxzoxBP.jpg",
      "popularity": 12.249,
      "adult": false,
      "known_for_department": "Acting"
    },
    {
      "id": 26142,
      "name": "Millie Perkins",
      "profile_path": "/go1PNFwnfuUuMcVLSKpua2dUIRk.jpg",
      "popularity": 12.248,
      "adult": false,
      "known_for_department": "Acting"
    },
    {
      "id": 22223,
      "name": "Marguerite Moreau",
      "profile_path": "/e0joYMTL9HzL2fnGKCrZJvcRZCp.jpg",
      "popularity": 12.247,
      "adult": false,
      "known_for_department": "Acting"
    },
    {
      "id": 27127,
      "name": "Brent Stait",
      "profile_path": "/qUYlkCHoOmr9YQ651Cl7QYDIJPK.jpg",
      "popularity": 12.246,
      "adult": false,
      "known_for_department": "Acting"
    },
    {
      "id": 180486,
      "name": "Gina Rodriguez",
      "profile_path": "/4EMA7VtkMobfGpswEclm65xC9s8.jpg",
      "popularity": 12.245,
      "adult": false,
      "known_for_department": "Acting"
    },
    {
      "id": 16269,
      "name": "Louis Garrel",
      "profile_path": "/lrGbGrTogl6f1by8OnZEsvI63kY.jpg",
      "popularity": 12.245,
      "adult": false,
      "known_for_department": "Acting"
    },
    {
      "id": 171213,
      "name": "Lucy Deakins",
      "profile_path": "/bgcnhSO11zMShUxjhnx8G3uIJno.jpg",
      "popularity": 12.244,
      "adult": false,
      "known_for_department": "Acting"
    },
    {
      "id": 58393,
      "name": "Crystal Lowe",
      "profile_path": "/9M9FbnKMTTqgJmWrsKqviewLrmj.jpg",
      "popularity": 12.244,
      "adult": false,
      "known_for_department": "Acting"
    },
    {
      "id": 1158832,
      "name": "Chasty Ballesteros",
      "profile_path": "/qSg1EagcmG6UYotMATqHkCI7SNt.jpg",
      "popularity": 12.243,
      "adult": false,
      "known_for_department": "Acting"
    },
    {
      "id": 17834,
      "name": "Jake Cherry",
      "profile_path": "/gzThT5IjkJItNV27kRCQItzXJgX.jpg",
      "popularity": 12.242,
      "adult": false,
      "known_for_department": "Acting"
    },
    {
      "id": 1072776,
      "name": "Ayana Taketatsu",
      "profile_path": "/8vGKUIJrpbdURA7XSyGnkbi1Qqg.jpg",
      "popularity": 12.239,
      "adult": false,
      "known_for_department": "Acting"
    }
  ]
}