{
  "page": 23,
  "total_results": 10000,
  "total_pages": 500,
  "results": [
    {
      "id": 1100,
      "name": "Arnold Schwarzenegger",
      "profile_path": "/zEMhugsgXIpnQqO31GpAJYMUZZ1.jpg",
      "popularity": 33.651,
      "adult": false,
      "known_for_department": "Acting"
    },
    {
      "id": 1315036,
      "name": "Daisy Ridley",
      "profile_path": "/kDTRF2bLgS48y5gcgZ66AHZFxSd.jpg",
      "popularity": 33.627,
      "adult": false,
      "known_for_department": "Acting"
    },
    {
      "id": 1038,
      "name": "Jodie Foster",
      "profile_path": "/AodjR16HMtbV8zZsUJdvJUSYxlo.jpg",
      "popularity": 33.613,
      "adult": false,
      "known_for_department": "Acting"
    },
    {
      "id": 1385813,
      "name": "Jefferson White",
      "profile_path": "/8QSrhrWpqTBGJN3rfijXCvmOcb5.jpg",
      "popularity": 33.6,
      "adult": false,
      "known_for_department": "Acting"
    },
    {
      "id": 1331457,
      "name": "Sofia Carson",
      "profile_path": "/v6N7ZrwG7C7fII2hOzfzPFNMtK.jpg",
      "popularity": 33.594,
      "adult": false,
      "known_for_department": "Acting"
    },
    {
      "id": 51988,
      "name": "Lizzy Caplan",
      "profile_path": "/i90RI9ySseYoy5AO5PA5Djod2Z8.jpg",
      "popularity": 33.585,
      "adult": false,
      "known_for_department": "Acting"
    },
    {
      "id": 24967,
      "name": "Alyssa Milano",
      "profile_path": "/q5RAaX57dLvlpigAhbX3lCb2dkZ.jpg",
      "popularity": 33.517,
      "adult": false,
      "known_for_department": "Acting"
    },
    {
      "id": 84698,
      "name": "Jessica Lowndes",
      "profile_path": "/zXxQcsal4mkBxfXoCoe67Ne7dya.jpg",
      "popularity": 33.494,
      "adult": false,
      "known_for_department": "Acting"
    },
    {
      "id": 1231,
      "name": "Julianne Moore",
      "profile_path": "/3YF19rWusxWfEI59ZM33dFhasRq.jpg",
      "popularity": 33.463,
      "adult": false,
      "known_for_department": "Acting"
    },
    {
      "id": 49001,
      "name": "Sarah Chalke",
      "profile_path": "/ycwiu89cpjqCtSNC5FjbJggjj5R.jpg",
      "popularity": 33.454,
      "adult": false,
      "known_for_department": "Acting"
    },
    {
      "id": 7248,
      "name": "Cliff Curtis",
      "profile_path": "/3D6qz8vL6DWHAO3HeXeaSuwxq3s.jpg",
      "popularity": 33.43,
      "adult": false,
      "known_for_department": "Acting"
    },
    {
      "id": 13472,
      "name": "Tim Curry",
      "profile_path": "/aWGnGa7scPeGCP5DRhHosTrYdfA.jpg",
      "popularity": 33.319,
      "adult": false,
      "known_for_department": "Acting"
    },
    {
      "id": 58225,
      "name": "Zach Galifianakis",
      "profile_path": "/hghR9AhS8OKsO4ziq5Yf7w2ZguB.jpg",
      "popularity": 33.314,
      "adult": false,
      "known_for_department": "Acting"
    },
    {
      "id": 17286,
      "name": "Lena Headey",
      "profile_path": "/5SL4Y4alOYF9EahObfsb6GaDHg4.jpg",
      "popularity": 33.275,
      "adult": false,
      "known_for_department": "Acting"
    },
    {
      "id": 115679,
      "name": "Charlotte Riley",
      "profile_path": "/lBtMkDS3OPBezfHymx0UQBIAJab.jpg",
      "popularity": 33.266,
      "adult": false,
      "known_for_department": "Acting"
    },
    {
      "id": 18999,
      "name": "J.K. Simmons",
      "profile_path": "/jPoNW5fugs5h8AbcE7H5OBm04Tm.jpg",
      "popularity": 33.209,
      "adult": false,
      "known_for_department": "Acting"
    },
    {
      "id": 973667,
      "name": "Rosa Salazar",
      "profile_path": "/hrU1Kg1SH03x0RRmWEzmnWEonuU.jpg",
      "popularity": 33.199,
      "adult": false,
      "known_for_department": "Acting"
    },
    {
      "id": 1951,
      "name": "Elisabeth Shue",
      "profile_path": "/1pmjDSLvOuqKW1P2KRPlpFMeUFe.jpg",
      "popularity": 33.165,
      "adult": false,
      "known_for_department": "Acting"
    },
    {
      "id": 1817,
      "name": "Linda Cardellini",
      "profile_path": "/bcycvynDprC1rrhBNrnBjn5uOUd.jpg",
      "popularity": 33.143,
      "adult": false,
      "known_for_department": "Acting"
    },
    {
      "id": 7517,
      "name": "Kate Bosworth",
      "profile_path": "/egbJ47dPYvcWrr4NLmVBhDuirhl.jpg",
      "popularity": 33.103,
      "adult": false,
      "known_for_department": "Acting"
    }
  ]
}