{
  "page": 190,
  "total_results": 10000,
  "total_pages": 500,
  "results": [
    {
      "id": 8924,
      "name": "Frank Langella",
      "profile_path": "/vO2NQUrG2qDtQVWK2IalrFKUYcj.jpg",
      "popularity": 12.132,
      "adult": false,
      "known_for_department": "Acting"
    },
    {
      "id": 2020904,
      "name": "Jackson A. Dunn",
      "profile_path": "/fHUH3GjxwO8yZgeoYKAL4b7b8X4.jpg",
      "popularity": 12.131,
      "adult": false,
      "known_for_department": "Acting"
    },
    {
      "id": 221981,
      "name": "Antonia Thomas",
      "profile_path": "/ybmnPYUzcr3RMdaXnZIw2jEw9ju.jpg",
      "popularity": 12.131,
      "adult": false,
      "known_for_department": "Acting"
    },
    {
      "id": 5644,
      "name": "Alexandra Maria Lara",
      "profile_path": "/whFI0dPAyXdUvGfnXcKf8W40mgk.jpg",
      "popularity": 12.129,
      "adult": false,
      "known_for_department": "Acting"
    },
    {
      "id": 21479,
      "name": "Andrew Stevens",
      "profile_path": "/6j3lBX2klVHVfZg5fMJfpxEyc7z.jpg",
      "popularity": 12.127,
      "adult": false,
      "known_for_department": "Production"
    },
    {
      "id": 9711,
      "name": "Maaya Sakamoto",
      "profile_path": "/hPz2oEQui8a4q9aXdBugQf93ONq.jpg",
      "popularity": 12.126,
      "adult": false,
      "known_for_department": "Acting"
    },
    {
      "id": 4604,
      "name": "Theresa Randle",
      "profile_path": "/myBU9qG6wXHJfYF9cl07rvQmhUB.jpg",
      "popularity": 12.126,
      "adult": false,
      "known_for_department": "Acting"
    },
    {
      "id": 1333812,
      "name": "Barbara Wallace",
      "profile_path": "/eBXpiV5eYtPYln9Wa2badsNu78u.jpg",
      "popularity": 12.124,
      "adult": false,
      "known_for_department": "Acting"
    },
    {
      "id": 1673497,
      "name": "Park Ji-young",
      "profile_path": "/323EpK2UstGQhrnoYNsCIsoHVxg.jpg",
      "popularity": 12.121,
      "adult": false,
      "known_for_department": "Acting"
    },
    {
      "id": 588175,
      "name": "Lars Ranthe",
      "profile_path": "/ecuI4UDB9TXorw7CB7H0WhbhsKA.jpg",
      "popularity": 12.121,
      "adult": false,
      "known_for_department": "Acting"
    },
    {
      "id": 1299244,
      "name": "Lee Re",
      "profile_path": "/i1A5E4v5xRFammipC3H4jeOwczv.jpg",
      "popularity": 12.118,
      "adult": false,
      "known_for_department": "Acting"
    },
    {
      "id": 57578,
      "name": "MyAnna Buring",
      "profile_path": "/boC5LKewKpz8zhtUmPScHfkSAlV.jpg",
      "popularity": 12.117,
      "adult": false,
      "known_for_department": "Acting"
    },
    {
      "id": 2228,
      "name": "Sean Penn",
      "profile_path": "/9glqNTVpFpdN1nFklKaHPUyCwR6.jpg",
      "popularity": 12.117,
      "adult": false,
      "known_for_department": "Acting"
    },
    {
      "id": 20667,
      "name": "Sami Bouajila",
      "profile_path": "/xq8TMMCA4RI2omGxbPtLVsBMWX8.jpg",
      "popularity": 12.116,
      "adult": false,
      "known_for_department": "Acting"
    },
    {
      "id": 57599,
      "name": "Seann William Scott",
      "profile_path": "/mKc2YXdh8d4U2jYDwpLWaOY6Jwg.jpg",
      "popularity": 12.115,
      "adult": false,
      "known_for_department": "Acting"
    },
    {
      "id": 1224027,
      "name": "Emily Bett Rickards",
      "profile_path": "/z46C01GwXe7GtnXjZdJPJ5SvwCP.jpg",
      "popularity": 12.113,
      "adult": false,
      "known_for_department": "Acting"
    },
    {
      "id": 73357,
      "name": "Eleanor Tomlinson",
      "profile_path": "/A2lE5kvZE3tIpKwpAtKbjsMHpf2.jpg",
      "popularity": 12.113,
      "adult": false,
      "known_for_department": "Acting"
    },
    {
      "id": 989411,
      "name": "Ella Hunt",
      "profile_path": "/g4xwqi7hs7vq4yuDY1bQSCMnJSl.jpg",
      "popularity": 12.11,
      "adult": false,
      "known_for_department": "Acting"
    },
    {
      "id": 1248340,
      "name": "Haruka Tomatsu",
      "profile_path": "/geVvuA2zMGE5xzfc20aDelJSelu.jpg",
      "popularity": 12.107,
      "adult": false,
      "known_for_department": "Acting"
    },
    {
      "id": 42710,
      "name": "Keegan Connor Tracy",
      "profile_path": "/lP5rlqK8YIqobtFghURPbNdN5zw.jpg",
      "popularity": 12.106,
      "adult": false,
      "known_for_department": "Acting"
    }
  ]
}