{
  "page": 448,
  "total_results": 10000,
  "total_pages": 500,
  "results": [
    {
      "id": 4250,
      "name": "Michael Lerner",
      "profile_path": "/2b1PLnbBU1zdz06AXNGSAo226Is.jpg",
      "popularity": 7.703,
      "adult": false,
      "known_for_department": "Acting"
    },
    {
      "id": 247316,
      "name": "Carla Lehmann",
      "profile_path": "/eCZrUUFip3ibbm0UwcBsuuTyU04.jpg",
      "popularity": 7.702,
      "adult": false,
      "known_for_department": "Acting"
    },
    {
      "id": 79357,
      "name": "James Bolam",
      "profile_path": "/zYiJ5K980SfkpifsU0yxfop00mz.jpg",
      "popularity": 7.702,
      "adult": false,
      "known_for_department": "Acting"
    },
    {
      "id": 25340,
      "name": "Emmanuelle Bercot",
      "profile_path": "/uSoHKyFGWBKvktN9arpvevO4LiY.jpg",
      "popularity": 7.702,
      "adult": false,
      "known_for_department": "Directing"
    },
    {
      "id": 198133,
      "name": "Thomas Craig",
      "profile_path": "/dfhAe68dMV4NK38gOfKnBg07kgM.jpg",
      "popularity": 7.701,
      "adult": false,
      "known_for_department": "Acting"
    },
    {
      "id": 24381,
      "name": "Jean Yanne",
      "profile_path": "/nZAsOM0mtE0oHHj9DlbH94SxtAI.jpg",
      "popularity": 7.701,
      "adult": false,
      "known_for_department": "Acting"
    },
    {
      "id": 110064,
      "name": "Yuji Sakamoto",
      "profile_path": "/uOnkMazSKLwDHqa1REfK2gVUbeM.jpg",
      "popularity": 7.7,
      "adult": false,
      "known_for_department": "Writing"
    },
    {
      "id": 87108,
      "name": "Dayton Callie",
      "profile_path": "/miB43H7L4OYY5aRSxhoScjcOxu3.jpg",
      "popularity": 7.7,
      "adult": false,
      "known_for_department": "Acting"
    },
    {
      "id": 1678757,
      "name": "Jo Yong-bok",
      "profile_path": "",
      "popularity": 7.699,
      "adult": false,
      "known_for_department": "Acting"
    },
    {
      "id": 1427888,
      "name": "Alain Moussi",
      "profile_path": "/cIpMdm0ggxVmZIBVj7vz8Q8nPLT.jpg",
      "popularity": 7.699,
      "adult": false,
      "known_for_department": "Acting"
    },
    {
      "id": 544096,
      "name": "Sallie Harmsen",
      "profile_path": "/acbAK0XXjEnwfxXl1jiHakhR80H.jpg",
      "popularity": 7.699,
      "adult": false,
      "known_for_department": "Acting"
    },
    {
      "id": 19138,
      "name": "Bill Bixby",
      "profile_path": "/eKcpqTutiVxQeAPbwupjSV5DXE.jpg",
      "popularity": 7.699,
      "adult": false,
      "known_for_department": "Acting"
    },
    {
      "id": 15674,
      "name": "Hallie Eisenberg",
      "profile_path": "/Ykua6KuOe7knXtrfZHUePy1YnS.jpg",
      "popularity": 7.697,
      "adult": false,
      "known_for_department": "Acting"
    },
    {
      "id": 4415,
      "name": "Federico Fellini",
      "profile_path": "/dtT6h0q7t3wLVlzc0ARNR8n5vlm.jpg",
      "popularity": 7.697,
      "adult": false,
      "known_for_department": "Directing"
    },
    {
      "id": 1085087,
      "name": "Meredith Thomas",
      "profile_path": "/8uplyhfZx1vT6Lzw79dDnO5rWQb.jpg",
      "popularity": 7.696,
      "adult": false,
      "known_for_department": "Acting"
    },
    {
      "id": 52611,
      "name": "Dyanne Thorne",
      "profile_path": "/sRb6zLCfYevFDCZlwOLjQWQVmiW.jpg",
      "popularity": 7.696,
      "adult": false,
      "known_for_department": "Acting"
    },
    {
      "id": 31431,
      "name": "Nigel Terry",
      "profile_path": "/gC8I37q7rjSVKXRaXhkcqA2IpVg.jpg",
      "popularity": 7.696,
      "adult": false,
      "known_for_department": "Acting"
    },
    {
      "id": 1757,
      "name": "Persis Khambatta",
      "profile_path": "/swZL7NlIJJuXdQrlL8nraQFOqfE.jpg",
      "popularity": 7.696,
      "adult": false,
      "known_for_department": "Acting"
    },
    {
      "id": 1601435,
      "name": "Ardalan Esmaili",
      "profile_path": "/s3W2cqvi2SwDDYuur78XhbCRtgD.jpg",
      "popularity": 7.695,
      "adult": false,
      "known_for_department": "Acting"
    },
    {
      "id": 1188558,
      "name": "Jeremy Jordan",
      "profile_path": "/idYjWWH7LbXFxQlqJes0DWbztpf.jpg",
      "popularity": 7.695,
      "adult": false,
      "known_for_department": "Acting"
    }
  ]
}