{
  "page": 294,
  "total_results": 10000,
  "total_pages": 500,
  "results": [
    {
      "id": 28044,
      "name": "Merritt Wever",
      "profile_path": "/ldd1WntzQ72DVuNLoko8yMFHH7j.jpg",
      "popularity": 10.459,
      "adult": false,
      "known_for_department": "Acting"
    },
    {
      "id": 113809,
      "name": "Kajal Agarwal",
      "profile_path": "/wDzYjnDRNzyigCPBEwc9gf1hZ0Q.jpg",
      "popularity": 10.458,
      "adult": false,
      "known_for_department": "Acting"
    },
    {
      "id": 1257215,
      "name": "Mizuki Yamamoto",
      "profile_path": "/mT5H0Gery2WsGXrA9ZRbxWb7oKP.jpg",
      "popularity": 10.457,
      "adult": false,
      "known_for_department": "Acting"
    },
    {
      "id": 83186,
      "name": "Max Lloyd-Jones",
      "profile_path": "/4ZXdk1YXG3xYonid1DPDOVKsNPE.jpg",
      "popularity": 10.457,
      "adult": false,
      "known_for_department": "Acting"
    },
    {
      "id": 1538417,
      "name": "Amelia Crouch",
      "profile_path": "/5wsjS144Ca726b6SkhZuE0djOB6.jpg",
      "popularity": 10.455,
      "adult": false,
      "known_for_department": "Acting"
    },
    {
      "id": 35040,
      "name": "Paul Williams",
      "profile_path": "/hfBFenLU5reDGVi4wiP5P1VcP3G.jpg",
      "popularity": 10.454,
      "adult": false,
      "known_for_department": "Sound"
    },
    {
      "id": 225510,
      "name": "Cecilia Pezet",
      "profile_path": "/zcSV2t8wJFc8yQ8Uev7JqTZ6ss9.jpg",
      "popularity": 10.453,
      "adult": false,
      "known_for_department": "Acting"
    },
    {
      "id": 51750,
      "name": "Joey Lawrence",
      "profile_path": "/ohJpQbDTkWJxt31g7hbAOLM6ION.jpg",
      "popularity": 10.453,
      "adult": false,
      "known_for_department": "Acting"
    },
    {
      "id": 46597,
      "name": "Ali MacGraw",
      "profile_path": "/vMQ8DkboSiJkz66IYhgoiUhItMI.jpg",
      "popularity": 10.452,
      "adult": false,
      "known_for_department": "Acting"
    },
    {
      "id": 19803,
      "name": "Leonardo Sbaraglia",
      "profile_path": "/jCpIcRZ2Md8iO5PnYYytGCKC2T5.jpg",
      "popularity": 10.452,
      "adult": false,
      "known_for_department": "Acting"
    },
    {
      "id": 592131,
      "name": "Susan Hoecke",
      "profile_path": "/bvHpfYG12OyGTg3HLZJA8UjYy81.jpg",
      "popularity": 10.448,
      "adult": false,
      "known_for_department": "Acting"
    },
    {
      "id": 73245,
      "name": "William Hartnell",
      "profile_path": "/qmXtj0noRZG05B7gDlmkq7JgANx.jpg",
      "popularity": 10.448,
      "adult": false,
      "known_for_department": "Acting"
    },
    {
      "id": 1223658,
      "name": "Raymond S. Persi",
      "profile_path": "/37HnYfTAHhtAmWdl4NlVAOR7vCW.jpg",
      "popularity": 10.447,
      "adult": false,
      "known_for_department": "Acting"
    },
    {
      "id": 138532,
      "name": "Lee Si-young",
      "profile_path": "/5DLpS3QahK2RwqkY8aZNsQnvMPC.jpg",
      "popularity": 10.445,
      "adult": false,
      "known_for_department": "Acting"
    },
    {
      "id": 1292,
      "name": "James Fox",
      "profile_path": "/usTO4NoD08rV0woh7vXLX8gxzHO.jpg",
      "popularity": 10.445,
      "adult": false,
      "known_for_department": "Acting"
    },
    {
      "id": 2754753,
      "name": "Sydney Chandler",
      "profile_path": "/bnBSBGljj4fvxUQu7MhaYd8onjt.jpg",
      "popularity": 10.444,
      "adult": false,
      "known_for_department": "Acting"
    },
    {
      "id": 2691051,
      "name": "Elçin Afacan",
      "profile_path": "/A2WIUT1o3fgXepgELNLshLRisqh.jpg",
      "popularity": 10.444,
      "adult": false,
      "known_for_department": "Acting"
    },
    {
      "id": 9290,
      "name": "Henry Rollins",
      "profile_path": "/2E0cZdoJsdt1Lv4waG3s6fsfJeU.jpg",
      "popularity": 10.443,
      "adult": false,
      "known_for_department": "Acting"
    },
    {
      "id": 2301682,
      "name": "Hannah Dodd",
      "profile_path": "/55KfjaxQJClbl6pEcPMKHDle4Jj.jpg",
      "popularity": 10.441,
      "adult": false,
      "known_for_department": "Acting"
    },
    {
      "id": 1222312,
      "name": "Ariel Lin",
      "profile_path": "/hFzUAwsQcz2nLw6BIjwSjDNPFtb.jpg",
      "popularity": 10.441,
      "adult": false,
      "known_for_department": "Acting"
    }
  ]
}