{
  "page": 373,
  "total_results": 10000,
  "total_pages": 500,
  "results": [
    {
      "id": 2146944,
      "name": "Anya Chalotra",
      "profile_path": "/1hoW6bOu7BSCzjE2nzuU5jn03pK.jpg",
      "popularity": 10.999,
      "adult": false,
      "known_for_department": "Acting"
    },
    {
      "id": 116263,
      "name": "Christian Cooke",
      "profile_path": "/pqIqDP4HuRLc60KR8QMTHWhIJNq.jpg",
      "popularity": 9.799,
      "adult": false,
      "known_for_department": "Acting"
    },
    {
      "id": 78077,
      "name": "Clarence Nash",
      "profile_path": "/x2g2hbu4RRIcn6Q5RT8gpWR1FKV.jpg",
      "popularity": 10.199,
      "adult": false,
      "known_for_department": "Acting"
    },
    {
      "id": 1087773,
      "name": "Masataka Kubota",
      "profile_path": "/d5IvRfKw2kOSar9sLhHuCXeKTcn.jpg",
      "popularity": 13.993,
      "adult": false,
      "known_for_department": "Acting"
    },
    {
      "id": 92429,
      "name": "Jens Hultén",
      "profile_path": "/tpU3Dcj4YqOwPmpOIFX26Zg3smy.jpg",
      "popularity": 9.399,
      "adult": false,
      "known_for_department": "Acting"
    },
    {
      "id": 11343,
      "name": "David Yates",
      "profile_path": "/hAHOxR0NK4cZDumqNIpDoEdGVAh.jpg",
      "popularity": 8.198,
      "adult": false,
      "known_for_department": "Directing"
    },
    {
      "id": 1374543,
      "name": "Lee Sang-hee",
      "profile_path": "/lf0RoPOizR5YGBolLwWrHj0WQeB.jpg",
      "popularity": 8.998,
      "adult": false,
      "known_for_department": "Acting"
    },
    {
      "id": 15029,
      "name": "Enrico Colantoni",
      "profile_path": "/yxxy8IrGRwnRPbLmgyfwF26Feve.jpg",
      "popularity": 9.398,
      "adult": false,
      "known_for_department": "Acting"
    },
    {
      "id": 4756,
      "name": "Matthew Broderick",
      "profile_path": "/8jO89WNvQRTFUrgXuIGOiTRwbYg.jpg",
      "popularity": 7.798,
      "adult": false,
      "known_for_department": "Acting"
    },
    {
      "id": 1183786,
      "name": "Wu Xiubo",
      "profile_path": "/i9LxFLyHhGAMvzAGAFIVxS35dRo.jpg",
      "popularity": 8.598,
      "adult": false,
      "known_for_department": "Acting"
    },
    {
      "id": 98155,
      "name": "Brandin Rackley",
      "profile_path": "/lrwSyoI0KqAkn5c3BAsytovleIt.jpg",
      "popularity": 8.598,
      "adult": false,
      "known_for_department": "Acting"
    },
    {
      "id": 118374,
      "name": "Gaius Charles",
      "profile_path": "/jv3yclr8GMW0krvEIF9k5F298KU.jpg",
      "popularity": 5.994,
      "adult": false,
      "known_for_department": "Acting"
    },
    {
      "id": 1210485,
      "name": "Alyson Bath",
      "profile_path": "/b0W87Tlaj7w4Gz66XUfSQKCkQ51.jpg",
      "popularity": 8.196,
      "adult": false,
      "known_for_department": "Acting"
    },
    {
      "id": 15417,
      "name": "Donald Moffat",
      "profile_path": "/8kZ2Ow3cPtTmDwTxL7jFEsQi4ia.jpg",
      "popularity": 11.396,
      "adult": false,
      "known_for_department": "Acting"
    },
    {
      "id": 2073513,
      "name": "Megan Suri",
      "profile_path": "/faZ1YMIgNMqbxLePpkUUa69u64W.jpg",
      "popularity": 6.996,
      "adult": false,
      "known_for_department": "Acting"
    },
    {
      "id": 54722,
      "name": "Laura Marano",
      "profile_path": "/fBCtQ1kAcQkEr6f5HGN8Q5687Qq.jpg",
      "popularity": 13.796,
      "adult": false,
      "known_for_department": "Acting"
    },
    {
      "id": 52002,
      "name": "Florencia Lozano",
      "profile_path": "/c1nC9UFylYkIZn7BrJy0yavCAGh.jpg",
      "popularity": 7.395,
      "adult": false,
      "known_for_department": "Acting"
    },
    {
      "id": 63372,
      "name": "Christa B. Allen",
      "profile_path": "/jaXnLLyddpq6cltzNB2Y7kgvgBg.jpg",
      "popularity": 7.395,
      "adult": false,
      "known_for_department": "Acting"
    },
    {
      "id": 1463931,
      "name": "Ekin Koç",
      "profile_path": "/moS4KKxT24pjeaa5hOe8YHqfsua.jpg",
      "popularity": 6.194,
      "adult": false,
      "known_for_department": "Acting"
    },
    {
      "id": 55948,
      "name": "Alan Smithee",
      "profile_path": "",
      "popularity": 10.594,
      "adult": false,
      "known_for_department": "Directing"
    }
  ]
}