{
  "page": 213,
  "total_results": 10000,
  "total_pages": 500,
  "results": [
    {
      "id": 2098560,
      "name": "Katsamonnat Namwirote",
      "profile_path": "/19agT0l3D0KaHuehYlSlq9nIk9P.jpg",
      "popularity": 9.192,
      "adult": false,
      "known_for_department": "Acting"
    },
    {
      "id": 132312,
      "name": "Brianne Howey",
      "profile_path": "/5TMOHWjWoK5xhzIgQkIGzpQ3cM7.jpg",
      "popularity": 9.558,
      "adult": false,
      "known_for_department": "Acting"
    },
    {
      "id": 4070,
      "name": "Grace Kelly",
      "profile_path": "/8nSxm2Q3DAxqKO142GQuiy9rgLV.jpg",
      "popularity": 12.869,
      "adult": false,
      "known_for_department": "Acting"
    },
    {
      "id": 1810651,
      "name": "Maxwell Jenkins",
      "profile_path": "/c1co2Hd4epwyMNroPDb3bFFYFjY.jpg",
      "popularity": 9.191,
      "adult": false,
      "known_for_department": "Acting"
    },
    {
      "id": 47562,
      "name": "Agatha Christie",
      "profile_path": "/1L4su640toYra8iuG3r8WP2pPth.jpg",
      "popularity": 12.863,
      "adult": false,
      "known_for_department": "Writing"
    },
    {
      "id": 11115,
      "name": "Peter Serafinowicz",
      "profile_path": "/atXOX0UQzIZkcnpNj1cluBdHwAE.jpg",
      "popularity": 12.863,
      "adult": false,
      "known_for_department": "Acting"
    },
    {
      "id": 131520,
      "name": "Brooklyn Decker",
      "profile_path": "/x3JWepaXTopE9k0g87Q9diRM5Nc.jpg",
      "popularity": 9.156,
      "adult": false,
      "known_for_department": "Acting"
    },
    {
      "id": 586757,
      "name": "Adèle Exarchopoulos",
      "profile_path": "/zlto2xvsdzLnfzoZNnS6txzNO5l.jpg",
      "popularity": 8.356,
      "adult": false,
      "known_for_department": "Acting"
    },
    {
      "id": 5004,
      "name": "Omar Sherif",
      "profile_path": "/yDUBIJa5BdktDzSgCkKEZLz7KxH.jpg",
      "popularity": 12.859,
      "adult": false,
      "known_for_department": "Acting"
    },
    {
      "id": 1156587,
      "name": "Jeana Ho Pui-Yu",
      "profile_path": "/cN6pLAyc66KdLeMeBK0NG1C5X2q.jpg",
      "popularity": 6.755,
      "adult": false,
      "known_for_department": "Acting"
    },
    {
      "id": 43366,
      "name": "Ann Dowd",
      "profile_path": "/zo44U71uiMNVW1HSiOa5F9MpqIq.jpg",
      "popularity": 12.858,
      "adult": false,
      "known_for_department": "Acting"
    },
    {
      "id": 18284,
      "name": "Loretta Devine",
      "profile_path": "/cGTQ0X19bkMWqL6O00JK2t6uJBK.jpg",
      "popularity": 9.155,
      "adult": false,
      "known_for_department": "Acting"
    },
    {
      "id": 1134569,
      "name": "Ai Shinozaki",
      "profile_path": "/vMpmXyQXbTLrhmNOSdCEgLM90pR.jpg",
      "popularity": 12.855,
      "adult": false,
      "known_for_department": "Acting"
    },
    {
      "id": 77880,
      "name": "Josh Dallas",
      "profile_path": "/f9cjzUtgasJTZgpdqFIREhUUxbQ.jpg",
      "popularity": 12.355,
      "adult": false,
      "known_for_department": "Acting"
    },
    {
      "id": 17640,
      "name": "Susan Misner",
      "profile_path": "/nJHIk7BWzFrktuPdNE1WlLSEOQt.jpg",
      "popularity": 8.354,
      "adult": false,
      "known_for_department": "Acting"
    },
    {
      "id": 16808,
      "name": "Matthias Schweighöfer",
      "profile_path": "/i4c5JjvC5EpecZbp4J96mFmtm0Z.jpg",
      "popularity": 8.754,
      "adult": false,
      "known_for_department": "Acting"
    },
    {
      "id": 15309,
      "name": "Lori Petty",
      "profile_path": "/bmJFh4VxRii7h7jpo4YVC6BFeVd.jpg",
      "popularity": 12.849,
      "adult": false,
      "known_for_department": "Acting"
    },
    {
      "id": 52995,
      "name": "Edward Herrmann",
      "profile_path": "/sO9IoAlw3CLJZT6UF35cZBcTYRV.jpg",
      "popularity": 5.553,
      "adult": false,
      "known_for_department": "Acting"
    },
    {
      "id": 1535,
      "name": "Brian Doyle-Murray",
      "profile_path": "/1sDChfTscA1mone1uSJVPtbFn4l.jpg",
      "popularity": 9.953,
      "adult": false,
      "known_for_department": "Acting"
    },
    {
      "id": 13473,
      "name": "Barry Bostwick",
      "profile_path": "/z2jlL5g5PMxelSHMXFF03fTSsLl.jpg",
      "popularity": 12.353,
      "adult": false,
      "known_for_department": "Acting"
    }
  ]
}