{
  "page": 104,
  "total_results": 10000,
  "total_pages": 500,
  "results": [
    {
      "id": 213083,
      "name": "Lara Pulver",
      "profile_path": "/uacMDTL4YnuJD6frGF35CHLFh43.jpg",
      "popularity": 15.386,
      "adult": false,
      "known_for_department": "Acting"
    },
    {
      "id": 10660,
      "name": "Tanya Roberts",
      "profile_path": "/uQrtp0U3Nox7nuKLPzLGDDwpxN6.jpg",
      "popularity": 15.386,
      "adult": false,
      "known_for_department": "Acting"
    },
    {
      "id": 8535,
      "name": "Gloria Stuart",
      "profile_path": "/9aG7UUX3PWIGGf1KRY5TsBSoNz9.jpg",
      "popularity": 15.386,
      "adult": false,
      "known_for_department": "Acting"
    },
    {
      "id": 20530,
      "name": "Philippine Leroy-Beaulieu",
      "profile_path": "/1wt9AWB8HQz23VDmcZA0tVQn0vx.jpg",
      "popularity": 15.38,
      "adult": false,
      "known_for_department": "Acting"
    },
    {
      "id": 4757,
      "name": "Rupert Everett",
      "profile_path": "/g0kqfIxf9eIV7rOMQcbebsgMS9Z.jpg",
      "popularity": 15.38,
      "adult": false,
      "known_for_department": "Acting"
    },
    {
      "id": 496470,
      "name": "Jake Lacy",
      "profile_path": "/sAF2ISBdNFMtbanjPyPwqriq3XM.jpg",
      "popularity": 15.374,
      "adult": false,
      "known_for_department": "Acting"
    },
    {
      "id": 119917,
      "name": "Adam Long",
      "profile_path": "/JrLCaTiJSOdSheB0q7VmgR8jyd.jpg",
      "popularity": 15.372,
      "adult": false,
      "known_for_department": "Acting"
    },
    {
      "id": 21416,
      "name": "William Devane",
      "profile_path": "/7MGLsJXn3URkYeZzqzAcgpYXFum.jpg",
      "popularity": 15.367,
      "adult": false,
      "known_for_department": "Acting"
    },
    {
      "id": 147023,
      "name": "Ram Charan",
      "profile_path": "/mNQA0qYtLeemo7mljd9RlG9jUMR.jpg",
      "popularity": 15.365,
      "adult": false,
      "known_for_department": "Acting"
    },
    {
      "id": 61186,
      "name": "Nicola Peltz Beckham",
      "profile_path": "/rTaeR2ijxQGlVD3ztL7QmJTdEY4.jpg",
      "popularity": 15.36,
      "adult": false,
      "known_for_department": "Acting"
    },
    {
      "id": 1257899,
      "name": "Kang Ha-neul",
      "profile_path": "/274YLNlty9xpLWtq5HEp3x97mLm.jpg",
      "popularity": 15.359,
      "adult": false,
      "known_for_department": "Acting"
    },
    {
      "id": 66441,
      "name": "Talulah Riley",
      "profile_path": "/wIfzSnKvvREEi8lJ6cbuX04HiNG.jpg",
      "popularity": 15.358,
      "adult": false,
      "known_for_department": "Acting"
    },
    {
      "id": 35241,
      "name": "Nicholle Tom",
      "profile_path": "/cjFw8BrIpptxMJrDkEWEE25E8bi.jpg",
      "popularity": 15.357,
      "adult": false,
      "known_for_department": "Acting"
    },
    {
      "id": 61363,
      "name": "Alex Pettyfer",
      "profile_path": "/jcejkad2OWB71Bz1RRc4Ib0961k.jpg",
      "popularity": 15.356,
      "adult": false,
      "known_for_department": "Acting"
    },
    {
      "id": 23659,
      "name": "Will Ferrell",
      "profile_path": "/xYPM1OOLXZguj4FsgmOzTSUXaXd.jpg",
      "popularity": 15.342,
      "adult": false,
      "known_for_department": "Acting"
    },
    {
      "id": 16373,
      "name": "Maxim Baldry",
      "profile_path": "/xjk6RuJrjpP5nIrfwh7QeRbTzdC.jpg",
      "popularity": 15.335,
      "adult": false,
      "known_for_department": "Acting"
    },
    {
      "id": 51873,
      "name": "Maggie Lawson",
      "profile_path": "/9AZEDpnDrOMkCf9hqWhY4szrv3X.jpg",
      "popularity": 15.333,
      "adult": false,
      "known_for_department": "Acting"
    },
    {
      "id": 17342,
      "name": "Paul Adelstein",
      "profile_path": "/9qkGnEWPzGayZg9gaB4xbP8UL4g.jpg",
      "popularity": 15.319,
      "adult": false,
      "known_for_department": "Acting"
    },
    {
      "id": 67600,
      "name": "Ashley Tisdale",
      "profile_path": "/znzE8om6N3H9wJQ5AUTMxPOnA3s.jpg",
      "popularity": 15.318,
      "adult": false,
      "known_for_department": "Acting"
    },
    {
      "id": 2544255,
      "name": "Tyler Sanders",
      "profile_path": "/v0oJTMLcBZ2E6XxHtdmk5gqNLMV.jpg",
      "popularity": 15.305,
      "adult": false,
      "known_for_department": "Acting"
    }
  ]
}