{
  "page": 290,
  "total_results": 10000,
  "total_pages": 500,
  "results": [
    {
      "id": 1233840,
      "name": "Koo Hye-sun",
      "profile_path": "/udHk7KExmXRuOVO6utT3IDpm6E1.jpg",
      "popularity": 9.934,
      "adult": false,
      "known_for_department": "Acting"
    },
    {
      "id": 1485114,
      "name": "Madalyn Horcher",
      "profile_path": "/tgbI87CaMhNUFPdnqw9fpvh1hBW.jpg",
      "popularity": 9.933,
      "adult": false,
      "known_for_department": "Acting"
    },
    {
      "id": 1883819,
      "name": "Carlotta Antonelli",
      "profile_path": "/lbibnX5Fsb8MHnLBHQP7ipGqgMT.jpg",
      "popularity": 9.931,
      "adult": false,
      "known_for_department": "Acting"
    },
    {
      "id": 33011,
      "name": "Rick Zumwalt",
      "profile_path": "/1qqPlFcp1tZNf3EDeFRlqknPbr5.jpg",
      "popularity": 9.931,
      "adult": false,
      "known_for_department": "Acting"
    },
    {
      "id": 97600,
      "name": "David DeLuise",
      "profile_path": "/sVhASyuFr0sZeKzaO7q2kEiSSkg.jpg",
      "popularity": 9.929,
      "adult": false,
      "known_for_department": "Acting"
    },
    {
      "id": 98804,
      "name": "Ronnie Gene Blevins",
      "profile_path": "/28O4ALimfSVQgMOvkstDJpzHKDc.jpg",
      "popularity": 9.927,
      "adult": false,
      "known_for_department": "Acting"
    },
    {
      "id": 21366,
      "name": "Roma Maffia",
      "profile_path": "/oEfa2NUJJNo4zg74eB5oY86tyip.jpg",
      "popularity": 9.927,
      "adult": false,
      "known_for_department": "Acting"
    },
    {
      "id": 110531,
      "name": "Shanola Hampton",
      "profile_path": "/3H3zLTBH3ThD0G4IJ4TACKhRzIw.jpg",
      "popularity": 9.926,
      "adult": false,
      "known_for_department": "Acting"
    },
    {
      "id": 10606,
      "name": "Anne Baxter",
      "profile_path": "/mUMKB7ZGzHJ38LpDWnA4VheIGBB.jpg",
      "popularity": 9.925,
      "adult": false,
      "known_for_department": "Acting"
    },
    {
      "id": 40672,
      "name": "Mary Stockley",
      "profile_path": "/dpdFhBJcw41P5XSoGqp9ElPJHKO.jpg",
      "popularity": 9.923,
      "adult": false,
      "known_for_department": "Acting"
    },
    {
      "id": 862,
      "name": "George C. Scott",
      "profile_path": "/1dL9hx7nC0cACIVpp6xS1jqJJN7.jpg",
      "popularity": 9.923,
      "adult": false,
      "known_for_department": "Acting"
    },
    {
      "id": 1063128,
      "name": "Ethan Juan",
      "profile_path": "/vDiFcca1TYcFssxjU9efGjIAWN4.jpg",
      "popularity": 9.922,
      "adult": false,
      "known_for_department": "Acting"
    },
    {
      "id": 2256046,
      "name": "Natasha Culzac",
      "profile_path": "/eAtz9GWAr9WvS0c8PAfw5KzK6Oj.jpg",
      "popularity": 9.919,
      "adult": false,
      "known_for_department": "Acting"
    },
    {
      "id": 1577490,
      "name": "Burak Deniz",
      "profile_path": "/hs5gcfQxWOc7KsPRyj4tAvXNUGj.jpg",
      "popularity": 9.919,
      "adult": false,
      "known_for_department": "Acting"
    },
    {
      "id": 36663,
      "name": "Claudie Blakley",
      "profile_path": "/bUy1X1ili9Goj3AQNrBD1kd7A8q.jpg",
      "popularity": 9.919,
      "adult": false,
      "known_for_department": "Acting"
    },
    {
      "id": 3126,
      "name": "Ione Skye",
      "profile_path": "/ye8qsi6fn51HW93c7065Jogbh9p.jpg",
      "popularity": 9.919,
      "adult": false,
      "known_for_department": "Acting"
    },
    {
      "id": 2464,
      "name": "Angus Macfadyen",
      "profile_path": "/yUuA7U3lw6yM0Eb6mD83qYeevH2.jpg",
      "popularity": 9.919,
      "adult": false,
      "known_for_department": "Acting"
    },
    {
      "id": 1700784,
      "name": "Mathilde Ollivier",
      "profile_path": "/hLTH1hHRi7jrAbKcS1cwFMk7RNb.jpg",
      "popularity": 9.918,
      "adult": false,
      "known_for_department": "Acting"
    },
    {
      "id": 69010,
      "name": "Brad Davis",
      "profile_path": "/2AMxog90ng7gHyw1DOwI4HPpppw.jpg",
      "popularity": 9.918,
      "adult": false,
      "known_for_department": "Acting"
    },
    {
      "id": 26975,
      "name": "Steve Talley",
      "profile_path": "/bY9OTcMxmJokUNmMLCUAFlppWb1.jpg",
      "popularity": 9.918,
      "adult": false,
      "known_for_department": "Acting"
    }
  ]
}