{
  "page": 497,
  "total_results": 10000,
  "total_pages": 500,
  "results": [
    {
      "id": 1235237,
      "name": "Dillon Casey",
      "profile_path": "/dzWygEvNmfSbwNZ4I0wkkXidqoi.jpg",
      "popularity": 8.01,
      "adult": false,
      "known_for_department": "Acting"
    },
    {
      "id": 45992,
      "name": "Tak Sakaguchi",
      "profile_path": "/mIsu3ZPzIPhV3hRZNxVpJo9skkb.jpg",
      "popularity": 8.01,
      "adult": false,
      "known_for_department": "Acting"
    },
    {
      "id": 984780,
      "name": "Jes Macallan",
      "profile_path": "/opXduSlSdcy0wiHDeuVGkMCbtEP.jpg",
      "popularity": 8.009,
      "adult": false,
      "known_for_department": "Acting"
    },
    {
      "id": 75355,
      "name": "Marion Ross",
      "profile_path": "/eZpOYvFoJnej8n7aKSi2LVvvlQu.jpg",
      "popularity": 8.009,
      "adult": false,
      "known_for_department": "Acting"
    },
    {
      "id": 618,
      "name": "Kōhei Miyauchi",
      "profile_path": "/ov1UMNf85T4ZFQSAN57KlcuTeDZ.jpg",
      "popularity": 8.009,
      "adult": false,
      "known_for_department": "Acting"
    },
    {
      "id": 1519512,
      "name": "Alisha Wainwright",
      "profile_path": "/hEtH74TBjLwHASXl3f7rKjWqQYp.jpg",
      "popularity": 8.008,
      "adult": false,
      "known_for_department": "Acting"
    },
    {
      "id": 150617,
      "name": "Mariangela Giordano",
      "profile_path": "/tHZyaycUrbA1oHfYYkZfneY2ezs.jpg",
      "popularity": 8.008,
      "adult": false,
      "known_for_department": "Acting"
    },
    {
      "id": 27776,
      "name": "Nanako Matsushima",
      "profile_path": "/s8fAUcWvIBsax1chMjvNBFHV7qG.jpg",
      "popularity": 8.008,
      "adult": false,
      "known_for_department": "Acting"
    },
    {
      "id": 1613631,
      "name": "Ryuichi Kijima",
      "profile_path": "/kiVkYXJbVVycMfqghyhzGloPUsY.jpg",
      "popularity": 8.007,
      "adult": false,
      "known_for_department": "Acting"
    },
    {
      "id": 3594113,
      "name": "Phia Saban",
      "profile_path": "/3uLO4hTIVfUn1rNf98wcXoJkCzS.jpg",
      "popularity": 8.006,
      "adult": false,
      "known_for_department": "Acting"
    },
    {
      "id": 205984,
      "name": "Michael Grant Terry",
      "profile_path": "/4Js2H62d0dmvUv6Bz8VX42w0LVu.jpg",
      "popularity": 8.005,
      "adult": false,
      "known_for_department": "Acting"
    },
    {
      "id": 2360621,
      "name": "Travis Burns",
      "profile_path": "/yotOVFnaqtqNbpBsOfrwtAraMI0.jpg",
      "popularity": 8.004,
      "adult": false,
      "known_for_department": "Acting"
    },
    {
      "id": 1861484,
      "name": "Aishwarya Lekshmi",
      "profile_path": "/b3yxjhc62X0JZghaRTYNMVrI78a.jpg",
      "popularity": 8.004,
      "adult": false,
      "known_for_department": "Acting"
    },
    {
      "id": 1181326,
      "name": "Hannah Simone",
      "profile_path": "/vF2K5xd73ZvRhBjFuIfiSTLMNYB.jpg",
      "popularity": 8.004,
      "adult": false,
      "known_for_department": "Acting"
    },
    {
      "id": 553069,
      "name": "Honami Suzuki",
      "profile_path": "/cPHwM6f24SRPx5zVk4gMO48HYOJ.jpg",
      "popularity": 8.004,
      "adult": false,
      "known_for_department": "Acting"
    },
    {
      "id": 60416,
      "name": "Alex Ferns",
      "profile_path": "/3V3L7MJGURXU6lVaqai80zFT4Wa.jpg",
      "popularity": 8.004,
      "adult": false,
      "known_for_department": "Acting"
    },
    {
      "id": 1636723,
      "name": "Mandy Teefey",
      "profile_path": "/2EabkHDvmSUGeK306lp5mmdkYdO.jpg",
      "popularity": 8.002,
      "adult": false,
      "known_for_department": "Production"
    },
    {
      "id": 1415670,
      "name": "Kaoru Oda",
      "profile_path": "/heQmL14EP0pGqwd6k7B77kNXACm.jpg",
      "popularity": 8.002,
      "adult": false,
      "known_for_department": "Acting"
    },
    {
      "id": 1226675,
      "name": "Pat Priest",
      "profile_path": "/naq1ZNHsRGlLmxeSOwNRxYxonOB.jpg",
      "popularity": 8.002,
      "adult": false,
      "known_for_department": "Acting"
    },
    {
      "id": 90546,
      "name": "Andrew Schofield",
      "profile_path": "/bwXDVPAbZ86na151LQ9YOIvxmvB.jpg",
      "popularity": 8.002,
      "adult": false,
      "known_for_department": "Acting"
    }
  ]
}