{
  "page": 412,
  "total_results": 10000,
  "total_pages": 500,
  "results": [
    {
      "id": 43893,
      "name": "Kimberly J. Brown",
      "profile_path": "/neQjYdxOa6wPOt2RgC1pTxjGFh3.jpg",
      "popularity": 8.848,
      "adult": false,
      "known_for_department": "Acting"
    },
    {
      "id": 963118,
      "name": "Eli Snyder",
      "profile_path": "/A8Ks1QX8frOjKGovIWyXXBAwnDB.jpg",
      "popularity": 8.847,
      "adult": false,
      "known_for_department": "Acting"
    },
    {
      "id": 157146,
      "name": "Barbara Eve Harris",
      "profile_path": "/lJINZGpzipQHAHYdnWWVkZYqaaE.jpg",
      "popularity": 8.847,
      "adult": false,
      "known_for_department": "Acting"
    },
    {
      "id": 111690,
      "name": "Takako Matsu",
      "profile_path": "/9AMpsOM4cAUUmOnrz8ucX4ZHXOJ.jpg",
      "popularity": 8.847,
      "adult": false,
      "known_for_department": "Acting"
    },
    {
      "id": 102692,
      "name": "Monica May",
      "profile_path": "/9s9VV1TbWEdteQswJlcDHGvDSeD.jpg",
      "popularity": 8.847,
      "adult": false,
      "known_for_department": "Acting"
    },
    {
      "id": 70706,
      "name": "Vivian Hsu",
      "profile_path": "/stfg4eGYLAUy1SMVNxA9raT3do1.jpg",
      "popularity": 8.845,
      "adult": false,
      "known_for_department": "Acting"
    },
    {
      "id": 83352,
      "name": "Mircea Monroe",
      "profile_path": "/vdXwOmhoOzl4cSCIvBjKlO6iS4g.jpg",
      "popularity": 8.844,
      "adult": false,
      "known_for_department": "Acting"
    },
    {
      "id": 39274,
      "name": "Lucía Bosé",
      "profile_path": "/cqekXd14u029hdo5cbijHAgO93X.jpg",
      "popularity": 8.844,
      "adult": false,
      "known_for_department": "Acting"
    },
    {
      "id": 2493,
      "name": "Robert Stack",
      "profile_path": "/f1MchlCMVc4LDWEALsodZHPkbIu.jpg",
      "popularity": 8.844,
      "adult": false,
      "known_for_department": "Acting"
    },
    {
      "id": 85151,
      "name": "Trond Fausa Aurvåg",
      "profile_path": "/rFWC22ZScaQwA85NBo7l1j9XQdo.jpg",
      "popularity": 8.843,
      "adult": false,
      "known_for_department": "Acting"
    },
    {
      "id": 1263585,
      "name": "Nicolás Furtado",
      "profile_path": "/fQxkqydm1ORc2JgMhTHGoMlbPGf.jpg",
      "popularity": 8.842,
      "adult": false,
      "known_for_department": "Acting"
    },
    {
      "id": 1818,
      "name": "Paul Winfield",
      "profile_path": "/6NLUJEFJCJ2Hog1ZOz4K2iyDvMZ.jpg",
      "popularity": 8.842,
      "adult": false,
      "known_for_department": "Acting"
    },
    {
      "id": 233520,
      "name": "Rie Tomosaka",
      "profile_path": "/fTGR8yLazWyLDASMNgEjhJ6tUhW.jpg",
      "popularity": 8.841,
      "adult": false,
      "known_for_department": "Acting"
    },
    {
      "id": 45463,
      "name": "Angela Aames",
      "profile_path": "/sTUtzgPNpEdcIYbxlrO0Ez898ov.jpg",
      "popularity": 8.84,
      "adult": false,
      "known_for_department": "Acting"
    },
    {
      "id": 1238414,
      "name": "Sergio Sendel",
      "profile_path": "/yq2fVwqaO0D9v8rq5QJt0Fzw3Dq.jpg",
      "popularity": 8.839,
      "adult": false,
      "known_for_department": "Acting"
    },
    {
      "id": 3233141,
      "name": "Amar Chadha-Patel",
      "profile_path": "/txzqsWElQVML8suS1Ho46oCALri.jpg",
      "popularity": 8.838,
      "adult": false,
      "known_for_department": "Acting"
    },
    {
      "id": 1842124,
      "name": "Eden Epstein",
      "profile_path": "/vinQjJi70eXvoLK4BCPhAKfxtfj.jpg",
      "popularity": 8.838,
      "adult": false,
      "known_for_department": "Acting"
    },
    {
      "id": 29909,
      "name": "Nigel Green",
      "profile_path": "/aBiU6YMvmzlpw97IhGlm0q7B8y.jpg",
      "popularity": 8.838,
      "adult": false,
      "known_for_department": "Acting"
    },
    {
      "id": 1388624,
      "name": "Takumi Kitamura",
      "profile_path": "/oTi9I34FvYAEMkJvIDPtIcGVaqF.jpg",
      "popularity": 8.837,
      "adult": false,
      "known_for_department": "Acting"
    },
    {
      "id": 10343,
      "name": "Hervé Villechaize",
      "profile_path": "/9zDzeE1WSBqLcS5DAIQz3UAbDSR.jpg",
      "popularity": 8.836,
      "adult": false,
      "known_for_department": "Acting"
    }
  ]
}