{
  "page": 199,
  "total_results": 10000,
  "total_pages": 500,
  "results": [
    {
      "id": 7087,
      "name": "Brad Bird",
      "profile_path": "/ZX1hAfWK1zslpB6ifwgDP2uBqn.jpg",
      "popularity": 11.857,
      "adult": false,
      "known_for_department": "Directing"
    },
    {
      "id": 1549005,
      "name": "Kendall Jenner",
      "profile_path": "/etLrI9NwFNIfG6K7sSs1LtrIGxy.jpg",
      "popularity": 11.856,
      "adult": false,
      "known_for_department": "Acting"
    },
    {
      "id": 22159,
      "name": "Martin Clunes",
      "profile_path": "/xoCgVr1h3uhES9MnKCoyd05bW1v.jpg",
      "popularity": 11.855,
      "adult": false,
      "known_for_department": "Acting"
    },
    {
      "id": 1411561,
      "name": "Sasha Luss",
      "profile_path": "/pviPtS13SzKiUCGIjBO4cUnQ2XE.jpg",
      "popularity": 11.854,
      "adult": false,
      "known_for_department": "Acting"
    },
    {
      "id": 543523,
      "name": "Britne Oldford",
      "profile_path": "/1htdyAfrsgyiqmm5GguAoLLu6aM.jpg",
      "popularity": 11.851,
      "adult": false,
      "known_for_department": "Acting"
    },
    {
      "id": 1254169,
      "name": "Yoo In-na",
      "profile_path": "/zkw2hJv40No9ugqzr818e1Y8iDL.jpg",
      "popularity": 11.85,
      "adult": false,
      "known_for_department": "Acting"
    },
    {
      "id": 78311,
      "name": "Steve Valentine",
      "profile_path": "/sH1oZYtiiG9c5NNfnn5ZH8GkIpB.jpg",
      "popularity": 11.849,
      "adult": false,
      "known_for_department": "Acting"
    },
    {
      "id": 56256,
      "name": "Coco Martin",
      "profile_path": "/a1ddjv7ATsbt6cR80WlXBC5ncuA.jpg",
      "popularity": 11.849,
      "adult": false,
      "known_for_department": "Acting"
    },
    {
      "id": 3366,
      "name": "Gladys Cooper",
      "profile_path": "/hrREnw8mayCBYctpCEb9tw7nunD.jpg",
      "popularity": 11.848,
      "adult": false,
      "known_for_department": "Acting"
    },
    {
      "id": 1096458,
      "name": "Koo Kyo-hwan",
      "profile_path": "/oPPEPO8SL4hf9a0WzY844CoRki.jpg",
      "popularity": 11.847,
      "adult": false,
      "known_for_department": "Acting"
    },
    {
      "id": 238023,
      "name": "Chaya Singh",
      "profile_path": "/g9y7VK16FrXW9RKmsJvbIwC9Rf0.jpg",
      "popularity": 11.847,
      "adult": false,
      "known_for_department": "Acting"
    },
    {
      "id": 70175,
      "name": "Chelah Horsdal",
      "profile_path": "/3r0Ij5Ok4E1cYWAKa0slDqGn9R8.jpg",
      "popularity": 11.845,
      "adult": false,
      "known_for_department": "Acting"
    },
    {
      "id": 20402,
      "name": "Julian McMahon",
      "profile_path": "/PirhJFimrT5iK0qru4SzlwLW4G.jpg",
      "popularity": 11.845,
      "adult": false,
      "known_for_department": "Acting"
    },
    {
      "id": 1146050,
      "name": "Zayn Malik",
      "profile_path": "/nzCk09tN15NOMpKPoCwegcJnx3j.jpg",
      "popularity": 11.844,
      "adult": false,
      "known_for_department": "Acting"
    },
    {
      "id": 553325,
      "name": "Miki Takakura",
      "profile_path": "/2bXHWy82SzgMCFIuxVRKvDtw8Q6.jpg",
      "popularity": 11.844,
      "adult": false,
      "known_for_department": "Acting"
    },
    {
      "id": 3149,
      "name": "Marilyn Monroe",
      "profile_path": "/jCb0PQhXUtXpXtP6kNYYoloCHBO.jpg",
      "popularity": 11.844,
      "adult": false,
      "known_for_department": "Acting"
    },
    {
      "id": 125734,
      "name": "Lee Ki-young",
      "profile_path": "/zQlPXY8vusE72nPQwanRACveDdV.jpg",
      "popularity": 11.843,
      "adult": false,
      "known_for_department": "Acting"
    },
    {
      "id": 198,
      "name": "Dan Castellaneta",
      "profile_path": "/AmeqWhP4A46AWkM4kVphg6jOTQX.jpg",
      "popularity": 11.841,
      "adult": false,
      "known_for_department": "Acting"
    },
    {
      "id": 37203,
      "name": "Jason Beghe",
      "profile_path": "/hrTwOPWek7nkPJgFhh6inFu7vSS.jpg",
      "popularity": 11.84,
      "adult": false,
      "known_for_department": "Acting"
    },
    {
      "id": 60719,
      "name": "Hiro Kanagawa",
      "profile_path": "/dyWOPJmZTfy3r3R5eDY2d7yf8Ze.jpg",
      "popularity": 11.839,
      "adult": false,
      "known_for_department": "Acting"
    }
  ]
}