{
  "page": 27,
  "total_results": 10000,
  "total_pages": 500,
  "results": [
    {
      "id": 103,
      "name": "Mark Ruffalo",
      "profile_path": "/5GilHMOt5PAQh6rlUKZzGmaKEI7.jpg",
      "popularity": 30.76,
      "adult": false,
      "known_for_department": "Acting"
    },
    {
      "id": 1653291,
      "name": "Gaten Matarazzo",
      "profile_path": "/yanRypHyaFRgTn31fwq8xzcfSHg.jpg",
      "popularity": 30.756,
      "adult": false,
      "known_for_department": "Acting"
    },
    {
      "id": 55636,
      "name": "Donald Sutherland",
      "profile_path": "/xIklgqM1VagBgXnY1Ffum060yC6.jpg",
      "popularity": 30.73,
      "adult": false,
      "known_for_department": "Acting"
    },
    {
      "id": 6368,
      "name": "Embeth Davidtz",
      "profile_path": "/nwsdu9lOsKJ5v9RwOCc7kAiuxSO.jpg",
      "popularity": 30.725,
      "adult": false,
      "known_for_department": "Acting"
    },
    {
      "id": 1914924,
      "name": "Miles Wei",
      "profile_path": "/fT4v4LTDXGEFGHe7ZAaRTtqBFYM.jpg",
      "popularity": 30.723,
      "adult": false,
      "known_for_department": "Acting"
    },
    {
      "id": 94423,
      "name": "Shantel VanSanten",
      "profile_path": "/pVSQcngGClHnZhOLedgtkj3tVob.jpg",
      "popularity": 30.692,
      "adult": false,
      "known_for_department": "Acting"
    },
    {
      "id": 27811,
      "name": "Peter Weller",
      "profile_path": "/mVRJX38zabRadVPJe0XOTObVzhp.jpg",
      "popularity": 30.674,
      "adult": false,
      "known_for_department": "Acting"
    },
    {
      "id": 221018,
      "name": "Dan Stevens",
      "profile_path": "/fFsgginZKH527o38ZfdDxuzx7Ew.jpg",
      "popularity": 30.618,
      "adult": false,
      "known_for_department": "Acting"
    },
    {
      "id": 57395,
      "name": "Natasha Henstridge",
      "profile_path": "/lfRFm3MLOGPtaDHWTstoQfKAyLM.jpg",
      "popularity": 30.525,
      "adult": false,
      "known_for_department": "Acting"
    },
    {
      "id": 20049,
      "name": "David Tennant",
      "profile_path": "/zM76EBPZkdkSHyESyIUa47aP87R.jpg",
      "popularity": 30.512,
      "adult": false,
      "known_for_department": "Acting"
    },
    {
      "id": 31167,
      "name": "Elizabeth Mitchell",
      "profile_path": "/pc6ppASeLM9UU6FKXcKbG629ptX.jpg",
      "popularity": 30.509,
      "adult": false,
      "known_for_department": "Acting"
    },
    {
      "id": 67773,
      "name": "Steve Martin",
      "profile_path": "/d0KthX8hVWU9BxTCG1QUO8FURRm.jpg",
      "popularity": 30.468,
      "adult": false,
      "known_for_department": "Acting"
    },
    {
      "id": 25541,
      "name": "Katherine Heigl",
      "profile_path": "/jh5vQj92V3eBcPMMVW8VSOOQMX8.jpg",
      "popularity": 30.453,
      "adult": false,
      "known_for_department": "Acting"
    },
    {
      "id": 1006731,
      "name": "Melissa Roxburgh",
      "profile_path": "/mworc2R4hnmPk6EvogFqoqlVdhD.jpg",
      "popularity": 30.452,
      "adult": false,
      "known_for_department": "Acting"
    },
    {
      "id": 418,
      "name": "Robert Patrick",
      "profile_path": "/qRv2Es9rZoloullTbzss3I5j1Mp.jpg",
      "popularity": 30.449,
      "adult": false,
      "known_for_department": "Acting"
    },
    {
      "id": 1879169,
      "name": "Lee Jae-wook",
      "profile_path": "/9dsWM2kiXO4utrg4GctdXDvhOKD.jpg",
      "popularity": 30.441,
      "adult": false,
      "known_for_department": "Acting"
    },
    {
      "id": 63312,
      "name": "Yvonne Strahovski",
      "profile_path": "/2IQEjn5T8urx6ikXM87QGs5MrWg.jpg",
      "popularity": 30.418,
      "adult": false,
      "known_for_department": "Acting"
    },
    {
      "id": 9824,
      "name": "Diane Kruger",
      "profile_path": "/aScr0aXsTzLIO6bkB82YUuYj4PT.jpg",
      "popularity": 30.383,
      "adult": false,
      "known_for_department": "Acting"
    },
    {
      "id": 16644,
      "name": "Dolph Lundgren",
      "profile_path": "/t3hMzibYVUS1KBXFgtxuNnax8qX.jpg",
      "popularity": 30.367,
      "adult": false,
      "known_for_department": "Acting"
    },
    {
      "id": 6684,
      "name": "Lara Flynn Boyle",
      "profile_path": "/1eOd7t7acV4Rtk6Kj3EeceRJbLZ.jpg",
      "popularity": 30.365,
      "adult": false,
      "known_for_department": "Acting"
    }
  ]
}