{
  "page": 494,
  "total_results": 10000,
  "total_pages": 500,
  "results": [
    {
      "id": 77015,
      "name": "William Frankfather",
      "profile_path": "/ye4ZPzUqlXqsCgLPT65dGPsA3ke.jpg",
      "popularity": 6.224,
      "adult": false,
      "known_for_department": "Acting"
    },
    {
      "id": 8228,
      "name": "Barbara Leigh-Hunt",
      "profile_path": "/mCi9mB0YbB9n4qHsRPF5yGccrft.jpg",
      "popularity": 6.224,
      "adult": false,
      "known_for_department": "Acting"
    },
    {
      "id": 1478072,
      "name": "Heiko Ruprecht",
      "profile_path": "/keZ70XjSibgPubfFJAs0KemfDlt.jpg",
      "popularity": 6.223,
      "adult": false,
      "known_for_department": "Acting"
    },
    {
      "id": 62147,
      "name": "Joey Zimmerman",
      "profile_path": "/pS4QNJvQGQSDWpqU50Lq1HH22Hm.jpg",
      "popularity": 6.223,
      "adult": false,
      "known_for_department": "Acting"
    },
    {
      "id": 39145,
      "name": "France Rumilly",
      "profile_path": "/znA3akSmA5bVt29RD52rGokZl7T.jpg",
      "popularity": 6.223,
      "adult": false,
      "known_for_department": "Acting"
    },
    {
      "id": 35694,
      "name": "Jason Friedberg",
      "profile_path": "/8ezGNR28kmkbBc4jYE1vNgSF70t.jpg",
      "popularity": 6.223,
      "adult": false,
      "known_for_department": "Writing"
    },
    {
      "id": 17199,
      "name": "Corey Johnson",
      "profile_path": "/gFPilsTUQlClMiXooO4Q3DSJ5Nr.jpg",
      "popularity": 6.223,
      "adult": false,
      "known_for_department": "Acting"
    },
    {
      "id": 14562,
      "name": "Ralph Meeker",
      "profile_path": "/kw49AcV9vDgTZY2ts6qrPHSTS76.jpg",
      "popularity": 6.223,
      "adult": false,
      "known_for_department": "Acting"
    },
    {
      "id": 27,
      "name": "Eric Roth",
      "profile_path": "/16WXnoU1NP2H732P0qAQUtetSI9.jpg",
      "popularity": 6.223,
      "adult": false,
      "known_for_department": "Writing"
    },
    {
      "id": 1959397,
      "name": "Dua Lipa",
      "profile_path": "/bsu3VxYaa8XgdH2ftPlO9DUsfun.jpg",
      "popularity": 6.222,
      "adult": false,
      "known_for_department": "Acting"
    },
    {
      "id": 1332468,
      "name": "Heo Dong-won",
      "profile_path": "/2ozJdoP76fZvlLo1MhqPunoy6CW.jpg",
      "popularity": 6.222,
      "adult": false,
      "known_for_department": "Acting"
    },
    {
      "id": 1240641,
      "name": "Greg Davies",
      "profile_path": "/11GkWjaYoW2tfok8gHoCPZgVriY.jpg",
      "popularity": 6.222,
      "adult": false,
      "known_for_department": "Acting"
    },
    {
      "id": 78920,
      "name": "Sonali Kulkarni",
      "profile_path": "/aQeM6N2JgGFbI5VoltWhkxw6OQC.jpg",
      "popularity": 6.222,
      "adult": false,
      "known_for_department": "Acting"
    },
    {
      "id": 70225,
      "name": "John Nolan",
      "profile_path": "/deEcF1B2s5oiV36HFBPlswbLoqp.jpg",
      "popularity": 6.222,
      "adult": false,
      "known_for_department": "Acting"
    },
    {
      "id": 1415918,
      "name": "Molly Windsor",
      "profile_path": "/mPDTgnj9Wio8NXX2f0pXxwyYY8z.jpg",
      "popularity": 6.221,
      "adult": false,
      "known_for_department": "Acting"
    },
    {
      "id": 65310,
      "name": "Kenny Ortega",
      "profile_path": "/cZrsOBr1tp1nNPJ5xj3uao2XQbJ.jpg",
      "popularity": 6.221,
      "adult": false,
      "known_for_department": "Directing"
    },
    {
      "id": 562922,
      "name": "Christian Keyes",
      "profile_path": "/l7VvQjRoCdzwDmqPKvEEqajMDyZ.jpg",
      "popularity": 6.219,
      "adult": false,
      "known_for_department": "Acting"
    },
    {
      "id": 173211,
      "name": "Denise Miller",
      "profile_path": "/m6Td4rFCUeQSgXSAo1m0jIoUlnv.jpg",
      "popularity": 6.218,
      "adult": false,
      "known_for_department": "Acting"
    },
    {
      "id": 68180,
      "name": "Gary Grubbs",
      "profile_path": "/uXJG4skJTElTQ5BJ9pkJjzfKIDv.jpg",
      "popularity": 6.218,
      "adult": false,
      "known_for_department": "Acting"
    },
    {
      "id": 54708,
      "name": "Carla Gallo",
      "profile_path": "/yf9F5OL0S97coL8bnGxDGxguZ2I.jpg",
      "popularity": 6.218,
      "adult": false,
      "known_for_department": "Acting"
    }
  ]
}