{
  "page": 488,
  "total_results": 10000,
  "total_pages": 500,
  "results": [
    {
      "id": 145746,
      "name": "Christopher Rich",
      "profile_path": "/AkZ5a3Jg4FseCCQVoI15xI2uEGZ.jpg",
      "popularity": 7.011,
      "adult": false,
      "known_for_department": "Acting"
    },
    {
      "id": 116351,
      "name": "Lydia Shum Tin-Ha",
      "profile_path": "/kBBSrBpD9NcrQJ6AR8gxAqZIvk9.jpg",
      "popularity": 7.011,
      "adult": false,
      "known_for_department": "Acting"
    },
    {
      "id": 63544,
      "name": "Steven Culp",
      "profile_path": "/hqweK3WhIOORsOLBPhzEy47iXO8.jpg",
      "popularity": 7.011,
      "adult": false,
      "known_for_department": "Acting"
    },
    {
      "id": 1641182,
      "name": "Ivy Shao",
      "profile_path": "/6uKWMKcBrtDqiryqjkDiRLFLGWb.jpg",
      "popularity": 7.01,
      "adult": false,
      "known_for_department": "Acting"
    },
    {
      "id": 2754238,
      "name": "David Whatley-Zepeda",
      "profile_path": "",
      "popularity": 7.009,
      "adult": false,
      "known_for_department": "Acting"
    },
    {
      "id": 75073,
      "name": "Tom Mison",
      "profile_path": "/jWwzDaaiJmaI2OUIKyhjeeAdkba.jpg",
      "popularity": 7.009,
      "adult": false,
      "known_for_department": "Acting"
    },
    {
      "id": 1807326,
      "name": "Emil von Schönfels",
      "profile_path": "/cnxcfQdTJ5ZqAk26pLU6kUqaM3o.jpg",
      "popularity": 7.008,
      "adult": false,
      "known_for_department": "Acting"
    },
    {
      "id": 1123505,
      "name": "Kim Jung-nan",
      "profile_path": "/3YzhO1vEURcvmlygJtrPrwNJYjZ.jpg",
      "popularity": 7.008,
      "adult": false,
      "known_for_department": "Acting"
    },
    {
      "id": 112439,
      "name": "Marsha Fitzalan",
      "profile_path": "/2yZtkjulmmg1jvJ2Kqgy4EK46O6.jpg",
      "popularity": 7.008,
      "adult": false,
      "known_for_department": "Acting"
    },
    {
      "id": 89823,
      "name": "Olly Alexander",
      "profile_path": "/hTLsUHkpe05QQiSbmPLv7JhsvEW.jpg",
      "popularity": 7.008,
      "adult": false,
      "known_for_department": "Acting"
    },
    {
      "id": 2161641,
      "name": "Tsubasa Nakagawa",
      "profile_path": "/3FADiSi87YwGJrBizVIQFfyixKn.jpg",
      "popularity": 7.007,
      "adult": false,
      "known_for_department": "Acting"
    },
    {
      "id": 95257,
      "name": "Candi Milo",
      "profile_path": "/fCgxSGGGF6m8YhrIE7Irs1ueh3W.jpg",
      "popularity": 7.007,
      "adult": false,
      "known_for_department": "Acting"
    },
    {
      "id": 81667,
      "name": "Jennifer Hale",
      "profile_path": "/oNQCrdiSm0mABCcE5YaHwuZQK8X.jpg",
      "popularity": 7.007,
      "adult": false,
      "known_for_department": "Acting"
    },
    {
      "id": 1258225,
      "name": "Hannah New",
      "profile_path": "/5n6177kkkgD3LeWjXl8VZGVXm6Y.jpg",
      "popularity": 7.006,
      "adult": false,
      "known_for_department": "Acting"
    },
    {
      "id": 21411,
      "name": "Ice-T",
      "profile_path": "/iqyAw0iTgESyykWIUtMP0CoP88J.jpg",
      "popularity": 7.006,
      "adult": false,
      "known_for_department": "Acting"
    },
    {
      "id": 2098555,
      "name": "Tanapon Sukhumpantanasan",
      "profile_path": "/LlIXYogZU2MGK9R1thuCxDYENa.jpg",
      "popularity": 7.004,
      "adult": false,
      "known_for_department": "Acting"
    },
    {
      "id": 56679,
      "name": "Edwin Hodge",
      "profile_path": "/wbwevwzat2iy42QilcRRXshAkLv.jpg",
      "popularity": 7.004,
      "adult": false,
      "known_for_department": "Acting"
    },
    {
      "id": 1319218,
      "name": "Makoto Furukawa",
      "profile_path": "/ayE3vqqNYt4wBQIvoEVka4oFDw6.jpg",
      "popularity": 7.003,
      "adult": false,
      "known_for_department": "Acting"
    },
    {
      "id": 149979,
      "name": "Connie Booth",
      "profile_path": "/wbqzdZDC0WjS1nYrfJxxKmB9Fzn.jpg",
      "popularity": 7.003,
      "adult": false,
      "known_for_department": "Acting"
    },
    {
      "id": 59753,
      "name": "Şebnem Dönmez",
      "profile_path": "/s2sXxrradyykSh5PdwtLUeBZbGC.jpg",
      "popularity": 7.003,
      "adult": false,
      "known_for_department": "Acting"
    }
  ]
}