{
  "page": 127,
  "total_results": 10000,
  "total_pages": 500,
  "results": [
    {
      "id": 8183,
      "name": "Kathleen Quinlan",
      "profile_path": "/w93KLi08Mi7IQCojz7D49g9WccE.jpg",
      "popularity": 14.043,
      "adult": false,
      "known_for_department": "Acting"
    },
    {
      "id": 49623,
      "name": "Jared Padalecki",
      "profile_path": "/q2YR6o6MKqO2szOhmmSSAnjs2aC.jpg",
      "popularity": 14.041,
      "adult": false,
      "known_for_department": "Acting"
    },
    {
      "id": 2984635,
      "name": "Malte Gårdinger",
      "profile_path": "/vDtILRvipBzF2bVqZBiqMQ1HehP.jpg",
      "popularity": 14.037,
      "adult": false,
      "known_for_department": "Acting"
    },
    {
      "id": 28410,
      "name": "Jake Busey",
      "profile_path": "/3WknfRePAvwFJfrbYVvfYXTQCh9.jpg",
      "popularity": 14.035,
      "adult": false,
      "known_for_department": "Acting"
    },
    {
      "id": 215055,
      "name": "Steven Yeun",
      "profile_path": "/fOMFO2Xx4duzpNgS9Q5ytO44yGb.jpg",
      "popularity": 14.034,
      "adult": false,
      "known_for_department": "Acting"
    },
    {
      "id": 1902,
      "name": "Dianne Wiest",
      "profile_path": "/axqtFLgJNNz0N9i443USHCOvrmY.jpg",
      "popularity": 14.033,
      "adult": false,
      "known_for_department": "Acting"
    },
    {
      "id": 1937,
      "name": "Mickey Rooney",
      "profile_path": "/eYuayEC3xhXQf3Z1Cy6AVMEcgZb.jpg",
      "popularity": 14.032,
      "adult": false,
      "known_for_department": "Acting"
    },
    {
      "id": 1223171,
      "name": "Willa Holland",
      "profile_path": "/1GS8AZcIYHoShxaClaHBIelCMBd.jpg",
      "popularity": 14.03,
      "adult": false,
      "known_for_department": "Acting"
    },
    {
      "id": 8349,
      "name": "Martin Sheen",
      "profile_path": "/m2Y3Q0uyuW6htrn2W9UWCWMkpZu.jpg",
      "popularity": 14.028,
      "adult": false,
      "known_for_department": "Acting"
    },
    {
      "id": 191228,
      "name": "Victoria Justice",
      "profile_path": "/t6sEHumY9d2o4Qfto6ZqQqfSRK3.jpg",
      "popularity": 14.027,
      "adult": false,
      "known_for_department": "Acting"
    },
    {
      "id": 212429,
      "name": "Italia Ricci",
      "profile_path": "/sLQAYErTlb9DiiLlXmUH7me47vK.jpg",
      "popularity": 14.021,
      "adult": false,
      "known_for_department": "Acting"
    },
    {
      "id": 52935,
      "name": "John Francis Daley",
      "profile_path": "/rKZL3e8gI2tQD6Kv0QojXK5sG4u.jpg",
      "popularity": 14.018,
      "adult": false,
      "known_for_department": "Acting"
    },
    {
      "id": 77069,
      "name": "Lenny Kravitz",
      "profile_path": "/pIoGuEUax5aeH3PKuaYK9wKEeoj.jpg",
      "popularity": 14.015,
      "adult": false,
      "known_for_department": "Acting"
    },
    {
      "id": 1349163,
      "name": "Oh Na-ra",
      "profile_path": "/q7Dvs2VtZB6AOIpIIE5Dnro4yAE.jpg",
      "popularity": 14.014,
      "adult": false,
      "known_for_department": "Acting"
    },
    {
      "id": 1467350,
      "name": "J.R. Ramirez",
      "profile_path": "/nNSMr1fuFjRFTu6QcxPCZGkyyI9.jpg",
      "popularity": 14.013,
      "adult": false,
      "known_for_department": "Acting"
    },
    {
      "id": 1321982,
      "name": "Ryusei Yokohama",
      "profile_path": "/rYEfBHyJ45GPKI0ZTCjukCzONqX.jpg",
      "popularity": 14.013,
      "adult": false,
      "known_for_department": "Acting"
    },
    {
      "id": 22383,
      "name": "Franco Nero",
      "profile_path": "/uiCrTolkOqpZYVxveMZeBx7sjZO.jpg",
      "popularity": 14.008,
      "adult": false,
      "known_for_department": "Acting"
    },
    {
      "id": 86034,
      "name": "Julianne Nicholson",
      "profile_path": "/2RJ30pPSQQxteuoMjhN1FWTwxlZ.jpg",
      "popularity": 14.003,
      "adult": false,
      "known_for_department": "Acting"
    },
    {
      "id": 1153813,
      "name": "Ida Engvoll",
      "profile_path": "/oCaDgQcdJ7jmAgFhhas65HTwOBZ.jpg",
      "popularity": 14.001,
      "adult": false,
      "known_for_department": "Acting"
    },
    {
      "id": 60959,
      "name": "Jackie Sandler",
      "profile_path": "/j9XiOUVtolVM3sWGcLCw6yQSbJV.jpg",
      "popularity": 14,
      "adult": false,
      "known_for_department": "Acting"
    }
  ]
}