{
  "page": 405,
  "total_results": 10000,
  "total_pages": 500,
  "results": [
    {
      "id": 967376,
      "name": "Taylor Geare",
      "profile_path": "/av6jHo6Sn9H0Bklb4oiJHO3OUy4.jpg",
      "popularity": 9.547,
      "adult": false,
      "known_for_department": "Acting"
    },
    {
      "id": 8269,
      "name": "Suzanne Cryer",
      "profile_path": "/2l8WjcbjE64mPI1OftJHI07mJmf.jpg",
      "popularity": 9.547,
      "adult": false,
      "known_for_department": "Acting"
    },
    {
      "id": 1139349,
      "name": "Julian Dennison",
      "profile_path": "/jp1phhrj8lT4NWQpztqi0FmM94i.jpg",
      "popularity": 9.546,
      "adult": false,
      "known_for_department": "Acting"
    },
    {
      "id": 124755,
      "name": "Glen Blackhall",
      "profile_path": "/tQuHtTWwQQGF4swF29n3Zd1wfVb.jpg",
      "popularity": 9.546,
      "adult": false,
      "known_for_department": "Acting"
    },
    {
      "id": 97943,
      "name": "Raphael Sbarge",
      "profile_path": "/jOm9Yd5VKiCA2RX2q16fPXwCMAs.jpg",
      "popularity": 9.546,
      "adult": false,
      "known_for_department": "Acting"
    },
    {
      "id": 49958,
      "name": "Rosemary Forsyth",
      "profile_path": "/l2nEkroVr1wlOjozm6tKQFTIemA.jpg",
      "popularity": 9.545,
      "adult": false,
      "known_for_department": "Acting"
    },
    {
      "id": 1212697,
      "name": "Jazz Raycole",
      "profile_path": "/dZ3Yajxg6Ga7ca8acHLvSA5HT9Y.jpg",
      "popularity": 9.544,
      "adult": false,
      "known_for_department": "Acting"
    },
    {
      "id": 6074,
      "name": "Kenneth Welsh",
      "profile_path": "/AvYhww5a8TPmMEHqFsvZpyztV5Y.jpg",
      "popularity": 9.544,
      "adult": false,
      "known_for_department": "Acting"
    },
    {
      "id": 1234992,
      "name": "Susannah Corbett",
      "profile_path": "/yCjIW6v3OnOfgqSLgxQsffVgBTT.jpg",
      "popularity": 9.543,
      "adult": false,
      "known_for_department": "Acting"
    },
    {
      "id": 82587,
      "name": "Steve Harvey",
      "profile_path": "/m9eYD66VtHPxgrXGhHw7gtugftE.jpg",
      "popularity": 9.543,
      "adult": false,
      "known_for_department": "Acting"
    },
    {
      "id": 7853,
      "name": "Rodney A. Grant",
      "profile_path": "/l4FiVA1ddPI8SohmB01UP9avexw.jpg",
      "popularity": 9.543,
      "adult": false,
      "known_for_department": "Acting"
    },
    {
      "id": 1544088,
      "name": "Kim Seok-jin",
      "profile_path": "/cothCnRmZXC63olRZ816lZoGMDc.jpg",
      "popularity": 9.542,
      "adult": false,
      "known_for_department": "Acting"
    },
    {
      "id": 99196,
      "name": "Eva Robin's",
      "profile_path": "/pRy5gyJRbmRsA2sNhukkWpyn5zh.jpg",
      "popularity": 9.542,
      "adult": false,
      "known_for_department": "Acting"
    },
    {
      "id": 1674162,
      "name": "Jonathan Majors",
      "profile_path": "/6hI9NKqF7J6FtrQu9Afr7ZqipIL.jpg",
      "popularity": 9.54,
      "adult": false,
      "known_for_department": "Acting"
    },
    {
      "id": 6449,
      "name": "Warren Beatty",
      "profile_path": "/pNhzqsu5mdOxT2Z8CTWYs56yLgx.jpg",
      "popularity": 9.538,
      "adult": false,
      "known_for_department": "Acting"
    },
    {
      "id": 1729,
      "name": "James Horner",
      "profile_path": "/g2C3Fb4fHCU2gnqUcwTQCv5EZc4.jpg",
      "popularity": 9.538,
      "adult": false,
      "known_for_department": "Sound"
    },
    {
      "id": 78434,
      "name": "America Olivo",
      "profile_path": "/23lSkNhiakJuOO4wXpSYjbf2vR9.jpg",
      "popularity": 9.537,
      "adult": false,
      "known_for_department": "Acting"
    },
    {
      "id": 44205,
      "name": "Jeremy Ratchford",
      "profile_path": "/lpqoU3SIc2QB3JwfA2D8U85hHg5.jpg",
      "popularity": 9.537,
      "adult": false,
      "known_for_department": "Acting"
    },
    {
      "id": 46597,
      "name": "Ali MacGraw",
      "profile_path": "/vMQ8DkboSiJkz66IYhgoiUhItMI.jpg",
      "popularity": 9.536,
      "adult": false,
      "known_for_department": "Acting"
    },
    {
      "id": 26491,
      "name": "Vernon Wells",
      "profile_path": "/rpKjskAbftBMFi1HWZ0Jo6lZgod.jpg",
      "popularity": 9.536,
      "adult": false,
      "known_for_department": "Acting"
    }
  ]
}