{
  "page": 261,
  "total_results": 10000,
  "total_pages": 500,
  "results": [
    {
      "id": 1464501,
      "name": "Nilay Deniz",
      "profile_path": "/iPLDeBZ6di116bGTYF6W4TDn2CX.jpg",
      "popularity": 10.398,
      "adult": false,
      "known_for_department": "Acting"
    },
    {
      "id": 3294,
      "name": "Sharon Small",
      "profile_path": "/yRlVnUrp7yDJet6UGsugQ7EblhD.jpg",
      "popularity": 10.398,
      "adult": false,
      "known_for_department": "Acting"
    },
    {
      "id": 1299278,
      "name": "Kim Hye-eun",
      "profile_path": "/qoOOqPCwoNoZpZuelhOG1M4klgK.jpg",
      "popularity": 10.397,
      "adult": false,
      "known_for_department": "Acting"
    },
    {
      "id": 60464,
      "name": "Gabrielle Fitzpatrick",
      "profile_path": "/kHaRwiNjQwANg1mRWKudkLmJuRk.jpg",
      "popularity": 10.397,
      "adult": false,
      "known_for_department": "Acting"
    },
    {
      "id": 32363,
      "name": "Will Estes",
      "profile_path": "/ddxb9Me3pNLpBUYZQ7stpCrIxFs.jpg",
      "popularity": 10.397,
      "adult": false,
      "known_for_department": "Acting"
    },
    {
      "id": 95975,
      "name": "Mark Linn-Baker",
      "profile_path": "/ftf6coOBy95LrcVvhPnbsabKnC.jpg",
      "popularity": 10.394,
      "adult": false,
      "known_for_department": "Acting"
    },
    {
      "id": 78141,
      "name": "Grant Show",
      "profile_path": "/xn3U53GWIr6ML9DVnWFOqkSx5IV.jpg",
      "popularity": 10.394,
      "adult": false,
      "known_for_department": "Acting"
    },
    {
      "id": 84530,
      "name": "Roger Taylor",
      "profile_path": "/3RK6HF5pPgpOMDLzxkKhptjlJzv.jpg",
      "popularity": 10.392,
      "adult": false,
      "known_for_department": "Acting"
    },
    {
      "id": 4969,
      "name": "Lionel Stander",
      "profile_path": "/t2KrtknCJd5zsXWmMH089z5ePbT.jpg",
      "popularity": 10.392,
      "adult": false,
      "known_for_department": "Acting"
    },
    {
      "id": 1146738,
      "name": "Neslihan Yeldan",
      "profile_path": "/ooA8zBqzm2QSvcal7s1SN06PyyR.jpg",
      "popularity": 10.39,
      "adult": false,
      "known_for_department": "Acting"
    },
    {
      "id": 109438,
      "name": "Xavier Samuel",
      "profile_path": "/gHvKqCXfpzaGp46gqsy9MVDfmSf.jpg",
      "popularity": 10.39,
      "adult": false,
      "known_for_department": "Acting"
    },
    {
      "id": 1767250,
      "name": "Ariana Greenblatt",
      "profile_path": "/rm6yLSvxHsmyHUmKy10DmBrB4SH.jpg",
      "popularity": 10.389,
      "adult": false,
      "known_for_department": "Acting"
    },
    {
      "id": 1633001,
      "name": "Kristine Froseth",
      "profile_path": "/plgE7OleHgqZrdazFzbkv18UsRN.jpg",
      "popularity": 10.388,
      "adult": false,
      "known_for_department": "Acting"
    },
    {
      "id": 182054,
      "name": "Lisa Faulkner",
      "profile_path": "/35dVwXRgGZBAC23Z2BJJIpe9pnT.jpg",
      "popularity": 10.387,
      "adult": false,
      "known_for_department": "Acting"
    },
    {
      "id": 1253370,
      "name": "Heath McIvor",
      "profile_path": "/w83bqoC2kcbesExfT9PLA6t0sYv.jpg",
      "popularity": 10.386,
      "adult": false,
      "known_for_department": "Acting"
    },
    {
      "id": 13364,
      "name": "Julie Cox",
      "profile_path": "/iEuysgJLFqvj98HwefDliZ1RRQl.jpg",
      "popularity": 10.384,
      "adult": false,
      "known_for_department": "Acting"
    },
    {
      "id": 1420663,
      "name": "Lyndon Smith",
      "profile_path": "/rGuDBD6bevBGBEwICbaqsBtopHz.jpg",
      "popularity": 10.38,
      "adult": false,
      "known_for_department": "Acting"
    },
    {
      "id": 1242102,
      "name": "Lanie McAuley",
      "profile_path": "/yjTfxYXNqVllUDdoubsCwhIcrNZ.jpg",
      "popularity": 10.378,
      "adult": false,
      "known_for_department": "Acting"
    },
    {
      "id": 84482,
      "name": "Luke Benward",
      "profile_path": "/gKjqp67otIkvJREuEKXdplM5A7E.jpg",
      "popularity": 10.378,
      "adult": false,
      "known_for_department": "Acting"
    },
    {
      "id": 55567,
      "name": "Alexandra Paul",
      "profile_path": "/aih7W4GZFVhX3VF0yJvhuvIUdbS.jpg",
      "popularity": 10.378,
      "adult": false,
      "known_for_department": "Acting"
    }
  ]
}