{
  "page": 283,
  "total_results": 10000,
  "total_pages": 500,
  "results": [
    {
      "id": 1233094,
      "name": "Kwon Sang-woo",
      "profile_path": "/sXWZ82ph4ZPPG9kv2x6nXha1Kk4.jpg",
      "popularity": 10.052,
      "adult": false,
      "known_for_department": "Acting"
    },
    {
      "id": 10713,
      "name": "Eric Idle",
      "profile_path": "/fXPCAvoXW3gbpqWhzjePXSZ4VPi.jpg",
      "popularity": 10.052,
      "adult": false,
      "known_for_department": "Acting"
    },
    {
      "id": 1924,
      "name": "Jeroen Krabbé",
      "profile_path": "/r26lZKUeLIaUt8DMotm4mdc4EaY.jpg",
      "popularity": 10.051,
      "adult": false,
      "known_for_department": "Acting"
    },
    {
      "id": 81095,
      "name": "Michelle Morgan",
      "profile_path": "/9JakkNragWMHq4l1Z85pgG3N33B.jpg",
      "popularity": 10.05,
      "adult": false,
      "known_for_department": "Acting"
    },
    {
      "id": 7727,
      "name": "Phil Tippett",
      "profile_path": "/qIjrlRrM6MwNkbCYwRbPYbvq9P7.jpg",
      "popularity": 10.05,
      "adult": false,
      "known_for_department": "Visual Effects"
    },
    {
      "id": 32799,
      "name": "Angela Bettis",
      "profile_path": "/yckzGBCLr5cYaScOZrd4MR1aMqq.jpg",
      "popularity": 10.049,
      "adult": false,
      "known_for_department": "Acting"
    },
    {
      "id": 1399531,
      "name": "Billie Lourd",
      "profile_path": "/ZNvGBzuLyVYzqHlWDFmBjaCW2E.jpg",
      "popularity": 10.047,
      "adult": false,
      "known_for_department": "Acting"
    },
    {
      "id": 141153,
      "name": "Kim Young-ok",
      "profile_path": "/vBk5QGcAFl8rlbkOoV898pa5GAi.jpg",
      "popularity": 10.045,
      "adult": false,
      "known_for_department": "Acting"
    },
    {
      "id": 47757,
      "name": "Kelly Rowan",
      "profile_path": "/xPBHrefHV3yqtvdo9nUlPG7jCO9.jpg",
      "popularity": 10.044,
      "adult": false,
      "known_for_department": "Acting"
    },
    {
      "id": 1911673,
      "name": "Camila Cabello",
      "profile_path": "/oXScbfmhbNk3Qf8cqpHjQjdMAhe.jpg",
      "popularity": 10.042,
      "adult": false,
      "known_for_department": "Acting"
    },
    {
      "id": 1283098,
      "name": "Nelydia Senrose",
      "profile_path": "/GlgP3FsB2336mNsHy634e5pPv3.jpg",
      "popularity": 10.041,
      "adult": false,
      "known_for_department": "Acting"
    },
    {
      "id": 54594,
      "name": "Jason Earles",
      "profile_path": "/98kgD3jp4DmwwL1SmViN5cRE5NI.jpg",
      "popularity": 10.039,
      "adult": false,
      "known_for_department": "Acting"
    },
    {
      "id": 999787,
      "name": "Tish Cyrus",
      "profile_path": "/nzuBsyuzSAsV6Kfci5UeFBw2uHh.jpg",
      "popularity": 10.038,
      "adult": false,
      "known_for_department": "Production"
    },
    {
      "id": 15424,
      "name": "Michael Vartan",
      "profile_path": "/5HCb1CxwIgiZAjKMe9BG8VtHE80.jpg",
      "popularity": 10.038,
      "adult": false,
      "known_for_department": "Acting"
    },
    {
      "id": 127712,
      "name": "Matt Ryan",
      "profile_path": "/qLx6rzn6MMcJtTals5Z7Mb6z4Y9.jpg",
      "popularity": 10.036,
      "adult": false,
      "known_for_department": "Acting"
    },
    {
      "id": 56778,
      "name": "Stuart Townsend",
      "profile_path": "/8jc2nlrAkinMjyVPvYxa9goL5QZ.jpg",
      "popularity": 10.035,
      "adult": false,
      "known_for_department": "Acting"
    },
    {
      "id": 1089770,
      "name": "Robert Christopher Riley",
      "profile_path": "/fGQ4ek9pGSucHLhyP0qNKc4zg9h.jpg",
      "popularity": 10.032,
      "adult": false,
      "known_for_department": "Acting"
    },
    {
      "id": 37440,
      "name": "Angela Pleasence",
      "profile_path": "/aBoB6FXAcPamMGPwqbgsHPcYeOi.jpg",
      "popularity": 10.031,
      "adult": false,
      "known_for_department": "Acting"
    },
    {
      "id": 42803,
      "name": "Ajay Devgn",
      "profile_path": "/vnHQQFzTjJ0sv14DGMIoKa3qTxN.jpg",
      "popularity": 10.03,
      "adult": false,
      "known_for_department": "Acting"
    },
    {
      "id": 1648346,
      "name": "Robert Aramayo",
      "profile_path": "/5CNx6hV7buItL1Icsc2AorP9AqE.jpg",
      "popularity": 10.028,
      "adult": false,
      "known_for_department": "Acting"
    }
  ]
}