{
  "page": 498,
  "total_results": 10000,
  "total_pages": 500,
  "results": [
    {
      "id": 164208,
      "name": "Hemky Madera",
      "profile_path": "/net1kEEpSrr9QC9be6YRhLGuM0k.jpg",
      "popularity": 9.075,
      "adult": false,
      "known_for_department": "Acting"
    },
    {
      "id": 121786,
      "name": "Ryo",
      "profile_path": "/jAKO6bhJqky5TvDWuVhCqpekVUT.jpg",
      "popularity": 9.075,
      "adult": false,
      "known_for_department": "Acting"
    },
    {
      "id": 130935,
      "name": "Shane Meier",
      "profile_path": "/z3lmQgYB1BX8cTOt4NTqjupgUqp.jpg",
      "popularity": 9.074,
      "adult": false,
      "known_for_department": "Acting"
    },
    {
      "id": 68301,
      "name": "Will Sampson",
      "profile_path": "/eTFrqcbAxcFzqmdEDR5PhIUKTNW.jpg",
      "popularity": 9.074,
      "adult": false,
      "known_for_department": "Acting"
    },
    {
      "id": 36059,
      "name": "Joanna Pacula",
      "profile_path": "/97JaBMYa3xgTdsKrTNQG71uEZsZ.jpg",
      "popularity": 9.074,
      "adult": false,
      "known_for_department": "Acting"
    },
    {
      "id": 70334,
      "name": "Lo Wei",
      "profile_path": "/qo5dFi2icEcJPDxQy1VdU0uJgcO.jpg",
      "popularity": 9.073,
      "adult": false,
      "known_for_department": "Directing"
    },
    {
      "id": 2078582,
      "name": "Choi Tae-young",
      "profile_path": "/rVi3rqXJ3E9GD9H2vJzZdvrTndW.jpg",
      "popularity": 9.071,
      "adult": false,
      "known_for_department": "Sound"
    },
    {
      "id": 1154452,
      "name": "Tatsuhisa Suzuki",
      "profile_path": "/foytL2OreKzQcTNftz2qMgClKKg.jpg",
      "popularity": 9.071,
      "adult": false,
      "known_for_department": "Acting"
    },
    {
      "id": 102880,
      "name": "Cherie Chung",
      "profile_path": "/tLHAy5YRbUgyrfFe2SpsyeSy3Yf.jpg",
      "popularity": 9.071,
      "adult": false,
      "known_for_department": "Acting"
    },
    {
      "id": 8676,
      "name": "Dean Devlin",
      "profile_path": "/lO8HDHI3aVrpVubWb2DH1jeqM40.jpg",
      "popularity": 9.071,
      "adult": false,
      "known_for_department": "Writing"
    },
    {
      "id": 3212104,
      "name": "Park Seo-ham",
      "profile_path": "/uUFxDA9iRHVziPx8S4KGiDcXuYx.jpg",
      "popularity": 9.07,
      "adult": false,
      "known_for_department": "Acting"
    },
    {
      "id": 2112439,
      "name": "Connor Swindells",
      "profile_path": "/jUY1Ayi79usRpwjMmrGVtGmWL6B.jpg",
      "popularity": 9.07,
      "adult": false,
      "known_for_department": "Acting"
    },
    {
      "id": 1134885,
      "name": "Omar Chaparro",
      "profile_path": "/eucXVp57mAsea5t3oJFD3KPpqKq.jpg",
      "popularity": 9.069,
      "adult": false,
      "known_for_department": "Acting"
    },
    {
      "id": 237612,
      "name": "Namitha",
      "profile_path": "/gq7dmXf49nuSG80NYMNdQydMwmF.jpg",
      "popularity": 9.069,
      "adult": false,
      "known_for_department": "Acting"
    },
    {
      "id": 86543,
      "name": "David Attenborough",
      "profile_path": "/tt3LW3XftcvxOZtMXmIaJSWFN7y.jpg",
      "popularity": 9.069,
      "adult": false,
      "known_for_department": "Acting"
    },
    {
      "id": 70615,
      "name": "Rodger Bumpass",
      "profile_path": "/lGQkw6adxqB6Hcm7VK8nVHbKupe.jpg",
      "popularity": 9.069,
      "adult": false,
      "known_for_department": "Acting"
    },
    {
      "id": 1220273,
      "name": "David Cameron",
      "profile_path": "/ieHa9lPPSd4V7u29gdGD9O4HqlA.jpg",
      "popularity": 9.068,
      "adult": false,
      "known_for_department": "Acting"
    },
    {
      "id": 16628,
      "name": "Martin Compston",
      "profile_path": "/4w5NVp8MWF51bRdcB4A91ecxHnv.jpg",
      "popularity": 9.068,
      "adult": false,
      "known_for_department": "Acting"
    },
    {
      "id": 4889,
      "name": "Kim Director",
      "profile_path": "/va3lHRPsyhA2jwb7sUIu0Kxngmy.jpg",
      "popularity": 9.068,
      "adult": false,
      "known_for_department": "Acting"
    },
    {
      "id": 97619,
      "name": "Linnea Quigley",
      "profile_path": "/7lQMINbYT5NVfcwBXM89tMuS8Lj.jpg",
      "popularity": 9.067,
      "adult": false,
      "known_for_department": "Acting"
    }
  ]
}