{
  "page": 339,
  "total_results": 10000,
  "total_pages": 500,
  "results": [
    {
      "id": 70517,
      "name": "Thomas Turgoose",
      "profile_path": "/3PsCUvclNzVrjDGg69Q3blw83ei.jpg",
      "popularity": 8.927,
      "adult": false,
      "known_for_department": "Acting"
    },
    {
      "id": 62168,
      "name": "Sasha Pieterse",
      "profile_path": "/cwoR5JWudzy1TnUEM5e2HqsJQv8.jpg",
      "popularity": 8.927,
      "adult": false,
      "known_for_department": "Acting"
    },
    {
      "id": 103554,
      "name": "Isabel Lucas",
      "profile_path": "/dxIZvymamZaeJ46HDJ0ldaJmG2v.jpg",
      "popularity": 8.926,
      "adult": false,
      "known_for_department": "Acting"
    },
    {
      "id": 71041,
      "name": "'Weird Al' Yankovic",
      "profile_path": "/1MjdjnXHokywKz6LZ1b26O5FklA.jpg",
      "popularity": 8.925,
      "adult": false,
      "known_for_department": "Acting"
    },
    {
      "id": 57250,
      "name": "Robin Shou",
      "profile_path": "/cnL8HqBowYu9ssTkShDfEmxTgdZ.jpg",
      "popularity": 8.924,
      "adult": false,
      "known_for_department": "Acting"
    },
    {
      "id": 21688,
      "name": "Bae Doona",
      "profile_path": "/4NrnwPEeOWWfgyoxIXQybBDtJ5d.jpg",
      "popularity": 8.924,
      "adult": false,
      "known_for_department": "Acting"
    },
    {
      "id": 15413,
      "name": "Richard Dysart",
      "profile_path": "/yQOaZexN3YbqGWOguu2VrjsvX2G.jpg",
      "popularity": 8.924,
      "adult": false,
      "known_for_department": "Acting"
    },
    {
      "id": 20624,
      "name": "Mary Wickes",
      "profile_path": "/3cBGc8kRLL2M01VOEcmlFgjAGo8.jpg",
      "popularity": 8.923,
      "adult": false,
      "known_for_department": "Acting"
    },
    {
      "id": 64825,
      "name": "Harry Hamlin",
      "profile_path": "/n1PedvBIAJ7Kd5T8fJ38ZMjf6HF.jpg",
      "popularity": 8.922,
      "adult": false,
      "known_for_department": "Acting"
    },
    {
      "id": 1481978,
      "name": "Onur Tuna",
      "profile_path": "/19Wuwety1GnKDrJMjgXQTkWHbk1.jpg",
      "popularity": 8.921,
      "adult": false,
      "known_for_department": "Acting"
    },
    {
      "id": 59401,
      "name": "Amy Hill",
      "profile_path": "/x5vR2MXZiWGHkppRXlXYj7y7611.jpg",
      "popularity": 8.921,
      "adult": false,
      "known_for_department": "Acting"
    },
    {
      "id": 1482876,
      "name": "Lee Sung-kyoung",
      "profile_path": "/l0gUEjmdPuM2HYpHecGCCz4s6mI.jpg",
      "popularity": 8.92,
      "adult": false,
      "known_for_department": "Acting"
    },
    {
      "id": 19207,
      "name": "Timothy Bottoms",
      "profile_path": "/e0SKyrvvyJFZWx3QFzI4qAkWi8E.jpg",
      "popularity": 8.92,
      "adult": false,
      "known_for_department": "Acting"
    },
    {
      "id": 7742,
      "name": "Kristoffer Joner",
      "profile_path": "/vufeSWAdY9653t5Vxu3HysCnIkY.jpg",
      "popularity": 8.92,
      "adult": false,
      "known_for_department": "Acting"
    },
    {
      "id": 85151,
      "name": "Trond Fausa Aurvåg",
      "profile_path": "/rFWC22ZScaQwA85NBo7l1j9XQdo.jpg",
      "popularity": 8.919,
      "adult": false,
      "known_for_department": "Acting"
    },
    {
      "id": 14528,
      "name": "Yul Brynner",
      "profile_path": "/i6OvEN6To9h6IaHAp4MrRZw8GGq.jpg",
      "popularity": 8.919,
      "adult": false,
      "known_for_department": "Acting"
    },
    {
      "id": 1703373,
      "name": "Yang Se-chan",
      "profile_path": "/rdvPpyUlqtuSfw5kSUjZjm3MJ7i.jpg",
      "popularity": 8.918,
      "adult": false,
      "known_for_department": "Acting"
    },
    {
      "id": 8727,
      "name": "Basil Rathbone",
      "profile_path": "/otVwo6h7l0QJK94qadNRsjW5HNo.jpg",
      "popularity": 8.918,
      "adult": false,
      "known_for_department": "Acting"
    },
    {
      "id": 28238,
      "name": "David Hasselhoff",
      "profile_path": "/d2tUPhLNlS6xZcPLEIvcnpGOUpe.jpg",
      "popularity": 8.915,
      "adult": false,
      "known_for_department": "Acting"
    },
    {
      "id": 122422,
      "name": "Anna Kalaitzidou",
      "profile_path": "/aZN1CFDPGcKVeN74huxA235wZwl.jpg",
      "popularity": 8.914,
      "adult": false,
      "known_for_department": "Acting"
    }
  ]
}