{
  "page": 452,
  "total_results": 10000,
  "total_pages": 500,
  "results": [
    {
      "id": 75341,
      "name": "Gary Coleman",
      "profile_path": "/77YIEd2tastsT3fjEraKOjCvgyD.jpg",
      "popularity": 8.665,
      "adult": false,
      "known_for_department": "Acting"
    },
    {
      "id": 159985,
      "name": "Haley Hudson",
      "profile_path": "/yyB5RFaG83XdwqbqFEBptwi9SuG.jpg",
      "popularity": 8.664,
      "adult": false,
      "known_for_department": "Acting"
    },
    {
      "id": 129550,
      "name": "Norma Crane",
      "profile_path": "/udldU8UL1lVvKQodSWi2z7OcuiL.jpg",
      "popularity": 8.662,
      "adult": false,
      "known_for_department": "Acting"
    },
    {
      "id": 17817,
      "name": "Merab Ninidze",
      "profile_path": "/nCmkNQgJl4Dp1kNpUhEmWiJLWRP.jpg",
      "popularity": 8.662,
      "adult": false,
      "known_for_department": "Acting"
    },
    {
      "id": 18218,
      "name": "Marie Dubois",
      "profile_path": "/xtVgFYaAVzPZplXnWs91QLhnGnh.jpg",
      "popularity": 8.661,
      "adult": false,
      "known_for_department": "Acting"
    },
    {
      "id": 2167,
      "name": "Mercedes Ruehl",
      "profile_path": "/mQIPCqImthK7Hn6mGeRDJ11QcEZ.jpg",
      "popularity": 8.66,
      "adult": false,
      "known_for_department": "Acting"
    },
    {
      "id": 1255936,
      "name": "Gupse Özay",
      "profile_path": "/sxxO9l62XXA4EwKZ28LQFr6GJ58.jpg",
      "popularity": 8.659,
      "adult": false,
      "known_for_department": "Acting"
    },
    {
      "id": 933578,
      "name": "Ella Anderson",
      "profile_path": "/snv9S8ta4DsO1A6TUpa6dFbAtCV.jpg",
      "popularity": 8.659,
      "adult": false,
      "known_for_department": "Acting"
    },
    {
      "id": 85071,
      "name": "Shaun Dooley",
      "profile_path": "/uWiw28ARiLkvL6xUjKDLDlSsfkY.jpg",
      "popularity": 8.659,
      "adult": false,
      "known_for_department": "Acting"
    },
    {
      "id": 77934,
      "name": "Fumihiko Tachiki",
      "profile_path": "/khEt9uae6dLIrvtkAKkFR1IJPJ5.jpg",
      "popularity": 8.659,
      "adult": false,
      "known_for_department": "Acting"
    },
    {
      "id": 34637,
      "name": "Agnès Soral",
      "profile_path": "/a1OXVANx9JpSiMGopdMHadxPGbv.jpg",
      "popularity": 8.659,
      "adult": false,
      "known_for_department": "Acting"
    },
    {
      "id": 10538,
      "name": "Vivien Leigh",
      "profile_path": "/6BqI3L41hwAwZM9ppTIBrwGT6jy.jpg",
      "popularity": 8.659,
      "adult": false,
      "known_for_department": "Acting"
    },
    {
      "id": 523,
      "name": "Tom Jones",
      "profile_path": "/A88iOPpDT6In8tWvl9LWyxLPHzR.jpg",
      "popularity": 8.659,
      "adult": false,
      "known_for_department": "Acting"
    },
    {
      "id": 1223185,
      "name": "Miles Fisher",
      "profile_path": "/shf8LrQ1hmXut0PoYjNHjFuOwqk.jpg",
      "popularity": 8.658,
      "adult": false,
      "known_for_department": "Acting"
    },
    {
      "id": 50967,
      "name": "Doug McClure",
      "profile_path": "/ptIQMQhw5h5Rra0gefzF8OfS2JF.jpg",
      "popularity": 8.658,
      "adult": false,
      "known_for_department": "Acting"
    },
    {
      "id": 6737,
      "name": "Jay Roach",
      "profile_path": "/48uTxNDRlnP56quVewyByotKAen.jpg",
      "popularity": 8.658,
      "adult": false,
      "known_for_department": "Directing"
    },
    {
      "id": 1900674,
      "name": "Priya Bhavani Shankar",
      "profile_path": "/cKAdU7WHZwdfbriZQHKhkggGAzP.jpg",
      "popularity": 8.657,
      "adult": false,
      "known_for_department": "Acting"
    },
    {
      "id": 82388,
      "name": "Bob Hope",
      "profile_path": "/yvz99yr5r6Z1P348xH7a78ySIfp.jpg",
      "popularity": 8.657,
      "adult": false,
      "known_for_department": "Acting"
    },
    {
      "id": 79494,
      "name": "Matt Dallas",
      "profile_path": "/kFGLCt1OEwWwCl8tdKhkcO8dnm.jpg",
      "popularity": 8.657,
      "adult": false,
      "known_for_department": "Acting"
    },
    {
      "id": 21624,
      "name": "Judd Nelson",
      "profile_path": "/7kRf8vE0ZjMuunh8BaD50B3EhS5.jpg",
      "popularity": 8.657,
      "adult": false,
      "known_for_department": "Acting"
    }
  ]
}