{
  "page": 2,
  "total_results": 10000,
  "total_pages": 500,
  "results": [
    {
      "id": 1269,
      "name": "Kevin Costner",
      "profile_path": "/bykmxJHLfbFM3NT05RZXhx8YTzF.jpg",
      "popularity": 106.701,
      "adult": false,
      "known_for_department": "Acting"
    },
    {
      "id": 2037,
      "name": "Cillian Murphy",
      "profile_path": "/dm6V24NjjvjMiCtbMkc8Y2WPm2e.jpg",
      "popularity": 104.156,
      "adult": false,
      "known_for_department": "Acting"
    },
    {
      "id": 224513,
      "name": "Ana de Armas",
      "profile_path": "/vkoSSVrGxFYvtr2uUdz99ENXF1v.jpg",
      "popularity": 100.54,
      "adult": false,
      "known_for_department": "Acting"
    },
    {
      "id": 31,
      "name": "Tom Hanks",
      "profile_path": "/xndWFsBlClOJFRdhSt4NBwiPq2o.jpg",
      "popularity": 100.35,
      "adult": false,
      "known_for_department": "Acting"
    },
    {
      "id": 1477961,
      "name": "Percy Hynes White",
      "profile_path": "/hOS1vYWvTTXugOWhAGXoBH7dGHN.jpg",
      "popularity": 99.138,
      "adult": false,
      "known_for_department": "Acting"
    },
    {
      "id": 86654,
      "name": "Austin Butler",
      "profile_path": "/zyizc36OayhIn3STXR8HXP0nnVm.jpg",
      "popularity": 98.959,
      "adult": false,
      "known_for_department": "Acting"
    },
    {
      "id": 56734,
      "name": "Chloë Grace Moretz",
      "profile_path": "/u08QwcFnJpMtsDEYSlbUkMuE7bP.jpg",
      "popularity": 97.444,
      "adult": false,
      "known_for_department": "Acting"
    },
    {
      "id": 2131391,
      "name": "Violet McGraw",
      "profile_path": "/8Nu8Z6FFEmsO5nZgJZDKHvzYUb0.jpg",
      "popularity": 96.079,
      "adult": false,
      "known_for_department": "Acting"
    },
    {
      "id": 287,
      "name": "Brad Pitt",
      "profile_path": "/cckcYc2v0yh1tc9QjRelptcOBko.jpg",
      "popularity": 92.018,
      "adult": false,
      "known_for_department": "Acting"
    },
    {
      "id": 4517,
      "name": "Joe Pesci",
      "profile_path": "/4AO0Rwdg2ky8Usmgzgj0dvhy7Zw.jpg",
      "popularity": 91.372,
      "adult": false,
      "known_for_department": "Acting"
    },
    {
      "id": 1136406,
      "name": "Tom Holland",
      "profile_path": "/bBRlrpJm9XkNSg0YT5LCaxqoFMX.jpg",
      "popularity": 89.984,
      "adult": false,
      "known_for_department": "Acting"
    },
    {
      "id": 106731,
      "name": "Nicolette Scorsese",
      "profile_path": "/i0PWIBj2dZQm76uepLhMO1188HS.jpg",
      "popularity": 89.183,
      "adult": false,
      "known_for_department": "Acting"
    },
    {
      "id": 1499908,
      "name": "Hassie Harrison",
      "profile_path": "/cUu16UFtcmAJwyge5g5sbMstZCc.jpg",
      "popularity": 84.835,
      "adult": false,
      "known_for_department": "Acting"
    },
    {
      "id": 3896,
      "name": "Liam Neeson",
      "profile_path": "/bboldwqSC6tdw2iL6631c98l2Mn.jpg",
      "popularity": 83.793,
      "adult": false,
      "known_for_department": "Acting"
    },
    {
      "id": 2524,
      "name": "Tom Hardy",
      "profile_path": "/sGMA6pA2D6X0gun49igJT3piHs3.jpg",
      "popularity": 83.051,
      "adult": false,
      "known_for_department": "Acting"
    },
    {
      "id": 453,
      "name": "Riki Lindhome",
      "profile_path": "/kJAGFp0ZW5sY0NoysFZcfSRykZa.jpg",
      "popularity": 82.462,
      "adult": false,
      "known_for_department": "Acting"
    },
    {
      "id": 10205,
      "name": "Sigourney Weaver",
      "profile_path": "/flfhep27iBxseZIlxOMHt6zJFX1.jpg",
      "popularity": 82.4,
      "adult": false,
      "known_for_department": "Acting"
    },
    {
      "id": 74568,
      "name": "Chris Hemsworth",
      "profile_path": "/jpurJ9jAcLCYjgHHfYF32m3zJYm.jpg",
      "popularity": 81.684,
      "adult": false,
      "known_for_department": "Acting"
    },
    {
      "id": 1799766,
      "name": "Olivier Renaud",
      "profile_path": "/r1PKI00FM4kovA2AQfnWhC1BU13.jpg",
      "popularity": 80.738,
      "adult": false,
      "known_for_department": "Acting"
    },
    {
      "id": 58021,
      "name": "Tinto Brass",
      "profile_path": "/80Uuq79rcYL1FgBPHAEHzAACQFa.jpg",
      "popularity": 80.511,
      "adult": false,
      "known_for_department": "Directing"
    }
  ]
}