{
  "page": 100,
  "total_results": 10000,
  "total_pages": 500,
  "results": [
    {
      "id": 145408,
      "name": "Kaan Urgancıoğlu",
      "profile_path": "/7X6qtRikGWSr1mljMI1oBYBcen8.jpg",
      "popularity": 16.853,
      "adult": false,
      "known_for_department": "Acting"
    },
    {
      "id": 228371,
      "name": "Chad Michael Collins",
      "profile_path": "/9lcEpAYRBCylYIVMZYXHqfmRzfP.jpg",
      "popularity": 16.85,
      "adult": false,
      "known_for_department": "Acting"
    },
    {
      "id": 14639,
      "name": "Mel Brooks",
      "profile_path": "/89hEmGhLO1FzJRnq9D0tPpfqc8d.jpg",
      "popularity": 16.848,
      "adult": false,
      "known_for_department": "Acting"
    },
    {
      "id": 1306564,
      "name": "Supreme Sundar",
      "profile_path": "/blmGRngQdCHkT9U2DzIAwUSraCv.jpg",
      "popularity": 16.846,
      "adult": false,
      "known_for_department": "Crew"
    },
    {
      "id": 15832,
      "name": "Gilbert Gottfried",
      "profile_path": "/hkkAgJD0HKcuyd8EuvhyN5vHcDQ.jpg",
      "popularity": 16.846,
      "adult": false,
      "known_for_department": "Acting"
    },
    {
      "id": 142660,
      "name": "Lisa Vicari",
      "profile_path": "/vgcvazU9vTHBrWacGc5lGKUNECz.jpg",
      "popularity": 16.835,
      "adult": false,
      "known_for_department": "Acting"
    },
    {
      "id": 36819,
      "name": "Hayley Mills",
      "profile_path": "/ktiKpWhBy1O4F9DtB1YxUf3uGA1.jpg",
      "popularity": 16.834,
      "adult": false,
      "known_for_department": "Acting"
    },
    {
      "id": 13636,
      "name": "Jane Krakowski",
      "profile_path": "/hT9IGSgsE8VoWllOTtxR9JAoiK.jpg",
      "popularity": 16.827,
      "adult": false,
      "known_for_department": "Acting"
    },
    {
      "id": 739,
      "name": "Alison Doody",
      "profile_path": "/k8muOVU3HAT5eyAape8DSdUK8Yu.jpg",
      "popularity": 16.825,
      "adult": false,
      "known_for_department": "Acting"
    },
    {
      "id": 16131,
      "name": "Mariette Hartley",
      "profile_path": "/8imUoP6Y74jyFg1AhCqHXSIdce1.jpg",
      "popularity": 16.81,
      "adult": false,
      "known_for_department": "Acting"
    },
    {
      "id": 109151,
      "name": "Jaime Ray Newman",
      "profile_path": "/2NZqIILL9BW8fSveWDGBDLoMYN8.jpg",
      "popularity": 16.808,
      "adult": false,
      "known_for_department": "Acting"
    },
    {
      "id": 5313,
      "name": "Lena Olin",
      "profile_path": "/tPB3UcKpxgBXrKS1PHDKoKEtFEV.jpg",
      "popularity": 16.805,
      "adult": false,
      "known_for_department": "Acting"
    },
    {
      "id": 2713,
      "name": "Linda Hamilton",
      "profile_path": "/7FNn9Z5xkRS9EFbGL2tpmpph9xV.jpg",
      "popularity": 16.804,
      "adult": false,
      "known_for_department": "Acting"
    },
    {
      "id": 204392,
      "name": "Cristin Milioti",
      "profile_path": "/jRkZ1k2kZGnKhCJ3iqA9Pf8p17c.jpg",
      "popularity": 16.803,
      "adult": false,
      "known_for_department": "Acting"
    },
    {
      "id": 9139,
      "name": "Celia Imrie",
      "profile_path": "/eEtVfESOVnkkdPLYkyQpalEwAwj.jpg",
      "popularity": 16.801,
      "adult": false,
      "known_for_department": "Acting"
    },
    {
      "id": 11702,
      "name": "Adam Brody",
      "profile_path": "/jeMhuu9Q81XJLIef1OU7NlcxRW0.jpg",
      "popularity": 16.8,
      "adult": false,
      "known_for_department": "Acting"
    },
    {
      "id": 70962,
      "name": "Donatella Damiani",
      "profile_path": "/7Z7y4kJgNHGut67ftaRdi8vnclE.jpg",
      "popularity": 16.797,
      "adult": false,
      "known_for_department": "Acting"
    },
    {
      "id": 11855,
      "name": "Geraldine James",
      "profile_path": "/4FMJYeTIUxSE9SwCtnrwJzMsuC3.jpg",
      "popularity": 16.795,
      "adult": false,
      "known_for_department": "Acting"
    },
    {
      "id": 1653370,
      "name": "Amanda Cerny",
      "profile_path": "/xBqqPm7dKF7pdQxKSumCW81skaU.jpg",
      "popularity": 16.789,
      "adult": false,
      "known_for_department": "Acting"
    },
    {
      "id": 1058633,
      "name": "Peri Baumeister",
      "profile_path": "/bfWBGT1b8kB22hhUc4WQWWUvzln.jpg",
      "popularity": 16.789,
      "adult": false,
      "known_for_department": "Acting"
    }
  ]
}