{
  "page": 137,
  "total_results": 10000,
  "total_pages": 500,
  "results": [
    {
      "id": 16702,
      "name": "Sean Harris",
      "profile_path": "/7S7OIKHULB0Xj39Moh5lH9jTAGo.jpg",
      "popularity": 15.87,
      "adult": false,
      "known_for_department": "Acting"
    },
    {
      "id": 1233560,
      "name": "Trevor Donovan",
      "profile_path": "/z3uSJrYfYZuCFYZsCz8OKa4JWmR.jpg",
      "popularity": 15.866,
      "adult": false,
      "known_for_department": "Acting"
    },
    {
      "id": 9257,
      "name": "Bruno Kirby",
      "profile_path": "/jhzDyVIXoccsSmhkNgrneLAeUYG.jpg",
      "popularity": 15.861,
      "adult": false,
      "known_for_department": "Acting"
    },
    {
      "id": 559207,
      "name": "Synnøve Macody Lund",
      "profile_path": "/a5r4MtoL5jU4DtCp0BtzwEAtfyL.jpg",
      "popularity": 15.858,
      "adult": false,
      "known_for_department": "Acting"
    },
    {
      "id": 17752,
      "name": "Donna Reed",
      "profile_path": "/ex90rTnQ9DZy3GsHC8lKEw1wTo0.jpg",
      "popularity": 15.858,
      "adult": false,
      "known_for_department": "Acting"
    },
    {
      "id": 543204,
      "name": "Susan Sullivan",
      "profile_path": "/cafgP4eWAKCwPP76qO7xSkbrSUz.jpg",
      "popularity": 15.853,
      "adult": false,
      "known_for_department": "Acting"
    },
    {
      "id": 1368254,
      "name": "Sumire Uesaka",
      "profile_path": "/AbouCe2WVBHvMlBm9NnG7GHyJpa.jpg",
      "popularity": 15.852,
      "adult": false,
      "known_for_department": "Acting"
    },
    {
      "id": 34434,
      "name": "Missy Peregrym",
      "profile_path": "/364PJwTQLpWjGfNisQm47Dler08.jpg",
      "popularity": 15.847,
      "adult": false,
      "known_for_department": "Acting"
    },
    {
      "id": 84482,
      "name": "Luke Benward",
      "profile_path": "/gKjqp67otIkvJREuEKXdplM5A7E.jpg",
      "popularity": 15.845,
      "adult": false,
      "known_for_department": "Acting"
    },
    {
      "id": 1250465,
      "name": "Mariya Ise",
      "profile_path": "/tQWlgrlQ70biWdg7x9E75CtwsuD.jpg",
      "popularity": 15.844,
      "adult": false,
      "known_for_department": "Acting"
    },
    {
      "id": 12139,
      "name": "Lolita Davidovich",
      "profile_path": "/cDpuHwPkWkLy8LSBXKIn5Gx3JUF.jpg",
      "popularity": 15.844,
      "adult": false,
      "known_for_department": "Acting"
    },
    {
      "id": 1181303,
      "name": "Chloe Bennet",
      "profile_path": "/4qvbabAnuLBEY1K262pn8sMHtVw.jpg",
      "popularity": 15.841,
      "adult": false,
      "known_for_department": "Acting"
    },
    {
      "id": 82666,
      "name": "Rhys Darby",
      "profile_path": "/5EeCqhmrlw61CFuipknRPyyuC3C.jpg",
      "popularity": 15.84,
      "adult": false,
      "known_for_department": "Acting"
    },
    {
      "id": 90755,
      "name": "Janet Montgomery",
      "profile_path": "/jy2hvsU2Jvf3C89MmVhj6tchsiq.jpg",
      "popularity": 15.838,
      "adult": false,
      "known_for_department": "Acting"
    },
    {
      "id": 72305,
      "name": "Lesley Manville",
      "profile_path": "/tioPlSoypjdME3oMu3g7XmgIIKS.jpg",
      "popularity": 15.834,
      "adult": false,
      "known_for_department": "Acting"
    },
    {
      "id": 12640,
      "name": "David Duchovny",
      "profile_path": "/kFuB7QQ35SwMwWdiTGSDQdkxnsT.jpg",
      "popularity": 15.834,
      "adult": false,
      "known_for_department": "Acting"
    },
    {
      "id": 1893219,
      "name": "Bige Önal",
      "profile_path": "/2DOgsp4EsgGWIb5Al6qSooAngru.jpg",
      "popularity": 15.833,
      "adult": false,
      "known_for_department": "Acting"
    },
    {
      "id": 6593,
      "name": "John Huston",
      "profile_path": "/5sUmPA9XjEV05lhNAypxwbnjzJ7.jpg",
      "popularity": 15.831,
      "adult": false,
      "known_for_department": "Directing"
    },
    {
      "id": 56045,
      "name": "Matthew Davis",
      "profile_path": "/7VKR2vroCbzVeklTzYSjnVVOwkl.jpg",
      "popularity": 15.829,
      "adult": false,
      "known_for_department": "Acting"
    },
    {
      "id": 2406,
      "name": "Mathieu Kassovitz",
      "profile_path": "/3FRBEdKKlxhvPWPt0jzgmSjeHwn.jpg",
      "popularity": 15.827,
      "adult": false,
      "known_for_department": "Acting"
    }
  ]
}