{
  "page": 4,
  "total_results": 10000,
  "total_pages": 500,
  "results": [
    {
      "id": 15555,
      "name": "Piper Perabo",
      "profile_path": "/aP9QqLm4JZxLwp2CiUbEh5zrpVI.jpg",
      "popularity": 62.931,
      "adult": false,
      "known_for_department": "Acting"
    },
    {
      "id": 380,
      "name": "Robert De Niro",
      "profile_path": "/cT8htcckIuyI1Lqwt1CvD02ynTh.jpg",
      "popularity": 61.492,
      "adult": false,
      "known_for_department": "Acting"
    },
    {
      "id": 1972974,
      "name": "Isabel May",
      "profile_path": "/9AT39NSHNQ44VebDrqupxplmyLK.jpg",
      "popularity": 61.392,
      "adult": false,
      "known_for_department": "Acting"
    },
    {
      "id": 72466,
      "name": "Colin Farrell",
      "profile_path": "/vVqrAhZpojAtp874wBaaFt5T4dN.jpg",
      "popularity": 61.038,
      "adult": false,
      "known_for_department": "Acting"
    },
    {
      "id": 8784,
      "name": "Daniel Craig",
      "profile_path": "/akdV5Z4VTO4j8GBwOrO5W4xzrUJ.jpg",
      "popularity": 60.617,
      "adult": false,
      "known_for_department": "Acting"
    },
    {
      "id": 10859,
      "name": "Ryan Reynolds",
      "profile_path": "/4SYTH5FdB0dAORV98Nwg3llgVnY.jpg",
      "popularity": 60.07,
      "adult": false,
      "known_for_department": "Acting"
    },
    {
      "id": 17142,
      "name": "Paul Dano",
      "profile_path": "/tXojMAQN8FBg3h15GlcLPOuUeWW.jpg",
      "popularity": 59.253,
      "adult": false,
      "known_for_department": "Acting"
    },
    {
      "id": 1158,
      "name": "Al Pacino",
      "profile_path": "/fMDFeVf0pjopTJbyRSLFwNDm8Wr.jpg",
      "popularity": 58.945,
      "adult": false,
      "known_for_department": "Acting"
    },
    {
      "id": 934,
      "name": "Russell Crowe",
      "profile_path": "/mGTtPuwE8OR00tkJGmVLJmt8KpW.jpg",
      "popularity": 58.734,
      "adult": false,
      "known_for_department": "Acting"
    },
    {
      "id": 38673,
      "name": "Channing Tatum",
      "profile_path": "/bhTmp6FA8fOQnGlNk75tdmj2bpu.jpg",
      "popularity": 58.222,
      "adult": false,
      "known_for_department": "Acting"
    },
    {
      "id": 1499908,
      "name": "Hassie Harrison",
      "profile_path": "/cUu16UFtcmAJwyge5g5sbMstZCc.jpg",
      "popularity": 58.168,
      "adult": false,
      "known_for_department": "Acting"
    },
    {
      "id": 225810,
      "name": "Kim S. Falck-Jørgensen",
      "profile_path": "/pMwD3F5ANWQNF9UU3KivLt2EgFa.jpg",
      "popularity": 58.138,
      "adult": false,
      "known_for_department": "Acting"
    },
    {
      "id": 193734,
      "name": "Lisa Loring",
      "profile_path": "/d9muuK0aWF1DGh4COWwTKdqhXca.jpg",
      "popularity": 57.834,
      "adult": false,
      "known_for_department": "Acting"
    },
    {
      "id": 1137824,
      "name": "Mia Goth",
      "profile_path": "/wQYG6PNKSdbBW5WCkS5CPVB5oQj.jpg",
      "popularity": 57.641,
      "adult": false,
      "known_for_department": "Acting"
    },
    {
      "id": 5292,
      "name": "Denzel Washington",
      "profile_path": "/AHUnhGbnWnjin4M2sNdZYAei9h.jpg",
      "popularity": 57.639,
      "adult": false,
      "known_for_department": "Acting"
    },
    {
      "id": 2189049,
      "name": "Joy Sunday",
      "profile_path": "/fTajkqbVGMU4O2LMteuYlffhfJI.jpg",
      "popularity": 57.619,
      "adult": false,
      "known_for_department": "Acting"
    },
    {
      "id": 5469,
      "name": "Ralph Fiennes",
      "profile_path": "/tJr9GcmGNHhLVVEH3i7QYbj6hBi.jpg",
      "popularity": 56.962,
      "adult": false,
      "known_for_department": "Acting"
    },
    {
      "id": 3646307,
      "name": "Azi Acosta",
      "profile_path": "",
      "popularity": 56.703,
      "adult": false,
      "known_for_department": "Acting"
    },
    {
      "id": 3194176,
      "name": "Angeli Khang",
      "profile_path": "/jhNtIfmSlzsyQlo94BibQ2WIa7N.jpg",
      "popularity": 56.703,
      "adult": false,
      "known_for_department": "Acting"
    },
    {
      "id": 2729190,
      "name": "Becky Armstrong",
      "profile_path": "/gp6GvKzCuG62EFjhopnoyjTOa7h.jpg",
      "popularity": 56.703,
      "adult": false,
      "known_for_department": "Acting"
    }
  ]
}