{
  "page": 41,
  "total_results": 10000,
  "total_pages": 500,
  "results": [
    {
      "id": 1467219,
      "name": "Joe Keery",
      "profile_path": "/ayIAVLMfZGEGIFwAo3pPnY7p59.jpg",
      "popularity": 24.95,
      "adult": false,
      "known_for_department": "Acting"
    },
    {
      "id": 9030,
      "name": "Thandiwe Newton",
      "profile_path": "/5BCyGUiUsXD6XzJgPPolqgWFFtj.jpg",
      "popularity": 24.944,
      "adult": false,
      "known_for_department": "Acting"
    },
    {
      "id": 10669,
      "name": "Timothy Dalton",
      "profile_path": "/iF4C63jae3N33pCQmCXEJHKTN0t.jpg",
      "popularity": 24.93,
      "adult": false,
      "known_for_department": "Acting"
    },
    {
      "id": 32,
      "name": "Robin Wright",
      "profile_path": "/8SWAGtDKEKWz3O5xV5Q31mZXUvL.jpg",
      "popularity": 24.93,
      "adult": false,
      "known_for_department": "Acting"
    },
    {
      "id": 9781,
      "name": "Nia Long",
      "profile_path": "/2HnplqKDWkLyReeeAPsbEctkpPQ.jpg",
      "popularity": 24.92,
      "adult": false,
      "known_for_department": "Acting"
    },
    {
      "id": 80591,
      "name": "Rashida Jones",
      "profile_path": "/cgWGm9eYCretBWeljPVtpRV7n6V.jpg",
      "popularity": 24.91,
      "adult": false,
      "known_for_department": "Acting"
    },
    {
      "id": 1024395,
      "name": "Ma Dong-seok",
      "profile_path": "/zt1vx7FesNA4x6mTZtyzu2uco8E.jpg",
      "popularity": 24.906,
      "adult": false,
      "known_for_department": "Acting"
    },
    {
      "id": 28641,
      "name": "Terence Stamp",
      "profile_path": "/8pW8uvDUP6iqSaAe7QUKoc18yh7.jpg",
      "popularity": 24.904,
      "adult": false,
      "known_for_department": "Acting"
    },
    {
      "id": 73269,
      "name": "Elsa Pataky",
      "profile_path": "/qvXlQZWW5yvYZwXCt2fS6vgcePP.jpg",
      "popularity": 24.888,
      "adult": false,
      "known_for_department": "Acting"
    },
    {
      "id": 2169,
      "name": "Michael Jeter",
      "profile_path": "/pNBf8X56wCOHH7cArsMYJuke4fO.jpg",
      "popularity": 24.872,
      "adult": false,
      "known_for_department": "Acting"
    },
    {
      "id": 10478,
      "name": "Jeanne Tripplehorn",
      "profile_path": "/q7D9MDnMVc5PAm99853gszHwJy7.jpg",
      "popularity": 24.849,
      "adult": false,
      "known_for_department": "Acting"
    },
    {
      "id": 2876,
      "name": "Matt Dillon",
      "profile_path": "/wVoSUexYH79igPgxIXKWRlV2uBk.jpg",
      "popularity": 24.848,
      "adult": false,
      "known_for_department": "Acting"
    },
    {
      "id": 928572,
      "name": "Scott Eastwood",
      "profile_path": "/2TofqgDl7ZlrAairMKKOSPITzka.jpg",
      "popularity": 24.814,
      "adult": false,
      "known_for_department": "Acting"
    },
    {
      "id": 58754,
      "name": "Haley Bennett",
      "profile_path": "/8HRgGypSwHeI27ffmcAELNoxIOw.jpg",
      "popularity": 24.811,
      "adult": false,
      "known_for_department": "Acting"
    },
    {
      "id": 1460120,
      "name": "Millie Brady",
      "profile_path": "/8IBIRaUl4QyttlieUfKVBR2Ia5J.jpg",
      "popularity": 24.787,
      "adult": false,
      "known_for_department": "Acting"
    },
    {
      "id": 519,
      "name": "Martin Short",
      "profile_path": "/vWoZIOk7K8TSKu1IN90akswsWjZ.jpg",
      "popularity": 24.77,
      "adult": false,
      "known_for_department": "Acting"
    },
    {
      "id": 53,
      "name": "Peter Stormare",
      "profile_path": "/5muzSVt66Qxc8KuVbq0phZIN9tj.jpg",
      "popularity": 24.755,
      "adult": false,
      "known_for_department": "Acting"
    },
    {
      "id": 2112856,
      "name": "Jin Si-ah",
      "profile_path": "/5aM3mGtSYbOmEEJlKSdmtuiziLC.jpg",
      "popularity": 24.736,
      "adult": false,
      "known_for_department": "Acting"
    },
    {
      "id": 14343,
      "name": "Rene Russo",
      "profile_path": "/aYgylDWH9vUZOvwKUKM2v632Efm.jpg",
      "popularity": 24.734,
      "adult": false,
      "known_for_department": "Acting"
    },
    {
      "id": 18288,
      "name": "Terrence Howard",
      "profile_path": "/wXWt2NSY23v7DHe2yZQ1C8TikBp.jpg",
      "popularity": 24.715,
      "adult": false,
      "known_for_department": "Acting"
    }
  ]
}