{
  "page": 220,
  "total_results": 10000,
  "total_pages": 500,
  "results": [
    {
      "id": 34985,
      "name": "Cree Summer",
      "profile_path": "/7DRq0zPUUWu55pUbnc2roVnzOJ9.jpg",
      "popularity": 11.729,
      "adult": false,
      "known_for_department": "Acting"
    },
    {
      "id": 11902,
      "name": "Robin Bartlett",
      "profile_path": "/bZS5omu7ZVmSQboNQZ999PrUXAj.jpg",
      "popularity": 11.728,
      "adult": false,
      "known_for_department": "Acting"
    },
    {
      "id": 4782,
      "name": "Michael Crichton",
      "profile_path": "/mMWgO0Wq78V5IBH5yJjNgu9mHUZ.jpg",
      "popularity": 11.728,
      "adult": false,
      "known_for_department": "Writing"
    },
    {
      "id": 126348,
      "name": "Shin Se-kyung",
      "profile_path": "/t94qZHTY6yYMKC9SOijUYjRczpI.jpg",
      "popularity": 11.724,
      "adult": false,
      "known_for_department": "Acting"
    },
    {
      "id": 1257205,
      "name": "Rowan Blanchard",
      "profile_path": "/51qWnocFUKfUPeLMi81XtATFct2.jpg",
      "popularity": 11.722,
      "adult": false,
      "known_for_department": "Acting"
    },
    {
      "id": 18735,
      "name": "Rock Hudson",
      "profile_path": "/reiGa8Kj40Mg9A23Emg6tp9qkm.jpg",
      "popularity": 11.72,
      "adult": false,
      "known_for_department": "Acting"
    },
    {
      "id": 2340180,
      "name": "Hunter Schafer",
      "profile_path": "/npAsOblFIk6vCyWaymt8rDmJXNK.jpg",
      "popularity": 11.719,
      "adult": false,
      "known_for_department": "Acting"
    },
    {
      "id": 1489764,
      "name": "Carolina Gaitán",
      "profile_path": "/c7UPkmhIXYWmlqaQK250L8GTsPQ.jpg",
      "popularity": 11.719,
      "adult": false,
      "known_for_department": "Acting"
    },
    {
      "id": 1065297,
      "name": "Kensho Ono",
      "profile_path": "/wUYJ3HIeygHfh4rAqupE4RPoG3W.jpg",
      "popularity": 11.718,
      "adult": false,
      "known_for_department": "Acting"
    },
    {
      "id": 935201,
      "name": "Diego Boneta",
      "profile_path": "/hgEcC28oljaPBYi7ONMToQYMHMA.jpg",
      "popularity": 11.718,
      "adult": false,
      "known_for_department": "Acting"
    },
    {
      "id": 108889,
      "name": "Jay Harrington",
      "profile_path": "/aLIVOcm0ylX4DMGVvzebNyiLmeW.jpg",
      "popularity": 11.718,
      "adult": false,
      "known_for_department": "Acting"
    },
    {
      "id": 933640,
      "name": "Angus Wright",
      "profile_path": "/7VOW55b8WF0eyFJiCjiBXSRA5mG.jpg",
      "popularity": 11.717,
      "adult": false,
      "known_for_department": "Acting"
    },
    {
      "id": 1343544,
      "name": "Keith Silverstein",
      "profile_path": "/eVdUcExD9N57knSIa8kmoSnVibd.jpg",
      "popularity": 11.715,
      "adult": false,
      "known_for_department": "Acting"
    },
    {
      "id": 544004,
      "name": "Susana Abaitua",
      "profile_path": "/v9BA3YRPkEBpfL3ogKkn2Phag6m.jpg",
      "popularity": 11.712,
      "adult": false,
      "known_for_department": "Acting"
    },
    {
      "id": 73016,
      "name": "Debi Derryberry",
      "profile_path": "/aCVgHnvGBw7ssZA9kl1Pnr5pJjU.jpg",
      "popularity": 11.711,
      "adult": false,
      "known_for_department": "Acting"
    },
    {
      "id": 1285028,
      "name": "Kriti Sanon",
      "profile_path": "/go8GUz7poytTvm9P9HNHQ3T84N1.jpg",
      "popularity": 11.71,
      "adult": false,
      "known_for_department": "Acting"
    },
    {
      "id": 17236,
      "name": "A.J. Cook",
      "profile_path": "/tvEjGDQVuu7jiOvWXwEU6tEE7NW.jpg",
      "popularity": 11.71,
      "adult": false,
      "known_for_department": "Acting"
    },
    {
      "id": 1371819,
      "name": "Taj Atwal",
      "profile_path": "/p0j2g5Gplb1VDDbpa6O3jRSs4OG.jpg",
      "popularity": 11.709,
      "adult": false,
      "known_for_department": "Acting"
    },
    {
      "id": 147336,
      "name": "Gaby Espino",
      "profile_path": "/z9KOQ0blQTwiobqwDEVl9hRnnHD.jpg",
      "popularity": 11.707,
      "adult": false,
      "known_for_department": "Acting"
    },
    {
      "id": 141374,
      "name": "Molly Ephraim",
      "profile_path": "/quhI60c6Z2nzZBpOJNjK4bvlPK4.jpg",
      "popularity": 11.702,
      "adult": false,
      "known_for_department": "Acting"
    }
  ]
}