{
  "page": 474,
  "total_results": 10000,
  "total_pages": 500,
  "results": [
    {
      "id": 18240,
      "name": "Charlotte Alexandra",
      "profile_path": "",
      "popularity": 8.231,
      "adult": false,
      "known_for_department": "Acting"
    },
    {
      "id": 1164507,
      "name": "Ahn Jae-hong",
      "profile_path": "/pypB7S7Wpja3mgfT2iAEKcR7uXp.jpg",
      "popularity": 8.23,
      "adult": false,
      "known_for_department": "Acting"
    },
    {
      "id": 110665,
      "name": "Daisuke Namikawa",
      "profile_path": "/iw0X8oDutxaBAri3Ifga8nhdUJK.jpg",
      "popularity": 8.23,
      "adult": false,
      "known_for_department": "Acting"
    },
    {
      "id": 81390,
      "name": "Aaron Carter",
      "profile_path": "/tmrmsSI7KVnzaM03gxbJ5E8t3ov.jpg",
      "popularity": 8.23,
      "adult": false,
      "known_for_department": "Acting"
    },
    {
      "id": 10132,
      "name": "Colm Feore",
      "profile_path": "/oOxcf1qB1IvVZrBEE1PdrfMiyBK.jpg",
      "popularity": 8.23,
      "adult": false,
      "known_for_department": "Acting"
    },
    {
      "id": 3173296,
      "name": "Kentaro Maeda",
      "profile_path": "/lBE7Qh9Qujba1R1A73cj3XdBu9n.jpg",
      "popularity": 8.229,
      "adult": false,
      "known_for_department": "Acting"
    },
    {
      "id": 44994,
      "name": "Arsenio Hall",
      "profile_path": "/8oqVGysLVXkWlTOWIWkWIbL4i2q.jpg",
      "popularity": 8.229,
      "adult": false,
      "known_for_department": "Acting"
    },
    {
      "id": 1840728,
      "name": "Jesse Irving",
      "profile_path": "/iWpm2Jtu93uIYeJsG8NB5Y5Dlk1.jpg",
      "popularity": 8.228,
      "adult": false,
      "known_for_department": "Acting"
    },
    {
      "id": 174133,
      "name": "Rebecca Koon",
      "profile_path": "/thC89HTJU0JxerX4s1HMbEsV9mC.jpg",
      "popularity": 8.228,
      "adult": false,
      "known_for_department": "Acting"
    },
    {
      "id": 68384,
      "name": "Claire Rushbrook",
      "profile_path": "/7jCBMV5n2HLPDtAIMPXOXNo7Nzh.jpg",
      "popularity": 8.228,
      "adult": false,
      "known_for_department": "Acting"
    },
    {
      "id": 87669,
      "name": "Alexie Gilmore",
      "profile_path": "/1Ev9eTuu8bL6t8xzfqchZm4wSfI.jpg",
      "popularity": 8.227,
      "adult": false,
      "known_for_department": "Acting"
    },
    {
      "id": 550554,
      "name": "Sebastian Hülk",
      "profile_path": "/qmEnennLfGF2ksDwbt3Pqdo49UQ.jpg",
      "popularity": 8.224,
      "adult": false,
      "known_for_department": "Acting"
    },
    {
      "id": 92729,
      "name": "Spencer List",
      "profile_path": "/AqhVP83OofqhWpEzoIQJ53X4aJb.jpg",
      "popularity": 8.224,
      "adult": false,
      "known_for_department": "Acting"
    },
    {
      "id": 134424,
      "name": "Charles Halford",
      "profile_path": "/mrCy6dA5AHqczA4aJX4drCQ3tjC.jpg",
      "popularity": 8.223,
      "adult": false,
      "known_for_department": "Acting"
    },
    {
      "id": 1277195,
      "name": "Noah Wiseman",
      "profile_path": "/qB8cNClLv9HV3DD2s0NPTsBRpgT.jpg",
      "popularity": 8.222,
      "adult": false,
      "known_for_department": "Acting"
    },
    {
      "id": 1254462,
      "name": "Caner Kurtaran",
      "profile_path": "/uS8OYmCfTKpqkkFBgRmii8AfB7n.jpg",
      "popularity": 8.222,
      "adult": false,
      "known_for_department": "Acting"
    },
    {
      "id": 99687,
      "name": "Zhang Hanyu",
      "profile_path": "/dhieL9tW25vBHjqqwElxPzWaWpQ.jpg",
      "popularity": 8.221,
      "adult": false,
      "known_for_department": "Acting"
    },
    {
      "id": 589222,
      "name": "Saki Takaoka",
      "profile_path": "/cwfHI0CG7Ko8FgbuzZe3tIqsX6R.jpg",
      "popularity": 8.22,
      "adult": false,
      "known_for_department": "Acting"
    },
    {
      "id": 8689,
      "name": "Barry Shabaka Henley",
      "profile_path": "/q0hI6T9OlmdUYdjYRX8K3pdRnYH.jpg",
      "popularity": 8.22,
      "adult": false,
      "known_for_department": "Acting"
    },
    {
      "id": 7727,
      "name": "Phil Tippett",
      "profile_path": "/qIjrlRrM6MwNkbCYwRbPYbvq9P7.jpg",
      "popularity": 8.219,
      "adult": false,
      "known_for_department": "Visual Effects"
    }
  ]
}