{
  "page": 117,
  "total_results": 10000,
  "total_pages": 500,
  "results": [
    {
      "id": 15370,
      "name": "Gretchen Mol",
      "profile_path": "/wJWEhyjekEElGBTgvsvNzgBNWfy.jpg",
      "popularity": 14.633,
      "adult": false,
      "known_for_department": "Acting"
    },
    {
      "id": 89822,
      "name": "Tuppence Middleton",
      "profile_path": "/6AHM0FCXQEX2zBdGJHX92ZaVenI.jpg",
      "popularity": 14.627,
      "adult": false,
      "known_for_department": "Acting"
    },
    {
      "id": 103994,
      "name": "Sophie Lowe",
      "profile_path": "/5nco3uflgKK5JGmoLbc0Yna34ZQ.jpg",
      "popularity": 14.624,
      "adult": false,
      "known_for_department": "Acting"
    },
    {
      "id": 57700,
      "name": "Brandon Lee",
      "profile_path": "/1PV3h6KP0AzeqFCZjb3qxkpfoGE.jpg",
      "popularity": 14.621,
      "adult": false,
      "known_for_department": "Acting"
    },
    {
      "id": 16619,
      "name": "Mr. T",
      "profile_path": "/6j5DkJuKwxZklLJWFJciUbh31jL.jpg",
      "popularity": 14.618,
      "adult": false,
      "known_for_department": "Acting"
    },
    {
      "id": 86310,
      "name": "Connie Britton",
      "profile_path": "/rIk2g81uFzsjZzW3p6YQ78wEDRW.jpg",
      "popularity": 14.611,
      "adult": false,
      "known_for_department": "Acting"
    },
    {
      "id": 18307,
      "name": "Daniel Dae Kim",
      "profile_path": "/aXbTKgL4u6oVumQ459B9VkGTn4A.jpg",
      "popularity": 14.61,
      "adult": false,
      "known_for_department": "Acting"
    },
    {
      "id": 1046903,
      "name": "Caren Pistorius",
      "profile_path": "/nvvxpXZfVGDi0Mb1jJ8CuX993m1.jpg",
      "popularity": 14.608,
      "adult": false,
      "known_for_department": "Acting"
    },
    {
      "id": 990393,
      "name": "Erin Moriarty",
      "profile_path": "/7SwedbpVelrZci67IVECOLITKyx.jpg",
      "popularity": 14.608,
      "adult": false,
      "known_for_department": "Acting"
    },
    {
      "id": 68276,
      "name": "Jolene Blalock",
      "profile_path": "/yiinZvN39DQU0SyfrOadbEXogAi.jpg",
      "popularity": 14.608,
      "adult": false,
      "known_for_department": "Acting"
    },
    {
      "id": 65309,
      "name": "Omri Katz",
      "profile_path": "/wY3NxTyXhzJ8BkmBZcQuSE7WtoC.jpg",
      "popularity": 14.606,
      "adult": false,
      "known_for_department": "Acting"
    },
    {
      "id": 15274,
      "name": "Elizabeth Daily",
      "profile_path": "/sWLXj0yvpMEsZTIsS1ReVQzGnwO.jpg",
      "popularity": 14.606,
      "adult": false,
      "known_for_department": "Acting"
    },
    {
      "id": 1087773,
      "name": "Masataka Kubota",
      "profile_path": "/d5IvRfKw2kOSar9sLhHuCXeKTcn.jpg",
      "popularity": 14.599,
      "adult": false,
      "known_for_department": "Acting"
    },
    {
      "id": 3329510,
      "name": "Tinnasit Isarapongporn",
      "profile_path": "/gkaMBqvY3CvjfsZunbe74Qe62Wa.jpg",
      "popularity": 14.593,
      "adult": false,
      "known_for_department": "Acting"
    },
    {
      "id": 58791,
      "name": "Patrick Fabian",
      "profile_path": "/dPlWxVLSycsiRiduKQYSJUkBrPN.jpg",
      "popularity": 14.592,
      "adult": false,
      "known_for_department": "Acting"
    },
    {
      "id": 25884,
      "name": "Mary Lynn Rajskub",
      "profile_path": "/rJxAkgYX3RfY9x2aYo2InbEp1HL.jpg",
      "popularity": 14.589,
      "adult": false,
      "known_for_department": "Acting"
    },
    {
      "id": 995198,
      "name": "Tom Lipinski",
      "profile_path": "/1MRyJ5oC4P6kUFWBahiM2TrdScg.jpg",
      "popularity": 14.588,
      "adult": false,
      "known_for_department": "Acting"
    },
    {
      "id": 10168,
      "name": "Diana Rigg",
      "profile_path": "/Ak0V4XwKNNqPOXhByCUa85jXkKu.jpg",
      "popularity": 14.581,
      "adult": false,
      "known_for_department": "Acting"
    },
    {
      "id": 1257661,
      "name": "Lee El",
      "profile_path": "/cXG6IcCaqtn6BD5bDAFqVTbsUDD.jpg",
      "popularity": 14.58,
      "adult": false,
      "known_for_department": "Acting"
    },
    {
      "id": 97406,
      "name": "Natalie Zea",
      "profile_path": "/7Bn3WMi9VYmXVaZaS7PBfbGXqZj.jpg",
      "popularity": 14.58,
      "adult": false,
      "known_for_department": "Acting"
    }
  ]
}