{
  "page": 419,
  "total_results": 10000,
  "total_pages": 500,
  "results": [
    {
      "id": 43426,
      "name": "Robin Dunne",
      "profile_path": "/4TW7bd7yyRB1hjQdn0Ej3XAKVnu.jpg",
      "popularity": 7.975,
      "adult": false,
      "known_for_department": "Acting"
    },
    {
      "id": 43277,
      "name": "Joanne Kelly",
      "profile_path": "/2kgAGdnIA9kzufAFfBO0U8h2FAD.jpg",
      "popularity": 7.975,
      "adult": false,
      "known_for_department": "Acting"
    },
    {
      "id": 2189941,
      "name": "Nawasch Phupantachsee",
      "profile_path": "/85OUxjEbUTiJ83ysxrJXqvyQEY8.jpg",
      "popularity": 7.973,
      "adult": false,
      "known_for_department": "Acting"
    },
    {
      "id": 25877,
      "name": "Roger Cross",
      "profile_path": "/7EmrR0CojKlFkp9bObqWGomJeKF.jpg",
      "popularity": 7.973,
      "adult": false,
      "known_for_department": "Acting"
    },
    {
      "id": 94424,
      "name": "Haley Webb",
      "profile_path": "/tKMPyfje7LEQDFaNNMW1vQQ0fvE.jpg",
      "popularity": 7.972,
      "adult": false,
      "known_for_department": "Acting"
    },
    {
      "id": 3711,
      "name": "Anna Levine Thomson",
      "profile_path": "/nPfRKSUjXvzmL010P4HARYNNf6f.jpg",
      "popularity": 7.972,
      "adult": false,
      "known_for_department": "Acting"
    },
    {
      "id": 76001,
      "name": "Tim DeKay",
      "profile_path": "/m62gS0B5fcQfFpoq2tmJVfpE43x.jpg",
      "popularity": 7.971,
      "adult": false,
      "known_for_department": "Acting"
    },
    {
      "id": 43662,
      "name": "Anne Suzuki",
      "profile_path": "/b90RWMA6NXweUUJd8VhTE0DbGCR.jpg",
      "popularity": 7.97,
      "adult": false,
      "known_for_department": "Acting"
    },
    {
      "id": 18325,
      "name": "Jeremy Northam",
      "profile_path": "/9H4gWJhgb6M6lqO3mMhJCGiPwWf.jpg",
      "popularity": 7.97,
      "adult": false,
      "known_for_department": "Acting"
    },
    {
      "id": 147382,
      "name": "Eve Mauro",
      "profile_path": "/jaY2RiuWQsS2w7wtRKbtBZOBzEn.jpg",
      "popularity": 7.969,
      "adult": false,
      "known_for_department": "Acting"
    },
    {
      "id": 43019,
      "name": "Patrick Baladi",
      "profile_path": "/aquPqJZgWRw8JAbaYqURLfxr5RN.jpg",
      "popularity": 7.969,
      "adult": false,
      "known_for_department": "Acting"
    },
    {
      "id": 10648,
      "name": "Michael Kitchen",
      "profile_path": "/gssCZjXmRcRhuOrGOR9cwd6TcXj.jpg",
      "popularity": 7.969,
      "adult": false,
      "known_for_department": "Acting"
    },
    {
      "id": 1435947,
      "name": "Amanda Leighton",
      "profile_path": "/h5d07tlCEt7PYSDYYXpzfpwb62M.jpg",
      "popularity": 7.967,
      "adult": false,
      "known_for_department": "Acting"
    },
    {
      "id": 1281937,
      "name": "Valter Skarsgård",
      "profile_path": "/qTcElOTP6hsBJA8HDC49HYkPz3J.jpg",
      "popularity": 7.967,
      "adult": false,
      "known_for_department": "Acting"
    },
    {
      "id": 20388,
      "name": "KaDee Strickland",
      "profile_path": "/73xvqIpgGN4KqfFQJQR6q54I6FA.jpg",
      "popularity": 7.967,
      "adult": false,
      "known_for_department": "Acting"
    },
    {
      "id": 1366510,
      "name": "Fraser Aitcheson",
      "profile_path": "/j0fou5tZvXHe3GcVr24UnYQLg6S.jpg",
      "popularity": 7.966,
      "adult": false,
      "known_for_department": "Acting"
    },
    {
      "id": 271352,
      "name": "Mary Jo Deschanel",
      "profile_path": "/i3I4a0li7QGy5WWumjA9p2zVfkx.jpg",
      "popularity": 7.966,
      "adult": false,
      "known_for_department": "Acting"
    },
    {
      "id": 228057,
      "name": "Maria Fernanda Cândido",
      "profile_path": "/wC2gTlttR4GnUB4YMJscIOY8hWk.jpg",
      "popularity": 7.966,
      "adult": false,
      "known_for_department": "Acting"
    },
    {
      "id": 21259,
      "name": "Michael Dudikoff",
      "profile_path": "/mj8wZ5Ov8ZAjvUBfIxVf4oADogh.jpg",
      "popularity": 7.966,
      "adult": false,
      "known_for_department": "Acting"
    },
    {
      "id": 15746,
      "name": "Barbara Babcock",
      "profile_path": "/wOB6OSPgFlyI3V1PtCTg7q8vrdW.jpg",
      "popularity": 7.966,
      "adult": false,
      "known_for_department": "Acting"
    }
  ]
}