{
  "page": 411,
  "total_results": 10000,
  "total_pages": 500,
  "results": [
    {
      "id": 31612,
      "name": "Jenny Tamburi",
      "profile_path": "/yljphOgqRdx0zT0RkNv03on5Xfn.jpg",
      "popularity": 7.866,
      "adult": false,
      "known_for_department": "Acting"
    },
    {
      "id": 1384277,
      "name": "Li Xian",
      "profile_path": "/kLNdBIQIXG8PDisL10dYqbAl634.jpg",
      "popularity": 7.864,
      "adult": false,
      "known_for_department": "Acting"
    },
    {
      "id": 1348579,
      "name": "Lee Il-hwa",
      "profile_path": "/7xRYe23aiFhLd094wv1syDiFzai.jpg",
      "popularity": 7.861,
      "adult": false,
      "known_for_department": "Acting"
    },
    {
      "id": 1271329,
      "name": "Akari Hayami",
      "profile_path": "/jhFgjjxVuH23CMQSg3ikL9EE47M.jpg",
      "popularity": 7.861,
      "adult": false,
      "known_for_department": "Acting"
    },
    {
      "id": 81331,
      "name": "Maeve Dermody",
      "profile_path": "/66qLvMCj8JxqKkXJhkVFKzcEvrH.jpg",
      "popularity": 7.861,
      "adult": false,
      "known_for_department": "Acting"
    },
    {
      "id": 10960,
      "name": "Max Baker",
      "profile_path": "/z3hNp4zntZJVQPBUd08IXSAiWAL.jpg",
      "popularity": 7.861,
      "adult": false,
      "known_for_department": "Acting"
    },
    {
      "id": 1488785,
      "name": "Nora Fatehi",
      "profile_path": "/fa3aJZHc2ikfJTNctf5fQu8rO1s.jpg",
      "popularity": 7.859,
      "adult": false,
      "known_for_department": "Acting"
    },
    {
      "id": 124640,
      "name": "Koji Shiraishi",
      "profile_path": "/sXQBfqcyqSa5sIr1OF2pMlcWfwt.jpg",
      "popularity": 7.858,
      "adult": false,
      "known_for_department": "Directing"
    },
    {
      "id": 227430,
      "name": "Jin Se-yeon",
      "profile_path": "/tKeeLzPt47OkccfvbUxNwhNYbTW.jpg",
      "popularity": 7.857,
      "adult": false,
      "known_for_department": "Acting"
    },
    {
      "id": 58530,
      "name": "Mae Questel",
      "profile_path": "/gb87p0KZj0y0kxlwmdeiPVk8xyM.jpg",
      "popularity": 7.855,
      "adult": false,
      "known_for_department": "Acting"
    },
    {
      "id": 8554,
      "name": "Peter Benchley",
      "profile_path": "/bkiyTDgdvyXkowNvJ3QYy9IOGG.jpg",
      "popularity": 7.855,
      "adult": false,
      "known_for_department": "Writing"
    },
    {
      "id": 4442,
      "name": "Ryan Donowho",
      "profile_path": "/sjn58aHcY9LEUDpr4cSHh6i9vzX.jpg",
      "popularity": 7.855,
      "adult": false,
      "known_for_department": "Acting"
    },
    {
      "id": 87919,
      "name": "Mark Calaway",
      "profile_path": "/fZpVZQQhLjKFOHG05ITS9At2G7c.jpg",
      "popularity": 7.854,
      "adult": false,
      "known_for_department": "Acting"
    },
    {
      "id": 76595,
      "name": "Byron Howard",
      "profile_path": "/ePJXkxrD44nM0VB7Xx9Q4ityzfT.jpg",
      "popularity": 7.854,
      "adult": false,
      "known_for_department": "Acting"
    },
    {
      "id": 1914958,
      "name": "Milo Manheim",
      "profile_path": "/lz9jnzscteMWjpXBH09m1kCt35F.jpg",
      "popularity": 7.853,
      "adult": false,
      "known_for_department": "Acting"
    },
    {
      "id": 2369258,
      "name": "Shugo Nakamura",
      "profile_path": "/aAj0ksNRSgDRjPq6rcpZ1sBnuKA.jpg",
      "popularity": 7.852,
      "adult": false,
      "known_for_department": "Acting"
    },
    {
      "id": 1271473,
      "name": "Mason Dye",
      "profile_path": "/c6zw5WiITbB4lKfBe0xiKq14sV2.jpg",
      "popularity": 7.852,
      "adult": false,
      "known_for_department": "Acting"
    },
    {
      "id": 83862,
      "name": "Mercedes Mason",
      "profile_path": "/56sOwTwRCaEJL2SkgCkTHNPSF55.jpg",
      "popularity": 7.852,
      "adult": false,
      "known_for_department": "Acting"
    },
    {
      "id": 14965,
      "name": "Claire Trevor",
      "profile_path": "/3o8iUONi5qCt6z1x6Y43rSMB0hC.jpg",
      "popularity": 7.852,
      "adult": false,
      "known_for_department": "Acting"
    },
    {
      "id": 16758,
      "name": "Marius Weyers",
      "profile_path": "/tKgcFsfy9StwWj6vfNaJyxlRNEY.jpg",
      "popularity": 7.851,
      "adult": false,
      "known_for_department": "Acting"
    }
  ]
}