{
  "page": 154,
  "total_results": 10000,
  "total_pages": 500,
  "results": [
    {
      "id": 1549898,
      "name": "Kim Hwa-yeon",
      "profile_path": "/Bf9fmPIiHBH2IaC6aFad3Vo9FO.jpg",
      "popularity": 12.54,
      "adult": false,
      "known_for_department": "Acting"
    },
    {
      "id": 1257671,
      "name": "Kim Woo-bin",
      "profile_path": "/wlhvJFDopS2XmMjKm2vVl8GT8dN.jpg",
      "popularity": 12.539,
      "adult": false,
      "known_for_department": "Acting"
    },
    {
      "id": 1108185,
      "name": "Murathan Muslu",
      "profile_path": "/k0oHhVt3scoV7lRycxsS8YCnu8M.jpg",
      "popularity": 12.537,
      "adult": false,
      "known_for_department": "Acting"
    },
    {
      "id": 1846370,
      "name": "Miguel Bernardeau",
      "profile_path": "/cbpNHlyGHQeOcN8y46Gvj9t7W4Q.jpg",
      "popularity": 12.533,
      "adult": false,
      "known_for_department": "Acting"
    },
    {
      "id": 1257819,
      "name": "Daniella Pineda",
      "profile_path": "/o8h5qbyy8A0zKTRN57YOlQOafyQ.jpg",
      "popularity": 12.531,
      "adult": false,
      "known_for_department": "Acting"
    },
    {
      "id": 27775,
      "name": "Chelan Simmons",
      "profile_path": "/fFExrhQ4tnJmjsb54mFiURgAMQz.jpg",
      "popularity": 12.531,
      "adult": false,
      "known_for_department": "Acting"
    },
    {
      "id": 6368,
      "name": "Embeth Davidtz",
      "profile_path": "/nwsdu9lOsKJ5v9RwOCc7kAiuxSO.jpg",
      "popularity": 12.529,
      "adult": false,
      "known_for_department": "Acting"
    },
    {
      "id": 212285,
      "name": "Jack Whitehall",
      "profile_path": "/qBHLpjH3Dad9ZoZsrcMplIPwkHC.jpg",
      "popularity": 12.527,
      "adult": false,
      "known_for_department": "Acting"
    },
    {
      "id": 1180941,
      "name": "Kerry Knuppe",
      "profile_path": "/fJGFRIcMiVyyxoSXs3zfBDjcjht.jpg",
      "popularity": 12.526,
      "adult": false,
      "known_for_department": "Acting"
    },
    {
      "id": 126713,
      "name": "Elizabeth Marvel",
      "profile_path": "/w4hd2oPgmpQZd7v69BJ8aL59b6V.jpg",
      "popularity": 12.526,
      "adult": false,
      "known_for_department": "Acting"
    },
    {
      "id": 35476,
      "name": "Brittany Daniel",
      "profile_path": "/ggejsCiO94S2ZxljXN7LEypnaTQ.jpg",
      "popularity": 12.526,
      "adult": false,
      "known_for_department": "Acting"
    },
    {
      "id": 2769,
      "name": "Natalie Wood",
      "profile_path": "/tmYB8aXfb5fe2K1wquhRLfMGViu.jpg",
      "popularity": 12.526,
      "adult": false,
      "known_for_department": "Acting"
    },
    {
      "id": 16757,
      "name": "Sophia Loren",
      "profile_path": "/94Kglg5dsAgOKG76230FFN7m6W3.jpg",
      "popularity": 12.525,
      "adult": false,
      "known_for_department": "Acting"
    },
    {
      "id": 19975,
      "name": "Michael Rosenbaum",
      "profile_path": "/9a1wACjRIAg1cbTEsL5WrzPwnFi.jpg",
      "popularity": 12.524,
      "adult": false,
      "known_for_department": "Acting"
    },
    {
      "id": 570712,
      "name": "Nehir Erdoğan",
      "profile_path": "/uothjRRMqeZ0vR90IyU56nRLI1n.jpg",
      "popularity": 12.522,
      "adult": false,
      "known_for_department": "Acting"
    },
    {
      "id": 51930,
      "name": "Wade Williams",
      "profile_path": "/aCbu0BrVJMRCaZn24XGqqEO2Rcf.jpg",
      "popularity": 12.521,
      "adult": false,
      "known_for_department": "Acting"
    },
    {
      "id": 154839,
      "name": "Danielle Bisutti",
      "profile_path": "/i1y6emjUb5F7YWRXy7CX3A8kdRB.jpg",
      "popularity": 12.515,
      "adult": false,
      "known_for_department": "Acting"
    },
    {
      "id": 824,
      "name": "Ethan Suplee",
      "profile_path": "/gGSb8P9nQdDNu0JC65zyAyMUFhS.jpg",
      "popularity": 12.515,
      "adult": false,
      "known_for_department": "Acting"
    },
    {
      "id": 51944,
      "name": "Mike Epps",
      "profile_path": "/kDI4E3ALm2rVkF38GwhWwXmDq0a.jpg",
      "popularity": 12.513,
      "adult": false,
      "known_for_department": "Acting"
    },
    {
      "id": 1683103,
      "name": "Emma Johnson",
      "profile_path": "/9vAfqkbXGN4CPPyer1IMZ8rCXPw.jpg",
      "popularity": 12.509,
      "adult": false,
      "known_for_department": "Acting"
    }
  ]
}