{
  "page": 218,
  "total_results": 10000,
  "total_pages": 500,
  "results": [
    {
      "id": 1291761,
      "name": "Adivi Sesh",
      "profile_path": "/vWvU1qlpGGrCsdox0pAJ6Gns4Bp.jpg",
      "popularity": 11.779,
      "adult": false,
      "known_for_department": "Acting"
    },
    {
      "id": 1462267,
      "name": "Yuina Kuroshima",
      "profile_path": "/AlWBUgpb2hQUMc7O3901PbFr0JU.jpg",
      "popularity": 11.778,
      "adult": false,
      "known_for_department": "Acting"
    },
    {
      "id": 212776,
      "name": "Marc Menchaca",
      "profile_path": "/fL0LmdBwau30M4AFPVJrpLRXXsU.jpg",
      "popularity": 11.778,
      "adult": false,
      "known_for_department": "Acting"
    },
    {
      "id": 1303873,
      "name": "Jenna Kanell",
      "profile_path": "/dzx7LYrEX5TnxSau43AZMYm5Mub.jpg",
      "popularity": 11.776,
      "adult": false,
      "known_for_department": "Acting"
    },
    {
      "id": 87724,
      "name": "Marika Lagercrantz",
      "profile_path": "/ya50fGUyUD1PfCopwgwr79O1O9w.jpg",
      "popularity": 11.774,
      "adult": false,
      "known_for_department": "Acting"
    },
    {
      "id": 138240,
      "name": "Bitty Schram",
      "profile_path": "/7N1FWQINAtQXcOBgw8xvBgITXTh.jpg",
      "popularity": 11.772,
      "adult": false,
      "known_for_department": "Acting"
    },
    {
      "id": 92255,
      "name": "Jane Sibbett",
      "profile_path": "/bPtcUaWhHN7aQgtYUGeOp7M55nE.jpg",
      "popularity": 11.768,
      "adult": false,
      "known_for_department": "Acting"
    },
    {
      "id": 76792,
      "name": "Freida Pinto",
      "profile_path": "/fhUEcLvlsy13hHO5xJb0fV3AiYw.jpg",
      "popularity": 11.767,
      "adult": false,
      "known_for_department": "Acting"
    },
    {
      "id": 530025,
      "name": "Willow Shields",
      "profile_path": "/c9Zna579entVQBdx7kTtKJjl9CB.jpg",
      "popularity": 11.765,
      "adult": false,
      "known_for_department": "Acting"
    },
    {
      "id": 78398,
      "name": "A Martinez",
      "profile_path": "/gp0HXzEJPWFRnxLnbGJDrvBTgpr.jpg",
      "popularity": 11.763,
      "adult": false,
      "known_for_department": "Acting"
    },
    {
      "id": 515510,
      "name": "Ryan Potter",
      "profile_path": "/3Hdip1zNYrea3V7uzJQYxTps5Ne.jpg",
      "popularity": 11.762,
      "adult": false,
      "known_for_department": "Acting"
    },
    {
      "id": 60116,
      "name": "Allison McAtee",
      "profile_path": "/whLMlQhJaYMTOuiq2yl2l9QS9Pn.jpg",
      "popularity": 11.762,
      "adult": false,
      "known_for_department": "Acting"
    },
    {
      "id": 987035,
      "name": "Charlie Barnett",
      "profile_path": "/sXsBKckWtNEBI3A4NV0rCFVVR4Y.jpg",
      "popularity": 11.761,
      "adult": false,
      "known_for_department": "Acting"
    },
    {
      "id": 131563,
      "name": "Jun Fukuyama",
      "profile_path": "/eT9eloyIaIkTvTqMmpcsAleP2hM.jpg",
      "popularity": 11.761,
      "adult": false,
      "known_for_department": "Acting"
    },
    {
      "id": 5695,
      "name": "Sid Haig",
      "profile_path": "/vl3bpah8selBmSUDtF9irkHyvIO.jpg",
      "popularity": 11.761,
      "adult": false,
      "known_for_department": "Acting"
    },
    {
      "id": 109783,
      "name": "Haley Pullos",
      "profile_path": "/hwgZjOOvonCzEyrukpaZqrZTDMY.jpg",
      "popularity": 11.76,
      "adult": false,
      "known_for_department": "Acting"
    },
    {
      "id": 116315,
      "name": "Kari Wahlgren",
      "profile_path": "/9phhl0oubAKt8D50xLGAb81KPSb.jpg",
      "popularity": 11.757,
      "adult": false,
      "known_for_department": "Acting"
    },
    {
      "id": 43483,
      "name": "Courtney Henggeler",
      "profile_path": "/soNsMFPhOsdW6jR7oJi6SlXsYYT.jpg",
      "popularity": 11.756,
      "adult": false,
      "known_for_department": "Acting"
    },
    {
      "id": 1343688,
      "name": "Yuki Morinaga",
      "profile_path": "/20WRU4HX4Nl3HPLARPuDSvx5SdN.jpg",
      "popularity": 11.754,
      "adult": false,
      "known_for_department": "Acting"
    },
    {
      "id": 11850,
      "name": "Candice Bergen",
      "profile_path": "/1ZRLOr1DdefN1Sf1YP3R0YNnjj2.jpg",
      "popularity": 11.754,
      "adult": false,
      "known_for_department": "Acting"
    }
  ]
}