{
  "page": 39,
  "total_results": 10000,
  "total_pages": 500,
  "results": [
    {
      "id": 16180,
      "name": "Robert Picardo",
      "profile_path": "/9TOY0mhWRMlU5Ur8QHMoDecWs2n.jpg",
      "popularity": 24.161,
      "adult": false,
      "known_for_department": "Acting"
    },
    {
      "id": 1534,
      "name": "Chris Elliott",
      "profile_path": "/t8sdwz8iV7dQWQlYb2rPMKepT8h.jpg",
      "popularity": 24.154,
      "adult": false,
      "known_for_department": "Acting"
    },
    {
      "id": 9781,
      "name": "Nia Long",
      "profile_path": "/2HnplqKDWkLyReeeAPsbEctkpPQ.jpg",
      "popularity": 24.152,
      "adult": false,
      "known_for_department": "Acting"
    },
    {
      "id": 777,
      "name": "Judge Reinhold",
      "profile_path": "/oPdJz2hSIkrj1wvOpupGoIej6IO.jpg",
      "popularity": 24.152,
      "adult": false,
      "known_for_department": "Acting"
    },
    {
      "id": 865,
      "name": "Michael Bay",
      "profile_path": "/8I9H9IKROECFEn7usvyChbRMhbI.jpg",
      "popularity": 24.144,
      "adult": false,
      "known_for_department": "Production"
    },
    {
      "id": 205955,
      "name": "Fivel Stewart",
      "profile_path": "/d5SD8sD8FIVuQpDSwfpIuHc4da9.jpg",
      "popularity": 24.14,
      "adult": false,
      "known_for_department": "Acting"
    },
    {
      "id": 5916,
      "name": "Rosario Dawson",
      "profile_path": "/wOl6QskSwla4tWv4ZWlmSwz7S7U.jpg",
      "popularity": 24.096,
      "adult": false,
      "known_for_department": "Acting"
    },
    {
      "id": 4785,
      "name": "Jeff Goldblum",
      "profile_path": "/g3yaQSRPg9Rk6IvbIizoowmXKHJ.jpg",
      "popularity": 24.065,
      "adult": false,
      "known_for_department": "Acting"
    },
    {
      "id": 1253199,
      "name": "Alexandra Shipp",
      "profile_path": "/iiAehaxHjv8G17kAQi5cEIpa9RZ.jpg",
      "popularity": 24.058,
      "adult": false,
      "known_for_department": "Acting"
    },
    {
      "id": 17485,
      "name": "Oliver Platt",
      "profile_path": "/toAVx1NyoVbFkxh0ydRsD1fP6pV.jpg",
      "popularity": 24.052,
      "adult": false,
      "known_for_department": "Acting"
    },
    {
      "id": 1398879,
      "name": "Karen Pittman",
      "profile_path": "/8W9WXyloWrBmOUURLvEWYR8WrMy.jpg",
      "popularity": 24.049,
      "adult": false,
      "known_for_department": "Acting"
    },
    {
      "id": 1753914,
      "name": "Josephine Langford",
      "profile_path": "/8Fj1UIFRJA0B5Zo22KwML5d3Mr3.jpg",
      "popularity": 24.045,
      "adult": false,
      "known_for_department": "Acting"
    },
    {
      "id": 488,
      "name": "Steven Spielberg",
      "profile_path": "/tZxcg19YQ3e8fJ0pOs7hjlnmmr6.jpg",
      "popularity": 24.044,
      "adult": false,
      "known_for_department": "Directing"
    },
    {
      "id": 933271,
      "name": "Eve Hewson",
      "profile_path": "/Dj3osDr5zSP7uMtBBbbUeIgRMu.jpg",
      "popularity": 24.038,
      "adult": false,
      "known_for_department": "Acting"
    },
    {
      "id": 18649,
      "name": "John Randolph",
      "profile_path": "/lJzBpptZD3d39y9WpNk7i7ibvOc.jpg",
      "popularity": 24.031,
      "adult": false,
      "known_for_department": "Acting"
    },
    {
      "id": 1579,
      "name": "Maggie Gyllenhaal",
      "profile_path": "/qxgM5LzzG4uWTprCL3gBVVJ2Q1K.jpg",
      "popularity": 24.013,
      "adult": false,
      "known_for_department": "Acting"
    },
    {
      "id": 9827,
      "name": "Rose Byrne",
      "profile_path": "/4oQWCLK7gd6RNKF0WJipJo7TyFP.jpg",
      "popularity": 24.01,
      "adult": false,
      "known_for_department": "Acting"
    },
    {
      "id": 1767250,
      "name": "Ariana Greenblatt",
      "profile_path": "/rm6yLSvxHsmyHUmKy10DmBrB4SH.jpg",
      "popularity": 24.009,
      "adult": false,
      "known_for_department": "Acting"
    },
    {
      "id": 24967,
      "name": "Alyssa Milano",
      "profile_path": "/q5RAaX57dLvlpigAhbX3lCb2dkZ.jpg",
      "popularity": 24.001,
      "adult": false,
      "known_for_department": "Acting"
    },
    {
      "id": 9030,
      "name": "Thandiwe Newton",
      "profile_path": "/5BCyGUiUsXD6XzJgPPolqgWFFtj.jpg",
      "popularity": 23.993,
      "adult": false,
      "known_for_department": "Acting"
    }
  ]
}