{
  "page": 200,
  "total_results": 10000,
  "total_pages": 500,
  "results": [
    {
      "id": 10881,
      "name": "Toby Stephens",
      "profile_path": "/7hZVlhxd4FkhEQxaF4lTgwj3SYc.jpg",
      "popularity": 11.247,
      "adult": false,
      "known_for_department": "Acting"
    },
    {
      "id": 587,
      "name": "Edward James Olmos",
      "profile_path": "/mXnilUrQBIMLHSQkPjQk99mX70x.jpg",
      "popularity": 11.247,
      "adult": false,
      "known_for_department": "Acting"
    },
    {
      "id": 912632,
      "name": "Jella Haase",
      "profile_path": "/uOfKMmIY0AruxUeeroESXTT9C74.jpg",
      "popularity": 11.246,
      "adult": false,
      "known_for_department": "Acting"
    },
    {
      "id": 592458,
      "name": "Fabrice Josso",
      "profile_path": "/ekxEkHXVX3Fkgq7tQesA7GtDASQ.jpg",
      "popularity": 11.246,
      "adult": false,
      "known_for_department": "Acting"
    },
    {
      "id": 199,
      "name": "Julie Kavner",
      "profile_path": "/qXZXmvqQauL7TDVKj9yJzkxIxjF.jpg",
      "popularity": 11.243,
      "adult": false,
      "known_for_department": "Acting"
    },
    {
      "id": 53328,
      "name": "Julia Sawalha",
      "profile_path": "/57xZL2uZzRaRmWpzWxH4SnxOa2u.jpg",
      "popularity": 11.241,
      "adult": false,
      "known_for_department": "Acting"
    },
    {
      "id": 1223059,
      "name": "Jaime Murray",
      "profile_path": "/4EuogBLesagmQzkDAKgvBFD2kVk.jpg",
      "popularity": 11.239,
      "adult": false,
      "known_for_department": "Acting"
    },
    {
      "id": 2333298,
      "name": "Hwang In-yeop",
      "profile_path": "/1FaGpu5hWXOxKRgjTJWIAb0bDY3.jpg",
      "popularity": 11.238,
      "adult": false,
      "known_for_department": "Acting"
    },
    {
      "id": 42803,
      "name": "Ajay Devgn",
      "profile_path": "/vnHQQFzTjJ0sv14DGMIoKa3qTxN.jpg",
      "popularity": 11.234,
      "adult": false,
      "known_for_department": "Acting"
    },
    {
      "id": 211484,
      "name": "Natalie Alyn Lind",
      "profile_path": "/sDqAe7MmMSUcafUISD6O0CykaUr.jpg",
      "popularity": 11.229,
      "adult": false,
      "known_for_department": "Acting"
    },
    {
      "id": 75073,
      "name": "Tom Mison",
      "profile_path": "/jWwzDaaiJmaI2OUIKyhjeeAdkba.jpg",
      "popularity": 11.229,
      "adult": false,
      "known_for_department": "Acting"
    },
    {
      "id": 342,
      "name": "Eugene Byrd",
      "profile_path": "/hl7PQyCfeH312ZQe16G13S13lus.jpg",
      "popularity": 11.229,
      "adult": false,
      "known_for_department": "Acting"
    },
    {
      "id": 3536,
      "name": "Marie-France Pisier",
      "profile_path": "/o7Wcns5bkomH7mVDiYhP2hFHwvR.jpg",
      "popularity": 11.227,
      "adult": false,
      "known_for_department": "Acting"
    },
    {
      "id": 567269,
      "name": "Jessica Brown Findlay",
      "profile_path": "/xrvuOGSkS0ufxQohk2DhUV57QmE.jpg",
      "popularity": 11.224,
      "adult": false,
      "known_for_department": "Acting"
    },
    {
      "id": 102952,
      "name": "Sarah Jones",
      "profile_path": "/1YFh9NStF75XWTLT9CPGG2395HN.jpg",
      "popularity": 11.222,
      "adult": false,
      "known_for_department": "Acting"
    },
    {
      "id": 1965219,
      "name": "Yeliz Kuvancı",
      "profile_path": "/1wfMmKTpnQyesQ8U7QmULZKoqD8.jpg",
      "popularity": 11.219,
      "adult": false,
      "known_for_department": "Acting"
    },
    {
      "id": 232525,
      "name": "Warren Christie",
      "profile_path": "/mUr3wvtwbWORU2yk4F0pJO1e8ia.jpg",
      "popularity": 11.218,
      "adult": false,
      "known_for_department": "Acting"
    },
    {
      "id": 2228,
      "name": "Sean Penn",
      "profile_path": "/9glqNTVpFpdN1nFklKaHPUyCwR6.jpg",
      "popularity": 11.217,
      "adult": false,
      "known_for_department": "Acting"
    },
    {
      "id": 1473879,
      "name": "Yoon Kyun-sang",
      "profile_path": "/ke9xvm1kfzo75DBFsgdokuko43v.jpg",
      "popularity": 11.212,
      "adult": false,
      "known_for_department": "Acting"
    },
    {
      "id": 12149,
      "name": "Richard Widmark",
      "profile_path": "/fvR0fQcGTVzmHZUGfPocqT6pRgJ.jpg",
      "popularity": 11.211,
      "adult": false,
      "known_for_department": "Acting"
    }
  ]
}