{
  "page": 226,
  "total_results": 10000,
  "total_pages": 500,
  "results": [
    {
      "id": 485005,
      "name": "Vanessa Ray",
      "profile_path": "/iBpwnKvYExz24k5kmtE7IDfMc41.jpg",
      "popularity": 10.493,
      "adult": false,
      "known_for_department": "Acting"
    },
    {
      "id": 39481,
      "name": "Jordana Spiro",
      "profile_path": "/lYWTKhlMG9B2gEoCOCABqeRMbx3.jpg",
      "popularity": 10.487,
      "adult": false,
      "known_for_department": "Acting"
    },
    {
      "id": 3547,
      "name": "Ian McNeice",
      "profile_path": "/v5WuiYuKmKxWZRDn3XnGJh7nCUC.jpg",
      "popularity": 10.487,
      "adult": false,
      "known_for_department": "Acting"
    },
    {
      "id": 1255398,
      "name": "Chai Hansen",
      "profile_path": "/vd23G0qvY33W8EjSc92xYKG1h7J.jpg",
      "popularity": 10.486,
      "adult": false,
      "known_for_department": "Acting"
    },
    {
      "id": 1171667,
      "name": "Bo Maerten",
      "profile_path": "/Ap3Zxewp5ZlhKXpTpWNR84i5K92.jpg",
      "popularity": 10.486,
      "adult": false,
      "known_for_department": "Acting"
    },
    {
      "id": 590435,
      "name": "Ran Masaki",
      "profile_path": "/sr5IsdqnkZ09shkGjutIAd6XOF0.jpg",
      "popularity": 10.486,
      "adult": false,
      "known_for_department": "Acting"
    },
    {
      "id": 2462,
      "name": "Catherine McCormack",
      "profile_path": "/vYyMCGKeIUTZMdEgVwQCgX7q1T3.jpg",
      "popularity": 10.486,
      "adult": false,
      "known_for_department": "Acting"
    },
    {
      "id": 1097941,
      "name": "Conor Leslie",
      "profile_path": "/tTCVGMMxPGZAcfqnkM5S5cPebem.jpg",
      "popularity": 10.485,
      "adult": false,
      "known_for_department": "Acting"
    },
    {
      "id": 115128,
      "name": "Bo Burnham",
      "profile_path": "/xMAatohXadCfz9ipvqvIaTLwOmV.jpg",
      "popularity": 10.484,
      "adult": false,
      "known_for_department": "Acting"
    },
    {
      "id": 21859,
      "name": "Maeve Quinlan",
      "profile_path": "/fGA8LAuXTF3pJCokVUnsXmvKNA7.jpg",
      "popularity": 10.481,
      "adult": false,
      "known_for_department": "Acting"
    },
    {
      "id": 59156,
      "name": "Stephanie March",
      "profile_path": "/7iDG2vgajeDQJROkhkVjHYuKS3.jpg",
      "popularity": 10.48,
      "adult": false,
      "known_for_department": "Acting"
    },
    {
      "id": 4001,
      "name": "Simon Callow",
      "profile_path": "/no6qlnMrWeUzSt1FjD2Vf9x992e.jpg",
      "popularity": 10.479,
      "adult": false,
      "known_for_department": "Acting"
    },
    {
      "id": 1596934,
      "name": "Natalia Reyes",
      "profile_path": "/9N7FNKUhjtinrNPy8ANvXrB7iEr.jpg",
      "popularity": 10.478,
      "adult": false,
      "known_for_department": "Acting"
    },
    {
      "id": 1392665,
      "name": "Karolina Szymczak",
      "profile_path": "/8Vkiqs8EAdKVV78FYcPLRXPbGLz.jpg",
      "popularity": 10.478,
      "adult": false,
      "known_for_department": "Acting"
    },
    {
      "id": 41127,
      "name": "Laura Gemser",
      "profile_path": "/zObMWYEHJkPEhmFsyW8uFCVRgfo.jpg",
      "popularity": 10.477,
      "adult": false,
      "known_for_department": "Acting"
    },
    {
      "id": 74056,
      "name": "Brendan Coyle",
      "profile_path": "/u00vlPgR2wlDAc3EnMgfTtJ9sue.jpg",
      "popularity": 10.475,
      "adult": false,
      "known_for_department": "Acting"
    },
    {
      "id": 57829,
      "name": "Anthony LaPaglia",
      "profile_path": "/vpowJYbuleOtdQtrFgPUPT4dSJl.jpg",
      "popularity": 10.474,
      "adult": false,
      "known_for_department": "Acting"
    },
    {
      "id": 534,
      "name": "Mark Boone Junior",
      "profile_path": "/rcncVr356hpfKX9qOrKL3SJlEO7.jpg",
      "popularity": 10.474,
      "adult": false,
      "known_for_department": "Acting"
    },
    {
      "id": 141374,
      "name": "Molly Ephraim",
      "profile_path": "/quhI60c6Z2nzZBpOJNjK4bvlPK4.jpg",
      "popularity": 10.472,
      "adult": false,
      "known_for_department": "Acting"
    },
    {
      "id": 1276317,
      "name": "Francia Raisa",
      "profile_path": "/uTjmrUPJUyM7n5CBCjxT5IX3Eac.jpg",
      "popularity": 10.469,
      "adult": false,
      "known_for_department": "Acting"
    }
  ]
}