{
  "page": 81,
  "total_results": 10000,
  "total_pages": 500,
  "results": [
    {
      "id": 9045,
      "name": "Stephen Baldwin",
      "profile_path": "/34GOuRYIkAcKW8newjrnYeC1QPK.jpg",
      "popularity": 15.477,
      "adult": false,
      "known_for_department": "Acting"
    },
    {
      "id": 52603,
      "name": "Alfonso Freeman",
      "profile_path": "/9H4wX5clEpFfD3SG2JPoGH3LIgV.jpg",
      "popularity": 15.473,
      "adult": false,
      "known_for_department": "Acting"
    },
    {
      "id": 1522700,
      "name": "Burcu Özberk",
      "profile_path": "/cpJhLkaTKGOuZnV0oWu5YhBdPYO.jpg",
      "popularity": 15.47,
      "adult": false,
      "known_for_department": "Acting"
    },
    {
      "id": 218923,
      "name": "Tyler Hynes",
      "profile_path": "/zUOaRemLs0qS3Xoe7MDzyduRE4R.jpg",
      "popularity": 15.469,
      "adult": false,
      "known_for_department": "Acting"
    },
    {
      "id": 1428067,
      "name": "Jace Norman",
      "profile_path": "/2jbPvSLFabJRMTKFxCn2yL5mmEv.jpg",
      "popularity": 15.468,
      "adult": false,
      "known_for_department": "Acting"
    },
    {
      "id": 94814,
      "name": "Susan Dey",
      "profile_path": "/6mKVPfW5rSSI39XORUEP8WuhOUC.jpg",
      "popularity": 15.464,
      "adult": false,
      "known_for_department": "Acting"
    },
    {
      "id": 21127,
      "name": "Bobby Cannavale",
      "profile_path": "/gYQwTbEj5IBPYKLGKgrsNGrWAMl.jpg",
      "popularity": 15.462,
      "adult": false,
      "known_for_department": "Acting"
    },
    {
      "id": 71562,
      "name": "Buck Taylor",
      "profile_path": "/l4fy1zNNRIG2i4pmNpCqatFuz7d.jpg",
      "popularity": 15.457,
      "adult": false,
      "known_for_department": "Acting"
    },
    {
      "id": 2229,
      "name": "Catherine Keener",
      "profile_path": "/n4CTwGszs6cwS1wJRlDQ5Mlh7Ex.jpg",
      "popularity": 15.454,
      "adult": false,
      "known_for_department": "Acting"
    },
    {
      "id": 5723,
      "name": "John Leguizamo",
      "profile_path": "/kEbXDtcPJ46GEhj5QlCTLZS6PWE.jpg",
      "popularity": 15.449,
      "adult": false,
      "known_for_department": "Acting"
    },
    {
      "id": 1533800,
      "name": "Thomas Beaudoin",
      "profile_path": "/bCJfHKARr8ArNM9U7hRuCcsozPm.jpg",
      "popularity": 15.446,
      "adult": false,
      "known_for_department": "Acting"
    },
    {
      "id": 18285,
      "name": "Jennifer Esposito",
      "profile_path": "/sRvb56u55TArQijN0aFS4PzSLWR.jpg",
      "popularity": 15.446,
      "adult": false,
      "known_for_department": "Acting"
    },
    {
      "id": 1215689,
      "name": "Christina Chang",
      "profile_path": "/p1m4Da7ZOt6BOcXy4T58Mu3jAY3.jpg",
      "popularity": 15.441,
      "adult": false,
      "known_for_department": "Acting"
    },
    {
      "id": 52605,
      "name": "Eva Longoria",
      "profile_path": "/ywz9n9lVkxUklJKUHDQxENAVOek.jpg",
      "popularity": 15.438,
      "adult": false,
      "known_for_department": "Acting"
    },
    {
      "id": 240145,
      "name": "Han Hyo-joo",
      "profile_path": "/4E7NuJsR7AnMYAefFSHkj4cftdf.jpg",
      "popularity": 15.437,
      "adult": false,
      "known_for_department": "Acting"
    },
    {
      "id": 1255487,
      "name": "Tsubasa Honda",
      "profile_path": "/1xdR7FXHc3zeRrMyy5qHlDQr9Ou.jpg",
      "popularity": 15.436,
      "adult": false,
      "known_for_department": "Acting"
    },
    {
      "id": 6167,
      "name": "Judd Hirsch",
      "profile_path": "/7rJ0TZfMoPLTcO203tHhE6tcPKP.jpg",
      "popularity": 15.431,
      "adult": false,
      "known_for_department": "Acting"
    },
    {
      "id": 865,
      "name": "Michael Bay",
      "profile_path": "/8I9H9IKROECFEn7usvyChbRMhbI.jpg",
      "popularity": 15.431,
      "adult": false,
      "known_for_department": "Production"
    },
    {
      "id": 62001,
      "name": "Dee Wallace",
      "profile_path": "/z4IALJKVQhxBqzI5ayUnvUMYaEG.jpg",
      "popularity": 15.426,
      "adult": false,
      "known_for_department": "Acting"
    },
    {
      "id": 138114,
      "name": "Kim Bum",
      "profile_path": "/y45fczoIWymQSeMCqdBiMEEmM3A.jpg",
      "popularity": 15.425,
      "adult": false,
      "known_for_department": "Acting"
    }
  ]
}