{
  "page": 188,
  "total_results": 10000,
  "total_pages": 500,
  "results": [
    {
      "id": 16867,
      "name": "Luis Tosar",
      "profile_path": "/7ZTdhzUCpG9jhsKJeTJbGn36v5F.jpg",
      "popularity": 12.208,
      "adult": false,
      "known_for_department": "Acting"
    },
    {
      "id": 70903,
      "name": "Marc Warren",
      "profile_path": "/sIsnids6kyarj8QjMrlA1j9p08n.jpg",
      "popularity": 12.207,
      "adult": false,
      "known_for_department": "Acting"
    },
    {
      "id": 44651,
      "name": "Ken Duken",
      "profile_path": "/y0W1vcjV7RWmVAIgm03erG47fHs.jpg",
      "popularity": 12.202,
      "adult": false,
      "known_for_department": "Acting"
    },
    {
      "id": 126354,
      "name": "Tracy Reed",
      "profile_path": "/ts9KswPwZfhJQFdp4WBhzPfVJOQ.jpg",
      "popularity": 12.201,
      "adult": false,
      "known_for_department": "Acting"
    },
    {
      "id": 18391,
      "name": "Lee Marvin",
      "profile_path": "/bXVCrjGbGhPg6mgDi9OIrp5jK9b.jpg",
      "popularity": 12.2,
      "adult": false,
      "known_for_department": "Acting"
    },
    {
      "id": 1477273,
      "name": "Rihito Itagaki",
      "profile_path": "/g98OPX1PG4gIzEPX2ljpUPAHAmg.jpg",
      "popularity": 12.196,
      "adult": false,
      "known_for_department": "Acting"
    },
    {
      "id": 104853,
      "name": "Rachel Matthews",
      "profile_path": "/rPm9vlAEsFTLict8nLmRVt4Zfhe.jpg",
      "popularity": 12.193,
      "adult": false,
      "known_for_department": "Acting"
    },
    {
      "id": 1824301,
      "name": "Freddy Carter",
      "profile_path": "/u4Ibhf8LnRzfuR2IUx6ZQWdWaVv.jpg",
      "popularity": 12.191,
      "adult": false,
      "known_for_department": "Acting"
    },
    {
      "id": 52365,
      "name": "Cerina Vincent",
      "profile_path": "/cHo9jVK5zvGKf6EEHclV5hjj9WM.jpg",
      "popularity": 12.187,
      "adult": false,
      "known_for_department": "Acting"
    },
    {
      "id": 57449,
      "name": "Jodhi May",
      "profile_path": "/iqVk4bZyBkIOOWxaYxiezcApwRG.jpg",
      "popularity": 12.186,
      "adult": false,
      "known_for_department": "Acting"
    },
    {
      "id": 2877,
      "name": "Ralph Macchio",
      "profile_path": "/kehn6kNTFPlAYrWJzBzrEu6WHJp.jpg",
      "popularity": 12.185,
      "adult": false,
      "known_for_department": "Acting"
    },
    {
      "id": 2413513,
      "name": "Billie Eilish",
      "profile_path": "/1KCVr3JPHt4IHwqEuf0v8GwwRZl.jpg",
      "popularity": 12.183,
      "adult": false,
      "known_for_department": "Acting"
    },
    {
      "id": 1031067,
      "name": "Sonequa Martin-Green",
      "profile_path": "/anz0LIPc0KarbDwLOyGt21eolvK.jpg",
      "popularity": 12.181,
      "adult": false,
      "known_for_department": "Acting"
    },
    {
      "id": 122408,
      "name": "Lee Joon-gi",
      "profile_path": "/tHPJUgGiQRWt1Bh7ymqmmJ2zKF6.jpg",
      "popularity": 12.179,
      "adult": false,
      "known_for_department": "Acting"
    },
    {
      "id": 383,
      "name": "Michael Palin",
      "profile_path": "/7qCp6M2NxMWpUmO2t6IqHGNlBjz.jpg",
      "popularity": 12.179,
      "adult": false,
      "known_for_department": "Acting"
    },
    {
      "id": 2320594,
      "name": "Bruno Gouery",
      "profile_path": "/w0JGP6mtph0PAaRmXagD9PcpQ5M.jpg",
      "popularity": 12.178,
      "adult": false,
      "known_for_department": "Acting"
    },
    {
      "id": 1535,
      "name": "Brian Doyle-Murray",
      "profile_path": "/1sDChfTscA1mone1uSJVPtbFn4l.jpg",
      "popularity": 12.173,
      "adult": false,
      "known_for_department": "Acting"
    },
    {
      "id": 8872,
      "name": "Rick Moranis",
      "profile_path": "/nCIh203hALUsQW44x3dzpjSA4yf.jpg",
      "popularity": 12.17,
      "adult": false,
      "known_for_department": "Acting"
    },
    {
      "id": 207558,
      "name": "Aidan Turner",
      "profile_path": "/psakQ7qfiXbaotiYNIk9sub86sz.jpg",
      "popularity": 12.169,
      "adult": false,
      "known_for_department": "Acting"
    },
    {
      "id": 20746,
      "name": "Justin Chambers",
      "profile_path": "/5UGtBemc4GPaCWjCwVR3YYmIlzV.jpg",
      "popularity": 12.169,
      "adult": false,
      "known_for_department": "Acting"
    }
  ]
}