{
  "page": 436,
  "total_results": 10000,
  "total_pages": 500,
  "results": [
    {
      "id": 3083,
      "name": "Mario Puzo",
      "profile_path": "/lEsT1uCZAZg1nYDQe3Fsj9CalzT.jpg",
      "popularity": 7.96,
      "adult": false,
      "known_for_department": "Writing"
    },
    {
      "id": 1963248,
      "name": "Doğan Bayraktar",
      "profile_path": "/zJsCLysWOZvOEyQ2GImAu4OThPg.jpg",
      "popularity": 7.959,
      "adult": false,
      "known_for_department": "Acting"
    },
    {
      "id": 1411561,
      "name": "Sasha Luss",
      "profile_path": "/pviPtS13SzKiUCGIjBO4cUnQ2XE.jpg",
      "popularity": 7.956,
      "adult": false,
      "known_for_department": "Acting"
    },
    {
      "id": 1216581,
      "name": "Murray McArthur",
      "profile_path": "/aW9Ib3PzKuWuSd0YrTIbFLGX877.jpg",
      "popularity": 7.956,
      "adult": false,
      "known_for_department": "Acting"
    },
    {
      "id": 6730,
      "name": "Sacha Baron Cohen",
      "profile_path": "/8J2LxfW3owPTc9OzbBoUbADFOBb.jpg",
      "popularity": 7.956,
      "adult": false,
      "known_for_department": "Acting"
    },
    {
      "id": 543523,
      "name": "Britne Oldford",
      "profile_path": "/1htdyAfrsgyiqmm5GguAoLLu6aM.jpg",
      "popularity": 7.955,
      "adult": false,
      "known_for_department": "Acting"
    },
    {
      "id": 7678,
      "name": "Hart Bochner",
      "profile_path": "/nfC2ByTNS3xoygwYVbUYsx2Zae6.jpg",
      "popularity": 7.955,
      "adult": false,
      "known_for_department": "Acting"
    },
    {
      "id": 70175,
      "name": "Chelah Horsdal",
      "profile_path": "/3r0Ij5Ok4E1cYWAKa0slDqGn9R8.jpg",
      "popularity": 7.954,
      "adult": false,
      "known_for_department": "Acting"
    },
    {
      "id": 69399,
      "name": "Alexandra Holden",
      "profile_path": "/iyEimHNN11NgF1n6dX08wk5BqxB.jpg",
      "popularity": 7.954,
      "adult": false,
      "known_for_department": "Acting"
    },
    {
      "id": 1004,
      "name": "Danny Aiello",
      "profile_path": "/e7Q6hgWilShqGZ572ByWF9eshMm.jpg",
      "popularity": 7.954,
      "adult": false,
      "known_for_department": "Acting"
    },
    {
      "id": 1272666,
      "name": "Josh Widdicombe",
      "profile_path": "/7n7kjHkPIjM1CD4IuWExdsKOOrb.jpg",
      "popularity": 7.953,
      "adult": false,
      "known_for_department": "Acting"
    },
    {
      "id": 4364,
      "name": "María Isabel Díaz Lago",
      "profile_path": "/wwSEXt9QqMcwI5oDZWzFbj2q6XO.jpg",
      "popularity": 7.953,
      "adult": false,
      "known_for_department": "Acting"
    },
    {
      "id": 1215741,
      "name": "Kathryn Drysdale",
      "profile_path": "/ryhIHc6gKVYKmgMxaFSLYv8Tbbi.jpg",
      "popularity": 7.952,
      "adult": false,
      "known_for_department": "Acting"
    },
    {
      "id": 1410477,
      "name": "Shahar Isaac",
      "profile_path": "/5pkfXfiSHfA6Fcgs0nvHnjRx5Oz.jpg",
      "popularity": 7.951,
      "adult": false,
      "known_for_department": "Acting"
    },
    {
      "id": 234990,
      "name": "Brahim Achabbakhe",
      "profile_path": "/vmvgvldLCBOPASWJbrWcEcvDrAZ.jpg",
      "popularity": 7.951,
      "adult": false,
      "known_for_department": "Acting"
    },
    {
      "id": 28033,
      "name": "Arthur J. Nascarella",
      "profile_path": "/76LAigu7y50aPIhkAJbJZIC8p70.jpg",
      "popularity": 7.951,
      "adult": false,
      "known_for_department": "Acting"
    },
    {
      "id": 115305,
      "name": "Ryusei Nakao",
      "profile_path": "/mStyRuTHrJlvPbWamnJHLwRmSOG.jpg",
      "popularity": 7.95,
      "adult": false,
      "known_for_department": "Acting"
    },
    {
      "id": 2735723,
      "name": "Ye Seul",
      "profile_path": "/A5HuFCWXKyKcsYZBzvTeJBzoSu6.jpg",
      "popularity": 7.948,
      "adult": false,
      "known_for_department": "Acting"
    },
    {
      "id": 141747,
      "name": "Anthony Peck",
      "profile_path": "/laqLC8e50wvH6LeRvJmMPbqtNbr.jpg",
      "popularity": 7.948,
      "adult": false,
      "known_for_department": "Acting"
    },
    {
      "id": 1370998,
      "name": "Zeeko Zaki",
      "profile_path": "/r38igYNkkjIYnuZQhFtGV5t8ZLs.jpg",
      "popularity": 7.947,
      "adult": false,
      "known_for_department": "Acting"
    }
  ]
}