{
  "page": 392,
  "total_results": 10000,
  "total_pages": 500,
  "results": [
    {
      "id": 1233094,
      "name": "Kwon Sang-woo",
      "profile_path": "/sXWZ82ph4ZPPG9kv2x6nXha1Kk4.jpg",
      "popularity": 8.049,
      "adult": false,
      "known_for_department": "Acting"
    },
    {
      "id": 1335392,
      "name": "Mugi Kadowaki",
      "profile_path": "/iDaLuetWYMjCbvug0oDKqf4dJTl.jpg",
      "popularity": 8.048,
      "adult": false,
      "known_for_department": "Acting"
    },
    {
      "id": 1421184,
      "name": "Park Joo-hee",
      "profile_path": "/5RlCnYiSyjiP2bOlx3faZ4mIJS6.jpg",
      "popularity": 8.046,
      "adult": false,
      "known_for_department": "Acting"
    },
    {
      "id": 1029593,
      "name": "Veronica Falcón",
      "profile_path": "/8zRSwWfrDnHleSRDtIeHYuAVmFK.jpg",
      "popularity": 8.046,
      "adult": false,
      "known_for_department": "Acting"
    },
    {
      "id": 940,
      "name": "John Shrapnel",
      "profile_path": "/A4Wmltbkz3sz79GcBkLeTqwfkvE.jpg",
      "popularity": 8.046,
      "adult": false,
      "known_for_department": "Acting"
    },
    {
      "id": 1085260,
      "name": "Chen Peisi",
      "profile_path": "/xejB0xzFGL8lKi72r5Bh903HOUX.jpg",
      "popularity": 8.045,
      "adult": false,
      "known_for_department": "Acting"
    },
    {
      "id": 83489,
      "name": "Dicky Cheung Wai-Kin",
      "profile_path": "/b2a2h0Xz4pDk7B0WDFADvzc5S1g.jpg",
      "popularity": 8.045,
      "adult": false,
      "known_for_department": "Acting"
    },
    {
      "id": 2646,
      "name": "Edward Platt",
      "profile_path": "/uVl1ZzKXkvJSTHVYyfNriMV8BNV.jpg",
      "popularity": 8.045,
      "adult": false,
      "known_for_department": "Acting"
    },
    {
      "id": 1475929,
      "name": "Ingvild Holthe Bygdnes",
      "profile_path": "/3AABshTodEIQ9v5JCmEG10qgfSb.jpg",
      "popularity": 8.044,
      "adult": false,
      "known_for_department": "Acting"
    },
    {
      "id": 1255398,
      "name": "Chai Hansen",
      "profile_path": "/vd23G0qvY33W8EjSc92xYKG1h7J.jpg",
      "popularity": 8.044,
      "adult": false,
      "known_for_department": "Acting"
    },
    {
      "id": 1142181,
      "name": "Jung Eun-chae",
      "profile_path": "/zCRuKR7b10onMyCFhFMYrEnHUtA.jpg",
      "popularity": 8.044,
      "adult": false,
      "known_for_department": "Acting"
    },
    {
      "id": 89838,
      "name": "Leo Penn",
      "profile_path": "/efb6SAVE9jBrHaBxAWMMRiMr1CG.jpg",
      "popularity": 8.044,
      "adult": false,
      "known_for_department": "Directing"
    },
    {
      "id": 119893,
      "name": "Mark Arnold",
      "profile_path": "/dTfoxBUC6jpZry0ijlS8g4Y5cuS.jpg",
      "popularity": 8.043,
      "adult": false,
      "known_for_department": "Acting"
    },
    {
      "id": 91609,
      "name": "Joe Rogan",
      "profile_path": "/kupkVmQflxOXPmtrvR1GcaupXwl.jpg",
      "popularity": 8.043,
      "adult": false,
      "known_for_department": "Acting"
    },
    {
      "id": 71728,
      "name": "Tom Poston",
      "profile_path": "/xNvufT5ITryTaJIerpxmgMAwEMH.jpg",
      "popularity": 8.043,
      "adult": false,
      "known_for_department": "Acting"
    },
    {
      "id": 67802,
      "name": "Rick Jaffa",
      "profile_path": "/iki2KpmMFhLIdq3pvHhq7tit8Q1.jpg",
      "popularity": 8.043,
      "adult": false,
      "known_for_department": "Writing"
    },
    {
      "id": 59261,
      "name": "Hannah Marks",
      "profile_path": "/sy5AUrXXeaRYnz0qE3azrZxY0M6.jpg",
      "popularity": 8.043,
      "adult": false,
      "known_for_department": "Acting"
    },
    {
      "id": 1440014,
      "name": "Stephen Ure",
      "profile_path": "/g5sLvAz07eZgJ5A6vg5d4totVXz.jpg",
      "popularity": 8.041,
      "adult": false,
      "known_for_department": "Acting"
    },
    {
      "id": 559280,
      "name": "David Haydn-Jones",
      "profile_path": "/6ozF5cpWaFwlt124yz66NOGhu5t.jpg",
      "popularity": 8.04,
      "adult": false,
      "known_for_department": "Acting"
    },
    {
      "id": 1539662,
      "name": "Zhang Han",
      "profile_path": "/d7jfyPwUBEPpp3siCclNEPy5IgX.jpg",
      "popularity": 8.039,
      "adult": false,
      "known_for_department": "Acting"
    }
  ]
}