{
  "page": 458,
  "total_results": 10000,
  "total_pages": 500,
  "results": [
    {
      "id": 1213608,
      "name": "Rhyon Nicole Brown",
      "profile_path": "/gK8bL5LOK7yxlRHiTArVcsCWxbS.jpg",
      "popularity": 7.714,
      "adult": false,
      "known_for_department": "Acting"
    },
    {
      "id": 172790,
      "name": "Anna-Louise Plowman",
      "profile_path": "/awagJhvfkNYItu6Giv5wWn8tCfW.jpg",
      "popularity": 7.714,
      "adult": false,
      "known_for_department": "Acting"
    },
    {
      "id": 10167,
      "name": "George Lazenby",
      "profile_path": "/ngBOU3NDilUgFrbi4HSDJJ3kUJt.jpg",
      "popularity": 7.714,
      "adult": false,
      "known_for_department": "Acting"
    },
    {
      "id": 1318201,
      "name": "Jared Bush",
      "profile_path": "/2gIwj1cnqZIKWaFg0ihmZnuZypR.jpg",
      "popularity": 7.713,
      "adult": false,
      "known_for_department": "Writing"
    },
    {
      "id": 142535,
      "name": "Aoi Nakajima",
      "profile_path": "/akv73HQ4nvQHJF1raLtXTU0pQHO.jpg",
      "popularity": 7.71,
      "adult": false,
      "known_for_department": "Acting"
    },
    {
      "id": 83202,
      "name": "Seizaburō Kawazu",
      "profile_path": "/l6d2AdjkG59E35X1snJWrt4oph2.jpg",
      "popularity": 7.71,
      "adult": false,
      "known_for_department": "Acting"
    },
    {
      "id": 2949,
      "name": "Alexandre Desplat",
      "profile_path": "/vPsv5UYNLrQkzjOvng1OAAYCTIz.jpg",
      "popularity": 7.71,
      "adult": false,
      "known_for_department": "Sound"
    },
    {
      "id": 125026,
      "name": "Patty McCormack",
      "profile_path": "/5cSH6fIpcEfIrTkX0LaVfidEiJu.jpg",
      "popularity": 7.709,
      "adult": false,
      "known_for_department": "Acting"
    },
    {
      "id": 60390,
      "name": "Trula M. Marcus",
      "profile_path": "/bYDR6j82Ot3A0Mh8Rb3KQ6RHTyy.jpg",
      "popularity": 7.707,
      "adult": false,
      "known_for_department": "Acting"
    },
    {
      "id": 8547,
      "name": "Jonny Phillips",
      "profile_path": "/bq5ecEmED8r7lqwu5DXnKEixLd8.jpg",
      "popularity": 7.707,
      "adult": false,
      "known_for_department": "Acting"
    },
    {
      "id": 89765,
      "name": "Meral Çetinkaya",
      "profile_path": "/g3qI9yQXweZRIuJ1sjBprMMMfHa.jpg",
      "popularity": 7.706,
      "adult": false,
      "known_for_department": "Acting"
    },
    {
      "id": 2084465,
      "name": "Ren Jialun",
      "profile_path": "/jNsnYJOpwbYrPYyw8YOeNBYObal.jpg",
      "popularity": 7.705,
      "adult": false,
      "known_for_department": "Acting"
    },
    {
      "id": 562730,
      "name": "Danila Kozlovsky",
      "profile_path": "/burD0f0IEOj6FyU5Zokf6VLhHKe.jpg",
      "popularity": 7.705,
      "adult": false,
      "known_for_department": "Acting"
    },
    {
      "id": 5575,
      "name": "Akiva Goldsman",
      "profile_path": "/zjnY7yoXZifRJR9x8hdGIm9ducG.jpg",
      "popularity": 7.705,
      "adult": false,
      "known_for_department": "Writing"
    },
    {
      "id": 238330,
      "name": "Bryan Danielson",
      "profile_path": "/zpkXhsnsZzQbzbdiovABqeLlHcJ.jpg",
      "popularity": 7.704,
      "adult": false,
      "known_for_department": "Acting"
    },
    {
      "id": 185831,
      "name": "Jason Hughes",
      "profile_path": "/s22a4k057Zj9Q37RVd5B0MykNdv.jpg",
      "popularity": 7.704,
      "adult": false,
      "known_for_department": "Acting"
    },
    {
      "id": 32029,
      "name": "Bill Sage",
      "profile_path": "/2uQv1NMnGrqqhBMKTm5RBCKh7UV.jpg",
      "popularity": 7.704,
      "adult": false,
      "known_for_department": "Acting"
    },
    {
      "id": 19903,
      "name": "Richard Bremmer",
      "profile_path": "/f6B04svt1I5WWwWWFd6AIu7YAfG.jpg",
      "popularity": 7.704,
      "adult": false,
      "known_for_department": "Acting"
    },
    {
      "id": 1824301,
      "name": "Freddy Carter",
      "profile_path": "/u4Ibhf8LnRzfuR2IUx6ZQWdWaVv.jpg",
      "popularity": 7.702,
      "adult": false,
      "known_for_department": "Acting"
    },
    {
      "id": 1383612,
      "name": "Daniel Kwan",
      "profile_path": "/pwzfO4BUd49jLrcrrb9u0DOi30b.jpg",
      "popularity": 7.701,
      "adult": false,
      "known_for_department": "Directing"
    }
  ]
}