{
  "page": 112,
  "total_results": 10000,
  "total_pages": 500,
  "results": [
    {
      "id": 1683103,
      "name": "Emma Johnson",
      "profile_path": "/9vAfqkbXGN4CPPyer1IMZ8rCXPw.jpg",
      "popularity": 15.813,
      "adult": false,
      "known_for_department": "Acting"
    },
    {
      "id": 4959,
      "name": "Claudia Cardinale",
      "profile_path": "/eSNCcnxtBJf0AIAB4k7jpFJNwcD.jpg",
      "popularity": 15.812,
      "adult": false,
      "known_for_department": "Acting"
    },
    {
      "id": 146245,
      "name": "Kim Hye-soo",
      "profile_path": "/mTC57xEYJluTvygkIVmfYW2SfJU.jpg",
      "popularity": 15.809,
      "adult": false,
      "known_for_department": "Acting"
    },
    {
      "id": 2506,
      "name": "Alice Krige",
      "profile_path": "/gwkI4FAYnhkp9NWV3meATzQql0v.jpg",
      "popularity": 15.801,
      "adult": false,
      "known_for_department": "Acting"
    },
    {
      "id": 2100002,
      "name": "Park Kyoung-hee",
      "profile_path": "/m2lslGfZKKJBMmL96irotdV6hzg.jpg",
      "popularity": 15.8,
      "adult": false,
      "known_for_department": "Acting"
    },
    {
      "id": 1244412,
      "name": "David Dawson",
      "profile_path": "/9sHtnm3knBGygvoxybwVBTR4S7a.jpg",
      "popularity": 15.8,
      "adult": false,
      "known_for_department": "Acting"
    },
    {
      "id": 2595502,
      "name": "Vachirawit Chivaaree",
      "profile_path": "/ArcPka0Fxpq6QLXiarf89bEIEXZ.jpg",
      "popularity": 15.798,
      "adult": false,
      "known_for_department": "Acting"
    },
    {
      "id": 210695,
      "name": "Jesse Williams",
      "profile_path": "/hygNTzn3Ml92ear4ltTPYo5Pp2G.jpg",
      "popularity": 15.793,
      "adult": false,
      "known_for_department": "Acting"
    },
    {
      "id": 4813,
      "name": "Béatrice Dalle",
      "profile_path": "/pkHDYnYnNepShunyInM5QQKwXWa.jpg",
      "popularity": 15.787,
      "adult": false,
      "known_for_department": "Acting"
    },
    {
      "id": 19549,
      "name": "Greta Garbo",
      "profile_path": "/h5HRAusdjpWNQdzUVGXMoF635L1.jpg",
      "popularity": 15.786,
      "adult": false,
      "known_for_department": "Acting"
    },
    {
      "id": 16181,
      "name": "Haviland Morris",
      "profile_path": "/aSGNafHM8QP1DrKzW5gXnjl4CdG.jpg",
      "popularity": 15.783,
      "adult": false,
      "known_for_department": "Acting"
    },
    {
      "id": 41292,
      "name": "Keri Russell",
      "profile_path": "/u81mC6vZwliDRfnX1DpdGmmex61.jpg",
      "popularity": 15.778,
      "adult": false,
      "known_for_department": "Acting"
    },
    {
      "id": 1398499,
      "name": "Ludwig Simon",
      "profile_path": "/w39LU1NZ1PSJIO8OA30kYTnRf0F.jpg",
      "popularity": 15.769,
      "adult": false,
      "known_for_department": "Acting"
    },
    {
      "id": 11357,
      "name": "Bruce Campbell",
      "profile_path": "/p9335ljr7luOWsfwZSOlsIzFJKE.jpg",
      "popularity": 15.765,
      "adult": false,
      "known_for_department": "Acting"
    },
    {
      "id": 4691,
      "name": "James Gandolfini",
      "profile_path": "/vhtsFJZcfHdeDkFBoWMDzOS6xrP.jpg",
      "popularity": 15.764,
      "adult": false,
      "known_for_department": "Acting"
    },
    {
      "id": 7467,
      "name": "David Fincher",
      "profile_path": "/tpEczFclQZeKAiCeKZZ0adRvtfz.jpg",
      "popularity": 15.761,
      "adult": false,
      "known_for_department": "Directing"
    },
    {
      "id": 26042,
      "name": "Jerry Stiller",
      "profile_path": "/eGymLHTpIyxKyBjACsNTpEof6y4.jpg",
      "popularity": 15.759,
      "adult": false,
      "known_for_department": "Acting"
    },
    {
      "id": 18809,
      "name": "Françoise Dorléac",
      "profile_path": "/5twB6ZIaUX24cK5cH9wa9aQQqnR.jpg",
      "popularity": 15.758,
      "adult": false,
      "known_for_department": "Acting"
    },
    {
      "id": 2223,
      "name": "Fred Savage",
      "profile_path": "/ux4TBPjG2kZDUlDiKb6eBK7BBFl.jpg",
      "popularity": 15.757,
      "adult": false,
      "known_for_department": "Acting"
    },
    {
      "id": 13473,
      "name": "Barry Bostwick",
      "profile_path": "/z2jlL5g5PMxelSHMXFF03fTSsLl.jpg",
      "popularity": 15.752,
      "adult": false,
      "known_for_department": "Acting"
    }
  ]
}