{
  "page": 347,
  "total_results": 10000,
  "total_pages": 500,
  "results": [
    {
      "id": 1469394,
      "name": "Aomi Muyock",
      "profile_path": "/4kMMdIUMHzB25GHMKk0YMcZIpJN.jpg",
      "popularity": 8.521,
      "adult": false,
      "known_for_department": "Acting"
    },
    {
      "id": 933578,
      "name": "Ella Anderson",
      "profile_path": "/snv9S8ta4DsO1A6TUpa6dFbAtCV.jpg",
      "popularity": 8.52,
      "adult": false,
      "known_for_department": "Acting"
    },
    {
      "id": 101753,
      "name": "Judy Landers",
      "profile_path": "/cryxbcdfWWsdBH6JZ7Y8s7dYxYf.jpg",
      "popularity": 8.52,
      "adult": false,
      "known_for_department": "Acting"
    },
    {
      "id": 67212,
      "name": "Tom Wu",
      "profile_path": "/qBQAerjLCCglXIyMURUj3hPpiCM.jpg",
      "popularity": 8.519,
      "adult": false,
      "known_for_department": "Acting"
    },
    {
      "id": 2161,
      "name": "Debra Hill",
      "profile_path": "/bpRZDGXm25CUqcejx2bAe1lf2QI.jpg",
      "popularity": 8.518,
      "adult": false,
      "known_for_department": "Production"
    },
    {
      "id": 57082,
      "name": "John Stockwell",
      "profile_path": "/6m4x7tzIwg38K8h3czfPmepi3O3.jpg",
      "popularity": 8.517,
      "adult": false,
      "known_for_department": "Acting"
    },
    {
      "id": 17918,
      "name": "Francis Capra",
      "profile_path": "/iMbTbfIKNqjNwtwtdMLMRJUG1ej.jpg",
      "popularity": 8.517,
      "adult": false,
      "known_for_department": "Acting"
    },
    {
      "id": 573791,
      "name": "Kim Bo-yeon",
      "profile_path": "/9fcDeSWKhrELGxRwi1T2immMygd.jpg",
      "popularity": 8.512,
      "adult": false,
      "known_for_department": "Acting"
    },
    {
      "id": 66252,
      "name": "Bruno Campos",
      "profile_path": "/lktLbyUXwNX0FV38v0JBJIbbJZr.jpg",
      "popularity": 8.512,
      "adult": false,
      "known_for_department": "Acting"
    },
    {
      "id": 1282674,
      "name": "Severija Janušauskaitė",
      "profile_path": "/sM04AabnKXXauNJUAiZK18TlU3C.jpg",
      "popularity": 8.509,
      "adult": false,
      "known_for_department": "Acting"
    },
    {
      "id": 17770,
      "name": "Kevin Tighe",
      "profile_path": "/t4LMNB2Rhu9SLbr64gOW5V4sW96.jpg",
      "popularity": 8.509,
      "adult": false,
      "known_for_department": "Acting"
    },
    {
      "id": 2849185,
      "name": "E. R. Fightmaster",
      "profile_path": "/yXvCWvs6NJ8SZspvtJBlIe10KWa.jpg",
      "popularity": 8.508,
      "adult": false,
      "known_for_department": "Acting"
    },
    {
      "id": 1686299,
      "name": "Max Schimmelpfennig",
      "profile_path": "/aY19dWKfpOleDCXAjAQ7UU76y5m.jpg",
      "popularity": 8.508,
      "adult": false,
      "known_for_department": "Acting"
    },
    {
      "id": 2208,
      "name": "Kathryn Morris",
      "profile_path": "/yRgAOZ0pdvKhIGmKBbrHLLUkS2Z.jpg",
      "popularity": 8.508,
      "adult": false,
      "known_for_department": "Acting"
    },
    {
      "id": 1263102,
      "name": "Rosalie Craig",
      "profile_path": "/3EhLzgGELikyMZ84JM3BkBRy9b1.jpg",
      "popularity": 8.507,
      "adult": false,
      "known_for_department": "Acting"
    },
    {
      "id": 64896,
      "name": "Michael Wong",
      "profile_path": "/vZ54bIBr2OQ0d3Sy0icHFDL9ugU.jpg",
      "popularity": 8.507,
      "adult": false,
      "known_for_department": "Acting"
    },
    {
      "id": 1399747,
      "name": "Mandeep Dhillon",
      "profile_path": "/rVlSWINjaCMFWqkHpkjYy3zECka.jpg",
      "popularity": 8.506,
      "adult": false,
      "known_for_department": "Acting"
    },
    {
      "id": 224193,
      "name": "Robert James-Collier",
      "profile_path": "/679ZyGoxw2nWKQRtWCSKYmcdGxC.jpg",
      "popularity": 8.506,
      "adult": false,
      "known_for_department": "Acting"
    },
    {
      "id": 1532837,
      "name": "Natalia Sumska",
      "profile_path": "/vgCFjUeec2Wx8rfDqqtN9miYfIT.jpg",
      "popularity": 8.505,
      "adult": false,
      "known_for_department": "Acting"
    },
    {
      "id": 1471841,
      "name": "Flula Borg",
      "profile_path": "/jbyMShAwxHWnCzKKCl9vYsaAW4E.jpg",
      "popularity": 8.504,
      "adult": false,
      "known_for_department": "Acting"
    }
  ]
}