{
  "page": 316,
  "total_results": 10000,
  "total_pages": 500,
  "results": [
    {
      "id": 961840,
      "name": "Cara Horgan",
      "profile_path": "/8J9maL3Zux9Ns9Nzf5ATHiJ0iQ3.jpg",
      "popularity": 7.332,
      "adult": false,
      "known_for_department": "Acting"
    },
    {
      "id": 113676,
      "name": "Helena Mattsson",
      "profile_path": "/9b3ZG8KoEZA2MlVIyE4hGH00Cr6.jpg",
      "popularity": 7.331,
      "adult": false,
      "known_for_department": "Acting"
    },
    {
      "id": 1539733,
      "name": "Jung Hye-sung",
      "profile_path": "/wRoXA2VQS3e8zBUtyagnJobxy3P.jpg",
      "popularity": 7.33,
      "adult": false,
      "known_for_department": "Acting"
    },
    {
      "id": 71057,
      "name": "Zhou Xun",
      "profile_path": "/msKmqsmvUIM1mA8z3uQjwTk0yPK.jpg",
      "popularity": 7.33,
      "adult": false,
      "known_for_department": "Acting"
    },
    {
      "id": 23648,
      "name": "Priscilla Barnes",
      "profile_path": "/7v7otvkFHxwJ7ZTpuwatkIRoDOA.jpg",
      "popularity": 7.33,
      "adult": false,
      "known_for_department": "Acting"
    },
    {
      "id": 95272,
      "name": "Robert Hyatt",
      "profile_path": "",
      "popularity": 7.328,
      "adult": false,
      "known_for_department": "Acting"
    },
    {
      "id": 44691,
      "name": "Lee Montgomery",
      "profile_path": "/dOx2CtMbhaIx3KGs1WPdKKzKIxp.jpg",
      "popularity": 7.327,
      "adult": false,
      "known_for_department": "Acting"
    },
    {
      "id": 1018864,
      "name": "MacKenzie Porter",
      "profile_path": "/20lWyzg86kWwetMLh0Nq9eTcvSz.jpg",
      "popularity": 7.326,
      "adult": false,
      "known_for_department": "Acting"
    },
    {
      "id": 1416494,
      "name": "T. K. Kala",
      "profile_path": "/2TTBIO2x3BrjUcHYl69ELkC12jp.jpg",
      "popularity": 7.325,
      "adult": false,
      "known_for_department": "Acting"
    },
    {
      "id": 93713,
      "name": "Amelia Bullmore",
      "profile_path": "/qsvkxSBAxj1O1pEXUFIyh85YMk9.jpg",
      "popularity": 7.324,
      "adult": false,
      "known_for_department": "Acting"
    },
    {
      "id": 2711,
      "name": "William Wisher",
      "profile_path": "/tcSuYg13SNk5TRkJdV1K1s8D8Jr.jpg",
      "popularity": 7.323,
      "adult": false,
      "known_for_department": "Writing"
    },
    {
      "id": 1492992,
      "name": "Yuma Uchida",
      "profile_path": "/tfOQOXhENBO5VFgwl8xiJNZb0pE.jpg",
      "popularity": 7.322,
      "adult": false,
      "known_for_department": "Acting"
    },
    {
      "id": 1128383,
      "name": "Juana Acosta",
      "profile_path": "/zRucxqVvjNR5uunqN8p1VfM35cy.jpg",
      "popularity": 7.322,
      "adult": false,
      "known_for_department": "Acting"
    },
    {
      "id": 120832,
      "name": "Kasia Smutniak",
      "profile_path": "/oO6cqUmpXGymReZ24o0xCn2GQu8.jpg",
      "popularity": 7.322,
      "adult": false,
      "known_for_department": "Acting"
    },
    {
      "id": 15533,
      "name": "Olivier Martinez",
      "profile_path": "/rS1pHEsXrLWqpkmzItnAqnBEpZQ.jpg",
      "popularity": 7.322,
      "adult": false,
      "known_for_department": "Acting"
    },
    {
      "id": 2001085,
      "name": "Rabia Soytürk",
      "profile_path": "/nwfktxktHS5lbR797oAtlQhjE5G.jpg",
      "popularity": 7.321,
      "adult": false,
      "known_for_department": "Acting"
    },
    {
      "id": 1306572,
      "name": "Giselle Eisenberg",
      "profile_path": "/pcw1LZ3r0BQEI65egYOCTl8fpLI.jpg",
      "popularity": 7.321,
      "adult": false,
      "known_for_department": "Acting"
    },
    {
      "id": 186341,
      "name": "Miyuki Sawashiro",
      "profile_path": "/3l2HIkVifapvSPPGYZO4oI5snXk.jpg",
      "popularity": 7.321,
      "adult": false,
      "known_for_department": "Acting"
    },
    {
      "id": 155488,
      "name": "Kelly Clarkson",
      "profile_path": "/pNE7kEfDdFsErEbkUeV1aqZyPsi.jpg",
      "popularity": 7.321,
      "adult": false,
      "known_for_department": "Acting"
    },
    {
      "id": 83020,
      "name": "Song Seung-heon",
      "profile_path": "/bARhZL4jvwAMHCsYzzbUvLD6Pj7.jpg",
      "popularity": 7.321,
      "adult": false,
      "known_for_department": "Acting"
    }
  ]
}