{
  "page": 340,
  "total_results": 10000,
  "total_pages": 500,
  "results": [
    {
      "id": 1256399,
      "name": "Kimberly Ann Voltemas",
      "profile_path": "/zgo2a0h3N3oDhsteZzl6f0HEeAE.jpg",
      "popularity": 11.207,
      "adult": false,
      "known_for_department": "Acting"
    },
    {
      "id": 5587,
      "name": "Hank Azaria",
      "profile_path": "/yFDw4b0jucuFWNnGcBPfpYUtn16.jpg",
      "popularity": 11.207,
      "adult": false,
      "known_for_department": "Acting"
    },
    {
      "id": 225996,
      "name": "Hiroyuki Yoshino",
      "profile_path": "/314Wyamnl7mZKVmiDm5SPGroNB0.jpg",
      "popularity": 11.204,
      "adult": false,
      "known_for_department": "Acting"
    },
    {
      "id": 1791508,
      "name": "Freya Parker",
      "profile_path": "/k2nXbHWHjrheQ1k4TdPpWeecGu3.jpg",
      "popularity": 11.203,
      "adult": false,
      "known_for_department": "Acting"
    },
    {
      "id": 63208,
      "name": "Tommy Chong",
      "profile_path": "/xjAZc5IB4iPAlqpUbtM1LkcUAhI.jpg",
      "popularity": 11.202,
      "adult": false,
      "known_for_department": "Acting"
    },
    {
      "id": 1683093,
      "name": "Terayle Hill",
      "profile_path": "/6AuY4EWa5lKBhWTWHpKvuNqtrQq.jpg",
      "popularity": 11.201,
      "adult": false,
      "known_for_department": "Acting"
    },
    {
      "id": 1335825,
      "name": "Shin Sung-rok",
      "profile_path": "/6ajwIMcTc2jVFsjVOx2W0XARxpj.jpg",
      "popularity": 11.201,
      "adult": false,
      "known_for_department": "Acting"
    },
    {
      "id": 108020,
      "name": "Kaoru Yachigusa",
      "profile_path": "/1i7534WhBCtQUKmQmBoqwPJUQfR.jpg",
      "popularity": 11.201,
      "adult": false,
      "known_for_department": "Acting"
    },
    {
      "id": 61363,
      "name": "Alex Pettyfer",
      "profile_path": "/jcejkad2OWB71Bz1RRc4Ib0961k.jpg",
      "popularity": 11.201,
      "adult": false,
      "known_for_department": "Acting"
    },
    {
      "id": 1689733,
      "name": "George Harrison Xanthis",
      "profile_path": "/5bdwxXwA3Shev3IZZqtQUNFKjQB.jpg",
      "popularity": 11.199,
      "adult": false,
      "known_for_department": "Acting"
    },
    {
      "id": 102209,
      "name": "Erik Estrada",
      "profile_path": "/qrx8AHvFiGzj33W1qgIMAEL5uDZ.jpg",
      "popularity": 11.199,
      "adult": false,
      "known_for_department": "Acting"
    },
    {
      "id": 49824,
      "name": "Kathryn Erbe",
      "profile_path": "/gJ3hlTzTjpTVBsGadvUQGiBgjsV.jpg",
      "popularity": 11.198,
      "adult": false,
      "known_for_department": "Acting"
    },
    {
      "id": 107727,
      "name": "Ekaterina Vilkova",
      "profile_path": "/1WAHeyFthIrTbAr43nVTDw8zNzi.jpg",
      "popularity": 11.197,
      "adult": false,
      "known_for_department": "Acting"
    },
    {
      "id": 59177,
      "name": "Michael Rady",
      "profile_path": "/a702olRCFvJNVdrQkBKbeNkaAey.jpg",
      "popularity": 11.196,
      "adult": false,
      "known_for_department": "Acting"
    },
    {
      "id": 1117,
      "name": "Dennis Farina",
      "profile_path": "/4hEWe0ZcDpGlB3nRizLkVMcG13B.jpg",
      "popularity": 11.196,
      "adult": false,
      "known_for_department": "Acting"
    },
    {
      "id": 1068259,
      "name": "Marco Grazzini",
      "profile_path": "/i6QSn9wssoabEmDLsEIH6e7xaSs.jpg",
      "popularity": 11.193,
      "adult": false,
      "known_for_department": "Acting"
    },
    {
      "id": 235767,
      "name": "Colin O'Donoghue",
      "profile_path": "/jxdxsSd1cNY3bXqhVwe7BWNjsJ8.jpg",
      "popularity": 11.193,
      "adult": false,
      "known_for_department": "Acting"
    },
    {
      "id": 36322,
      "name": "Valentina Lodovini",
      "profile_path": "/3l2jLSzpHud4mvuTCdHW047exvR.jpg",
      "popularity": 11.192,
      "adult": false,
      "known_for_department": "Acting"
    },
    {
      "id": 1230173,
      "name": "Nancy Carell",
      "profile_path": "/uKVHd9dhyBtJtRYMkpRTeeh55oh.jpg",
      "popularity": 11.191,
      "adult": false,
      "known_for_department": "Acting"
    },
    {
      "id": 545087,
      "name": "Jaime Camil",
      "profile_path": "/o9sd2V9Sx1Be7w9RGTI9JbUo9rU.jpg",
      "popularity": 11.191,
      "adult": false,
      "known_for_department": "Acting"
    }
  ]
}