{
  "page": 79,
  "total_results": 10000,
  "total_pages": 500,
  "results": [
    {
      "id": 100,
      "name": "Scott Speedman",
      "profile_path": "/tGgD96WOhmuQU4e6ZTU5IEx4W9E.jpg",
      "popularity": 17.517,
      "adult": false,
      "known_for_department": "Acting"
    },
    {
      "id": 388,
      "name": "Jim Broadbent",
      "profile_path": "/jTyvGwwR1NFpvgDhcmuWZCM241w.jpg",
      "popularity": 17.509,
      "adult": false,
      "known_for_department": "Acting"
    },
    {
      "id": 130253,
      "name": "Logan Marshall-Green",
      "profile_path": "/tuOkBxu3xXv3m5W92bbq9zrFGGe.jpg",
      "popularity": 17.502,
      "adult": false,
      "known_for_department": "Acting"
    },
    {
      "id": 11180,
      "name": "David Bradley",
      "profile_path": "/znpkwHitb3pcaJbUmgDqG0YenYp.jpg",
      "popularity": 17.496,
      "adult": false,
      "known_for_department": "Acting"
    },
    {
      "id": 150587,
      "name": "Katie McGrath",
      "profile_path": "/cq9pc7qFRUKCrkXgsi5mJkb64U5.jpg",
      "popularity": 17.479,
      "adult": false,
      "known_for_department": "Acting"
    },
    {
      "id": 9138,
      "name": "Gemma Jones",
      "profile_path": "/qpvLa2bfCEbGI83RwDOyIThibQ6.jpg",
      "popularity": 17.478,
      "adult": false,
      "known_for_department": "Acting"
    },
    {
      "id": 1647448,
      "name": "Shiori Izawa",
      "profile_path": "/eHptDnhb7y2ODEJJczftCFG2uHF.jpg",
      "popularity": 17.476,
      "adult": false,
      "known_for_department": "Acting"
    },
    {
      "id": 825,
      "name": "Stacy Keach",
      "profile_path": "/13OOVHRE3G3f7VWlZV9wKOUDg0G.jpg",
      "popularity": 17.467,
      "adult": false,
      "known_for_department": "Acting"
    },
    {
      "id": 2511949,
      "name": "Anna-Maria Sieklucka",
      "profile_path": "/eoimM6DQ5ngqSAYaXHrIADHU52C.jpg",
      "popularity": 17.466,
      "adult": false,
      "known_for_department": "Acting"
    },
    {
      "id": 9657,
      "name": "Patrick Warburton",
      "profile_path": "/eLqDtbFYmlTxov9vT9Dwldn839v.jpg",
      "popularity": 17.464,
      "adult": false,
      "known_for_department": "Acting"
    },
    {
      "id": 10427,
      "name": "Anne Archer",
      "profile_path": "/yIHIdnoZ9iEoOdedheF1KUe4gcD.jpg",
      "popularity": 17.455,
      "adult": false,
      "known_for_department": "Acting"
    },
    {
      "id": 558900,
      "name": "Stephen Huszar",
      "profile_path": "/8tAp0omX7S5qfFCeodIg0IZuMwC.jpg",
      "popularity": 17.435,
      "adult": false,
      "known_for_department": "Acting"
    },
    {
      "id": 79079,
      "name": "Jamie McShane",
      "profile_path": "/wojvRZMpAwytyoFTMFOpvZ26qJq.jpg",
      "popularity": 17.435,
      "adult": false,
      "known_for_department": "Acting"
    },
    {
      "id": 147590,
      "name": "Debora Caprioglio",
      "profile_path": "/6LphVHv5z7EnsaaqbWfABsVwhHG.jpg",
      "popularity": 17.411,
      "adult": false,
      "known_for_department": "Acting"
    },
    {
      "id": 582130,
      "name": "Kim Ji-won",
      "profile_path": "/1IkKPBM75ZZf9OU2AcK5yBOA4iS.jpg",
      "popularity": 17.409,
      "adult": false,
      "known_for_department": "Acting"
    },
    {
      "id": 15007,
      "name": "Laura Harring",
      "profile_path": "/6g64N2VsADTPRDsKcJDO2ayGQUt.jpg",
      "popularity": 17.402,
      "adult": false,
      "known_for_department": "Acting"
    },
    {
      "id": 1705786,
      "name": "Can Yaman",
      "profile_path": "/qexV6nViZCqJCl0jiquD2ZCtljh.jpg",
      "popularity": 17.398,
      "adult": false,
      "known_for_department": "Acting"
    },
    {
      "id": 55936,
      "name": "Jemaine Clement",
      "profile_path": "/6eiNbeurpHb2fxIeT0RrJ0wRI25.jpg",
      "popularity": 17.397,
      "adult": false,
      "known_for_department": "Acting"
    },
    {
      "id": 1412526,
      "name": "Casey Deidrick",
      "profile_path": "/jeREpNbISQuY1dQj7MbpqxZjemX.jpg",
      "popularity": 17.396,
      "adult": false,
      "known_for_department": "Acting"
    },
    {
      "id": 41292,
      "name": "Keri Russell",
      "profile_path": "/u81mC6vZwliDRfnX1DpdGmmex61.jpg",
      "popularity": 17.394,
      "adult": false,
      "known_for_department": "Acting"
    }
  ]
}