{
  "page": 413,
  "total_results": 10000,
  "total_pages": 500,
  "results": [
    {
      "id": 61218,
      "name": "Abby Brammell",
      "profile_path": "/9Ma7FW2GiErRca8LK8U21N47Uh2.jpg",
      "popularity": 8.543,
      "adult": false,
      "known_for_department": "Acting"
    },
    {
      "id": 9626,
      "name": "Rip Torn",
      "profile_path": "/jP74MHyQl6R8mH7aZKHrrD2Qjj2.jpg",
      "popularity": 8.542,
      "adult": false,
      "known_for_department": "Acting"
    },
    {
      "id": 2476984,
      "name": "Song Chae-yoon",
      "profile_path": "/8JiL0bnYy3SxQa8eGEmtQtRuvOe.jpg",
      "popularity": 8.541,
      "adult": false,
      "known_for_department": "Acting"
    },
    {
      "id": 11520,
      "name": "Michael C. Maronna",
      "profile_path": "/vLmaPosdi7sLutyg5QkJHceRY5F.jpg",
      "popularity": 8.541,
      "adult": false,
      "known_for_department": "Acting"
    },
    {
      "id": 100653,
      "name": "Vanessa Bell Calloway",
      "profile_path": "/6gJua6IKvhGrCTU1UzgRhOM9oyl.jpg",
      "popularity": 8.54,
      "adult": false,
      "known_for_department": "Acting"
    },
    {
      "id": 1538786,
      "name": "Lukerya Ilyashenko",
      "profile_path": "/qMS5Q2lqU2RoKRFoI2s4cRzVavO.jpg",
      "popularity": 8.537,
      "adult": false,
      "known_for_department": "Acting"
    },
    {
      "id": 1220016,
      "name": "Belinda Lang",
      "profile_path": "/uKBZCC7z9qrlXuqnXlScD6guHIQ.jpg",
      "popularity": 8.537,
      "adult": false,
      "known_for_department": "Acting"
    },
    {
      "id": 1202404,
      "name": "Nobuyuki Suzuki",
      "profile_path": "/xtqy7WCwD9QFFfaZCbB2nsokbZS.jpg",
      "popularity": 8.537,
      "adult": false,
      "known_for_department": "Acting"
    },
    {
      "id": 124478,
      "name": "Aya Hisakawa",
      "profile_path": "/qiFoBAalxs63mjk9mb6PbbpUxTm.jpg",
      "popularity": 8.537,
      "adult": false,
      "known_for_department": "Acting"
    },
    {
      "id": 90137,
      "name": "Nobuyuki Hiyama",
      "profile_path": "/mZp2JyaHnFGmyqpzFj5sMiIVulb.jpg",
      "popularity": 8.534,
      "adult": false,
      "known_for_department": "Acting"
    },
    {
      "id": 88967,
      "name": "Greg Berlanti",
      "profile_path": "/1T24SiIIDMa9gAmq7QaYwZywq4y.jpg",
      "popularity": 8.534,
      "adult": false,
      "known_for_department": "Production"
    },
    {
      "id": 68528,
      "name": "Adam Storke",
      "profile_path": "/1T5DDv2yjqyKTpqTWkbuwlRIue8.jpg",
      "popularity": 8.534,
      "adult": false,
      "known_for_department": "Acting"
    },
    {
      "id": 18067,
      "name": "Rachael Stirling",
      "profile_path": "/nk0evvx3mScy3kRnbXWi1g64ZMw.jpg",
      "popularity": 8.533,
      "adult": false,
      "known_for_department": "Acting"
    },
    {
      "id": 12329,
      "name": "Vittorio De Sica",
      "profile_path": "/p793imBa2qIqTKyuXynphs5daYJ.jpg",
      "popularity": 8.532,
      "adult": false,
      "known_for_department": "Directing"
    },
    {
      "id": 37936,
      "name": "Christina Milian",
      "profile_path": "/8gjuOvjQytPC5BygAToJgBIctpN.jpg",
      "popularity": 8.53,
      "adult": false,
      "known_for_department": "Acting"
    },
    {
      "id": 28637,
      "name": "Andy Richter",
      "profile_path": "/qazhLkyKOsPmdOQSaUWWbbUjs9q.jpg",
      "popularity": 8.529,
      "adult": false,
      "known_for_department": "Acting"
    },
    {
      "id": 17380,
      "name": "Jay Chou",
      "profile_path": "/9wkudnDDSHC0fSTRIrsoEphGuOM.jpg",
      "popularity": 8.529,
      "adult": false,
      "known_for_department": "Acting"
    },
    {
      "id": 1907999,
      "name": "Yoo Ri",
      "profile_path": "",
      "popularity": 8.528,
      "adult": false,
      "known_for_department": "Acting"
    },
    {
      "id": 2579527,
      "name": "Charli D'Amelio",
      "profile_path": "/5jFvVfGwZQmR9VNA7LMxTBcj1ln.jpg",
      "popularity": 8.527,
      "adult": false,
      "known_for_department": "Acting"
    },
    {
      "id": 1009,
      "name": "Randolph Scott",
      "profile_path": "/qM2DNQ7kI9oZqAYfhzgKaGURCnm.jpg",
      "popularity": 8.527,
      "adult": false,
      "known_for_department": "Acting"
    }
  ]
}