{
  "page": 416,
  "total_results": 10000,
  "total_pages": 500,
  "results": [
    {
      "id": 48577,
      "name": "Mathilde Seigner",
      "profile_path": "/AiuFNfBOyWWuOygzgu6bNgXyoXU.jpg",
      "popularity": 8.847,
      "adult": false,
      "known_for_department": "Acting"
    },
    {
      "id": 2516,
      "name": "Anthony Zerbe",
      "profile_path": "/i6bSWWUJrzh3KeckBeE7uNeZ6KM.jpg",
      "popularity": 10.447,
      "adult": false,
      "known_for_department": "Acting"
    },
    {
      "id": 129827,
      "name": "Yosuke Asari",
      "profile_path": "/a41N4Www1BKYF3ZEkuxYx2GZo2U.jpg",
      "popularity": 7.247,
      "adult": false,
      "known_for_department": "Acting"
    },
    {
      "id": 111512,
      "name": "Jerry Trainor",
      "profile_path": "/6zqRIYR24G5LRD5wHyOkE79babe.jpg",
      "popularity": 10.447,
      "adult": false,
      "known_for_department": "Acting"
    },
    {
      "id": 1258371,
      "name": "Hei Zi",
      "profile_path": "/b7coEiCPXOwkIj92WGxK8zcCP6r.jpg",
      "popularity": 6.847,
      "adult": false,
      "known_for_department": "Acting"
    },
    {
      "id": 68528,
      "name": "Adam Storke",
      "profile_path": "/1T5DDv2yjqyKTpqTWkbuwlRIue8.jpg",
      "popularity": 9.246,
      "adult": false,
      "known_for_department": "Acting"
    },
    {
      "id": 1384559,
      "name": "Mai Duong Kieu",
      "profile_path": "/mOyJqV02D21OrxYrAWu47BzsIwq.jpg",
      "popularity": 7.246,
      "adult": false,
      "known_for_department": "Acting"
    },
    {
      "id": 77120,
      "name": "Steve Austin",
      "profile_path": "/xLc81J33tXrzlMjEFxBTKP4kgO0.jpg",
      "popularity": 10.046,
      "adult": false,
      "known_for_department": "Acting"
    },
    {
      "id": 55374,
      "name": "Kane Ritchotte",
      "profile_path": "/j8C86zE0BjAIRpROaMTmnTQAyhx.jpg",
      "popularity": 7.646,
      "adult": false,
      "known_for_department": "Acting"
    },
    {
      "id": 52144,
      "name": "Lana Clarkson",
      "profile_path": "/mPcfJBBENUFpXkK7eWGeljxhuun.jpg",
      "popularity": 9.646,
      "adult": false,
      "known_for_department": "Acting"
    },
    {
      "id": 216409,
      "name": "Cory Lee",
      "profile_path": "/fghcWFgEJJOn82tNGUr8vvFQBFi.jpg",
      "popularity": 6.446,
      "adult": false,
      "known_for_department": "Acting"
    },
    {
      "id": 76595,
      "name": "Byron Howard",
      "profile_path": "/ePJXkxrD44nM0VB7Xx9Q4ityzfT.jpg",
      "popularity": 9.646,
      "adult": false,
      "known_for_department": "Acting"
    },
    {
      "id": 8854,
      "name": "Bill Cobbs",
      "profile_path": "/cP2ETKFdk93z4e1oXZVG0utI3IM.jpg",
      "popularity": 8.845,
      "adult": false,
      "known_for_department": "Acting"
    },
    {
      "id": 31647,
      "name": "Garcelle Beauvais",
      "profile_path": "/7g5KgXpNYi21Twlkwwta2R30sU6.jpg",
      "popularity": 12.445,
      "adult": false,
      "known_for_department": "Acting"
    },
    {
      "id": 1767250,
      "name": "Ariana Greenblatt",
      "profile_path": "/rm6yLSvxHsmyHUmKy10DmBrB4SH.jpg",
      "popularity": 8.445,
      "adult": false,
      "known_for_department": "Acting"
    },
    {
      "id": 83414,
      "name": "Tim Conway",
      "profile_path": "/ejIaBqJt4shL7n7LfphvKWAIgWl.jpg",
      "popularity": 8.045,
      "adult": false,
      "known_for_department": "Acting"
    },
    {
      "id": 1089770,
      "name": "Robert Christopher Riley",
      "profile_path": "/fGQ4ek9pGSucHLhyP0qNKc4zg9h.jpg",
      "popularity": 7.644,
      "adult": false,
      "known_for_department": "Acting"
    },
    {
      "id": 112278,
      "name": "Wataru Takagi",
      "profile_path": "/amccLvyTl5JP7T9F05BojgQedNw.jpg",
      "popularity": 6.444,
      "adult": false,
      "known_for_department": "Acting"
    },
    {
      "id": 108535,
      "name": "Jung Ryeo-won",
      "profile_path": "/iIZDoACPMkqLwbZEckiP3tdS1Pu.jpg",
      "popularity": 8.444,
      "adult": false,
      "known_for_department": "Acting"
    },
    {
      "id": 35550,
      "name": "Danny Strong",
      "profile_path": "/82C6hgzdpHUHizMfedNAP7DSGOj.jpg",
      "popularity": 8.844,
      "adult": false,
      "known_for_department": "Acting"
    }
  ]
}