{
  "page": 314,
  "total_results": 10000,
  "total_pages": 500,
  "results": [
    {
      "id": 1210153,
      "name": "Rocky Myers",
      "profile_path": "/eN5NK71ABZtso4QDrYFrhz2JRvZ.jpg",
      "popularity": 10.164,
      "adult": false,
      "known_for_department": "Acting"
    },
    {
      "id": 101015,
      "name": "Chin Han",
      "profile_path": "/bFrdZelxF1GW2TsIWJFZfC4IEDR.jpg",
      "popularity": 10.164,
      "adult": false,
      "known_for_department": "Acting"
    },
    {
      "id": 27725,
      "name": "Jane Kaczmarek",
      "profile_path": "/feFWEstrs4gHDIYNMACdvMGdNb9.jpg",
      "popularity": 10.164,
      "adult": false,
      "known_for_department": "Acting"
    },
    {
      "id": 111922,
      "name": "Robert Capron",
      "profile_path": "/guZBTo6pY4B2iKpIjTZ0Nnmfwrz.jpg",
      "popularity": 10.163,
      "adult": false,
      "known_for_department": "Acting"
    },
    {
      "id": 72873,
      "name": "Michael Stuhlbarg",
      "profile_path": "/aYB3SQm3h6ZyAdlbGyiNfakjx56.jpg",
      "popularity": 10.163,
      "adult": false,
      "known_for_department": "Acting"
    },
    {
      "id": 28010,
      "name": "David Ogden Stiers",
      "profile_path": "/cgCTQt3RZVkhkusG77l4HwHEH6A.jpg",
      "popularity": 10.163,
      "adult": false,
      "known_for_department": "Acting"
    },
    {
      "id": 18915,
      "name": "Catherine Schell",
      "profile_path": "/bvlJGSVKD1OrjReLBH4vECTLb2w.jpg",
      "popularity": 10.162,
      "adult": false,
      "known_for_department": "Acting"
    },
    {
      "id": 1003801,
      "name": "Ciara Hanna",
      "profile_path": "/o9ZXZiAOE5FAJuvQyPIgs9xeUVA.jpg",
      "popularity": 10.161,
      "adult": false,
      "known_for_department": "Acting"
    },
    {
      "id": 1460362,
      "name": "Katrine Greis-Rosenthal",
      "profile_path": "/jv0O3SqhMHEMOuLq7SJpwS2Re9N.jpg",
      "popularity": 10.16,
      "adult": false,
      "known_for_department": "Acting"
    },
    {
      "id": 1339147,
      "name": "Tori Anderson",
      "profile_path": "/4s3YDyecXglwsBupl9fiK6WOGGS.jpg",
      "popularity": 10.16,
      "adult": false,
      "known_for_department": "Acting"
    },
    {
      "id": 76594,
      "name": "Miley Cyrus",
      "profile_path": "/mg9FOmZPp1sq2ZzgnVJt5qoMDS1.jpg",
      "popularity": 10.16,
      "adult": false,
      "known_for_department": "Acting"
    },
    {
      "id": 65831,
      "name": "Robert LaSardo",
      "profile_path": "/maezwGo8JUbjECLB6VZJPtGvn1B.jpg",
      "popularity": 10.16,
      "adult": false,
      "known_for_department": "Acting"
    },
    {
      "id": 3282,
      "name": "Sara Gilbert",
      "profile_path": "/8D0ahnddH6EOS8zE5DAV7mAcGzy.jpg",
      "popularity": 10.16,
      "adult": false,
      "known_for_department": "Acting"
    },
    {
      "id": 1277598,
      "name": "Sinja Dieks",
      "profile_path": "/7afbtfphveZFDOOk0Z6UjX4a025.jpg",
      "popularity": 10.159,
      "adult": false,
      "known_for_department": "Acting"
    },
    {
      "id": 1223707,
      "name": "Davis Cleveland",
      "profile_path": "/xrhOpMnxFXm2Q1XZJW913v23zrF.jpg",
      "popularity": 10.159,
      "adult": false,
      "known_for_department": "Acting"
    },
    {
      "id": 53651,
      "name": "Monique Gabriela Curnen",
      "profile_path": "/lJgLQs7cfM49m8VzVviwxIByz76.jpg",
      "popularity": 10.156,
      "adult": false,
      "known_for_department": "Acting"
    },
    {
      "id": 997887,
      "name": "Ronda Rousey",
      "profile_path": "/5eGHTV1bLOdajC4Z3pnIdSiptSG.jpg",
      "popularity": 10.155,
      "adult": false,
      "known_for_department": "Acting"
    },
    {
      "id": 27932,
      "name": "Lilli Palmer",
      "profile_path": "/gUiroPwEWr80afRywcvZlodcXfD.jpg",
      "popularity": 10.155,
      "adult": false,
      "known_for_department": "Acting"
    },
    {
      "id": 55469,
      "name": "Russell Tovey",
      "profile_path": "/ofIylBGO4zyonQJQrghOvLOtt9W.jpg",
      "popularity": 10.154,
      "adult": false,
      "known_for_department": "Acting"
    },
    {
      "id": 31514,
      "name": "Peter Jacobson",
      "profile_path": "/pGi9CnzEG4cLa2viUP89yvlPCyR.jpg",
      "popularity": 10.154,
      "adult": false,
      "known_for_department": "Acting"
    }
  ]
}