{
  "page": 67,
  "total_results": 10000,
  "total_pages": 500,
  "results": [
    {
      "id": 1279279,
      "name": "Virginia Gardner",
      "profile_path": "/1DnNysK267b0te48KCkUlTKoTzj.jpg",
      "popularity": 22.046,
      "adult": false,
      "known_for_department": "Acting"
    },
    {
      "id": 77075,
      "name": "Norm Macdonald",
      "profile_path": "/2yvDilFNgMdWUH9xbvGhad2w7VC.jpg",
      "popularity": 22.035,
      "adult": false,
      "known_for_department": "Acting"
    },
    {
      "id": 20530,
      "name": "Philippine Leroy-Beaulieu",
      "profile_path": "/1wt9AWB8HQz23VDmcZA0tVQn0vx.jpg",
      "popularity": 22.032,
      "adult": false,
      "known_for_department": "Acting"
    },
    {
      "id": 58873,
      "name": "Dan Fogler",
      "profile_path": "/zJWbLEjfbDthBMucq9M6L4GJXL3.jpg",
      "popularity": 22.022,
      "adult": false,
      "known_for_department": "Acting"
    },
    {
      "id": 1676769,
      "name": "Clara Rosager",
      "profile_path": "/AsGGddS4bMNuNnlv5VFlePx3Fmo.jpg",
      "popularity": 22.013,
      "adult": false,
      "known_for_department": "Acting"
    },
    {
      "id": 1467219,
      "name": "Joe Keery",
      "profile_path": "/ayIAVLMfZGEGIFwAo3pPnY7p59.jpg",
      "popularity": 22.006,
      "adult": false,
      "known_for_department": "Acting"
    },
    {
      "id": 1511997,
      "name": "Andi Matichak",
      "profile_path": "/8XGIcVo5flyPKIbaEQiw8cMXgBj.jpg",
      "popularity": 21.998,
      "adult": false,
      "known_for_department": "Acting"
    },
    {
      "id": 8293,
      "name": "Marion Cotillard",
      "profile_path": "/zChwjQ9D90fxx6cgWz5mUWHNd5b.jpg",
      "popularity": 21.996,
      "adult": false,
      "known_for_department": "Acting"
    },
    {
      "id": 1277188,
      "name": "Jacob Tremblay",
      "profile_path": "/oNLhzkZXNw1RNihne9P5q57cRcd.jpg",
      "popularity": 21.994,
      "adult": false,
      "known_for_department": "Acting"
    },
    {
      "id": 8688,
      "name": "Diego Luna",
      "profile_path": "/uH8sMbiMmy9sprKr1vJpoPBB40E.jpg",
      "popularity": 21.981,
      "adult": false,
      "known_for_department": "Acting"
    },
    {
      "id": 3627,
      "name": "Paz Vega",
      "profile_path": "/fNLlJysFd5f0Q8Lj20EZpU8BiRN.jpg",
      "popularity": 21.969,
      "adult": false,
      "known_for_department": "Acting"
    },
    {
      "id": 15887,
      "name": "Julia Ormond",
      "profile_path": "/u7Oz6nHfMSlXuT34K7Ffp4f2qgP.jpg",
      "popularity": 21.964,
      "adult": false,
      "known_for_department": "Acting"
    },
    {
      "id": 21625,
      "name": "Molly Ringwald",
      "profile_path": "/eXRphPiX18t8C3nCoOuxQFNegqP.jpg",
      "popularity": 21.955,
      "adult": false,
      "known_for_department": "Acting"
    },
    {
      "id": 17289,
      "name": "Rodrigo Santoro",
      "profile_path": "/d3MaF9SPHDn2PMYHuqdnO0Csik6.jpg",
      "popularity": 21.943,
      "adult": false,
      "known_for_department": "Acting"
    },
    {
      "id": 58369,
      "name": "Alexandra Breckenridge",
      "profile_path": "/tyR52cqImLCFwT8otR15Edvih9b.jpg",
      "popularity": 21.941,
      "adult": false,
      "known_for_department": "Acting"
    },
    {
      "id": 5374,
      "name": "Jim Parsons",
      "profile_path": "/sa05slVgacuXe94UFnQs4rfqZL4.jpg",
      "popularity": 21.94,
      "adult": false,
      "known_for_department": "Acting"
    },
    {
      "id": 81133,
      "name": "Amy Acker",
      "profile_path": "/u0R8FXCuQkwYQG5gRrOGH4XtBwP.jpg",
      "popularity": 21.931,
      "adult": false,
      "known_for_department": "Acting"
    },
    {
      "id": 5587,
      "name": "Hank Azaria",
      "profile_path": "/yFDw4b0jucuFWNnGcBPfpYUtn16.jpg",
      "popularity": 21.931,
      "adult": false,
      "known_for_department": "Acting"
    },
    {
      "id": 1518,
      "name": "Frances O'Connor",
      "profile_path": "/tWGMS7DciV43tlxA6UEc2UqxrhL.jpg",
      "popularity": 21.93,
      "adult": false,
      "known_for_department": "Acting"
    },
    {
      "id": 2046128,
      "name": "Milly Alcock",
      "profile_path": "/xYpXcZ2aBclWweLSyxmXaFMUrn8.jpg",
      "popularity": 21.926,
      "adult": false,
      "known_for_department": "Acting"
    }
  ]
}