{
  "page": 457,
  "total_results": 10000,
  "total_pages": 500,
  "results": [
    {
      "id": 1524100,
      "name": "Tom Blyth",
      "profile_path": "/gdZWnmo05iDr3yu5WtuB5iR78C8.jpg",
      "popularity": 8.386,
      "adult": false,
      "known_for_department": "Acting"
    },
    {
      "id": 2109360,
      "name": "Nana Mori",
      "profile_path": "/kmvxKEhUeolX4frX2ws4NnfIdf3.jpg",
      "popularity": 8.385,
      "adult": false,
      "known_for_department": "Acting"
    },
    {
      "id": 1190818,
      "name": "Sara Sanderson",
      "profile_path": "/bdMsYAxpOhXqGkJ4AjZ0sGmaodM.jpg",
      "popularity": 8.385,
      "adult": false,
      "known_for_department": "Acting"
    },
    {
      "id": 70673,
      "name": "Lo Lieh",
      "profile_path": "/cUZZlI9m1JnxmCvOWDtDu5hqO3p.jpg",
      "popularity": 8.385,
      "adult": false,
      "known_for_department": "Acting"
    },
    {
      "id": 1105796,
      "name": "Jay Hayden",
      "profile_path": "/blBIWNzXKBEfynH15n020QWaWmh.jpg",
      "popularity": 8.384,
      "adult": false,
      "known_for_department": "Acting"
    },
    {
      "id": 82662,
      "name": "AnnaLynne McCord",
      "profile_path": "/5Qv1YnfslSqq8lRHifP94VbA8jk.jpg",
      "popularity": 8.384,
      "adult": false,
      "known_for_department": "Acting"
    },
    {
      "id": 548485,
      "name": "Leni Lan",
      "profile_path": "/kaGwJAXURS2BubJSecSXlK8wDsC.jpg",
      "popularity": 8.383,
      "adult": false,
      "known_for_department": "Acting"
    },
    {
      "id": 107810,
      "name": "Aleks Paunovic",
      "profile_path": "/k8j9Nr0xS2vEUMV8Wl0y5cC2NeB.jpg",
      "popularity": 8.383,
      "adult": false,
      "known_for_department": "Acting"
    },
    {
      "id": 58528,
      "name": "James Urbaniak",
      "profile_path": "/6WnlD8c9kHFh6BkQJmQ4CMSTjKT.jpg",
      "popularity": 8.383,
      "adult": false,
      "known_for_department": "Acting"
    },
    {
      "id": 1237956,
      "name": "Sian Brooke",
      "profile_path": "/kEp3VDtE1bhL9J94twIqL93pLbU.jpg",
      "popularity": 8.382,
      "adult": false,
      "known_for_department": "Acting"
    },
    {
      "id": 1094648,
      "name": "Bae Jong-ok",
      "profile_path": "/ia5XNYoaJ8WgZZgjr999XdIgY2K.jpg",
      "popularity": 8.382,
      "adult": false,
      "known_for_department": "Acting"
    },
    {
      "id": 562730,
      "name": "Danila Kozlovsky",
      "profile_path": "/burD0f0IEOj6FyU5Zokf6VLhHKe.jpg",
      "popularity": 8.382,
      "adult": false,
      "known_for_department": "Acting"
    },
    {
      "id": 18284,
      "name": "Loretta Devine",
      "profile_path": "/cGTQ0X19bkMWqL6O00JK2t6uJBK.jpg",
      "popularity": 8.382,
      "adult": false,
      "known_for_department": "Acting"
    },
    {
      "id": 154644,
      "name": "Una Damon",
      "profile_path": "/pLRTeGtFBXAHfXbDhVRv3irHyDq.jpg",
      "popularity": 8.381,
      "adult": false,
      "known_for_department": "Acting"
    },
    {
      "id": 27860,
      "name": "Barry Newman",
      "profile_path": "/lO5YVjEjM9zHsZ8kjz4QtGy7Der.jpg",
      "popularity": 8.381,
      "adult": false,
      "known_for_department": "Acting"
    },
    {
      "id": 2349063,
      "name": "Nicole Brydon Bloom",
      "profile_path": "/ixQ6PRu1RveKX3dNKeNMG32Y8ft.jpg",
      "popularity": 8.38,
      "adult": false,
      "known_for_department": "Acting"
    },
    {
      "id": 2308991,
      "name": "Zeng Li",
      "profile_path": "/nE2m5WlpSGxgQ0TLb1cUigSnQVT.jpg",
      "popularity": 8.38,
      "adult": false,
      "known_for_department": "Acting"
    },
    {
      "id": 1233840,
      "name": "Koo Hye-sun",
      "profile_path": "/udHk7KExmXRuOVO6utT3IDpm6E1.jpg",
      "popularity": 8.38,
      "adult": false,
      "known_for_department": "Acting"
    },
    {
      "id": 586814,
      "name": "Solène Rigot",
      "profile_path": "/7XvXbDsbQTcZIYqQ5SuzfBxvvXf.jpg",
      "popularity": 8.38,
      "adult": false,
      "known_for_department": "Acting"
    },
    {
      "id": 74651,
      "name": "Josie Maran",
      "profile_path": "/tnkLlB1hQMsk0mgXzmQs7c7p1zV.jpg",
      "popularity": 8.38,
      "adult": false,
      "known_for_department": "Acting"
    }
  ]
}