{
  "page": 286,
  "total_results": 10000,
  "total_pages": 500,
  "results": [
    {
      "id": 87257,
      "name": "Cary Joji Fukunaga",
      "profile_path": "/qhrtYCUM2NEaqVP3oB7vqkOTpx0.jpg",
      "popularity": 7.783,
      "adult": false,
      "known_for_department": "Directing"
    },
    {
      "id": 42803,
      "name": "Ajay Devgn",
      "profile_path": "/vnHQQFzTjJ0sv14DGMIoKa3qTxN.jpg",
      "popularity": 7.782,
      "adult": false,
      "known_for_department": "Acting"
    },
    {
      "id": 12950,
      "name": "George Kennedy",
      "profile_path": "/fIVmcPEcPmh0Rbx4mYf9aneCmDe.jpg",
      "popularity": 7.782,
      "adult": false,
      "known_for_department": "Acting"
    },
    {
      "id": 1102331,
      "name": "Annabelle Dexter-Jones",
      "profile_path": "/je4dS7rxKkl0TK2v7NuP2r4hSIv.jpg",
      "popularity": 7.781,
      "adult": false,
      "known_for_department": "Acting"
    },
    {
      "id": 5412,
      "name": "Raoul Bova",
      "profile_path": "/hJQCTTCB6mCspjjhOkXQ5u0ekWj.jpg",
      "popularity": 7.781,
      "adult": false,
      "known_for_department": "Acting"
    },
    {
      "id": 1148697,
      "name": "Adam Hurtig",
      "profile_path": "/nLOpEqGZkalzE74sXP3JMx4oq43.jpg",
      "popularity": 7.78,
      "adult": false,
      "known_for_department": "Acting"
    },
    {
      "id": 7073,
      "name": "Michael Berryman",
      "profile_path": "/jnyXbS5NqYdfZyvRUX2PHeKuOg4.jpg",
      "popularity": 7.78,
      "adult": false,
      "known_for_department": "Acting"
    },
    {
      "id": 1836,
      "name": "Julia Davis",
      "profile_path": "/wsUNCSKoNQTgSdlr9FIeIR6hRAd.jpg",
      "popularity": 7.78,
      "adult": false,
      "known_for_department": "Acting"
    },
    {
      "id": 183538,
      "name": "Barry Sloane",
      "profile_path": "/u3MTyGPwfzNOWSEwA51kKzF2Q22.jpg",
      "popularity": 7.779,
      "adult": false,
      "known_for_department": "Acting"
    },
    {
      "id": 131781,
      "name": "Adelaide Kane",
      "profile_path": "/3QegxqIuKy9Zbl4Tf6a6U06qBlc.jpg",
      "popularity": 7.779,
      "adult": false,
      "known_for_department": "Acting"
    },
    {
      "id": 1213573,
      "name": "Taran Killam",
      "profile_path": "/zE4JnkNgs7Yx6zOzdOcxHB4vA1t.jpg",
      "popularity": 7.778,
      "adult": false,
      "known_for_department": "Acting"
    },
    {
      "id": 134704,
      "name": "Wu Ma",
      "profile_path": "/zfvulEXVw72RAf4OkOdkykDnqUH.jpg",
      "popularity": 7.778,
      "adult": false,
      "known_for_department": "Acting"
    },
    {
      "id": 2055471,
      "name": "Burak Serdar Şanal",
      "profile_path": "/dC4JlICNDJT0SGfSx4NWYsEqsXh.jpg",
      "popularity": 7.777,
      "adult": false,
      "known_for_department": "Acting"
    },
    {
      "id": 30553,
      "name": "Henry Brandon",
      "profile_path": "/kwc3oyYhq53tG2WMXXMOrMJopcA.jpg",
      "popularity": 7.777,
      "adult": false,
      "known_for_department": "Acting"
    },
    {
      "id": 1246933,
      "name": "Erika Jordan",
      "profile_path": "/mT6ed9B0cfGxfoshsNMYv6t4Flg.jpg",
      "popularity": 7.776,
      "adult": false,
      "known_for_department": "Acting"
    },
    {
      "id": 1258895,
      "name": "Ava Allan",
      "profile_path": "/fz7oTsBGWChftLDfMnouXm3Csk3.jpg",
      "popularity": 7.774,
      "adult": false,
      "known_for_department": "Acting"
    },
    {
      "id": 1246604,
      "name": "Nur Fettahoğlu",
      "profile_path": "/hwjjy4iVZiOoGjnMCVdCGTZg5Wl.jpg",
      "popularity": 7.774,
      "adult": false,
      "known_for_department": "Acting"
    },
    {
      "id": 226001,
      "name": "Ariana Grande",
      "profile_path": "/lHEIRq87N2ouQjMoX2HxEYqfOkl.jpg",
      "popularity": 7.774,
      "adult": false,
      "known_for_department": "Acting"
    },
    {
      "id": 19207,
      "name": "Timothy Bottoms",
      "profile_path": "/e0SKyrvvyJFZWx3QFzI4qAkWi8E.jpg",
      "popularity": 7.774,
      "adult": false,
      "known_for_department": "Acting"
    },
    {
      "id": 5401,
      "name": "Anthony Quinn",
      "profile_path": "/kw9uwpEa2QduS7EfIjeReq73Rd7.jpg",
      "popularity": 7.774,
      "adult": false,
      "known_for_department": "Acting"
    }
  ]
}