{
  "page": 265,
  "total_results": 10000,
  "total_pages": 500,
  "results": [
    {
      "id": 16555,
      "name": "Bill McKinney",
      "profile_path": "/teDs0ySfApuDUaO86OfRiiQRZwz.jpg",
      "popularity": 10.303,
      "adult": false,
      "known_for_department": "Acting"
    },
    {
      "id": 516,
      "name": "Annette Bening",
      "profile_path": "/jgG41fbSC3TK4LL67Obzrg0mTJ9.jpg",
      "popularity": 10.303,
      "adult": false,
      "known_for_department": "Acting"
    },
    {
      "id": 1108805,
      "name": "Huma Qureshi",
      "profile_path": "/j4RI7eoSqbWTK6hkCNO9wN78dMM.jpg",
      "popularity": 10.301,
      "adult": false,
      "known_for_department": "Acting"
    },
    {
      "id": 26755,
      "name": "Charlie Cho",
      "profile_path": "/iPJffWovlVwpuLAqjhGl5ulyTS4.jpg",
      "popularity": 10.298,
      "adult": false,
      "known_for_department": "Acting"
    },
    {
      "id": 172935,
      "name": "Lloyd Owen",
      "profile_path": "/xsBtLkxCedK1z4wfC11Q2ZBQa8Q.jpg",
      "popularity": 10.297,
      "adult": false,
      "known_for_department": "Acting"
    },
    {
      "id": 123766,
      "name": "Kim Joo-hyuk",
      "profile_path": "/nNZzUKARziU8V77Hh8xIJ89neRu.jpg",
      "popularity": 10.297,
      "adult": false,
      "known_for_department": "Acting"
    },
    {
      "id": 223126,
      "name": "Megan Charpentier",
      "profile_path": "/zwhNKXaYRU6FC4PaFe53jhWp52R.jpg",
      "popularity": 10.296,
      "adult": false,
      "known_for_department": "Acting"
    },
    {
      "id": 1793,
      "name": "Ricardo Montalban",
      "profile_path": "/lL4I7U0j6Jc31XNohM86FN6D23I.jpg",
      "popularity": 10.296,
      "adult": false,
      "known_for_department": "Acting"
    },
    {
      "id": 52300,
      "name": "Claudia Christian",
      "profile_path": "/bwmh731OxEyzgtR95nRraLDZLyB.jpg",
      "popularity": 10.294,
      "adult": false,
      "known_for_department": "Acting"
    },
    {
      "id": 8396,
      "name": "Tom 'Tiny' Lister Jr.",
      "profile_path": "/i1seZDiLC3AKrAYqfFSln6ZGNmF.jpg",
      "popularity": 10.294,
      "adult": false,
      "known_for_department": "Acting"
    },
    {
      "id": 576474,
      "name": "Juliana Harkavy",
      "profile_path": "/mO8gTYhjrVO2N2dtjwWt1PEYjoo.jpg",
      "popularity": 10.293,
      "adult": false,
      "known_for_department": "Acting"
    },
    {
      "id": 11901,
      "name": "Dennis Franz",
      "profile_path": "/kbSUcfAbhV1kWuDtLhH5CQwcbJQ.jpg",
      "popularity": 10.289,
      "adult": false,
      "known_for_department": "Acting"
    },
    {
      "id": 12139,
      "name": "Lolita Davidovich",
      "profile_path": "/cDpuHwPkWkLy8LSBXKIn5Gx3JUF.jpg",
      "popularity": 10.287,
      "adult": false,
      "known_for_department": "Acting"
    },
    {
      "id": 22252,
      "name": "Leslie Easterbrook",
      "profile_path": "/cgivmDAMFWTMGKGr12Z0HjEcBgN.jpg",
      "popularity": 10.285,
      "adult": false,
      "known_for_department": "Acting"
    },
    {
      "id": 1998733,
      "name": "Jaboukie Young-White",
      "profile_path": "/8OYI8OqsMUpBZica4lM2odjgVH6.jpg",
      "popularity": 10.283,
      "adult": false,
      "known_for_department": "Acting"
    },
    {
      "id": 292445,
      "name": "Blake Shelton",
      "profile_path": "/fXgQ4O20f49wJHgTHUIM9T3XBAQ.jpg",
      "popularity": 10.283,
      "adult": false,
      "known_for_department": "Acting"
    },
    {
      "id": 137108,
      "name": "Johnny Flynn",
      "profile_path": "/xGCDMRFkUeEhz9h0cbK2lGuKTSD.jpg",
      "popularity": 10.282,
      "adult": false,
      "known_for_department": "Acting"
    },
    {
      "id": 82631,
      "name": "Joseph Sikora",
      "profile_path": "/xql9QZqU9povZhRIkuXym2FtoFq.jpg",
      "popularity": 10.281,
      "adult": false,
      "known_for_department": "Acting"
    },
    {
      "id": 1421349,
      "name": "Ana Alexander",
      "profile_path": "/1IlEGAdccjtTZKNSxvTHnHG1ROI.jpg",
      "popularity": 10.278,
      "adult": false,
      "known_for_department": "Acting"
    },
    {
      "id": 44976,
      "name": "Daniela Giordano",
      "profile_path": "/cbi1OfVRGxpG460wM4kJ6XHftnZ.jpg",
      "popularity": 10.277,
      "adult": false,
      "known_for_department": "Acting"
    }
  ]
}