{
  "page": 19,
  "total_results": 10000,
  "total_pages": 500,
  "results": [
    {
      "id": 114019,
      "name": "Luke Evans",
      "profile_path": "/qUkYJcrDc4M0LHNYASs30luFvw0.jpg",
      "popularity": 33.614,
      "adult": false,
      "known_for_department": "Acting"
    },
    {
      "id": 65871,
      "name": "Amanda Schull",
      "profile_path": "/uXcKWYCGoDJilx3fCYBkUBSuQ2k.jpg",
      "popularity": 33.512,
      "adult": false,
      "known_for_department": "Acting"
    },
    {
      "id": 57755,
      "name": "Woody Harrelson",
      "profile_path": "/gaibtvUFIlwHzRvNKV5UfrR4GCM.jpg",
      "popularity": 33.463,
      "adult": false,
      "known_for_department": "Acting"
    },
    {
      "id": 2230991,
      "name": "Daisy Edgar-Jones",
      "profile_path": "/uhrgWinc0W2Q1K0ynUmyTaWd8dv.jpg",
      "popularity": 33.388,
      "adult": false,
      "known_for_department": "Acting"
    },
    {
      "id": 17142,
      "name": "Paul Dano",
      "profile_path": "/1nwO8yqlFmIXFjYCMv7ExmYAatK.jpg",
      "popularity": 33.338,
      "adult": false,
      "known_for_department": "Acting"
    },
    {
      "id": 147977,
      "name": "Wendy Moniz",
      "profile_path": "/o6h5BiaTiezKKEOaQKiGuTGeePe.jpg",
      "popularity": 33.298,
      "adult": false,
      "known_for_department": "Acting"
    },
    {
      "id": 14406,
      "name": "Lisa Kudrow",
      "profile_path": "/9YNzHuT7L0wdEl3zua6iUYz5tYT.jpg",
      "popularity": 33.284,
      "adult": false,
      "known_for_department": "Acting"
    },
    {
      "id": 1356630,
      "name": "Charlie Murphy",
      "profile_path": "/3kgiUhc4fvFpAZTF5MylwjEvJNR.jpg",
      "popularity": 33.254,
      "adult": false,
      "known_for_department": "Acting"
    },
    {
      "id": 122237,
      "name": "Michaela Conlin",
      "profile_path": "/5Qv7KNTMDbdO7m5p1wIic5kVKr8.jpg",
      "popularity": 33.245,
      "adult": false,
      "known_for_department": "Acting"
    },
    {
      "id": 6684,
      "name": "Lara Flynn Boyle",
      "profile_path": "/1eOd7t7acV4Rtk6Kj3EeceRJbLZ.jpg",
      "popularity": 33.224,
      "adult": false,
      "known_for_department": "Acting"
    },
    {
      "id": 505710,
      "name": "Zendaya",
      "profile_path": "/xWOU0S7AqGEkyk8scLwwz66R2GO.jpg",
      "popularity": 33.22,
      "adult": false,
      "known_for_department": "Acting"
    },
    {
      "id": 11006,
      "name": "James Marsden",
      "profile_path": "/mk142GG0saiSXALY6V4wWcmPROW.jpg",
      "popularity": 33.139,
      "adult": false,
      "known_for_department": "Acting"
    },
    {
      "id": 150954,
      "name": "Diane Farr",
      "profile_path": "/r63GxSo6qYV5Hy2YZK717fMvxYt.jpg",
      "popularity": 33.086,
      "adult": false,
      "known_for_department": "Acting"
    },
    {
      "id": 19211,
      "name": "Ian Somerhalder",
      "profile_path": "/x0pfPTV0ryFmhz4fju3Depx4NLp.jpg",
      "popularity": 33.054,
      "adult": false,
      "known_for_department": "Acting"
    },
    {
      "id": 49971,
      "name": "Jennifer Ehle",
      "profile_path": "/kMddVKineLFpxsUoGrb3E6edkOv.jpg",
      "popularity": 33.039,
      "adult": false,
      "known_for_department": "Acting"
    },
    {
      "id": 74428,
      "name": "Tim McGraw",
      "profile_path": "/prKoPyWZDQYHZeTmFqvMW0EFWDB.jpg",
      "popularity": 32.983,
      "adult": false,
      "known_for_department": "Acting"
    },
    {
      "id": 240724,
      "name": "Naomi Scott",
      "profile_path": "/nNqqgP2yF1jkLZq9ndYcXOzTD2G.jpg",
      "popularity": 32.962,
      "adult": false,
      "known_for_department": "Acting"
    },
    {
      "id": 681,
      "name": "Nina Hoss",
      "profile_path": "/n0iOzWeNemXRTt4fgs7Tt2swtr1.jpg",
      "popularity": 32.94,
      "adult": false,
      "known_for_department": "Acting"
    },
    {
      "id": 19961,
      "name": "Nina Dobrev",
      "profile_path": "/67A1s3I8k831MJ7VRLX59hBNdNt.jpg",
      "popularity": 32.936,
      "adult": false,
      "known_for_department": "Acting"
    },
    {
      "id": 87722,
      "name": "Noomi Rapace",
      "profile_path": "/vdlUULsiwxEgxTwxn3vVQqmolcx.jpg",
      "popularity": 32.856,
      "adult": false,
      "known_for_department": "Acting"
    }
  ]
}