{
  "page": 235,
  "total_results": 10000,
  "total_pages": 500,
  "results": [
    {
      "id": 57745,
      "name": "Julie Condra",
      "profile_path": "/xhwvJSiOmydDCGa7XJa8TWfHvO0.jpg",
      "popularity": 11.889,
      "adult": false,
      "known_for_department": "Acting"
    },
    {
      "id": 40543,
      "name": "John Ortiz",
      "profile_path": "/tMDPYhpc9nqIJAK3vtMroEH9qho.jpg",
      "popularity": 11.889,
      "adult": false,
      "known_for_department": "Acting"
    },
    {
      "id": 77897,
      "name": "Tyra Banks",
      "profile_path": "/g5Aar3pS2imJowLgk0GVawyggvf.jpg",
      "popularity": 11.886,
      "adult": false,
      "known_for_department": "Acting"
    },
    {
      "id": 80116,
      "name": "Julie Strain",
      "profile_path": "/mOk6BkBbKoljJxKWxtcXLFmLokX.jpg",
      "popularity": 11.884,
      "adult": false,
      "known_for_department": "Acting"
    },
    {
      "id": 98234,
      "name": "Barbara Bain",
      "profile_path": "/jLUoYMqpxaIR2Vc4YmFCjdM0H6s.jpg",
      "popularity": 11.883,
      "adult": false,
      "known_for_department": "Acting"
    },
    {
      "id": 87070,
      "name": "Michael Chernus",
      "profile_path": "/Df2ZE3P9BiXawPtewinxLPNAu2.jpg",
      "popularity": 11.882,
      "adult": false,
      "known_for_department": "Acting"
    },
    {
      "id": 18473,
      "name": "James Badge Dale",
      "profile_path": "/xODHrgxKPNWYATKgZWQJLNhImlZ.jpg",
      "popularity": 11.882,
      "adult": false,
      "known_for_department": "Acting"
    },
    {
      "id": 16288,
      "name": "Lee Mi-sook",
      "profile_path": "/x7V9Mmu28eFkbfJYnnIm4w3mY7v.jpg",
      "popularity": 11.882,
      "adult": false,
      "known_for_department": "Acting"
    },
    {
      "id": 10584,
      "name": "Heidi Klum",
      "profile_path": "/UZiPxAUSkXJsXaHTJDnlW9lqnX.jpg",
      "popularity": 11.879,
      "adult": false,
      "known_for_department": "Acting"
    },
    {
      "id": 55266,
      "name": "Catherine Mary Stewart",
      "profile_path": "/bnzxmEpVmQT29okflCNwwLA63rz.jpg",
      "popularity": 11.878,
      "adult": false,
      "known_for_department": "Acting"
    },
    {
      "id": 18688,
      "name": "Harry Connick Jr.",
      "profile_path": "/il1t0cshowbZ6mMtH1930baQx9n.jpg",
      "popularity": 11.878,
      "adult": false,
      "known_for_department": "Acting"
    },
    {
      "id": 100602,
      "name": "Julia Duffy",
      "profile_path": "/mROYemMqxBKkKRjcH09pnrGNThw.jpg",
      "popularity": 11.876,
      "adult": false,
      "known_for_department": "Acting"
    },
    {
      "id": 2521557,
      "name": "Josh Swickard",
      "profile_path": "/5yVwWt6TCkGnUPGY2ENQs7PUVc7.jpg",
      "popularity": 11.873,
      "adult": false,
      "known_for_department": "Acting"
    },
    {
      "id": 26107,
      "name": "Alba Gaïa Bellugi",
      "profile_path": "/uLwwFxJqXFrFE8ThqUtjZ5UCgN3.jpg",
      "popularity": 11.872,
      "adult": false,
      "known_for_department": "Acting"
    },
    {
      "id": 200,
      "name": "Nancy Cartwright",
      "profile_path": "/40qNhyYJhSE2Yiy4pnXSZhdufO6.jpg",
      "popularity": 11.872,
      "adult": false,
      "known_for_department": "Acting"
    },
    {
      "id": 16217,
      "name": "Lynn Whitfield",
      "profile_path": "/wXSwJplyOgANJKTRvOAsvqURbP0.jpg",
      "popularity": 11.869,
      "adult": false,
      "known_for_department": "Acting"
    },
    {
      "id": 8963,
      "name": "Karen Black",
      "profile_path": "/2FUHvpCZ8A3we7yaEvIK8r06fCL.jpg",
      "popularity": 11.869,
      "adult": false,
      "known_for_department": "Acting"
    },
    {
      "id": 33286,
      "name": "Matthew Settle",
      "profile_path": "/69D3JqJslcqJ1lqwcet2zGRAr7n.jpg",
      "popularity": 11.868,
      "adult": false,
      "known_for_department": "Acting"
    },
    {
      "id": 17835,
      "name": "Ricky Gervais",
      "profile_path": "/2mAjcq9AQA9peQxNoeEW76DPIju.jpg",
      "popularity": 11.868,
      "adult": false,
      "known_for_department": "Acting"
    },
    {
      "id": 3146,
      "name": "Billy Wilder",
      "profile_path": "/tfVte6h2dlLn59Q0Mi6AvWAyRLP.jpg",
      "popularity": 11.866,
      "adult": false,
      "known_for_department": "Directing"
    }
  ]
}