{
  "page": 214,
  "total_results": 10000,
  "total_pages": 500,
  "results": [
    {
      "id": 1533946,
      "name": "Clark Olofsson",
      "profile_path": "/tUtxaTshEarI8PcEN4hcy3sj7KV.jpg",
      "popularity": 12.367,
      "adult": false,
      "known_for_department": "Writing"
    },
    {
      "id": 41229,
      "name": "Meg Foster",
      "profile_path": "/fGIeR5uPwPf9CF7uQPj9ReVD2IV.jpg",
      "popularity": 12.365,
      "adult": false,
      "known_for_department": "Acting"
    },
    {
      "id": 1774679,
      "name": "Jack Dylan Grazer",
      "profile_path": "/7O3XOIcfZlfiTNxVZ9Kx54F3U5b.jpg",
      "popularity": 12.361,
      "adult": false,
      "known_for_department": "Acting"
    },
    {
      "id": 198927,
      "name": "Sarah Drew",
      "profile_path": "/65hUM3Egh5roemP3Cgn0bA38rDj.jpg",
      "popularity": 12.359,
      "adult": false,
      "known_for_department": "Acting"
    },
    {
      "id": 1248340,
      "name": "Haruka Tomatsu",
      "profile_path": "/geVvuA2zMGE5xzfc20aDelJSelu.jpg",
      "popularity": 12.358,
      "adult": false,
      "known_for_department": "Acting"
    },
    {
      "id": 220241,
      "name": "Ehren McGhehey",
      "profile_path": "/4q6TuSoHj5kk1AuJaI1TYLob2yd.jpg",
      "popularity": 12.358,
      "adult": false,
      "known_for_department": "Acting"
    },
    {
      "id": 2833335,
      "name": "Oka Giner",
      "profile_path": "/A02d1PS1xyVitHkU0SaaaWsc9H1.jpg",
      "popularity": 12.356,
      "adult": false,
      "known_for_department": "Acting"
    },
    {
      "id": 1664773,
      "name": "Emmanuel Imani",
      "profile_path": "/gTYTHVIfv1HMr6h1gtLoACH7l17.jpg",
      "popularity": 12.356,
      "adult": false,
      "known_for_department": "Acting"
    },
    {
      "id": 3174,
      "name": "Richard Bright",
      "profile_path": "/potMaJ2u5PRjXZb7qF9lSW1ldNZ.jpg",
      "popularity": 12.356,
      "adult": false,
      "known_for_department": "Acting"
    },
    {
      "id": 42297,
      "name": "Brooke D'Orsay",
      "profile_path": "/8lBeEbyKz8KWz6XDdbymRpKoM9N.jpg",
      "popularity": 12.355,
      "adult": false,
      "known_for_department": "Acting"
    },
    {
      "id": 126495,
      "name": "Cho Seung-woo",
      "profile_path": "/74bpJbVJbXZpgNEXsHD3hrplykt.jpg",
      "popularity": 12.354,
      "adult": false,
      "known_for_department": "Acting"
    },
    {
      "id": 124402,
      "name": "Masaki Okada",
      "profile_path": "/j8yU6eLFPzxuucMjb8UapQly9cT.jpg",
      "popularity": 12.347,
      "adult": false,
      "known_for_department": "Acting"
    },
    {
      "id": 1646779,
      "name": "Angus Imrie",
      "profile_path": "/smM2jI7EbsuiSxQCHlJhnb8FQdj.jpg",
      "popularity": 12.342,
      "adult": false,
      "known_for_department": "Acting"
    },
    {
      "id": 1822751,
      "name": "Raquel Xu",
      "profile_path": "/kTtlxvYvkxOOEKZbd3xPreE5MX5.jpg",
      "popularity": 12.341,
      "adult": false,
      "known_for_department": "Acting"
    },
    {
      "id": 47774,
      "name": "Vincent Pastore",
      "profile_path": "/dyRRn8POwLUMHT7lIISujioYOym.jpg",
      "popularity": 12.34,
      "adult": false,
      "known_for_department": "Acting"
    },
    {
      "id": 1150,
      "name": "Brian De Palma",
      "profile_path": "/57sJhqM6Sp6WKL3nkA89yZg83bv.jpg",
      "popularity": 12.339,
      "adult": false,
      "known_for_department": "Directing"
    },
    {
      "id": 1028899,
      "name": "Meghann Fahy",
      "profile_path": "/inKBENsH8yzN0tAvaC6x0Wz5Tls.jpg",
      "popularity": 12.337,
      "adult": false,
      "known_for_department": "Acting"
    },
    {
      "id": 238512,
      "name": "Morten Harket",
      "profile_path": "/9da6TMZYeu1heuq9bzyEjfGW7RT.jpg",
      "popularity": 12.337,
      "adult": false,
      "known_for_department": "Acting"
    },
    {
      "id": 24381,
      "name": "Jean Yanne",
      "profile_path": "/nZAsOM0mtE0oHHj9DlbH94SxtAI.jpg",
      "popularity": 12.336,
      "adult": false,
      "known_for_department": "Acting"
    },
    {
      "id": 105648,
      "name": "Nat Faxon",
      "profile_path": "/i7bsT8ewAjCr7zByWOyCnbrT0x9.jpg",
      "popularity": 12.333,
      "adult": false,
      "known_for_department": "Acting"
    }
  ]
}