{
  "page": 173,
  "total_results": 10000,
  "total_pages": 500,
  "results": [
    {
      "id": 21353,
      "name": "Isaiah Washington",
      "profile_path": "/3yY5h1t7AKZpf4lfdSMwDQvCroQ.jpg",
      "popularity": 10.276,
      "adult": false,
      "known_for_department": "Acting"
    },
    {
      "id": 974317,
      "name": "Kate Upton",
      "profile_path": "/oObCz8SkJYeYu8uT3FobrJxQ5pD.jpg",
      "popularity": 10.275,
      "adult": false,
      "known_for_department": "Acting"
    },
    {
      "id": 32907,
      "name": "Nick Swardson",
      "profile_path": "/mkI0t4n0kV3tulTG41syiXGTmZk.jpg",
      "popularity": 10.275,
      "adult": false,
      "known_for_department": "Writing"
    },
    {
      "id": 120931,
      "name": "Tamsin Greig",
      "profile_path": "/qU1ccKUdy9Qlc9OJ0y1spPMQWx7.jpg",
      "popularity": 10.272,
      "adult": false,
      "known_for_department": "Acting"
    },
    {
      "id": 931785,
      "name": "Hanna Alström",
      "profile_path": "/7c9tjRFDQfxP37U5BgfoMdpu5Dw.jpg",
      "popularity": 10.269,
      "adult": false,
      "known_for_department": "Acting"
    },
    {
      "id": 2286339,
      "name": "Thuso Mbedu",
      "profile_path": "/v2Fw1NlHZ1sPS97DG2aDnreZwLR.jpg",
      "popularity": 10.266,
      "adult": false,
      "known_for_department": "Acting"
    },
    {
      "id": 11390,
      "name": "Peter O'Toole",
      "profile_path": "/2F15qrkiDp4qhYJnXuFqINIBsHp.jpg",
      "popularity": 10.265,
      "adult": false,
      "known_for_department": "Acting"
    },
    {
      "id": 1224027,
      "name": "Emily Bett Rickards",
      "profile_path": "/z46C01GwXe7GtnXjZdJPJ5SvwCP.jpg",
      "popularity": 10.262,
      "adult": false,
      "known_for_department": "Acting"
    },
    {
      "id": 1464589,
      "name": "Matilda Anna Ingrid Lutz",
      "profile_path": "/js1PbvyTEFXQeSV2TTmmklB5XPT.jpg",
      "popularity": 10.258,
      "adult": false,
      "known_for_department": "Acting"
    },
    {
      "id": 13333,
      "name": "Vanessa Redgrave",
      "profile_path": "/d40DWvfq40LZlJZESk3wWGYU5oa.jpg",
      "popularity": 10.258,
      "adult": false,
      "known_for_department": "Acting"
    },
    {
      "id": 8725,
      "name": "Olivia de Havilland",
      "profile_path": "/3ep5hMhzSej5DQhDlsE0uc2A7OU.jpg",
      "popularity": 10.258,
      "adult": false,
      "known_for_department": "Acting"
    },
    {
      "id": 122503,
      "name": "Liu Yifei",
      "profile_path": "/cL6JccAYqiZQEAIEFObEUC9LTt7.jpg",
      "popularity": 10.255,
      "adult": false,
      "known_for_department": "Acting"
    },
    {
      "id": 2317980,
      "name": "Lydia West",
      "profile_path": "/hfuIpQJ7BEwRBwshuatI4SUFmrC.jpg",
      "popularity": 10.254,
      "adult": false,
      "known_for_department": "Acting"
    },
    {
      "id": 57082,
      "name": "John Stockwell",
      "profile_path": "/6m4x7tzIwg38K8h3czfPmepi3O3.jpg",
      "popularity": 10.251,
      "adult": false,
      "known_for_department": "Acting"
    },
    {
      "id": 52783,
      "name": "Rachel Bilson",
      "profile_path": "/8n3bZ0WJyE9gzYh2kDqohh1xfh6.jpg",
      "popularity": 10.251,
      "adult": false,
      "known_for_department": "Acting"
    },
    {
      "id": 10731,
      "name": "Anna Chancellor",
      "profile_path": "/gKU8hHdC45q9WpYy4SeNLEhPwtK.jpg",
      "popularity": 10.251,
      "adult": false,
      "known_for_department": "Acting"
    },
    {
      "id": 562730,
      "name": "Danila Kozlovsky",
      "profile_path": "/burD0f0IEOj6FyU5Zokf6VLhHKe.jpg",
      "popularity": 10.246,
      "adult": false,
      "known_for_department": "Acting"
    },
    {
      "id": 89888,
      "name": "Adam Copeland",
      "profile_path": "/xawkWKkgbOx5atAMeFDh9rjHGWt.jpg",
      "popularity": 10.242,
      "adult": false,
      "known_for_department": "Acting"
    },
    {
      "id": 5958,
      "name": "Hilary Duff",
      "profile_path": "/48Pwyp6ASq8MjW2g4JERj47TeO4.jpg",
      "popularity": 10.241,
      "adult": false,
      "known_for_department": "Acting"
    },
    {
      "id": 1381186,
      "name": "Stephanie Hsu",
      "profile_path": "/8gb3lfIHKQAGOQyeC4ynQPsCiHr.jpg",
      "popularity": 10.24,
      "adult": false,
      "known_for_department": "Acting"
    }
  ]
}