{
  "page": 208,
  "total_results": 10000,
  "total_pages": 500,
  "results": [
    {
      "id": 46772,
      "name": "Marc Blucas",
      "profile_path": "/mk0YeUWkMsFKzJ8wFHsEXuGd2KK.jpg",
      "popularity": 12.002,
      "adult": false,
      "known_for_department": "Acting"
    },
    {
      "id": 29237,
      "name": "Leo Bill",
      "profile_path": "/lyXVnrvrbtAr5pPKaqGHQfe1a7W.jpg",
      "popularity": 12.002,
      "adult": false,
      "known_for_department": "Acting"
    },
    {
      "id": 1054260,
      "name": "Haru Kuroki",
      "profile_path": "/rTxASkiwbxohT0UVHORLmECo53Y.jpg",
      "popularity": 11.998,
      "adult": false,
      "known_for_department": "Acting"
    },
    {
      "id": 1075560,
      "name": "Maggie Civantos",
      "profile_path": "/gCDu8bx0Aklyhe0phKbzXUEY8RW.jpg",
      "popularity": 11.995,
      "adult": false,
      "known_for_department": "Acting"
    },
    {
      "id": 240,
      "name": "Stanley Kubrick",
      "profile_path": "/yFT0VyIelI9aegZrsAwOG5iVP4v.jpg",
      "popularity": 11.995,
      "adult": false,
      "known_for_department": "Directing"
    },
    {
      "id": 49824,
      "name": "Kathryn Erbe",
      "profile_path": "/gJ3hlTzTjpTVBsGadvUQGiBgjsV.jpg",
      "popularity": 11.993,
      "adult": false,
      "known_for_department": "Acting"
    },
    {
      "id": 2341794,
      "name": "Rish Shah",
      "profile_path": "/mxk7ArOC6QjtGitmLDqLvJn6Ra6.jpg",
      "popularity": 11.99,
      "adult": false,
      "known_for_department": "Acting"
    },
    {
      "id": 113869,
      "name": "Cansu Dere",
      "profile_path": "/eWvdy6iZhhwJIVHbQGNQb4OQ2Ri.jpg",
      "popularity": 11.99,
      "adult": false,
      "known_for_department": "Acting"
    },
    {
      "id": 221966,
      "name": "Christoforos Papakaliatis",
      "profile_path": "/9W3OHt1sEgPhvoKhyfudtKArTy1.jpg",
      "popularity": 11.987,
      "adult": false,
      "known_for_department": "Acting"
    },
    {
      "id": 23988,
      "name": "Fumiko Orikasa",
      "profile_path": "/nbphHwfqBIp6de1Fd38Dt1Z8KCR.jpg",
      "popularity": 11.987,
      "adult": false,
      "known_for_department": "Acting"
    },
    {
      "id": 1353244,
      "name": "Yumi Hara",
      "profile_path": "/dbMtB3stkZarEbHSulpzXXp0un0.jpg",
      "popularity": 11.985,
      "adult": false,
      "known_for_department": "Acting"
    },
    {
      "id": 2273501,
      "name": "Alexis Louder",
      "profile_path": "/fCLuN1yyzMYPIuw7WndyYQ02cfv.jpg",
      "popularity": 11.984,
      "adult": false,
      "known_for_department": "Acting"
    },
    {
      "id": 77880,
      "name": "Josh Dallas",
      "profile_path": "/f9cjzUtgasJTZgpdqFIREhUUxbQ.jpg",
      "popularity": 11.983,
      "adult": false,
      "known_for_department": "Acting"
    },
    {
      "id": 19803,
      "name": "Leonardo Sbaraglia",
      "profile_path": "/jCpIcRZ2Md8iO5PnYYytGCKC2T5.jpg",
      "popularity": 11.981,
      "adult": false,
      "known_for_department": "Acting"
    },
    {
      "id": 2769,
      "name": "Natalie Wood",
      "profile_path": "/tmYB8aXfb5fe2K1wquhRLfMGViu.jpg",
      "popularity": 11.981,
      "adult": false,
      "known_for_department": "Acting"
    },
    {
      "id": 28638,
      "name": "David Koechner",
      "profile_path": "/fpTTe1ow3EdfRJ8PZgBJmpeghMS.jpg",
      "popularity": 11.979,
      "adult": false,
      "known_for_department": "Acting"
    },
    {
      "id": 62562,
      "name": "David Denman",
      "profile_path": "/4I06ZD8SQ6pU1QYShiUXb711fJW.jpg",
      "popularity": 11.975,
      "adult": false,
      "known_for_department": "Acting"
    },
    {
      "id": 25934,
      "name": "David Boreanaz",
      "profile_path": "/oO619MACIfz7YoPiIGXYOfamhOE.jpg",
      "popularity": 11.975,
      "adult": false,
      "known_for_department": "Acting"
    },
    {
      "id": 302415,
      "name": "Eva Marcille",
      "profile_path": "/lRdOdPBfXHJRdBIGCZdhi6NgsUF.jpg",
      "popularity": 11.974,
      "adult": false,
      "known_for_department": "Acting"
    },
    {
      "id": 111058,
      "name": "Nikola Đuričko",
      "profile_path": "/guuzOLANsTrWy8Akie1mDxM6Cf5.jpg",
      "popularity": 11.974,
      "adult": false,
      "known_for_department": "Acting"
    }
  ]
}