{
  "page": 76,
  "total_results": 10000,
  "total_pages": 500,
  "results": [
    {
      "id": 28988,
      "name": "Aud Egede-Nissen",
      "profile_path": "/271xabIyKpp8R0mjRRD6eZkfqjn.jpg",
      "popularity": 18.708,
      "adult": false,
      "known_for_department": "Acting"
    },
    {
      "id": 38559,
      "name": "Christopher Lambert",
      "profile_path": "/qKmxieTgzvsA5hSA7w1VoHizmmE.jpg",
      "popularity": 18.705,
      "adult": false,
      "known_for_department": "Acting"
    },
    {
      "id": 1648936,
      "name": "Paniz Zade",
      "profile_path": "/iancD8TNzdOOQ0bZn17tLeslmsW.jpg",
      "popularity": 18.704,
      "adult": false,
      "known_for_department": "Acting"
    },
    {
      "id": 10427,
      "name": "Anne Archer",
      "profile_path": "/yIHIdnoZ9iEoOdedheF1KUe4gcD.jpg",
      "popularity": 18.703,
      "adult": false,
      "known_for_department": "Acting"
    },
    {
      "id": 1232179,
      "name": "Anna Slotky",
      "profile_path": "/6NvXc8Z8t8rccjliVPparVeUGj0.jpg",
      "popularity": 18.702,
      "adult": false,
      "known_for_department": "Acting"
    },
    {
      "id": 17743,
      "name": "Miranda Cosgrove",
      "profile_path": "/qIGeoyXEVu1LxTH34TWx1YSHyQr.jpg",
      "popularity": 18.701,
      "adult": false,
      "known_for_department": "Acting"
    },
    {
      "id": 29240,
      "name": "Tom Vaughan-Lawlor",
      "profile_path": "/yArj06agLlBH9LCAp7gxphLkyqV.jpg",
      "popularity": 18.699,
      "adult": false,
      "known_for_department": "Acting"
    },
    {
      "id": 38666,
      "name": "Tania Raymonde",
      "profile_path": "/rqzi5xaXbgfxZXNbsJVCDsSXPKx.jpg",
      "popularity": 18.648,
      "adult": false,
      "known_for_department": "Acting"
    },
    {
      "id": 14500,
      "name": "Jean Simmons",
      "profile_path": "/iCF8imUDR2jzQtg8SlD7ca9wOu3.jpg",
      "popularity": 18.626,
      "adult": false,
      "known_for_department": "Acting"
    },
    {
      "id": 145836,
      "name": "Aimee Teegarden",
      "profile_path": "/5vvROP0Ql5p4wUx1yFe5e9Al4ld.jpg",
      "popularity": 18.624,
      "adult": false,
      "known_for_department": "Acting"
    },
    {
      "id": 15498,
      "name": "Liam Cunningham",
      "profile_path": "/ljmFT9zYqh4k2bmEcNU6rxoE7fW.jpg",
      "popularity": 18.622,
      "adult": false,
      "known_for_department": "Acting"
    },
    {
      "id": 6383,
      "name": "Aaron Eckhart",
      "profile_path": "/5EFQvRHlpP1Iaw2e6vjOaBny6DV.jpg",
      "popularity": 18.622,
      "adult": false,
      "known_for_department": "Acting"
    },
    {
      "id": 21523,
      "name": "Ed Lauter",
      "profile_path": "/5q1CNG6M4cKIrFjFmy7typjEPqt.jpg",
      "popularity": 18.617,
      "adult": false,
      "known_for_department": "Acting"
    },
    {
      "id": 4029,
      "name": "Bob Gunton",
      "profile_path": "/rr2KDCKK4t0f5YhZibCpLCAsJxc.jpg",
      "popularity": 18.61,
      "adult": false,
      "known_for_department": "Acting"
    },
    {
      "id": 13636,
      "name": "Jane Krakowski",
      "profile_path": "/hT9IGSgsE8VoWllOTtxR9JAoiK.jpg",
      "popularity": 18.607,
      "adult": false,
      "known_for_department": "Acting"
    },
    {
      "id": 5376,
      "name": "Jean Smart",
      "profile_path": "/qVNHk0tZQqoUBNHzC82tNyd4hQd.jpg",
      "popularity": 18.598,
      "adult": false,
      "known_for_department": "Acting"
    },
    {
      "id": 2155,
      "name": "Thora Birch",
      "profile_path": "/7rRirYcL5JJS5P2W67yhsmAfO3x.jpg",
      "popularity": 18.594,
      "adult": false,
      "known_for_department": "Acting"
    },
    {
      "id": 2956,
      "name": "Amanda Peet",
      "profile_path": "/ahuC3ksBIJ6A6lgzPnMuyVzx74K.jpg",
      "popularity": 18.592,
      "adult": false,
      "known_for_department": "Acting"
    },
    {
      "id": 8252,
      "name": "William Holden",
      "profile_path": "/eMdXRtJVvescfdxHAINVf7dcpAV.jpg",
      "popularity": 18.59,
      "adult": false,
      "known_for_department": "Acting"
    },
    {
      "id": 19144,
      "name": "Shannen Doherty",
      "profile_path": "/c3EXtxx7x4inTlf1O1GgKD5kYZa.jpg",
      "popularity": 18.588,
      "adult": false,
      "known_for_department": "Acting"
    }
  ]
}