{
  "page": 138,
  "total_results": 10000,
  "total_pages": 500,
  "results": [
    {
      "id": 1674162,
      "name": "Jonathan Majors",
      "profile_path": "/6hI9NKqF7J6FtrQu9Afr7ZqipIL.jpg",
      "popularity": 13.189,
      "adult": false,
      "known_for_department": "Acting"
    },
    {
      "id": 1345419,
      "name": "Hermione Corfield",
      "profile_path": "/wHTsaef270ng3OlMfFzsO9yBo5b.jpg",
      "popularity": 13.188,
      "adult": false,
      "known_for_department": "Acting"
    },
    {
      "id": 3711,
      "name": "Anna Levine Thomson",
      "profile_path": "/nPfRKSUjXvzmL010P4HARYNNf6f.jpg",
      "popularity": 13.188,
      "adult": false,
      "known_for_department": "Acting"
    },
    {
      "id": 147056,
      "name": "Caitríona Balfe",
      "profile_path": "/4KQRDj74lKwU52Ewmzz7sVIakgn.jpg",
      "popularity": 13.187,
      "adult": false,
      "known_for_department": "Acting"
    },
    {
      "id": 1872292,
      "name": "Wachirawit Ruangwiwat",
      "profile_path": "/seXGBUEL7yV1RqW6wzT1DOWGB9f.jpg",
      "popularity": 13.185,
      "adult": false,
      "known_for_department": "Acting"
    },
    {
      "id": 1893219,
      "name": "Bige Önal",
      "profile_path": "/2DOgsp4EsgGWIb5Al6qSooAngru.jpg",
      "popularity": 13.184,
      "adult": false,
      "known_for_department": "Acting"
    },
    {
      "id": 17486,
      "name": "Alison Pill",
      "profile_path": "/qQm7UR0G8Kcxn7SKTNl6fdSfcTm.jpg",
      "popularity": 13.183,
      "adult": false,
      "known_for_department": "Acting"
    },
    {
      "id": 17648,
      "name": "James Purefoy",
      "profile_path": "/w49L5ZthjOyeNLZvPaet6qz1YRs.jpg",
      "popularity": 13.177,
      "adult": false,
      "known_for_department": "Acting"
    },
    {
      "id": 9208,
      "name": "Robert Wagner",
      "profile_path": "/dgIN3MrOfX8Q4pzchO58dhMgrFb.jpg",
      "popularity": 13.175,
      "adult": false,
      "known_for_department": "Acting"
    },
    {
      "id": 123456,
      "name": "Silje Torp",
      "profile_path": "/fAcrRVZqLMVDVcgfvf7xmY7QRtY.jpg",
      "popularity": 13.173,
      "adult": false,
      "known_for_department": "Acting"
    },
    {
      "id": 963117,
      "name": "Bar Paly",
      "profile_path": "/u0ObQI94EUdcIt0eHhEBUrA4gGW.jpg",
      "popularity": 13.171,
      "adult": false,
      "known_for_department": "Acting"
    },
    {
      "id": 1474123,
      "name": "Caleb McLaughlin",
      "profile_path": "/xKXJtSOcgGmzSXExU6kz2FXAysC.jpg",
      "popularity": 13.165,
      "adult": false,
      "known_for_department": "Acting"
    },
    {
      "id": 1046233,
      "name": "Elizabeth Blackmore",
      "profile_path": "/8IFEnd9hBbrQOleqTvjyuTlfQXu.jpg",
      "popularity": 13.16,
      "adult": false,
      "known_for_department": "Acting"
    },
    {
      "id": 3029776,
      "name": "Thanayut Thakoonauttaya",
      "profile_path": "/3LwwPRtanVnVDje9jHcSBiY3iJK.jpg",
      "popularity": 13.157,
      "adult": false,
      "known_for_department": "Acting"
    },
    {
      "id": 19163,
      "name": "Virginie Ledoyen",
      "profile_path": "/qhLgShLBmsIjOUyn7SPysA0Gogt.jpg",
      "popularity": 13.156,
      "adult": false,
      "known_for_department": "Acting"
    },
    {
      "id": 13633,
      "name": "Mark Addy",
      "profile_path": "/4ao6jitEAxmQDlJheEOKT8lhJI8.jpg",
      "popularity": 13.156,
      "adult": false,
      "known_for_department": "Acting"
    },
    {
      "id": 14592,
      "name": "BD Wong",
      "profile_path": "/w7Hs9m6ocS2qlibvrLOvmyCKbAN.jpg",
      "popularity": 13.155,
      "adult": false,
      "known_for_department": "Acting"
    },
    {
      "id": 1544194,
      "name": "Mimi Sarkisian",
      "profile_path": "/6yqveUwWG5eid5vdPwZ4pc092kW.jpg",
      "popularity": 13.153,
      "adult": false,
      "known_for_department": "Acting"
    },
    {
      "id": 84029,
      "name": "Ayako Fujitani",
      "profile_path": "/2Vb1HMkxWFeaHfjcFu5c27xUF91.jpg",
      "popularity": 13.152,
      "adult": false,
      "known_for_department": "Acting"
    },
    {
      "id": 1267369,
      "name": "Barrett Carnahan",
      "profile_path": "/weSB0L6oVHWhVkNjUTZnmt6wpvX.jpg",
      "popularity": 13.142,
      "adult": false,
      "known_for_department": "Acting"
    }
  ]
}