{
  "page": 381,
  "total_results": 10000,
  "total_pages": 500,
  "results": [
    {
      "id": 35549,
      "name": "Coolio",
      "profile_path": "/2RXxdCB68Haao2O9Fq8NCRpFkFm.jpg",
      "popularity": 8.583,
      "adult": false,
      "known_for_department": "Acting"
    },
    {
      "id": 1218330,
      "name": "Elena Lyons",
      "profile_path": "/wJZUTTOmz3Hxe4So6ByQyKLWXuN.jpg",
      "popularity": 8.582,
      "adult": false,
      "known_for_department": "Acting"
    },
    {
      "id": 572724,
      "name": "Christian Martyn",
      "profile_path": "/kTwixMOquzSkPnElRj91X0Kkij4.jpg",
      "popularity": 8.582,
      "adult": false,
      "known_for_department": "Acting"
    },
    {
      "id": 1478081,
      "name": "Phoenix Connolly",
      "profile_path": "/AhFDKJwF1J6QLbemYfNLrDps26p.jpg",
      "popularity": 8.58,
      "adult": false,
      "known_for_department": "Acting"
    },
    {
      "id": 110475,
      "name": "Brett Dier",
      "profile_path": "/lJhlX6bQfzUStVPOA2UWgKyK85s.jpg",
      "popularity": 8.58,
      "adult": false,
      "known_for_department": "Acting"
    },
    {
      "id": 54495,
      "name": "Khleo Thomas",
      "profile_path": "/jFi6CUn5p4tqLpoywk7hEEG4lo1.jpg",
      "popularity": 8.58,
      "adult": false,
      "known_for_department": "Acting"
    },
    {
      "id": 1260310,
      "name": "Taeyeon",
      "profile_path": "/gPkIEfNrkARZV1CeDPXwtvc4pg5.jpg",
      "popularity": 8.579,
      "adult": false,
      "known_for_department": "Acting"
    },
    {
      "id": 1060610,
      "name": "Veronika Kánská",
      "profile_path": "/yniMjG3JICEf6Ik1uIi9gZ7dwil.jpg",
      "popularity": 8.578,
      "adult": false,
      "known_for_department": "Acting"
    },
    {
      "id": 74276,
      "name": "Cindy Pickett",
      "profile_path": "/fDLhqS61aoEONURjHEtH6gmCkhV.jpg",
      "popularity": 8.578,
      "adult": false,
      "known_for_department": "Acting"
    },
    {
      "id": 930674,
      "name": "Alican Yücesoy",
      "profile_path": "/t8tH13cmE5ZNHfFT0BSBz83JTU3.jpg",
      "popularity": 8.577,
      "adult": false,
      "known_for_department": "Acting"
    },
    {
      "id": 32286,
      "name": "Patrick Kilpatrick",
      "profile_path": "/yhujborr3HMC9ALvuOPu25ffAhN.jpg",
      "popularity": 8.577,
      "adult": false,
      "known_for_department": "Acting"
    },
    {
      "id": 1922807,
      "name": "Hu Yitian",
      "profile_path": "/3TdSv9FWbImvJO65I2z8GEcU791.jpg",
      "popularity": 8.576,
      "adult": false,
      "known_for_department": "Acting"
    },
    {
      "id": 19769,
      "name": "David Ayer",
      "profile_path": "/2oBT2jQbsV8IWPMr3Cm87YBJxGu.jpg",
      "popularity": 8.576,
      "adult": false,
      "known_for_department": "Directing"
    },
    {
      "id": 54123,
      "name": "Patrick O'Neal",
      "profile_path": "/65jCII8zQwkYrhDGdz0ZSshWPsc.jpg",
      "popularity": 8.575,
      "adult": false,
      "known_for_department": "Acting"
    },
    {
      "id": 3363708,
      "name": "Angela Morena",
      "profile_path": "/fgyajd1CpzMNpeKygLFbWfvNhIB.jpg",
      "popularity": 8.574,
      "adult": false,
      "known_for_department": "Acting"
    },
    {
      "id": 1643582,
      "name": "Sobhita Dhulipala",
      "profile_path": "/sC8htIrsZobokr5hAuYBt5QfrLP.jpg",
      "popularity": 8.574,
      "adult": false,
      "known_for_department": "Acting"
    },
    {
      "id": 1386418,
      "name": "Min Do-hee",
      "profile_path": "/7dBJa03FiOZPd1KNeU5cE40aQEW.jpg",
      "popularity": 8.574,
      "adult": false,
      "known_for_department": "Acting"
    },
    {
      "id": 239309,
      "name": "Alberto Tomba",
      "profile_path": "/bigNth9ADumR0vsrA9GDjfEg3j4.jpg",
      "popularity": 8.573,
      "adult": false,
      "known_for_department": "Acting"
    },
    {
      "id": 115659,
      "name": "Yoji Tanaka",
      "profile_path": "/752oL9YrUumjrqbhdj4GNJ938x3.jpg",
      "popularity": 8.573,
      "adult": false,
      "known_for_department": "Acting"
    },
    {
      "id": 2328518,
      "name": "Eva Cedeño",
      "profile_path": "/5lvgXmH15xwcXr1YBj1tGHoE870.jpg",
      "popularity": 8.572,
      "adult": false,
      "known_for_department": "Acting"
    }
  ]
}