{
  "page": 463,
  "total_results": 10000,
  "total_pages": 500,
  "results": [
    {
      "id": 126943,
      "name": "Daniela Denby-Ashe",
      "profile_path": "/qkcnYC1qvRpowEpugpu69WR2jwS.jpg",
      "popularity": 7.702,
      "adult": false,
      "known_for_department": "Acting"
    },
    {
      "id": 34259,
      "name": "Jean-Yves Berteloot",
      "profile_path": "/x8uFQOAsLSbWcbRMyItUj2nMZuo.jpg",
      "popularity": 7.702,
      "adult": false,
      "known_for_department": "Acting"
    },
    {
      "id": 18181,
      "name": "David Keith",
      "profile_path": "/ayfqRXPc3GFUXIMQ4bkrIe1B6hs.jpg",
      "popularity": 7.702,
      "adult": false,
      "known_for_department": "Acting"
    },
    {
      "id": 1985543,
      "name": "Kang Min-ah",
      "profile_path": "/aWQVvbwwIhKyMK4sJwzq4y9hwFk.jpg",
      "popularity": 7.701,
      "adult": false,
      "known_for_department": "Acting"
    },
    {
      "id": 54227,
      "name": "Marie Gillain",
      "profile_path": "/6101n1O2CDGpWGoM2hjKWNDUZvH.jpg",
      "popularity": 7.701,
      "adult": false,
      "known_for_department": "Acting"
    },
    {
      "id": 204651,
      "name": "Stephanie Kurtzuba",
      "profile_path": "/w7PYp3roAQ6KAPOAErNfxzLoM2R.jpg",
      "popularity": 7.7,
      "adult": false,
      "known_for_department": "Acting"
    },
    {
      "id": 17580,
      "name": "John Vernon",
      "profile_path": "/gcDiT7lbejFskdFMEx5syWSRfnj.jpg",
      "popularity": 7.7,
      "adult": false,
      "known_for_department": "Acting"
    },
    {
      "id": 2693053,
      "name": "Nicholas Ralph",
      "profile_path": "/bGT39QpwMEbEoeBCPoVJYsfauvj.jpg",
      "popularity": 7.699,
      "adult": false,
      "known_for_department": "Acting"
    },
    {
      "id": 1040469,
      "name": "Kim Matula",
      "profile_path": "/l2zCLb7v3Rc2QQtbHzXH2jnrNpY.jpg",
      "popularity": 7.699,
      "adult": false,
      "known_for_department": "Acting"
    },
    {
      "id": 1001536,
      "name": "Angelique Cabral",
      "profile_path": "/v2N5mPDiUxScgJnNVOgYLvjs39a.jpg",
      "popularity": 7.699,
      "adult": false,
      "known_for_department": "Acting"
    },
    {
      "id": 551020,
      "name": "Oliver Jackson-Cohen",
      "profile_path": "/wPlFmRs1sJI4RDkOeWR9u84MKEH.jpg",
      "popularity": 7.699,
      "adult": false,
      "known_for_department": "Acting"
    },
    {
      "id": 221125,
      "name": "Noah Munck",
      "profile_path": "/8CHEa4LezWiNm8LdJfjzrDnPos3.jpg",
      "popularity": 7.699,
      "adult": false,
      "known_for_department": "Acting"
    },
    {
      "id": 85614,
      "name": "Juno Rinaldi",
      "profile_path": "/hBHYAo4zrhYfYDqqm0Km6rM42L4.jpg",
      "popularity": 7.699,
      "adult": false,
      "known_for_department": "Acting"
    },
    {
      "id": 2588506,
      "name": "Jay Lycurgo",
      "profile_path": "/pbsoexLxfXZZvITACzfOB1dsDip.jpg",
      "popularity": 7.698,
      "adult": false,
      "known_for_department": "Acting"
    },
    {
      "id": 2403424,
      "name": "Nikolai Gusarov",
      "profile_path": "",
      "popularity": 7.698,
      "adult": false,
      "known_for_department": "Acting"
    },
    {
      "id": 98234,
      "name": "Barbara Bain",
      "profile_path": "/jLUoYMqpxaIR2Vc4YmFCjdM0H6s.jpg",
      "popularity": 7.698,
      "adult": false,
      "known_for_department": "Acting"
    },
    {
      "id": 61182,
      "name": "Gillian Vigman",
      "profile_path": "/oyGFIJCGwLx6UFZLIRGMlzuqdT7.jpg",
      "popularity": 7.698,
      "adult": false,
      "known_for_department": "Acting"
    },
    {
      "id": 58392,
      "name": "Kristen Cloke",
      "profile_path": "/9MTNs9kMX6OTR6SJwMkwG3EVTsN.jpg",
      "popularity": 7.698,
      "adult": false,
      "known_for_department": "Acting"
    },
    {
      "id": 822,
      "name": "Avery Brooks",
      "profile_path": "/86G3ePzkKiFhGnVNiZLPd058P0d.jpg",
      "popularity": 7.698,
      "adult": false,
      "known_for_department": "Acting"
    },
    {
      "id": 1522695,
      "name": "Tolga Sarıtaş",
      "profile_path": "/skKhvO5csMhquV3dNJq2yN74hs7.jpg",
      "popularity": 7.697,
      "adult": false,
      "known_for_department": "Acting"
    }
  ]
}