{
  "page": 14,
  "total_results": 10000,
  "total_pages": 500,
  "results": [
    {
      "id": 17628,
      "name": "Mary Elizabeth Winstead",
      "profile_path": "/vQn6IGsClpyhV6KTba9EDqSK7e2.jpg",
      "popularity": 40.425,
      "adult": false,
      "known_for_department": "Acting"
    },
    {
      "id": 11288,
      "name": "Robert Pattinson",
      "profile_path": "/6RVxNlNmc0DIfZzaJKCJM43If3M.jpg",
      "popularity": 40.404,
      "adult": false,
      "known_for_department": "Acting"
    },
    {
      "id": 1183993,
      "name": "Katie Douglas",
      "profile_path": "/nBSSJ8ouRbaDvSJEdLxd1oa0Zec.jpg",
      "popularity": 40.395,
      "adult": false,
      "known_for_department": "Acting"
    },
    {
      "id": 3,
      "name": "Harrison Ford",
      "profile_path": "/ActhM39LTxgx3tnJv3s5nM6hGD1.jpg",
      "popularity": 40.225,
      "adult": false,
      "known_for_department": "Acting"
    },
    {
      "id": 112,
      "name": "Cate Blanchett",
      "profile_path": "/vUuEHiAR0eD3XEJhg2DWIjymUAA.jpg",
      "popularity": 40.145,
      "adult": false,
      "known_for_department": "Acting"
    },
    {
      "id": 34847,
      "name": "Emma Roberts",
      "profile_path": "/87w6fTvmJTQScgKKJFS91hYJ33a.jpg",
      "popularity": 40.042,
      "adult": false,
      "known_for_department": "Acting"
    },
    {
      "id": 18182,
      "name": "Olga Kurylenko",
      "profile_path": "/q0QXFRg5bSnaLjbvhamfclt0eId.jpg",
      "popularity": 40.031,
      "adult": false,
      "known_for_department": "Acting"
    },
    {
      "id": 30614,
      "name": "Ryan Gosling",
      "profile_path": "/1HOO3rWK1jkXogP39yqV3P86AHA.jpg",
      "popularity": 40.025,
      "adult": false,
      "known_for_department": "Acting"
    },
    {
      "id": 25663,
      "name": "Thomas Brodie-Sangster",
      "profile_path": "/ovfgjgaE7aAXKYaemABX6pJFwRk.jpg",
      "popularity": 39.796,
      "adult": false,
      "known_for_department": "Acting"
    },
    {
      "id": 16431,
      "name": "Sam Elliott",
      "profile_path": "/g2wbuUVKMFf1x5BpEkxibinTudG.jpg",
      "popularity": 39.732,
      "adult": false,
      "known_for_department": "Acting"
    },
    {
      "id": 94185,
      "name": "Shailene Woodley",
      "profile_path": "/y283nMcCx0BTcZ8rNZKLNpeq3UY.jpg",
      "popularity": 39.663,
      "adult": false,
      "known_for_department": "Acting"
    },
    {
      "id": 164945,
      "name": "Sarah Shahi",
      "profile_path": "/dFnYqsEZQMAuatj367fohnB1rFI.jpg",
      "popularity": 39.647,
      "adult": false,
      "known_for_department": "Acting"
    },
    {
      "id": 2044036,
      "name": "Felix Mallard",
      "profile_path": "/d4t966dq1GMfXTsqbPHBMjb0YZ2.jpg",
      "popularity": 39.606,
      "adult": false,
      "known_for_department": "Acting"
    },
    {
      "id": 40481,
      "name": "Luis Guzmán",
      "profile_path": "/kSdxUckOJj9R5VKrLUnRy14YhNV.jpg",
      "popularity": 39.535,
      "adult": false,
      "known_for_department": "Acting"
    },
    {
      "id": 1442069,
      "name": "Finn Wolfhard",
      "profile_path": "/5OVmquAk0W5BIsRlVKslEP497JD.jpg",
      "popularity": 39.473,
      "adult": false,
      "known_for_department": "Acting"
    },
    {
      "id": 11477,
      "name": "Ray Liotta",
      "profile_path": "/iXKotiB0Xe9iJLCBbjAedHPLb7p.jpg",
      "popularity": 39.451,
      "adult": false,
      "known_for_department": "Acting"
    },
    {
      "id": 17838,
      "name": "Rami Malek",
      "profile_path": "/ewr46CGOdsx5NzAJdIzEBz2yIQh.jpg",
      "popularity": 39.428,
      "adult": false,
      "known_for_department": "Acting"
    },
    {
      "id": 17697,
      "name": "John Krasinski",
      "profile_path": "/kFAUNOlV25OjZGm2vYnvxc6rSUK.jpg",
      "popularity": 39.424,
      "adult": false,
      "known_for_department": "Acting"
    },
    {
      "id": 10669,
      "name": "Timothy Dalton",
      "profile_path": "/iF4C63jae3N33pCQmCXEJHKTN0t.jpg",
      "popularity": 39.362,
      "adult": false,
      "known_for_department": "Acting"
    },
    {
      "id": 1372369,
      "name": "Samara Weaving",
      "profile_path": "/9Fz4SLK014UEUvhD5dq4IN9Am3V.jpg",
      "popularity": 39.349,
      "adult": false,
      "known_for_department": "Acting"
    }
  ]
}