{
  "page": 427,
  "total_results": 10000,
  "total_pages": 500,
  "results": [
    {
      "id": 155209,
      "name": "Matthew Morrison",
      "profile_path": "/u3CA6kqhpPVhK3zLD7yW0UfCyWt.jpg",
      "popularity": 8.31,
      "adult": false,
      "known_for_department": "Acting"
    },
    {
      "id": 118372,
      "name": "Yara Shahidi",
      "profile_path": "/3UVnSdjRyCGLUxmkzPrG7mInZog.jpg",
      "popularity": 8.31,
      "adult": false,
      "known_for_department": "Acting"
    },
    {
      "id": 141857,
      "name": "Choi Deok-moon",
      "profile_path": "/2yNTH3Dm1tmN795ExtNsIE1IaNA.jpg",
      "popularity": 8.309,
      "adult": false,
      "known_for_department": "Acting"
    },
    {
      "id": 134829,
      "name": "Maki Sakai",
      "profile_path": "/pIUqUvagooKEg40MfiurOjPvCgY.jpg",
      "popularity": 8.309,
      "adult": false,
      "known_for_department": "Acting"
    },
    {
      "id": 59785,
      "name": "Fat Joe",
      "profile_path": "/g4Z1K3bywKBDFGcNT4C5OapbEQj.jpg",
      "popularity": 8.309,
      "adult": false,
      "known_for_department": "Acting"
    },
    {
      "id": 40207,
      "name": "Clint Walker",
      "profile_path": "/33wokPhHi4j6dUjuBKYWkaB5T7D.jpg",
      "popularity": 8.309,
      "adult": false,
      "known_for_department": "Acting"
    },
    {
      "id": 1616155,
      "name": "Linnea Berthelsen",
      "profile_path": "/u2UOvGHI4IoVfJmtP1I8F68VR50.jpg",
      "popularity": 8.308,
      "adult": false,
      "known_for_department": "Acting"
    },
    {
      "id": 1303064,
      "name": "Fernanda Castillo",
      "profile_path": "/RMfrmN0HSVxaqYqesbcmvutTAg.jpg",
      "popularity": 8.308,
      "adult": false,
      "known_for_department": "Acting"
    },
    {
      "id": 14333,
      "name": "Grand L. Bush",
      "profile_path": "/iebc00VeSoRkzkvB5D35hTBbFxa.jpg",
      "popularity": 8.308,
      "adult": false,
      "known_for_department": "Acting"
    },
    {
      "id": 11544,
      "name": "Jean Gabin",
      "profile_path": "/pmFuOVTQvYdgmN7cYOuyJHPfMRt.jpg",
      "popularity": 8.308,
      "adult": false,
      "known_for_department": "Acting"
    },
    {
      "id": 3463,
      "name": "Roy Kinnear",
      "profile_path": "/cuKguENjdEiNhNArAL5CqIaTEfE.jpg",
      "popularity": 8.308,
      "adult": false,
      "known_for_department": "Acting"
    },
    {
      "id": 70336,
      "name": "Won Bin",
      "profile_path": "/7Ginzkr5lRT7x3bGc3GFSONNT7N.jpg",
      "popularity": 8.307,
      "adult": false,
      "known_for_department": "Acting"
    },
    {
      "id": 119224,
      "name": "Jonas Armstrong",
      "profile_path": "/7Ia8Dfhqa2bH43NeKSZiPZ9wHAF.jpg",
      "popularity": 8.306,
      "adult": false,
      "known_for_department": "Acting"
    },
    {
      "id": 54500,
      "name": "Will Kemp",
      "profile_path": "/x1pO6ca7UpkzuLj68Z7a1LPpuFO.jpg",
      "popularity": 8.306,
      "adult": false,
      "known_for_department": "Acting"
    },
    {
      "id": 92619,
      "name": "Drew Seeley",
      "profile_path": "/2wFCQ5yX29VMdHuLPFvp9qXNI2G.jpg",
      "popularity": 8.305,
      "adult": false,
      "known_for_department": "Acting"
    },
    {
      "id": 2373880,
      "name": "Chirs Sackey",
      "profile_path": "",
      "popularity": 8.303,
      "adult": false,
      "known_for_department": "Acting"
    },
    {
      "id": 2001084,
      "name": "Recep Usta",
      "profile_path": "/24lAAj8FUxy46Zve0D25E234Z3Y.jpg",
      "popularity": 8.303,
      "adult": false,
      "known_for_department": "Acting"
    },
    {
      "id": 58661,
      "name": "Richard Mulligan",
      "profile_path": "/tYy2aV5dzOLruCYNQIFYSAaRF1j.jpg",
      "popularity": 8.303,
      "adult": false,
      "known_for_department": "Acting"
    },
    {
      "id": 29095,
      "name": "Nicholas Hammond",
      "profile_path": "/tC1TXGap3eDkbplsbBFBbXtAWq7.jpg",
      "popularity": 8.303,
      "adult": false,
      "known_for_department": "Acting"
    },
    {
      "id": 1394670,
      "name": "RJ Cyler",
      "profile_path": "/9baPsx4DJn2vy7AOfcfEe6IH5JN.jpg",
      "popularity": 8.302,
      "adult": false,
      "known_for_department": "Acting"
    }
  ]
}