{
  "page": 30,
  "total_results": 10000,
  "total_pages": 500,
  "results": [
    {
      "id": 520,
      "name": "Sarah Jessica Parker",
      "profile_path": "/f4HGGM8LR2fSoBQXM2mlfa4xzxt.jpg",
      "popularity": 28.946,
      "adult": false,
      "known_for_department": "Acting"
    },
    {
      "id": 108916,
      "name": "Rooney Mara",
      "profile_path": "/ixcGTDGHtwaQnNLpLS1S7V01DUJ.jpg",
      "popularity": 28.923,
      "adult": false,
      "known_for_department": "Acting"
    },
    {
      "id": 18345,
      "name": "Brenda Fricker",
      "profile_path": "/dz8ylU8ZJtNyPr31URy2p3lCaok.jpg",
      "popularity": 28.918,
      "adult": false,
      "known_for_department": "Acting"
    },
    {
      "id": 7026,
      "name": "Rhys Ifans",
      "profile_path": "/g8EUs8r1ECh9plKtrxBparsxlZ1.jpg",
      "popularity": 28.909,
      "adult": false,
      "known_for_department": "Acting"
    },
    {
      "id": 36819,
      "name": "Hayley Mills",
      "profile_path": "/ktiKpWhBy1O4F9DtB1YxUf3uGA1.jpg",
      "popularity": 28.889,
      "adult": false,
      "known_for_department": "Acting"
    },
    {
      "id": 10169,
      "name": "Telly Savalas",
      "profile_path": "/zmOx0FzGxrYqhuuFjG3XDahRfn6.jpg",
      "popularity": 28.886,
      "adult": false,
      "known_for_department": "Acting"
    },
    {
      "id": 1817,
      "name": "Linda Cardellini",
      "profile_path": "/bcycvynDprC1rrhBNrnBjn5uOUd.jpg",
      "popularity": 28.88,
      "adult": false,
      "known_for_department": "Acting"
    },
    {
      "id": 8985,
      "name": "Margaret Colin",
      "profile_path": "/tsg9bGtD1mY1FLKIeIFUNeD5jpm.jpg",
      "popularity": 28.871,
      "adult": false,
      "known_for_department": "Acting"
    },
    {
      "id": 77517,
      "name": "Isabelle Fuhrman",
      "profile_path": "/borthNRiTGa7oKZjLKHuUGUrZdq.jpg",
      "popularity": 28.859,
      "adult": false,
      "known_for_department": "Acting"
    },
    {
      "id": 1160,
      "name": "Michelle Pfeiffer",
      "profile_path": "/oGUmQBU87QXAsnaGleYaAjAXSlj.jpg",
      "popularity": 28.841,
      "adult": false,
      "known_for_department": "Acting"
    },
    {
      "id": 1278867,
      "name": "Kelly Greyson",
      "profile_path": "/dbygGZLqAqhPLQKVa24TACboAj9.jpg",
      "popularity": 28.831,
      "adult": false,
      "known_for_department": "Acting"
    },
    {
      "id": 2155,
      "name": "Thora Birch",
      "profile_path": "/7rRirYcL5JJS5P2W67yhsmAfO3x.jpg",
      "popularity": 28.815,
      "adult": false,
      "known_for_department": "Acting"
    },
    {
      "id": 1424928,
      "name": "Burak Özçivit",
      "profile_path": "/eSK2CcaBi6cGR421BMiJCbshu0Z.jpg",
      "popularity": 28.809,
      "adult": false,
      "known_for_department": "Acting"
    },
    {
      "id": 60949,
      "name": "Rob Schneider",
      "profile_path": "/kVHNFDOGDrC3LjDyYf5RaCd6auK.jpg",
      "popularity": 28.798,
      "adult": false,
      "known_for_department": "Acting"
    },
    {
      "id": 78029,
      "name": "Martin Lawrence",
      "profile_path": "/15Ck85zfgWkmSMfNYLkE9JLTP7s.jpg",
      "popularity": 28.789,
      "adult": false,
      "known_for_department": "Acting"
    },
    {
      "id": 24647,
      "name": "Katsuyuki Konishi",
      "profile_path": "/nYM5cH6U7cp4x9dIzW0enmEKmeV.jpg",
      "popularity": 28.783,
      "adult": false,
      "known_for_department": "Acting"
    },
    {
      "id": 3036,
      "name": "John Cusack",
      "profile_path": "/dk17qyJwBKouDNWMwlR1ueV52Sf.jpg",
      "popularity": 28.773,
      "adult": false,
      "known_for_department": "Acting"
    },
    {
      "id": 19961,
      "name": "Nina Dobrev",
      "profile_path": "/67A1s3I8k831MJ7VRLX59hBNdNt.jpg",
      "popularity": 28.761,
      "adult": false,
      "known_for_department": "Acting"
    },
    {
      "id": 18082,
      "name": "Timothy Olyphant",
      "profile_path": "/sQ4ge2wu0kK7MtQjnLtp988vCLs.jpg",
      "popularity": 28.707,
      "adult": false,
      "known_for_department": "Acting"
    },
    {
      "id": 1400939,
      "name": "Jacqueline Byers",
      "profile_path": "/vgj4zlU5sqJ1EzRgUP3ikRwK4lW.jpg",
      "popularity": 28.7,
      "adult": false,
      "known_for_department": "Acting"
    }
  ]
}