{
  "page": 407,
  "total_results": 10000,
  "total_pages": 500,
  "results": [
    {
      "id": 155209,
      "name": "Matthew Morrison",
      "profile_path": "/u3CA6kqhpPVhK3zLD7yW0UfCyWt.jpg",
      "popularity": 10.151,
      "adult": false,
      "known_for_department": "Acting"
    },
    {
      "id": 91268,
      "name": "Ruben Fleischer",
      "profile_path": "/3JLxOPFTLigSy8FjFjDyMwD9GIp.jpg",
      "popularity": 10.151,
      "adult": false,
      "known_for_department": "Directing"
    },
    {
      "id": 2074587,
      "name": "Lomon",
      "profile_path": "/qeEDlS7a2rx9OZoCz1u4mcLO5uF.jpg",
      "popularity": 10.149,
      "adult": false,
      "known_for_department": "Acting"
    },
    {
      "id": 59662,
      "name": "Joanna Going",
      "profile_path": "/cqYMJFlkkAc2n1FTGaOmom4IFFL.jpg",
      "popularity": 10.149,
      "adult": false,
      "known_for_department": "Acting"
    },
    {
      "id": 57581,
      "name": "Neil Marshall",
      "profile_path": "/niiQO8m2fEIdmEBYdawulBSIzwY.jpg",
      "popularity": 10.149,
      "adult": false,
      "known_for_department": "Directing"
    },
    {
      "id": 14852,
      "name": "James Karen",
      "profile_path": "/1yTckoqgi0LZdveni5u6k0AmaXN.jpg",
      "popularity": 10.149,
      "adult": false,
      "known_for_department": "Acting"
    },
    {
      "id": 1255538,
      "name": "Livia Brito Pestana",
      "profile_path": "/bnVovWqDJ7c1dvswIN2CTie7q9l.jpg",
      "popularity": 10.147,
      "adult": false,
      "known_for_department": "Acting"
    },
    {
      "id": 154529,
      "name": "Lisa Robin Kelly",
      "profile_path": "/yh7N55m2NCt3lr4urBC1wBCSdd.jpg",
      "popularity": 10.147,
      "adult": false,
      "known_for_department": "Acting"
    },
    {
      "id": 88161,
      "name": "Debbi Morgan",
      "profile_path": "/5uet40J3x2pLCxdqC07RjNHTzvH.jpg",
      "popularity": 10.147,
      "adult": false,
      "known_for_department": "Acting"
    },
    {
      "id": 30901,
      "name": "Salvatore Baccaro",
      "profile_path": "/aMASxok5ROomk36Y3kF03ZGeZgR.jpg",
      "popularity": 10.147,
      "adult": false,
      "known_for_department": "Acting"
    },
    {
      "id": 1569001,
      "name": "Jessie Ennis",
      "profile_path": "/Rx6zznL7EVBuOueSPfsuPlPvun.jpg",
      "popularity": 10.146,
      "adult": false,
      "known_for_department": "Acting"
    },
    {
      "id": 9896,
      "name": "Daniela Bianchi",
      "profile_path": "/iLBCTCXd9moMN6RuKZ0Ys3v12hD.jpg",
      "popularity": 10.146,
      "adult": false,
      "known_for_department": "Acting"
    },
    {
      "id": 1384647,
      "name": "Rio Uchida",
      "profile_path": "/eKjkEu0VDg8E2ob9R64udtinwT7.jpg",
      "popularity": 10.144,
      "adult": false,
      "known_for_department": "Acting"
    },
    {
      "id": 1173757,
      "name": "Peter Chan Lung",
      "profile_path": "/eLez0VV76ewLjO5YYMPtC1YW2II.jpg",
      "popularity": 10.144,
      "adult": false,
      "known_for_department": "Acting"
    },
    {
      "id": 76827,
      "name": "Hélène de Fougerolles",
      "profile_path": "/5RhDNtaVgt4ZVeHhrHsUgc4AoIg.jpg",
      "popularity": 10.144,
      "adult": false,
      "known_for_department": "Acting"
    },
    {
      "id": 30719,
      "name": "Akim Tamiroff",
      "profile_path": "/uX8oQDIA0N33McsTduwf5qsFdGA.jpg",
      "popularity": 10.144,
      "adult": false,
      "known_for_department": "Acting"
    },
    {
      "id": 20405,
      "name": "Brian Posehn",
      "profile_path": "/kg93LNpDQaRoosR4gVt7SsA3oL1.jpg",
      "popularity": 10.144,
      "adult": false,
      "known_for_department": "Acting"
    },
    {
      "id": 2398197,
      "name": "Ava Michelle",
      "profile_path": "/lDsBWUw5udOE1CEOp5nASN6QSKJ.jpg",
      "popularity": 10.143,
      "adult": false,
      "known_for_department": "Acting"
    },
    {
      "id": 1082294,
      "name": "Puru Raaj Kumar",
      "profile_path": "/wxjlO3kf0iS05DUvliCPcuCHhTo.jpg",
      "popularity": 10.143,
      "adult": false,
      "known_for_department": "Acting"
    },
    {
      "id": 60416,
      "name": "Alex Ferns",
      "profile_path": "/3V3L7MJGURXU6lVaqai80zFT4Wa.jpg",
      "popularity": 10.143,
      "adult": false,
      "known_for_department": "Acting"
    }
  ]
}