{
  "page": 90,
  "total_results": 10000,
  "total_pages": 500,
  "results": [
    {
      "id": 29221,
      "name": "Brittany Snow",
      "profile_path": "/vbcVzoIhSScfJ2XQWFVpB9jS7IV.jpg",
      "popularity": 15.178,
      "adult": false,
      "known_for_department": "Acting"
    },
    {
      "id": 11356,
      "name": "Imelda Staunton",
      "profile_path": "/95KKeFajyuRlqc65mBBKgXkXGpL.jpg",
      "popularity": 15.175,
      "adult": false,
      "known_for_department": "Acting"
    },
    {
      "id": 9137,
      "name": "Renée Zellweger",
      "profile_path": "/6aSRq8LBE7FULueg9K5JEA3GLTy.jpg",
      "popularity": 15.17,
      "adult": false,
      "known_for_department": "Acting"
    },
    {
      "id": 229932,
      "name": "Golshifteh Farahani",
      "profile_path": "/DuAPmZxZlX25m57pJy16WbIyKM.jpg",
      "popularity": 15.167,
      "adult": false,
      "known_for_department": "Acting"
    },
    {
      "id": 1633001,
      "name": "Kristine Froseth",
      "profile_path": "/plgE7OleHgqZrdazFzbkv18UsRN.jpg",
      "popularity": 15.161,
      "adult": false,
      "known_for_department": "Acting"
    },
    {
      "id": 1629943,
      "name": "Ah Ri",
      "profile_path": "/8VbXDAHDuHbrOHIgUDDjIwrUidh.jpg",
      "popularity": 15.16,
      "adult": false,
      "known_for_department": "Acting"
    },
    {
      "id": 13241,
      "name": "Estella Warren",
      "profile_path": "/aFodbZpSEsz6lz8T3ehkeb8y44a.jpg",
      "popularity": 15.156,
      "adult": false,
      "known_for_department": "Acting"
    },
    {
      "id": 14692,
      "name": "Nick Castle",
      "profile_path": "/bKJuXeKR8GZLyiutiDSCwwCzZ7n.jpg",
      "popularity": 15.151,
      "adult": false,
      "known_for_department": "Acting"
    },
    {
      "id": 1464589,
      "name": "Matilda Lutz",
      "profile_path": "/js1PbvyTEFXQeSV2TTmmklB5XPT.jpg",
      "popularity": 15.148,
      "adult": false,
      "known_for_department": "Acting"
    },
    {
      "id": 2280178,
      "name": "Sofia Kappel",
      "profile_path": "/wlE0ETWr4uAAdPaenSMo1a4yF8J.jpg",
      "popularity": 15.145,
      "adult": false,
      "known_for_department": "Acting"
    },
    {
      "id": 208782,
      "name": "Holland Roden",
      "profile_path": "/nrDY84pMjAlovc4hXE6MhCuX1ZM.jpg",
      "popularity": 15.142,
      "adult": false,
      "known_for_department": "Acting"
    },
    {
      "id": 19159,
      "name": "Thomas Haden Church",
      "profile_path": "/VP6VDYL0OEDwSbTRysiJ0kAGxI.jpg",
      "popularity": 15.139,
      "adult": false,
      "known_for_department": "Acting"
    },
    {
      "id": 77122,
      "name": "María Valverde",
      "profile_path": "/8taDDUCiyggIWhq8wGy2v0b9Nt8.jpg",
      "popularity": 15.134,
      "adult": false,
      "known_for_department": "Acting"
    },
    {
      "id": 574378,
      "name": "Amber Rose Revah",
      "profile_path": "/cThPovs1j59Vs5iejgLqUZRBchv.jpg",
      "popularity": 15.131,
      "adult": false,
      "known_for_department": "Acting"
    },
    {
      "id": 1039,
      "name": "Peter Boyle",
      "profile_path": "/6TapQmC46mPDYrwm67tyJaEM97I.jpg",
      "popularity": 15.131,
      "adult": false,
      "known_for_department": "Acting"
    },
    {
      "id": 1023139,
      "name": "Adam Driver",
      "profile_path": "/fsbGQ1eZFgdsG1XnKlhNSvHsiGo.jpg",
      "popularity": 15.124,
      "adult": false,
      "known_for_department": "Acting"
    },
    {
      "id": 10727,
      "name": "John Hannah",
      "profile_path": "/iBMshh31YpMZPX3M3vUoL8itBa5.jpg",
      "popularity": 15.123,
      "adult": false,
      "known_for_department": "Acting"
    },
    {
      "id": 1023324,
      "name": "Emily Bloom",
      "profile_path": "",
      "popularity": 15.12,
      "adult": false,
      "known_for_department": "Art"
    },
    {
      "id": 58873,
      "name": "Dan Fogler",
      "profile_path": "/zJWbLEjfbDthBMucq9M6L4GJXL3.jpg",
      "popularity": 15.119,
      "adult": false,
      "known_for_department": "Acting"
    },
    {
      "id": 31549,
      "name": "Phil LaMarr",
      "profile_path": "/l5w0qABfsFBxjfWNnpFiaXnh4Nm.jpg",
      "popularity": 15.118,
      "adult": false,
      "known_for_department": "Acting"
    }
  ]
}