{
  "page": 325,
  "total_results": 10000,
  "total_pages": 500,
  "results": [
    {
      "id": 129700,
      "name": "Nozomi Sasaki",
      "profile_path": "/k5WCvK8Zrakp6uPizXYxPoPrxIq.jpg",
      "popularity": 9.962,
      "adult": false,
      "known_for_department": "Acting"
    },
    {
      "id": 36926,
      "name": "Frances Sternhagen",
      "profile_path": "/4eJzKYiAiQBPAHxJVgkdcNbXEnG.jpg",
      "popularity": 9.96,
      "adult": false,
      "known_for_department": "Acting"
    },
    {
      "id": 1330916,
      "name": "Choi Jin-hyuk",
      "profile_path": "/vPbACw1V8nTvyTEDXCsB4wZMiLv.jpg",
      "popularity": 9.958,
      "adult": false,
      "known_for_department": "Acting"
    },
    {
      "id": 1283010,
      "name": "Haruo Sotozaki",
      "profile_path": "/9SsLeBJkFluywq7YaEQiC9iIFBq.jpg",
      "popularity": 9.958,
      "adult": false,
      "known_for_department": "Directing"
    },
    {
      "id": 1838772,
      "name": "Georgi Guryanov",
      "profile_path": "/fZtznlkkIJnoWRU5nd5cFX8Uha6.jpg",
      "popularity": 9.957,
      "adult": false,
      "known_for_department": "Acting"
    },
    {
      "id": 6591,
      "name": "Chris Isaak",
      "profile_path": "/7NdLnxpXoUhQRQOkAbXfpqCIYdr.jpg",
      "popularity": 9.957,
      "adult": false,
      "known_for_department": "Acting"
    },
    {
      "id": 87932,
      "name": "Renée Elise Goldsberry",
      "profile_path": "/p4Rjbr8ZpQ7l3qVCGvNqrLlPs4M.jpg",
      "popularity": 9.955,
      "adult": false,
      "known_for_department": "Acting"
    },
    {
      "id": 26669,
      "name": "Vincent Riotta",
      "profile_path": "/emNPSoWXnj6K5o8jrJP0E8dTWa0.jpg",
      "popularity": 9.954,
      "adult": false,
      "known_for_department": "Acting"
    },
    {
      "id": 9140,
      "name": "James Faulkner",
      "profile_path": "/wMDpbctF9cAL5nYnSL6AcXUTG5K.jpg",
      "popularity": 9.953,
      "adult": false,
      "known_for_department": "Acting"
    },
    {
      "id": 5695,
      "name": "Sid Haig",
      "profile_path": "/vl3bpah8selBmSUDtF9irkHyvIO.jpg",
      "popularity": 9.953,
      "adult": false,
      "known_for_department": "Acting"
    },
    {
      "id": 489467,
      "name": "Jack Gleeson",
      "profile_path": "/uhSnpvrZ5TMnUmfRmZGn2VeVB89.jpg",
      "popularity": 9.951,
      "adult": false,
      "known_for_department": "Acting"
    },
    {
      "id": 544988,
      "name": "Vineeth Radhakrishnan",
      "profile_path": "/dvni43nbWY6J6DPh4W6CyE5oiiW.jpg",
      "popularity": 9.95,
      "adult": false,
      "known_for_department": "Acting"
    },
    {
      "id": 226370,
      "name": "Bradley Steven Perry",
      "profile_path": "/n62ZTaV7xFfOICwcSa6l2hC1K8v.jpg",
      "popularity": 9.95,
      "adult": false,
      "known_for_department": "Acting"
    },
    {
      "id": 31155,
      "name": "Fred Olen Ray",
      "profile_path": "/91Y7oLIYJjpoY0YmDEsswKfeqDg.jpg",
      "popularity": 9.95,
      "adult": false,
      "known_for_department": "Directing"
    },
    {
      "id": 90133,
      "name": "Akemi Okamura",
      "profile_path": "/qEwVfsrA23SCzRZMSlghw2sHctQ.jpg",
      "popularity": 9.949,
      "adult": false,
      "known_for_department": "Acting"
    },
    {
      "id": 23959,
      "name": "Debra Messing",
      "profile_path": "/7YmWcP0VmO1AIoviqXoREMbjQ2V.jpg",
      "popularity": 9.948,
      "adult": false,
      "known_for_department": "Acting"
    },
    {
      "id": 10866,
      "name": "Eric Bogosian",
      "profile_path": "/lUtLCWoLh18UFVOHBFr1VpUpoYJ.jpg",
      "popularity": 9.948,
      "adult": false,
      "known_for_department": "Acting"
    },
    {
      "id": 2414743,
      "name": "Joo Bo-bi",
      "profile_path": "/fUaJyxbQW1TDfw4SUNG5Jo1Uzc2.jpg",
      "popularity": 9.947,
      "adult": false,
      "known_for_department": "Acting"
    },
    {
      "id": 30528,
      "name": "Lucy Marlow",
      "profile_path": "/fD52lIQl94ovICDnPlYIV13S2mQ.jpg",
      "popularity": 9.946,
      "adult": false,
      "known_for_department": "Acting"
    },
    {
      "id": 119757,
      "name": "Kate Luyben",
      "profile_path": "/4AamKfaNwnG6AYXW1vOZEhbpMpH.jpg",
      "popularity": 9.945,
      "adult": false,
      "known_for_department": "Acting"
    }
  ]
}