{
  "page": 120,
  "total_results": 10000,
  "total_pages": 500,
  "results": [
    {
      "id": 18976,
      "name": "Ashton Kutcher",
      "profile_path": "/ekMdWqUBajsLy0fyBcGaPFb4of8.jpg",
      "popularity": 16.998,
      "adult": false,
      "known_for_department": "Acting"
    },
    {
      "id": 25136,
      "name": "Ken Stott",
      "profile_path": "/qmmhRvSwfoJ7TOF5L6p2VMQQz3u.jpg",
      "popularity": 16.993,
      "adult": false,
      "known_for_department": "Acting"
    },
    {
      "id": 3267,
      "name": "George Hamilton",
      "profile_path": "/za0jt4pZEjHf3kzUecbIC6hpX7I.jpg",
      "popularity": 16.993,
      "adult": false,
      "known_for_department": "Acting"
    },
    {
      "id": 1245104,
      "name": "Lee Min-ho ",
      "profile_path": "/iqopuz6cKuRZRUPZQrj7lFZcWWb.jpg",
      "popularity": 16.99,
      "adult": false,
      "known_for_department": "Acting"
    },
    {
      "id": 34845,
      "name": "Lola Glaudini",
      "profile_path": "/hBZNPbzNgyYfcUUBHUlEKAodzSU.jpg",
      "popularity": 16.987,
      "adult": false,
      "known_for_department": "Acting"
    },
    {
      "id": 234933,
      "name": "Katie Leung",
      "profile_path": "/ahnrv2ih7f7mqjDjbkiv1v728Ga.jpg",
      "popularity": 16.979,
      "adult": false,
      "known_for_department": "Acting"
    },
    {
      "id": 56778,
      "name": "Stuart Townsend",
      "profile_path": "/8jc2nlrAkinMjyVPvYxa9goL5QZ.jpg",
      "popularity": 16.969,
      "adult": false,
      "known_for_department": "Acting"
    },
    {
      "id": 12659,
      "name": "Billy Barty",
      "profile_path": "/tsOruE36mrteBfVSFsegoJBSFQS.jpg",
      "popularity": 16.969,
      "adult": false,
      "known_for_department": "Acting"
    },
    {
      "id": 1649152,
      "name": "Jacob Batalon",
      "profile_path": "/53YhaL4xw4Sb1ssoHkeSSBaO29c.jpg",
      "popularity": 16.96,
      "adult": false,
      "known_for_department": "Acting"
    },
    {
      "id": 24367,
      "name": "John Forsythe",
      "profile_path": "/y5dkNu6a12W0o2Q6Jjz1RwsRV5R.jpg",
      "popularity": 16.956,
      "adult": false,
      "known_for_department": "Acting"
    },
    {
      "id": 1988958,
      "name": "Akın Akınözü",
      "profile_path": "/omQTMXYlkzSSBaIYPq5Q4yq7OMd.jpg",
      "popularity": 16.953,
      "adult": false,
      "known_for_department": "Acting"
    },
    {
      "id": 1238927,
      "name": "Rika Izumi",
      "profile_path": "/QD3yOzTTszuMGDZBMUnbam0ToL.jpg",
      "popularity": 16.953,
      "adult": false,
      "known_for_department": "Acting"
    },
    {
      "id": 1744377,
      "name": "Hong Sae-hee",
      "profile_path": "",
      "popularity": 16.946,
      "adult": false,
      "known_for_department": "Acting"
    },
    {
      "id": 1267329,
      "name": "Lupita Nyong'o",
      "profile_path": "/mJMpsADPpt0bmXEzs3ywrUiCkpD.jpg",
      "popularity": 16.946,
      "adult": false,
      "known_for_department": "Acting"
    },
    {
      "id": 1981,
      "name": "Alfre Woodard",
      "profile_path": "/70AVFDROBAeVhWDEMKWfXPpBVYq.jpg",
      "popularity": 16.943,
      "adult": false,
      "known_for_department": "Acting"
    },
    {
      "id": 13026,
      "name": "Nina Foch",
      "profile_path": "/7G1PlnCSzRHa9DTQcN0zO1y7sM3.jpg",
      "popularity": 16.939,
      "adult": false,
      "known_for_department": "Acting"
    },
    {
      "id": 934281,
      "name": "Alex Wolff",
      "profile_path": "/hMhGWS5nB7ZGA3B1aefY39pizgm.jpg",
      "popularity": 16.935,
      "adult": false,
      "known_for_department": "Acting"
    },
    {
      "id": 41419,
      "name": "Hugh Laurie",
      "profile_path": "/akArncggHnusP5jxzMBKmJDRrMo.jpg",
      "popularity": 16.933,
      "adult": false,
      "known_for_department": "Acting"
    },
    {
      "id": 22383,
      "name": "Franco Nero",
      "profile_path": "/uiCrTolkOqpZYVxveMZeBx7sjZO.jpg",
      "popularity": 16.929,
      "adult": false,
      "known_for_department": "Acting"
    },
    {
      "id": 10360,
      "name": "Robert Prosky",
      "profile_path": "/yV95RE8UGyN8rZYF9W4fOGaAV6U.jpg",
      "popularity": 16.929,
      "adult": false,
      "known_for_department": "Acting"
    }
  ]
}