{
  "page": 247,
  "total_results": 10000,
  "total_pages": 500,
  "results": [
    {
      "id": 38703,
      "name": "Kay Panabaker",
      "profile_path": "/f9CpmrB7SukIaUHMeoXVqDS8AG2.jpg",
      "popularity": 10.498,
      "adult": false,
      "known_for_department": "Acting"
    },
    {
      "id": 928581,
      "name": "Hugo Eric Louis van Lawick",
      "profile_path": "/8AH0pXEWZNHzQ7ESkpwzvnFdvhu.jpg",
      "popularity": 10.494,
      "adult": false,
      "known_for_department": "Acting"
    },
    {
      "id": 2326151,
      "name": "Paul Mescal",
      "profile_path": "/pjCmH4YVRYXd4zpErxpdwDgaK2L.jpg",
      "popularity": 10.492,
      "adult": false,
      "known_for_department": "Acting"
    },
    {
      "id": 1965217,
      "name": "Pamir Pekin",
      "profile_path": "/4rVq9xHYQLVxl21c1Vnvhfee3Xg.jpg",
      "popularity": 10.491,
      "adult": false,
      "known_for_department": "Acting"
    },
    {
      "id": 2070456,
      "name": "Thomas Weatherall",
      "profile_path": "/kRETerbrZsM684XQwr5HhYXM5Kg.jpg",
      "popularity": 10.49,
      "adult": false,
      "known_for_department": "Acting"
    },
    {
      "id": 971237,
      "name": "Hector David Jr.",
      "profile_path": "/wFqiin1LM0TnC4SyIJUa77Y02Y3.jpg",
      "popularity": 10.49,
      "adult": false,
      "known_for_department": "Acting"
    },
    {
      "id": 507837,
      "name": "Efrat Dor",
      "profile_path": "/zFm6FZ7cKq9hODKqfvNc4d4zuRi.jpg",
      "popularity": 10.49,
      "adult": false,
      "known_for_department": "Acting"
    },
    {
      "id": 96172,
      "name": "Sam Levinson",
      "profile_path": "/unyjIDs02a9ghtZhnajoAKKGzhW.jpg",
      "popularity": 10.49,
      "adult": false,
      "known_for_department": "Directing"
    },
    {
      "id": 1367568,
      "name": "Daisy Bevan",
      "profile_path": "/yMZrlOPLxwqNl666zdiKYxR5CBq.jpg",
      "popularity": 10.489,
      "adult": false,
      "known_for_department": "Acting"
    },
    {
      "id": 1262627,
      "name": "Eline Powell",
      "profile_path": "/1ns3pxsZ7GfhJF2xxoAAuIN52iO.jpg",
      "popularity": 10.489,
      "adult": false,
      "known_for_department": "Acting"
    },
    {
      "id": 78160,
      "name": "Luca Guadagnino",
      "profile_path": "/lO2GD4s6fRloZLEhsZgBlhJQasE.jpg",
      "popularity": 10.489,
      "adult": false,
      "known_for_department": "Directing"
    },
    {
      "id": 34844,
      "name": "Monet Mazur",
      "profile_path": "/3i7cXN0GoVAejogJtLSONhwqgfE.jpg",
      "popularity": 10.489,
      "adult": false,
      "known_for_department": "Acting"
    },
    {
      "id": 174745,
      "name": "Niamh Cusack",
      "profile_path": "/nfSWB8Ek9X9kjUtjD6PzWxVM5Xd.jpg",
      "popularity": 10.488,
      "adult": false,
      "known_for_department": "Acting"
    },
    {
      "id": 1004053,
      "name": "Francisco Denis",
      "profile_path": "/kidgm7ryeUhtgBEfnXeBOVabfvy.jpg",
      "popularity": 10.486,
      "adult": false,
      "known_for_department": "Acting"
    },
    {
      "id": 148037,
      "name": "N.T. Rama Rao Jr.",
      "profile_path": "/fZz7S7BsXXbgSHNf2DOXOF4ixPU.jpg",
      "popularity": 10.485,
      "adult": false,
      "known_for_department": "Acting"
    },
    {
      "id": 90133,
      "name": "Akemi Okamura",
      "profile_path": "/qEwVfsrA23SCzRZMSlghw2sHctQ.jpg",
      "popularity": 10.485,
      "adult": false,
      "known_for_department": "Acting"
    },
    {
      "id": 60077,
      "name": "Douglas Smith",
      "profile_path": "/rHZPWNxjIrpiHQnEOttscjTVvnm.jpg",
      "popularity": 10.485,
      "adult": false,
      "known_for_department": "Acting"
    },
    {
      "id": 1974521,
      "name": "Tyler Johnson",
      "profile_path": "/3zezOi6g4H6zM54Osv87DW1sYJz.jpg",
      "popularity": 10.481,
      "adult": false,
      "known_for_department": "Acting"
    },
    {
      "id": 209,
      "name": "Jane Adams",
      "profile_path": "/2FsPAoatMkUZ7khJ9r4Fa7ZxQzS.jpg",
      "popularity": 10.48,
      "adult": false,
      "known_for_department": "Acting"
    },
    {
      "id": 7171,
      "name": "John Belushi",
      "profile_path": "/9VmVattp8htG3GJnkPsPuhVIca2.jpg",
      "popularity": 10.479,
      "adult": false,
      "known_for_department": "Acting"
    }
  ]
}