{
  "page": 224,
  "total_results": 10000,
  "total_pages": 500,
  "results": [
    {
      "id": 105207,
      "name": "Barbi Benton",
      "profile_path": "/7AB4lSPhWhheeUGxhSKzgOJBVxp.jpg",
      "popularity": 10.539,
      "adult": false,
      "known_for_department": "Acting"
    },
    {
      "id": 1288730,
      "name": "Moe Dunford",
      "profile_path": "/7H42LjYTJG1f4GHy0bzuXhp0C2M.jpg",
      "popularity": 10.537,
      "adult": false,
      "known_for_department": "Acting"
    },
    {
      "id": 1348579,
      "name": "Lee Il-hwa",
      "profile_path": "/7xRYe23aiFhLd094wv1syDiFzai.jpg",
      "popularity": 10.536,
      "adult": false,
      "known_for_department": "Acting"
    },
    {
      "id": 38406,
      "name": "Paris Hilton",
      "profile_path": "/8ywcy0guTGiL6JIPvnFtELMlwuu.jpg",
      "popularity": 10.534,
      "adult": false,
      "known_for_department": "Acting"
    },
    {
      "id": 15319,
      "name": "Henry Czerny",
      "profile_path": "/zOWZzRmliKf9032IOOq0a3jXhVv.jpg",
      "popularity": 10.534,
      "adult": false,
      "known_for_department": "Acting"
    },
    {
      "id": 4442,
      "name": "Ryan Donowho",
      "profile_path": "/sjn58aHcY9LEUDpr4cSHh6i9vzX.jpg",
      "popularity": 10.534,
      "adult": false,
      "known_for_department": "Acting"
    },
    {
      "id": 221098,
      "name": "Anna Camp",
      "profile_path": "/yOGBODtjYsZnQH8p7dZb0S015Pf.jpg",
      "popularity": 10.533,
      "adult": false,
      "known_for_department": "Acting"
    },
    {
      "id": 55776,
      "name": "Holly Valance",
      "profile_path": "/cgAKRwmcCsfNQKDwuWUsegMp2Ga.jpg",
      "popularity": 10.533,
      "adult": false,
      "known_for_department": "Acting"
    },
    {
      "id": 43996,
      "name": "Jean-Baptiste Maunier",
      "profile_path": "/7MFns6ANxxkG55n75z4omK5voat.jpg",
      "popularity": 10.531,
      "adult": false,
      "known_for_department": "Acting"
    },
    {
      "id": 53923,
      "name": "Aunjanue Ellis",
      "profile_path": "/rKLTo72uhxvQbkGw27nTjH1uCHA.jpg",
      "popularity": 10.529,
      "adult": false,
      "known_for_department": "Acting"
    },
    {
      "id": 6091,
      "name": "August Diehl",
      "profile_path": "/ihfZxWkxFH1FZG98aM9g9icf1gJ.jpg",
      "popularity": 10.529,
      "adult": false,
      "known_for_department": "Acting"
    },
    {
      "id": 20361,
      "name": "John Bennett Perry",
      "profile_path": "/5pO51CnN8xNa6Xeosr6hTsMrM4g.jpg",
      "popularity": 10.528,
      "adult": false,
      "known_for_department": "Acting"
    },
    {
      "id": 69399,
      "name": "Alexandra Holden",
      "profile_path": "/iyEimHNN11NgF1n6dX08wk5BqxB.jpg",
      "popularity": 10.527,
      "adult": false,
      "known_for_department": "Acting"
    },
    {
      "id": 56547,
      "name": "Chris Webster",
      "profile_path": "/yo97GZJnU75mMdTLNQ85SCWOTka.jpg",
      "popularity": 10.526,
      "adult": false,
      "known_for_department": "Acting"
    },
    {
      "id": 576408,
      "name": "Bruce Leung Siu-Lung",
      "profile_path": "/xvcmQjx57T4DcB0YwxUapd35P2f.jpg",
      "popularity": 10.525,
      "adult": false,
      "known_for_department": "Acting"
    },
    {
      "id": 131273,
      "name": "Melissa Sue Anderson",
      "profile_path": "/vy4xBjjnAO4rGK9gxzY7gHW08LY.jpg",
      "popularity": 10.524,
      "adult": false,
      "known_for_department": "Acting"
    },
    {
      "id": 38405,
      "name": "John Corbett",
      "profile_path": "/cuCgInCgheBdYaA7xtxbQRHFzIG.jpg",
      "popularity": 10.524,
      "adult": false,
      "known_for_department": "Acting"
    },
    {
      "id": 64439,
      "name": "Fan Bingbing",
      "profile_path": "/tUpNOTyHtamAt8GlEXsBKvbaDqu.jpg",
      "popularity": 10.522,
      "adult": false,
      "known_for_department": "Acting"
    },
    {
      "id": 583034,
      "name": "Luise Heyer",
      "profile_path": "/ffPzIu201oXjT1R0RCW4loZaxQA.jpg",
      "popularity": 10.52,
      "adult": false,
      "known_for_department": "Acting"
    },
    {
      "id": 61363,
      "name": "Alex Pettyfer",
      "profile_path": "/jcejkad2OWB71Bz1RRc4Ib0961k.jpg",
      "popularity": 10.52,
      "adult": false,
      "known_for_department": "Acting"
    }
  ]
}