{
  "page": 279,
  "total_results": 10000,
  "total_pages": 500,
  "results": [
    {
      "id": 85721,
      "name": "Tamannaah Bhatia",
      "profile_path": "/t4WYoKiFAyO1Rhjv7O03EKmJHp4.jpg",
      "popularity": 9.691,
      "adult": false,
      "known_for_department": "Acting"
    },
    {
      "id": 10545,
      "name": "Mickey Kuhn",
      "profile_path": "/p1K50ZdOssoPCwde2cnQ8aFb7Ph.jpg",
      "popularity": 9.691,
      "adult": false,
      "known_for_department": "Acting"
    },
    {
      "id": 5953,
      "name": "Spike Jonze",
      "profile_path": "/x2QeqEXvi3QjgTybvZ4mmqUf4qO.jpg",
      "popularity": 9.689,
      "adult": false,
      "known_for_department": "Directing"
    },
    {
      "id": 2324569,
      "name": "Emma Corrin",
      "profile_path": "/hp5KW9RpavorNnsQxybB0qBEnyd.jpg",
      "popularity": 9.688,
      "adult": false,
      "known_for_department": "Acting"
    },
    {
      "id": 588183,
      "name": "Silvia Alonso",
      "profile_path": "/AgXsHxxSBOy9JmtWy5o8y3cKprY.jpg",
      "popularity": 9.687,
      "adult": false,
      "known_for_department": "Acting"
    },
    {
      "id": 228330,
      "name": "Jon Cor",
      "profile_path": "/6xVyHRK971bIBh4cB7zY1nyxhOe.jpg",
      "popularity": 9.687,
      "adult": false,
      "known_for_department": "Acting"
    },
    {
      "id": 108538,
      "name": "Yang Ik-june",
      "profile_path": "/3ojlJI8RQXKtewFIHheUUeXKXv2.jpg",
      "popularity": 9.687,
      "adult": false,
      "known_for_department": "Acting"
    },
    {
      "id": 12515,
      "name": "José Ferrer",
      "profile_path": "/1sNJx2gmiZsSDSA8gc0qpkgULsn.jpg",
      "popularity": 9.687,
      "adult": false,
      "known_for_department": "Acting"
    },
    {
      "id": 11492,
      "name": "Clark Gable",
      "profile_path": "/bN06QeVin5gH9u0Lvcqp4df8uT5.jpg",
      "popularity": 9.687,
      "adult": false,
      "known_for_department": "Acting"
    },
    {
      "id": 21992,
      "name": "Pia Zadora",
      "profile_path": "/dRuW1EJAYSBFNtO7sZlL1AIOfjQ.jpg",
      "popularity": 9.684,
      "adult": false,
      "known_for_department": "Acting"
    },
    {
      "id": 1280881,
      "name": "Tenzing Norgay Trainor",
      "profile_path": "/1mIj4EeFZHil1QClQY6W3fvfvIf.jpg",
      "popularity": 9.681,
      "adult": false,
      "known_for_department": "Acting"
    },
    {
      "id": 90720,
      "name": "Elysia Rotaru",
      "profile_path": "/fqrrrmc91VmLKQu7y4cW26YQKzh.jpg",
      "popularity": 9.681,
      "adult": false,
      "known_for_department": "Acting"
    },
    {
      "id": 1522695,
      "name": "Tolga Sarıtaş",
      "profile_path": "/skKhvO5csMhquV3dNJq2yN74hs7.jpg",
      "popularity": 9.68,
      "adult": false,
      "known_for_department": "Acting"
    },
    {
      "id": 1130611,
      "name": "Mayu Matsuoka",
      "profile_path": "/ivbSQZKP5IJkzPv0nLJyxS9mMRo.jpg",
      "popularity": 9.68,
      "adult": false,
      "known_for_department": "Acting"
    },
    {
      "id": 61011,
      "name": "Clarke Peters",
      "profile_path": "/9A9SEY4F7ACvbpR2x6H9THfBayQ.jpg",
      "popularity": 9.68,
      "adult": false,
      "known_for_department": "Acting"
    },
    {
      "id": 41820,
      "name": "Michelle Forbes",
      "profile_path": "/ims1CF6ejLRWPIUgIwDUFv81l40.jpg",
      "popularity": 9.68,
      "adult": false,
      "known_for_department": "Acting"
    },
    {
      "id": 1299287,
      "name": "Jin Goo",
      "profile_path": "/jL0bhHE8vIEomP1Zdz3a0ryXXgk.jpg",
      "popularity": 9.679,
      "adult": false,
      "known_for_department": "Acting"
    },
    {
      "id": 1221114,
      "name": "Yuichi Nakamura",
      "profile_path": "/wb8behVKjBHX9XXrEydvNINCYwH.jpg",
      "popularity": 9.677,
      "adult": false,
      "known_for_department": "Acting"
    },
    {
      "id": 86128,
      "name": "Susan Egan",
      "profile_path": "/kJnBjeUAQqc9LbPaoqs1khGedUi.jpg",
      "popularity": 9.677,
      "adult": false,
      "known_for_department": "Acting"
    },
    {
      "id": 53117,
      "name": "Dustin Milligan",
      "profile_path": "/v1OtMBknzIUPXd0sQU6P0LA57V7.jpg",
      "popularity": 9.676,
      "adult": false,
      "known_for_department": "Acting"
    }
  ]
}