{
  "page": 85,
  "total_results": 10000,
  "total_pages": 500,
  "results": [
    {
      "id": 1692795,
      "name": "Meg Donnelly",
      "profile_path": "/uBnW6OiovJm93egOY3une2OOt3X.jpg",
      "popularity": 18.008,
      "adult": false,
      "known_for_department": "Acting"
    },
    {
      "id": 234982,
      "name": "Bella Heathcote",
      "profile_path": "/cVPZLFNJ1SCHCnmOi2Jmms9I0TV.jpg",
      "popularity": 18.007,
      "adult": false,
      "known_for_department": "Acting"
    },
    {
      "id": 2280178,
      "name": "Sofia Kappel",
      "profile_path": "/wlE0ETWr4uAAdPaenSMo1a4yF8J.jpg",
      "popularity": 18.005,
      "adult": false,
      "known_for_department": "Acting"
    },
    {
      "id": 87265,
      "name": "Tenoch Huerta Mejía",
      "profile_path": "/5qoAmQpcPCjf4Pd6aTZOeINGYzk.jpg",
      "popularity": 18.004,
      "adult": false,
      "known_for_department": "Acting"
    },
    {
      "id": 1731979,
      "name": "Valentina Zenere",
      "profile_path": "/biyzs4vdBviMYzxpsMqxIX5Uota.jpg",
      "popularity": 18.003,
      "adult": false,
      "known_for_department": "Acting"
    },
    {
      "id": 90498,
      "name": "Devon Bostick",
      "profile_path": "/lFzX6PUk4021NK5gRWQa30UdEqZ.jpg",
      "popularity": 18.001,
      "adult": false,
      "known_for_department": "Acting"
    },
    {
      "id": 87165,
      "name": "Jennifer Holland",
      "profile_path": "/mv8EcqDIBITO5dwoBKREcJoRjKo.jpg",
      "popularity": 17.982,
      "adult": false,
      "known_for_department": "Acting"
    },
    {
      "id": 378,
      "name": "Jonathan Pryce",
      "profile_path": "/zwSv5uXzPTtmitFe39UdqnVwmdL.jpg",
      "popularity": 17.977,
      "adult": false,
      "known_for_department": "Acting"
    },
    {
      "id": 5606,
      "name": "Sissy Spacek",
      "profile_path": "/xAxenjxjLNQFq4v1ccS2to3Mnoq.jpg",
      "popularity": 17.964,
      "adult": false,
      "known_for_department": "Acting"
    },
    {
      "id": 2489904,
      "name": "Sydney Mitchell",
      "profile_path": "/wizvCDVEZUO1yWxOtlffLW1c9TH.jpg",
      "popularity": 17.962,
      "adult": false,
      "known_for_department": "Acting"
    },
    {
      "id": 5411,
      "name": "Sanaa Lathan",
      "profile_path": "/mYrlBt33pPbdsgscTuWdHScu7md.jpg",
      "popularity": 17.948,
      "adult": false,
      "known_for_department": "Acting"
    },
    {
      "id": 1829122,
      "name": "Ewan Mitchell",
      "profile_path": "/v1PqysDnx5umfA2DqGyjwuAxc9C.jpg",
      "popularity": 17.939,
      "adult": false,
      "known_for_department": "Acting"
    },
    {
      "id": 3084,
      "name": "Marlon Brando",
      "profile_path": "/fuTEPMsBtV1zE98ujPONbKiYDc2.jpg",
      "popularity": 17.937,
      "adult": false,
      "known_for_department": "Acting"
    },
    {
      "id": 15370,
      "name": "Gretchen Mol",
      "profile_path": "/wJWEhyjekEElGBTgvsvNzgBNWfy.jpg",
      "popularity": 17.917,
      "adult": false,
      "known_for_department": "Acting"
    },
    {
      "id": 1472783,
      "name": "Grace Van Patten",
      "profile_path": "/oXTngLiWFxOsXjSlOel6vYAwWQ0.jpg",
      "popularity": 17.91,
      "adult": false,
      "known_for_department": "Acting"
    },
    {
      "id": 1629663,
      "name": "Alp Navruz",
      "profile_path": "/l1hxKyCzLbitYlve7HwIDfRAUqn.jpg",
      "popularity": 17.902,
      "adult": false,
      "known_for_department": "Acting"
    },
    {
      "id": 25934,
      "name": "David Boreanaz",
      "profile_path": "/oO619MACIfz7YoPiIGXYOfamhOE.jpg",
      "popularity": 17.875,
      "adult": false,
      "known_for_department": "Acting"
    },
    {
      "id": 43858,
      "name": "Ryan Hurst",
      "profile_path": "/467wpYYeeDyF4MeoDMuNp4bwgzH.jpg",
      "popularity": 17.87,
      "adult": false,
      "known_for_department": "Acting"
    },
    {
      "id": 1213613,
      "name": "Jeri Ryan",
      "profile_path": "/d1FaZumY8fWbYTUuPokYUYx8x5G.jpg",
      "popularity": 17.855,
      "adult": false,
      "known_for_department": "Acting"
    },
    {
      "id": 34546,
      "name": "Mark Gatiss",
      "profile_path": "/rdinP6RQwKBab7BawJDBzF1I7Qz.jpg",
      "popularity": 17.853,
      "adult": false,
      "known_for_department": "Acting"
    }
  ]
}