{
  "page": 183,
  "total_results": 10000,
  "total_pages": 500,
  "results": [
    {
      "id": 1753,
      "name": "Nichelle Nichols",
      "profile_path": "/AnpsVcvctajCU7X8iJW6ID4GYUK.jpg",
      "popularity": 11.55,
      "adult": false,
      "known_for_department": "Acting"
    },
    {
      "id": 1173,
      "name": "Mark Margolis",
      "profile_path": "/rT5TYJIPLBkTqsrUs00AixGeaMM.jpg",
      "popularity": 11.55,
      "adult": false,
      "known_for_department": "Acting"
    },
    {
      "id": 66223,
      "name": "Sondra Locke",
      "profile_path": "/kVSqS93rJfQ1ozmzhI5w92aWPVo.jpg",
      "popularity": 11.549,
      "adult": false,
      "known_for_department": "Acting"
    },
    {
      "id": 1134569,
      "name": "Ai Shinozaki",
      "profile_path": "/vMpmXyQXbTLrhmNOSdCEgLM90pR.jpg",
      "popularity": 11.547,
      "adult": false,
      "known_for_department": "Acting"
    },
    {
      "id": 19270,
      "name": "Michèle Mercier",
      "profile_path": "/eRAZgxJ5laS84HwSTFDVGjqmZEe.jpg",
      "popularity": 11.547,
      "adult": false,
      "known_for_department": "Acting"
    },
    {
      "id": 2256407,
      "name": "Shin Ye-eun",
      "profile_path": "/aSqjgvIuHZJMq0n5TNtKQ9Nr0DP.jpg",
      "popularity": 11.546,
      "adult": false,
      "known_for_department": "Acting"
    },
    {
      "id": 2139,
      "name": "Makenzie Vega",
      "profile_path": "/h5yGkSvNjYDspoF4otFKp7I2ajL.jpg",
      "popularity": 11.546,
      "adult": false,
      "known_for_department": "Acting"
    },
    {
      "id": 1517841,
      "name": "Michael Provost",
      "profile_path": "/AqZ7ETKs0xhzUwwGFXyakhcZOmy.jpg",
      "popularity": 11.544,
      "adult": false,
      "known_for_department": "Acting"
    },
    {
      "id": 62414,
      "name": "Yuen Biao",
      "profile_path": "/pgO9Im1QKPjLozvsWODLtZDTjw7.jpg",
      "popularity": 11.544,
      "adult": false,
      "known_for_department": "Acting"
    },
    {
      "id": 1787399,
      "name": "Shaunette Renée Wilson",
      "profile_path": "/fPjeTxxE2sB0bQUcAoO13mKsKK5.jpg",
      "popularity": 11.543,
      "adult": false,
      "known_for_department": "Acting"
    },
    {
      "id": 1526594,
      "name": "Lorenzo Zurzolo",
      "profile_path": "/aZCIOFckGuxHXbYSQAlgavwOxPU.jpg",
      "popularity": 11.543,
      "adult": false,
      "known_for_department": "Acting"
    },
    {
      "id": 58674,
      "name": "Yukie Nakama",
      "profile_path": "/nQpfSd4eIZpDKNSNGXV1cBUhvfm.jpg",
      "popularity": 11.54,
      "adult": false,
      "known_for_department": "Acting"
    },
    {
      "id": 1394429,
      "name": "Jordan Patrick Smith",
      "profile_path": "/bGPLRUkjCHm2j8VspCOgL6mti4b.jpg",
      "popularity": 11.537,
      "adult": false,
      "known_for_department": "Acting"
    },
    {
      "id": 1010157,
      "name": "Diane Guerrero",
      "profile_path": "/5LXvRYdxKLWROAD2KDSXzRNNSdE.jpg",
      "popularity": 11.535,
      "adult": false,
      "known_for_department": "Acting"
    },
    {
      "id": 1285,
      "name": "AnnaSophia Robb",
      "profile_path": "/tWlnAuyQeFidHcAo2zUVxNv0G0T.jpg",
      "popularity": 11.533,
      "adult": false,
      "known_for_department": "Acting"
    },
    {
      "id": 1910461,
      "name": "Antonio Palombi",
      "profile_path": "",
      "popularity": 11.532,
      "adult": false,
      "known_for_department": "Acting"
    },
    {
      "id": 10777,
      "name": "Maria Grazia Cucinotta",
      "profile_path": "/zZ46tuQnCEnYlfGiyuZTAb7w4BL.jpg",
      "popularity": 11.529,
      "adult": false,
      "known_for_department": "Acting"
    },
    {
      "id": 11389,
      "name": "John Lone",
      "profile_path": "/cO62O0mZGCvR0y5zM5oI2rUDhto.jpg",
      "popularity": 11.526,
      "adult": false,
      "known_for_department": "Acting"
    },
    {
      "id": 5064,
      "name": "Meryl Streep",
      "profile_path": "/emAAzyK1rJ6aiMi0wsWYp51EC3h.jpg",
      "popularity": 11.526,
      "adult": false,
      "known_for_department": "Acting"
    },
    {
      "id": 587,
      "name": "Edward James Olmos",
      "profile_path": "/mXnilUrQBIMLHSQkPjQk99mX70x.jpg",
      "popularity": 11.525,
      "adult": false,
      "known_for_department": "Acting"
    }
  ]
}