{
  "page": 22,
  "total_results": 10000,
  "total_pages": 500,
  "results": [
    {
      "id": 28412,
      "name": "Rebecca De Mornay",
      "profile_path": "/bGSvflCmfywasc3U8QAsJPaAek4.jpg",
      "popularity": 32.915,
      "adult": false,
      "known_for_department": "Acting"
    },
    {
      "id": 27772,
      "name": "John Ritter",
      "profile_path": "/qtDUmYHdT6RCs8wp5FmIZMKNelM.jpg",
      "popularity": 32.915,
      "adult": false,
      "known_for_department": "Acting"
    },
    {
      "id": 20810,
      "name": "Joely Richardson",
      "profile_path": "/6OWUwieNiWcZNnu4h6gd8vyhxBV.jpg",
      "popularity": 32.896,
      "adult": false,
      "known_for_department": "Acting"
    },
    {
      "id": 190895,
      "name": "Sarah Gadon",
      "profile_path": "/lNTuaaBaSxBHYcezJUGuH4lxq9w.jpg",
      "popularity": 32.889,
      "adult": false,
      "known_for_department": "Acting"
    },
    {
      "id": 74688,
      "name": "Keke Palmer",
      "profile_path": "/yoVqXwbTM8ckiWA1hV3LtMCzJyc.jpg",
      "popularity": 32.889,
      "adult": false,
      "known_for_department": "Acting"
    },
    {
      "id": 56457,
      "name": "Aimee Garcia",
      "profile_path": "/4z3mkoa8jHpqjzfbhzYMeKe2Mf7.jpg",
      "popularity": 32.876,
      "adult": false,
      "known_for_department": "Acting"
    },
    {
      "id": 2778,
      "name": "Dennis Hopper",
      "profile_path": "/3Hg8mkb1RxqNhDOofzHdr0PoufH.jpg",
      "popularity": 32.852,
      "adult": false,
      "known_for_department": "Acting"
    },
    {
      "id": 2359492,
      "name": "Fairouz Ai",
      "profile_path": "/coFu6WOVBZvqd1fw89vbHkiC0zB.jpg",
      "popularity": 32.826,
      "adult": false,
      "known_for_department": "Acting"
    },
    {
      "id": 13997,
      "name": "June Lockhart",
      "profile_path": "/3nW0pXkG1H5quSqOVWcYwmSGRn3.jpg",
      "popularity": 32.826,
      "adult": false,
      "known_for_department": "Acting"
    },
    {
      "id": 239019,
      "name": "Kit Harington",
      "profile_path": "/noInYh5IKASiecR5lHJSjXIDmkm.jpg",
      "popularity": 32.792,
      "adult": false,
      "known_for_department": "Acting"
    },
    {
      "id": 15453,
      "name": "Debra Jo Rupp",
      "profile_path": "/9Ctz7eHGE1TSxELdxAUztp9Gt3t.jpg",
      "popularity": 32.706,
      "adult": false,
      "known_for_department": "Acting"
    },
    {
      "id": 41230,
      "name": "John Astin",
      "profile_path": "/xczlYoJJblfyoOudcn7riLqsbXW.jpg",
      "popularity": 32.682,
      "adult": false,
      "known_for_department": "Acting"
    },
    {
      "id": 84497,
      "name": "Aaron Paul",
      "profile_path": "/lowE44ffgu4UmnOT3wOTKYhtUzp.jpg",
      "popularity": 32.649,
      "adult": false,
      "known_for_department": "Acting"
    },
    {
      "id": 84223,
      "name": "Anna Kendrick",
      "profile_path": "/zxYcN7MG1rifJNFIDCJUPKLSAnw.jpg",
      "popularity": 32.623,
      "adult": false,
      "known_for_department": "Acting"
    },
    {
      "id": 19537,
      "name": "Megan Fox",
      "profile_path": "/bJeD8b5dSbH8jzlYSOjRpxxUmcb.jpg",
      "popularity": 32.622,
      "adult": false,
      "known_for_department": "Acting"
    },
    {
      "id": 27163,
      "name": "Ornella Muti",
      "profile_path": "/7fnnSW9ayPPfP51Zuss8QT0Ermr.jpg",
      "popularity": 32.607,
      "adult": false,
      "known_for_department": "Acting"
    },
    {
      "id": 9195,
      "name": "Hiroyuki Sanada",
      "profile_path": "/x6QHfdTvuuOclypoPqtdqQmlaGW.jpg",
      "popularity": 32.598,
      "adult": false,
      "known_for_department": "Acting"
    },
    {
      "id": 94185,
      "name": "Shailene Woodley",
      "profile_path": "/y283nMcCx0BTcZ8rNZKLNpeq3UY.jpg",
      "popularity": 32.553,
      "adult": false,
      "known_for_department": "Acting"
    },
    {
      "id": 500,
      "name": "Tom Cruise",
      "profile_path": "/8qBylBsQf4llkGrWR3qAsOtOU8O.jpg",
      "popularity": 32.539,
      "adult": false,
      "known_for_department": "Acting"
    },
    {
      "id": 777,
      "name": "Judge Reinhold",
      "profile_path": "/oPdJz2hSIkrj1wvOpupGoIej6IO.jpg",
      "popularity": 32.507,
      "adult": false,
      "known_for_department": "Acting"
    }
  ]
}