{
  "page": 343,
  "total_results": 10000,
  "total_pages": 500,
  "results": [
    {
      "id": 1729,
      "name": "James Horner",
      "profile_path": "/g2C3Fb4fHCU2gnqUcwTQCv5EZc4.jpg",
      "popularity": 8.818,
      "adult": false,
      "known_for_department": "Sound"
    },
    {
      "id": 1173214,
      "name": "Tong Liya",
      "profile_path": "/9FkK9VgNFspdp1PLYDZTrVIjNv6.jpg",
      "popularity": 8.817,
      "adult": false,
      "known_for_department": "Acting"
    },
    {
      "id": 4790,
      "name": "Martin Ferrero",
      "profile_path": "/exNDaap66dmsfBQkCf7vHGj3TBK.jpg",
      "popularity": 8.817,
      "adult": false,
      "known_for_department": "Acting"
    },
    {
      "id": 1332,
      "name": "Craig Parker",
      "profile_path": "/gV5dbZ0gorOtIJXmJz7g3maDGgM.jpg",
      "popularity": 8.816,
      "adult": false,
      "known_for_department": "Acting"
    },
    {
      "id": 118546,
      "name": "Adina Porter",
      "profile_path": "/9Tp8zzdbGoLaXVhoEJounl4cijK.jpg",
      "popularity": 8.814,
      "adult": false,
      "known_for_department": "Acting"
    },
    {
      "id": 6969,
      "name": "Geoff Bell",
      "profile_path": "/8aNglSp8fyxZLaJ1YtkYrssBGgN.jpg",
      "popularity": 8.814,
      "adult": false,
      "known_for_department": "Acting"
    },
    {
      "id": 2320594,
      "name": "Bruno Gouery",
      "profile_path": "/w0JGP6mtph0PAaRmXagD9PcpQ5M.jpg",
      "popularity": 8.813,
      "adult": false,
      "known_for_department": "Acting"
    },
    {
      "id": 1218218,
      "name": "Thomas Sadoski",
      "profile_path": "/ciqrqKHUfFGlMPyUE35YSKEvxuL.jpg",
      "popularity": 8.813,
      "adult": false,
      "known_for_department": "Acting"
    },
    {
      "id": 936836,
      "name": "Jang Hee-jin",
      "profile_path": "/fZ79YHqcNbEesXHirD3i6Q4g6SH.jpg",
      "popularity": 8.813,
      "adult": false,
      "known_for_department": "Acting"
    },
    {
      "id": 8023,
      "name": "Kyle Balda",
      "profile_path": "/uay7ZJLuW47ClGfQ4FGWgXZOerv.jpg",
      "popularity": 8.812,
      "adult": false,
      "known_for_department": "Directing"
    },
    {
      "id": 1425019,
      "name": "Laia Costa",
      "profile_path": "/i1L1tb5a8bdea4Zx0mAj260Fpde.jpg",
      "popularity": 8.81,
      "adult": false,
      "known_for_department": "Acting"
    },
    {
      "id": 145326,
      "name": "Alessandra Mastronardi",
      "profile_path": "/h3CPOjmYz6c1yPn9UTktVy0mNaD.jpg",
      "popularity": 8.809,
      "adult": false,
      "known_for_department": "Acting"
    },
    {
      "id": 38710,
      "name": "Connie Young",
      "profile_path": "/bHOpJ4eYIazwHIlkQU51099RevN.jpg",
      "popularity": 8.809,
      "adult": false,
      "known_for_department": "Acting"
    },
    {
      "id": 1819796,
      "name": "Taegen Burns",
      "profile_path": "/myA7TJWzmC4XbV47W6qf9YpN0Bk.jpg",
      "popularity": 8.807,
      "adult": false,
      "known_for_department": "Acting"
    },
    {
      "id": 16848,
      "name": "Rob Zombie",
      "profile_path": "/kkl4gjIJ1pyEJhNp2B2HricD2v7.jpg",
      "popularity": 8.806,
      "adult": false,
      "known_for_department": "Acting"
    },
    {
      "id": 1215836,
      "name": "Kyle Bornheimer",
      "profile_path": "/79KUwXqB2FdKqxsAMppkJ8Aa78e.jpg",
      "popularity": 8.804,
      "adult": false,
      "known_for_department": "Acting"
    },
    {
      "id": 1194111,
      "name": "Ella Scott Lynch",
      "profile_path": "/oOlGrSDKICw0llXR8XN3DjDyipu.jpg",
      "popularity": 8.803,
      "adult": false,
      "known_for_department": "Acting"
    },
    {
      "id": 1694435,
      "name": "Park Myung-hoon",
      "profile_path": "/8IgD7YBQKi2K94RSCwXCCrKcQrA.jpg",
      "popularity": 8.802,
      "adult": false,
      "known_for_department": "Acting"
    },
    {
      "id": 1200384,
      "name": "Kim Bo-ra",
      "profile_path": "/5Y6yKloeVDnMB6AkJcdpl8E2bKA.jpg",
      "popularity": 8.802,
      "adult": false,
      "known_for_department": "Acting"
    },
    {
      "id": 58210,
      "name": "Ernie Reyes Jr.",
      "profile_path": "/8oBXNulh6U5YM6Ab5RJljk39LOP.jpg",
      "popularity": 8.802,
      "adult": false,
      "known_for_department": "Acting"
    }
  ]
}