{
  "page": 3,
  "total_results": 10000,
  "total_pages": 500,
  "results": [
    {
      "id": 3194176,
      "name": "Angeli Khang",
      "profile_path": "/jhNtIfmSlzsyQlo94BibQ2WIa7N.jpg",
      "popularity": 79.384,
      "adult": false,
      "known_for_department": "Acting"
    },
    {
      "id": 2729190,
      "name": "Becky Armstrong",
      "profile_path": "/gp6GvKzCuG62EFjhopnoyjTOa7h.jpg",
      "popularity": 79.384,
      "adult": false,
      "known_for_department": "Acting"
    },
    {
      "id": 2710789,
      "name": "Seung Ha",
      "profile_path": "/8dCFK8FDFQbYFZvzAE9IIeaDMKo.jpg",
      "popularity": 79.384,
      "adult": false,
      "known_for_department": "Acting"
    },
    {
      "id": 73457,
      "name": "Chris Pratt",
      "profile_path": "/83o3koL82jt30EJ0rz4Bnzrt2dd.jpg",
      "popularity": 79.264,
      "adult": false,
      "known_for_department": "Acting"
    },
    {
      "id": 86654,
      "name": "Austin Butler",
      "profile_path": "/zyizc36OayhIn3STXR8HXP0nnVm.jpg",
      "popularity": 79.198,
      "adult": false,
      "known_for_department": "Acting"
    },
    {
      "id": 1620,
      "name": "Michelle Yeoh",
      "profile_path": "/qVwowTu47PL8IYA85E0Qp0bDBqL.jpg",
      "popularity": 79.039,
      "adult": false,
      "known_for_department": "Acting"
    },
    {
      "id": 1356210,
      "name": "Millie Bobby Brown",
      "profile_path": "/2685xGmq68G6tmnUbfgSR6rywEV.jpg",
      "popularity": 78.963,
      "adult": false,
      "known_for_department": "Acting"
    },
    {
      "id": 72466,
      "name": "Colin Farrell",
      "profile_path": "/vVqrAhZpojAtp874wBaaFt5T4dN.jpg",
      "popularity": 77.511,
      "adult": false,
      "known_for_department": "Acting"
    },
    {
      "id": 139,
      "name": "Uma Thurman",
      "profile_path": "/pGyACejvvLI6tB0gFQ2rCjwqKvd.jpg",
      "popularity": 77.021,
      "adult": false,
      "known_for_department": "Acting"
    },
    {
      "id": 1972974,
      "name": "Isabel May",
      "profile_path": "/9AT39NSHNQ44VebDrqupxplmyLK.jpg",
      "popularity": 76.418,
      "adult": false,
      "known_for_department": "Acting"
    },
    {
      "id": 1223786,
      "name": "Emilia Clarke",
      "profile_path": "/86jeYFV40KctQMDQIWhJ5oviNGj.jpg",
      "popularity": 75.407,
      "adult": false,
      "known_for_department": "Acting"
    },
    {
      "id": 10205,
      "name": "Sigourney Weaver",
      "profile_path": "/flfhep27iBxseZIlxOMHt6zJFX1.jpg",
      "popularity": 74.667,
      "adult": false,
      "known_for_department": "Acting"
    },
    {
      "id": 2037,
      "name": "Cillian Murphy",
      "profile_path": "/dm6V24NjjvjMiCtbMkc8Y2WPm2e.jpg",
      "popularity": 74.397,
      "adult": false,
      "known_for_department": "Acting"
    },
    {
      "id": 38334,
      "name": "Jennifer Coolidge",
      "profile_path": "/fU3MWqENdkD3Gkw59UtxB19cOD1.jpg",
      "popularity": 73.114,
      "adult": false,
      "known_for_department": "Acting"
    },
    {
      "id": 3293,
      "name": "Rachel Weisz",
      "profile_path": "/msTqKPA33ryVtcVNgOdeaJGYq16.jpg",
      "popularity": 72.825,
      "adult": false,
      "known_for_department": "Acting"
    },
    {
      "id": 17142,
      "name": "Paul Dano",
      "profile_path": "/tXojMAQN8FBg3h15GlcLPOuUeWW.jpg",
      "popularity": 72.176,
      "adult": false,
      "known_for_department": "Acting"
    },
    {
      "id": 118545,
      "name": "Dakota Johnson",
      "profile_path": "/qRPULEOXibPEmSljRRvnYHxXGBq.jpg",
      "popularity": 71.265,
      "adult": false,
      "known_for_department": "Acting"
    },
    {
      "id": 56680,
      "name": "Luke Grimes",
      "profile_path": "/52KsHFCu0LToakebnxqC4VeRixl.jpg",
      "popularity": 70.842,
      "adult": false,
      "known_for_department": "Acting"
    },
    {
      "id": 15555,
      "name": "Piper Perabo",
      "profile_path": "/aP9QqLm4JZxLwp2CiUbEh5zrpVI.jpg",
      "popularity": 70.479,
      "adult": false,
      "known_for_department": "Acting"
    },
    {
      "id": 11510,
      "name": "Macaulay Culkin",
      "profile_path": "/hVagDqi5o8lZ21b1kXAl45Sj9wt.jpg",
      "popularity": 70.301,
      "adult": false,
      "known_for_department": "Acting"
    }
  ]
}