{
  "page": 449,
  "total_results": 10000,
  "total_pages": 500,
  "results": [
    {
      "id": 116805,
      "name": "Paul Feig",
      "profile_path": "/lcD0BkGKWKynUwtPSEDLAsFdIJX.jpg",
      "popularity": 7.437,
      "adult": false,
      "known_for_department": "Directing"
    },
    {
      "id": 2030317,
      "name": "Claudia Salas",
      "profile_path": "/oeBiGZI4JHb5izagxfEWLHpCpxg.jpg",
      "popularity": 7.436,
      "adult": false,
      "known_for_department": "Acting"
    },
    {
      "id": 73550,
      "name": "Henrik Mestad",
      "profile_path": "/uhUKVFGEPP4168ulWUsz3GISn4a.jpg",
      "popularity": 7.435,
      "adult": false,
      "known_for_department": "Acting"
    },
    {
      "id": 21422,
      "name": "Brett Goldstein",
      "profile_path": "/3MtKSUIK43BMWHAbnMGhZ1zjGUH.jpg",
      "popularity": 7.435,
      "adult": false,
      "known_for_department": "Acting"
    },
    {
      "id": 19968,
      "name": "Royal Dano",
      "profile_path": "/qg2cZRP9jtq3euKBY4FbO9x7Cl9.jpg",
      "popularity": 7.435,
      "adult": false,
      "known_for_department": "Acting"
    },
    {
      "id": 18982,
      "name": "Ted McGinley",
      "profile_path": "/md76vDULXPfwYujdW1f2M6K7Cfb.jpg",
      "popularity": 7.435,
      "adult": false,
      "known_for_department": "Acting"
    },
    {
      "id": 62551,
      "name": "Heidi Swedberg",
      "profile_path": "/aDMeu2mOXgCYOXEr3U795BYpl7t.jpg",
      "popularity": 7.434,
      "adult": false,
      "known_for_department": "Acting"
    },
    {
      "id": 40331,
      "name": "Daisuke Sakaguchi",
      "profile_path": "/7aHA3ELUwyrzPRm6UCZJe87x1mL.jpg",
      "popularity": 7.434,
      "adult": false,
      "known_for_department": "Acting"
    },
    {
      "id": 1333812,
      "name": "Barbara Wallace",
      "profile_path": "/eBXpiV5eYtPYln9Wa2badsNu78u.jpg",
      "popularity": 7.433,
      "adult": false,
      "known_for_department": "Acting"
    },
    {
      "id": 1669125,
      "name": "Eliza Scanlen",
      "profile_path": "/l5AaqeJ5Eh3Mdu0GScA8mWLBgj4.jpg",
      "popularity": 7.432,
      "adult": false,
      "known_for_department": "Acting"
    },
    {
      "id": 928938,
      "name": "Juliette Angelo",
      "profile_path": "/rnmMm0ORpt3tyjDt5tjjVygjfVH.jpg",
      "popularity": 7.432,
      "adult": false,
      "known_for_department": "Acting"
    },
    {
      "id": 143190,
      "name": "Wei Ping-ao",
      "profile_path": "",
      "popularity": 7.432,
      "adult": false,
      "known_for_department": "Acting"
    },
    {
      "id": 33923,
      "name": "Mel Blanc",
      "profile_path": "/8fevv4K06TmHsYom2XfmxgKrTcd.jpg",
      "popularity": 7.432,
      "adult": false,
      "known_for_department": "Acting"
    },
    {
      "id": 92429,
      "name": "Jens Hultén",
      "profile_path": "/tpU3Dcj4YqOwPmpOIFX26Zg3smy.jpg",
      "popularity": 7.429,
      "adult": false,
      "known_for_department": "Acting"
    },
    {
      "id": 2340874,
      "name": "Liu Haikuan",
      "profile_path": "/setVA9Ux9dasZ8kiPWrk87kWzlI.jpg",
      "popularity": 7.428,
      "adult": false,
      "known_for_department": "Acting"
    },
    {
      "id": 2020904,
      "name": "Jackson A. Dunn",
      "profile_path": "/fHUH3GjxwO8yZgeoYKAL4b7b8X4.jpg",
      "popularity": 7.428,
      "adult": false,
      "known_for_department": "Acting"
    },
    {
      "id": 121353,
      "name": "Vicki Schreck",
      "profile_path": "/pWA4QP87CLmvPg4xagWyMIdSjjs.jpg",
      "popularity": 7.428,
      "adult": false,
      "known_for_department": "Acting"
    },
    {
      "id": 81850,
      "name": "Duncan Jones",
      "profile_path": "/1YD0ODUMoibJTNbgWwN0l0d1sT0.jpg",
      "popularity": 7.428,
      "adult": false,
      "known_for_department": "Directing"
    },
    {
      "id": 24498,
      "name": "John McEnery",
      "profile_path": "/vzVsCjZlsejxLx65fsHczRfsBJe.jpg",
      "popularity": 7.428,
      "adult": false,
      "known_for_department": "Acting"
    },
    {
      "id": 1817018,
      "name": "Celeste Desjardins",
      "profile_path": "/hSu1hRAEwAVPDBEOKofo23IqkbC.jpg",
      "popularity": 7.427,
      "adult": false,
      "known_for_department": "Acting"
    }
  ]
}