{
  "page": 31,
  "total_results": 10000,
  "total_pages": 500,
  "results": [
    {
      "id": 28846,
      "name": "Alexander Skarsgård",
      "profile_path": "/aVAPqwoElxk9O8QID96l6qG4x2E.jpg",
      "popularity": 28.641,
      "adult": false,
      "known_for_department": "Acting"
    },
    {
      "id": 1080542,
      "name": "Jenna Coleman",
      "profile_path": "/pylSrUkaLzDvfflyMnU32eY0vrN.jpg",
      "popularity": 28.592,
      "adult": false,
      "known_for_department": "Acting"
    },
    {
      "id": 8602,
      "name": "Alice Braga",
      "profile_path": "/ykVmsm3For9dCBfWLRtTL0EU24b.jpg",
      "popularity": 28.59,
      "adult": false,
      "known_for_department": "Acting"
    },
    {
      "id": 54812,
      "name": "Chevy Chase",
      "profile_path": "/A1X2BvR8vEXvwXdJa5uYAYVCO2k.jpg",
      "popularity": 28.562,
      "adult": false,
      "known_for_department": "Acting"
    },
    {
      "id": 51797,
      "name": "Nathan Fillion",
      "profile_path": "/6arEYF9gD9mqjwGXv1QfqmLw445.jpg",
      "popularity": 28.532,
      "adult": false,
      "known_for_department": "Acting"
    },
    {
      "id": 586,
      "name": "Sean Young",
      "profile_path": "/oV7tnjW34aoGBBTtOuK795t312H.jpg",
      "popularity": 28.504,
      "adult": false,
      "known_for_department": "Acting"
    },
    {
      "id": 4724,
      "name": "Kevin Bacon",
      "profile_path": "/rjX2Oz3tCZMfSwOoIAyEhdtXnTE.jpg",
      "popularity": 28.452,
      "adult": false,
      "known_for_department": "Acting"
    },
    {
      "id": 206425,
      "name": "DeWanda Wise",
      "profile_path": "/daQjduDoTzaDTC6SIsGWs55dzcM.jpg",
      "popularity": 28.403,
      "adult": false,
      "known_for_department": "Acting"
    },
    {
      "id": 148449,
      "name": "Yuu Asakawa",
      "profile_path": "/2n7pYsUrUq4qg4VtQemndzIpOlb.jpg",
      "popularity": 28.363,
      "adult": false,
      "known_for_department": "Acting"
    },
    {
      "id": 6383,
      "name": "Aaron Eckhart",
      "profile_path": "/5EFQvRHlpP1Iaw2e6vjOaBny6DV.jpg",
      "popularity": 28.343,
      "adult": false,
      "known_for_department": "Acting"
    },
    {
      "id": 150587,
      "name": "Katie McGrath",
      "profile_path": "/cq9pc7qFRUKCrkXgsi5mJkb64U5.jpg",
      "popularity": 28.339,
      "adult": false,
      "known_for_department": "Acting"
    },
    {
      "id": 559195,
      "name": "Tobias Santelmann",
      "profile_path": "/wDsLQNsG4WWvwE6pwtV0FhL5JZt.jpg",
      "popularity": 28.332,
      "adult": false,
      "known_for_department": "Acting"
    },
    {
      "id": 17140,
      "name": "Abigail Breslin",
      "profile_path": "/jlSTX9ZzLdkP9JS75B0diyOppzR.jpg",
      "popularity": 28.298,
      "adult": false,
      "known_for_department": "Acting"
    },
    {
      "id": 3130,
      "name": "Jennifer Beals",
      "profile_path": "/gSgjPBfke1fz55WyO8AnFWtidOq.jpg",
      "popularity": 28.296,
      "adult": false,
      "known_for_department": "Acting"
    },
    {
      "id": 1545693,
      "name": "Zazie Beetz",
      "profile_path": "/ijrT4pvALvxU0gphea4YxDnDh6e.jpg",
      "popularity": 28.27,
      "adult": false,
      "known_for_department": "Acting"
    },
    {
      "id": 85,
      "name": "Johnny Depp",
      "profile_path": "/dHvp2FafEE5OGFy9kcX2l8oMIsH.jpg",
      "popularity": 28.262,
      "adult": false,
      "known_for_department": "Acting"
    },
    {
      "id": 3129,
      "name": "Tim Roth",
      "profile_path": "/qSizF2i9gz6c6DbAC5RoIq8sVqX.jpg",
      "popularity": 28.224,
      "adult": false,
      "known_for_department": "Acting"
    },
    {
      "id": 17303,
      "name": "Ali Larter",
      "profile_path": "/e1LF7oh0C5jg30hdNS27a1pXPxU.jpg",
      "popularity": 28.121,
      "adult": false,
      "known_for_department": "Acting"
    },
    {
      "id": 326,
      "name": "Kim Basinger",
      "profile_path": "/iqQ4o2sRna7J1Z9KkB9Avp9CIsk.jpg",
      "popularity": 28.112,
      "adult": false,
      "known_for_department": "Acting"
    },
    {
      "id": 23880,
      "name": "Steven Seagal",
      "profile_path": "/fGNIEpn3JqOckY3ahnJX9x3qA94.jpg",
      "popularity": 28.11,
      "adult": false,
      "known_for_department": "Acting"
    }
  ]
}