{
  "page": 63,
  "total_results": 10000,
  "total_pages": 500,
  "results": [
    {
      "id": 2879,
      "name": "Rob Lowe",
      "profile_path": "/77decDyKXB34i9A1FnMM1suI5cA.jpg",
      "popularity": 19.654,
      "adult": false,
      "known_for_department": "Acting"
    },
    {
      "id": 591834,
      "name": "Lauren Lapkus",
      "profile_path": "/zevTufkY38eRvWPslh5c1azdhQN.jpg",
      "popularity": 19.651,
      "adult": false,
      "known_for_department": "Acting"
    },
    {
      "id": 11617,
      "name": "Mischa Barton",
      "profile_path": "/gi1SyR0kW62HseNRk9LI82Qin9q.jpg",
      "popularity": 19.645,
      "adult": false,
      "known_for_department": "Acting"
    },
    {
      "id": 208099,
      "name": "Kunal Nayyar",
      "profile_path": "/8W16ABvzYBvMp9xMUV5FvM3QV8e.jpg",
      "popularity": 19.625,
      "adult": false,
      "known_for_department": "Acting"
    },
    {
      "id": 78875,
      "name": "Louis Koo",
      "profile_path": "/yQuDBTzm7xWlJICNvl20OmcJP80.jpg",
      "popularity": 19.624,
      "adult": false,
      "known_for_department": "Acting"
    },
    {
      "id": 556435,
      "name": "Cho Yeo-jeong",
      "profile_path": "/n7YWOoquBL9g3qEwQ2zvrQSW96L.jpg",
      "popularity": 19.599,
      "adult": false,
      "known_for_department": "Acting"
    },
    {
      "id": 1768319,
      "name": "Madeline Wise",
      "profile_path": "/8au11zMSOm2dRPUi6akSf3FpSdz.jpg",
      "popularity": 19.587,
      "adult": false,
      "known_for_department": "Acting"
    },
    {
      "id": 32357,
      "name": "Nicholas Farrell",
      "profile_path": "/gheuwhycSxpBRhGv7Qbfub2uuB2.jpg",
      "popularity": 19.578,
      "adult": false,
      "known_for_department": "Acting"
    },
    {
      "id": 116,
      "name": "Keira Knightley",
      "profile_path": "/8OpsaapXmwpLQqHvN5iwoIElERY.jpg",
      "popularity": 19.567,
      "adult": false,
      "known_for_department": "Acting"
    },
    {
      "id": 1181313,
      "name": "Maisie Williams",
      "profile_path": "/puWXJbe5ZGnOqJhVr9lEgstvygy.jpg",
      "popularity": 19.566,
      "adult": false,
      "known_for_department": "Acting"
    },
    {
      "id": 2138256,
      "name": "Markella Kavenagh",
      "profile_path": "/wLXCCBQ6f456K2mQtbY8vgiOJoK.jpg",
      "popularity": 19.564,
      "adult": false,
      "known_for_department": "Acting"
    },
    {
      "id": 1461,
      "name": "George Clooney",
      "profile_path": "/kHiVY6r1k6juXrNetAYk2jILqn9.jpg",
      "popularity": 19.557,
      "adult": false,
      "known_for_department": "Acting"
    },
    {
      "id": 210738,
      "name": "Lydia Lawson-Baird",
      "profile_path": "/uJVnIuHP5dY28KLExfN7O7IDsMo.jpg",
      "popularity": 19.551,
      "adult": false,
      "known_for_department": "Acting"
    },
    {
      "id": 198847,
      "name": "Jessie T. Usher",
      "profile_path": "/iiu9dkYEkHJPMf7TzbrhhgwRvlt.jpg",
      "popularity": 19.547,
      "adult": false,
      "known_for_department": "Acting"
    },
    {
      "id": 230659,
      "name": "Takeru Satoh",
      "profile_path": "/dKWtZXEnTOedUUnDwBCZZN7w2uG.jpg",
      "popularity": 19.542,
      "adult": false,
      "known_for_department": "Acting"
    },
    {
      "id": 544002,
      "name": "Giulio Berruti",
      "profile_path": "/cCOWVvjQ1TblPvM7TgMBqMczkOX.jpg",
      "popularity": 19.541,
      "adult": false,
      "known_for_department": "Acting"
    },
    {
      "id": 1594612,
      "name": "Wang Yibo",
      "profile_path": "/k8h67KZ5BJKzmxkkAnXorvAJy0N.jpg",
      "popularity": 19.538,
      "adult": false,
      "known_for_department": "Acting"
    },
    {
      "id": 2453169,
      "name": "Lilly Krug",
      "profile_path": "/6TA1LMrmCXtPu3iDW8S7y8rkn0R.jpg",
      "popularity": 19.537,
      "adult": false,
      "known_for_department": "Acting"
    },
    {
      "id": 25002,
      "name": "Lee Byung-hun",
      "profile_path": "/pY4pwYO8qwtzvuzpzRczDACDiVA.jpg",
      "popularity": 19.536,
      "adult": false,
      "known_for_department": "Acting"
    },
    {
      "id": 7624,
      "name": "Stan Lee",
      "profile_path": "/kKeyWoFtTqOPsbmwylNHmuB3En9.jpg",
      "popularity": 19.536,
      "adult": false,
      "known_for_department": "Writing"
    }
  ]
}