{
  "page": 256,
  "total_results": 10000,
  "total_pages": 500,
  "results": [
    {
      "id": 1052109,
      "name": "Harry Styles",
      "profile_path": "/l4sBFHHKlfrHDFxyupoXYPPAb4j.jpg",
      "popularity": 10.304,
      "adult": false,
      "known_for_department": "Acting"
    },
    {
      "id": 14882,
      "name": "Jackie Gleason",
      "profile_path": "/wOA7pQDGggvhrtUU30nFhYNwOLQ.jpg",
      "popularity": 10.304,
      "adult": false,
      "known_for_department": "Acting"
    },
    {
      "id": 1325034,
      "name": "Sora Amamiya",
      "profile_path": "/4ZZcdFH4QgbIC8AeJ3BLG1ue7G5.jpg",
      "popularity": 10.303,
      "adult": false,
      "known_for_department": "Acting"
    },
    {
      "id": 1875840,
      "name": "Kim Ji-soo",
      "profile_path": "/nuyUmcYeg4ROZNzAEx3ZxILGQ5Y.jpg",
      "popularity": 10.302,
      "adult": false,
      "known_for_department": "Acting"
    },
    {
      "id": 51998,
      "name": "Liza Lapira",
      "profile_path": "/720mg4NzV5iTx024eWqboK7vLpl.jpg",
      "popularity": 10.302,
      "adult": false,
      "known_for_department": "Acting"
    },
    {
      "id": 98234,
      "name": "Barbara Bain",
      "profile_path": "/jLUoYMqpxaIR2Vc4YmFCjdM0H6s.jpg",
      "popularity": 10.298,
      "adult": false,
      "known_for_department": "Acting"
    },
    {
      "id": 52801,
      "name": "Patrick Fischler",
      "profile_path": "/z5et9sdI57E9VRYbCbivqbDt523.jpg",
      "popularity": 10.298,
      "adult": false,
      "known_for_department": "Acting"
    },
    {
      "id": 1181329,
      "name": "Timothy Simons",
      "profile_path": "/vG4Oob3JONf28Og8qSgbpk7M8nB.jpg",
      "popularity": 10.297,
      "adult": false,
      "known_for_department": "Acting"
    },
    {
      "id": 1826898,
      "name": "Deng Lun",
      "profile_path": "/wRFsh37qJq0lcAQRADBVBPRKKw.jpg",
      "popularity": 10.296,
      "adult": false,
      "known_for_department": "Acting"
    },
    {
      "id": 87822,
      "name": "Damon Wayans Jr.",
      "profile_path": "/f6gNg71Js9XqCiXUtyFyXXbJ9ni.jpg",
      "popularity": 10.295,
      "adult": false,
      "known_for_department": "Acting"
    },
    {
      "id": 480,
      "name": "Gary Lewis",
      "profile_path": "/cOaibfAluUeWPtcSOjedfGXn9ym.jpg",
      "popularity": 10.295,
      "adult": false,
      "known_for_department": "Acting"
    },
    {
      "id": 1741253,
      "name": "Becca Scott Kerns",
      "profile_path": "/1nHCNPAb9KHFXQhO1aF17OZELvX.jpg",
      "popularity": 10.294,
      "adult": false,
      "known_for_department": "Acting"
    },
    {
      "id": 3270,
      "name": "Natasha Gregson Wagner",
      "profile_path": "/4Nq7uccj8RR3Elr1OzLhckRiEJv.jpg",
      "popularity": 10.294,
      "adult": false,
      "known_for_department": "Acting"
    },
    {
      "id": 64025,
      "name": "T.J. Lowther",
      "profile_path": "/jRQJboPYY2LGf79j8OfKdjUUvD.jpg",
      "popularity": 10.293,
      "adult": false,
      "known_for_department": "Acting"
    },
    {
      "id": 78501,
      "name": "Melissa Joan Hart",
      "profile_path": "/t0Cb1l7owqKE7Aj3cNlnS94lXUV.jpg",
      "popularity": 10.29,
      "adult": false,
      "known_for_department": "Acting"
    },
    {
      "id": 2992404,
      "name": "Kim Min-ki",
      "profile_path": "/cmuZNc81cwynmE8Icwi2Z5tkBOr.jpg",
      "popularity": 10.289,
      "adult": false,
      "known_for_department": "Acting"
    },
    {
      "id": 154491,
      "name": "Stacy Haiduk",
      "profile_path": "/vq8b027Xh9NRkKwt9TfHDosQaMy.jpg",
      "popularity": 10.289,
      "adult": false,
      "known_for_department": "Acting"
    },
    {
      "id": 80036,
      "name": "Dani Kind",
      "profile_path": "/dLzqzJkiwLlgV6ScStIpUDXK216.jpg",
      "popularity": 10.289,
      "adult": false,
      "known_for_department": "Acting"
    },
    {
      "id": 2839,
      "name": "Brendan Sexton III",
      "profile_path": "/kfvO3Mdk5yqzuaN8aIeaFfVl4T5.jpg",
      "popularity": 10.288,
      "adult": false,
      "known_for_department": "Acting"
    },
    {
      "id": 14314,
      "name": "Traci Wolfe",
      "profile_path": "/lvPqdsmm3nYO9xjdH1e9kAMrsdo.jpg",
      "popularity": 10.287,
      "adult": false,
      "known_for_department": "Acting"
    }
  ]
}