{
  "page": 21,
  "total_results": 10000,
  "total_pages": 500,
  "results": [
    {
      "id": 3810,
      "name": "Javier Bardem",
      "profile_path": "/IShnFg6ijWhpbu29dFBd9PtqQg.jpg",
      "popularity": 33.181,
      "adult": false,
      "known_for_department": "Acting"
    },
    {
      "id": 349,
      "name": "Scott Glenn",
      "profile_path": "/t3t8UK98DnAPOZE8IGsEUCDjcjp.jpg",
      "popularity": 33.159,
      "adult": false,
      "known_for_department": "Acting"
    },
    {
      "id": 9195,
      "name": "Hiroyuki Sanada",
      "profile_path": "/x6QHfdTvuuOclypoPqtdqQmlaGW.jpg",
      "popularity": 33.154,
      "adult": false,
      "known_for_department": "Acting"
    },
    {
      "id": 11006,
      "name": "James Marsden",
      "profile_path": "/mk142GG0saiSXALY6V4wWcmPROW.jpg",
      "popularity": 33.129,
      "adult": false,
      "known_for_department": "Acting"
    },
    {
      "id": 36169,
      "name": "Cheryl Ladd",
      "profile_path": "/s6L9CSbyT99sn5YK0bugJGLstnb.jpg",
      "popularity": 33.101,
      "adult": false,
      "known_for_department": "Acting"
    },
    {
      "id": 1468490,
      "name": "Kang Eun-hye",
      "profile_path": "/39GYBqGd7yHliYO1zfsdwtkPWZI.jpg",
      "popularity": 33.092,
      "adult": false,
      "known_for_department": "Acting"
    },
    {
      "id": 1134684,
      "name": "Park Eun-bin",
      "profile_path": "/fpMeZG7En6BUfNPNGmzZqJWKlCM.jpg",
      "popularity": 33.015,
      "adult": false,
      "known_for_department": "Acting"
    },
    {
      "id": 49735,
      "name": "Aidan Gillen",
      "profile_path": "/ju5ho6nnwOQ2QLGLnDP9yOZhGpb.jpg",
      "popularity": 32.932,
      "adult": false,
      "known_for_department": "Acting"
    },
    {
      "id": 1248,
      "name": "Brian Cox",
      "profile_path": "/yvoAgJTOvuNSPSKegcIcD62ySY9.jpg",
      "popularity": 32.873,
      "adult": false,
      "known_for_department": "Acting"
    },
    {
      "id": 1653291,
      "name": "Gaten Matarazzo",
      "profile_path": "/yanRypHyaFRgTn31fwq8xzcfSHg.jpg",
      "popularity": 32.869,
      "adult": false,
      "known_for_department": "Acting"
    },
    {
      "id": 6949,
      "name": "John Malkovich",
      "profile_path": "/8YfVmWi9Z1iyX9Oc90yd9dbhSfL.jpg",
      "popularity": 32.855,
      "adult": false,
      "known_for_department": "Acting"
    },
    {
      "id": 973667,
      "name": "Rosa Salazar",
      "profile_path": "/hrU1Kg1SH03x0RRmWEzmnWEonuU.jpg",
      "popularity": 32.824,
      "adult": false,
      "known_for_department": "Acting"
    },
    {
      "id": 56731,
      "name": "Jessica Alba",
      "profile_path": "/tyZ2r0tiPtTkE2udDEVbNXnMV4v.jpg",
      "popularity": 32.823,
      "adult": false,
      "known_for_department": "Acting"
    },
    {
      "id": 18997,
      "name": "Bryce Dallas Howard",
      "profile_path": "/qQX1rhQaJ1G8eMG2RknFKiXfNRc.jpg",
      "popularity": 32.743,
      "adult": false,
      "known_for_department": "Acting"
    },
    {
      "id": 5344,
      "name": "Meg Ryan",
      "profile_path": "/veFWqcGqFiKdYMJ6uqYdabK9Jma.jpg",
      "popularity": 32.704,
      "adult": false,
      "known_for_department": "Acting"
    },
    {
      "id": 91606,
      "name": "Tom Hiddleston",
      "profile_path": "/mclHxMm8aPlCPKptP67257F5GPo.jpg",
      "popularity": 32.676,
      "adult": false,
      "known_for_department": "Acting"
    },
    {
      "id": 2975,
      "name": "Laurence Fishburne",
      "profile_path": "/aBRISux1AGCqkFNTKHYfLcJunWA.jpg",
      "popularity": 32.607,
      "adult": false,
      "known_for_department": "Acting"
    },
    {
      "id": 2224,
      "name": "Christian Slater",
      "profile_path": "/6ww3uweEEXMlvtNjTlgBHxLErPF.jpg",
      "popularity": 32.526,
      "adult": false,
      "known_for_department": "Acting"
    },
    {
      "id": 1306631,
      "name": "Rei Akasaka",
      "profile_path": "/nHIlkNGt28p8FB9brY2QTM0exZr.jpg",
      "popularity": 32.515,
      "adult": false,
      "known_for_department": "Acting"
    },
    {
      "id": 1394758,
      "name": "Ine Marie Wilmann",
      "profile_path": "/bu9JEeHHOl9kHGXzxVsNf8B4FDm.jpg",
      "popularity": 32.489,
      "adult": false,
      "known_for_department": "Acting"
    }
  ]
}