{
  "page": 388,
  "total_results": 10000,
  "total_pages": 500,
  "results": [
    {
      "id": 221978,
      "name": "Iwan Rheon",
      "profile_path": "/5af7sYrJcVmOcQhMxcNLZHlUZyi.jpg",
      "popularity": 9.114,
      "adult": false,
      "known_for_department": "Acting"
    },
    {
      "id": 70615,
      "name": "Rodger Bumpass",
      "profile_path": "/lGQkw6adxqB6Hcm7VK8nVHbKupe.jpg",
      "popularity": 9.114,
      "adult": false,
      "known_for_department": "Acting"
    },
    {
      "id": 223135,
      "name": "Damaris Lewis",
      "profile_path": "/S6eKbIdgQuElU1uYvG3ENDKOex.jpg",
      "popularity": 9.113,
      "adult": false,
      "known_for_department": "Acting"
    },
    {
      "id": 44038,
      "name": "Nancy Allen",
      "profile_path": "/lgCqBlGhgxTNINoYeDhxhLUuLf.jpg",
      "popularity": 9.113,
      "adult": false,
      "known_for_department": "Acting"
    },
    {
      "id": 2399088,
      "name": "Kim Kang-hoon",
      "profile_path": "/uULPSOqa7RaQTHjycsDiRzgRFoo.jpg",
      "popularity": 9.111,
      "adult": false,
      "known_for_department": "Acting"
    },
    {
      "id": 7304,
      "name": "John Gavin",
      "profile_path": "/5zgJoiBHK9Y3AfiE1OAPZqPvzVw.jpg",
      "popularity": 9.111,
      "adult": false,
      "known_for_department": "Acting"
    },
    {
      "id": 1233840,
      "name": "Koo Hye-sun",
      "profile_path": "/udHk7KExmXRuOVO6utT3IDpm6E1.jpg",
      "popularity": 9.11,
      "adult": false,
      "known_for_department": "Acting"
    },
    {
      "id": 25645,
      "name": "Hirokazu Kore-eda",
      "profile_path": "/oIDlmHZZj6jgrPy6onX9igENYOi.jpg",
      "popularity": 9.11,
      "adult": false,
      "known_for_department": "Directing"
    },
    {
      "id": 16502,
      "name": "Geraldine Hughes",
      "profile_path": "/kBatdBpLl7h1vYnCOw6hRkjbspF.jpg",
      "popularity": 9.11,
      "adult": false,
      "known_for_department": "Acting"
    },
    {
      "id": 14107,
      "name": "Graham Stark",
      "profile_path": "/qPlAT4tr2ZspEKDCjqeEAs75x2G.jpg",
      "popularity": 9.11,
      "adult": false,
      "known_for_department": "Acting"
    },
    {
      "id": 13327,
      "name": "Nigel Davenport",
      "profile_path": "/zawX5yPOPD34269skXxoJPemIas.jpg",
      "popularity": 9.11,
      "adult": false,
      "known_for_department": "Acting"
    },
    {
      "id": 1095524,
      "name": "Lydia Wilson",
      "profile_path": "/yjuJDZxNJjgX0RueQ5eY6GWhTKX.jpg",
      "popularity": 9.109,
      "adult": false,
      "known_for_department": "Acting"
    },
    {
      "id": 19257,
      "name": "Janet Jones",
      "profile_path": "/5EAjtmNjmbAjw5PWWzfxgaXqEka.jpg",
      "popularity": 9.109,
      "adult": false,
      "known_for_department": "Acting"
    },
    {
      "id": 1003086,
      "name": "Josefin Asplund",
      "profile_path": "/2Tj6Vh61rZYXiMYUVatnuNJ7ekG.jpg",
      "popularity": 9.108,
      "adult": false,
      "known_for_department": "Acting"
    },
    {
      "id": 4169,
      "name": "Dave Chappelle",
      "profile_path": "/8n64np7IAXbpQQJKxUncihJpq0G.jpg",
      "popularity": 9.107,
      "adult": false,
      "known_for_department": "Acting"
    },
    {
      "id": 984,
      "name": "Nicholas Rowe",
      "profile_path": "/mAR7cSZO9V9v0fFlDxiKDfvHlkQ.jpg",
      "popularity": 9.107,
      "adult": false,
      "known_for_department": "Acting"
    },
    {
      "id": 1732278,
      "name": "Seiichiro Yamashita",
      "profile_path": "/zym6WY3rxL4FdbHoLzG2CnqnR7.jpg",
      "popularity": 9.106,
      "adult": false,
      "known_for_department": "Acting"
    },
    {
      "id": 1691282,
      "name": "Alex Sgambati",
      "profile_path": "/5bX15gHn7gualXwYNowuE2XX0DO.jpg",
      "popularity": 9.106,
      "adult": false,
      "known_for_department": "Acting"
    },
    {
      "id": 171522,
      "name": "Anthony Ruivivar",
      "profile_path": "/pGyKViGHdi5BxQM2jo7yja4wVmf.jpg",
      "popularity": 9.106,
      "adult": false,
      "known_for_department": "Acting"
    },
    {
      "id": 8241,
      "name": "Hillary Brooke",
      "profile_path": "/2R5hSW5KO1yCkLHj5MVe5dXlSSb.jpg",
      "popularity": 9.106,
      "adult": false,
      "known_for_department": "Acting"
    }
  ]
}