{
  "page": 54,
  "total_results": 10000,
  "total_pages": 500,
  "results": [
    {
      "id": 49961,
      "name": "Michelle Trachtenberg",
      "profile_path": "/kFeNatWt3hlrM46Gl1atqD3i9Gk.jpg",
      "popularity": 21.146,
      "adult": false,
      "known_for_department": "Acting"
    },
    {
      "id": 544002,
      "name": "Giulio Berruti",
      "profile_path": "/cCOWVvjQ1TblPvM7TgMBqMczkOX.jpg",
      "popularity": 21.136,
      "adult": false,
      "known_for_department": "Acting"
    },
    {
      "id": 1888322,
      "name": "Devrim Lingnau",
      "profile_path": "/vRKhVZFPhtpPv6VbXRGXTdbucZZ.jpg",
      "popularity": 21.126,
      "adult": false,
      "known_for_department": "Acting"
    },
    {
      "id": 7624,
      "name": "Stan Lee",
      "profile_path": "/kKeyWoFtTqOPsbmwylNHmuB3En9.jpg",
      "popularity": 21.121,
      "adult": false,
      "known_for_department": "Writing"
    },
    {
      "id": 25002,
      "name": "Lee Byung-hun",
      "profile_path": "/pY4pwYO8qwtzvuzpzRczDACDiVA.jpg",
      "popularity": 21.119,
      "adult": false,
      "known_for_department": "Acting"
    },
    {
      "id": 8534,
      "name": "Kathy Bates",
      "profile_path": "/qZRTzTjV4OC1Ii9a0n8QBS9zMOd.jpg",
      "popularity": 21.119,
      "adult": false,
      "known_for_department": "Acting"
    },
    {
      "id": 1716585,
      "name": "Siri Skjeggedal",
      "profile_path": "/mUPPqoYzMcvmSPef7lVCfbAIho2.jpg",
      "popularity": 21.117,
      "adult": false,
      "known_for_department": "Acting"
    },
    {
      "id": 23764,
      "name": "Erika Eleniak",
      "profile_path": "/aCOOsCp8wilIkdYQgX04jkl8OvE.jpg",
      "popularity": 21.108,
      "adult": false,
      "known_for_department": "Acting"
    },
    {
      "id": 108,
      "name": "Peter Jackson",
      "profile_path": "/4hh7hips4xc6kgpNDQKQH3goRvJ.jpg",
      "popularity": 21.105,
      "adult": false,
      "known_for_department": "Directing"
    },
    {
      "id": 9575,
      "name": "Jada Pinkett Smith",
      "profile_path": "/vt1Z1Fsu7gjp4L0OHey9Aa79lWj.jpg",
      "popularity": 21.104,
      "adult": false,
      "known_for_department": "Acting"
    },
    {
      "id": 1306631,
      "name": "Rei Akasaka",
      "profile_path": "/nHIlkNGt28p8FB9brY2QTM0exZr.jpg",
      "popularity": 21.102,
      "adult": false,
      "known_for_department": "Acting"
    },
    {
      "id": 21595,
      "name": "Alyson Hannigan",
      "profile_path": "/aKSbDKRlinaviQIkkg3mYXCVaGQ.jpg",
      "popularity": 21.1,
      "adult": false,
      "known_for_department": "Acting"
    },
    {
      "id": 172069,
      "name": "Chadwick Boseman",
      "profile_path": "/nL16SKfyP1b7Hk6LsuWiqMfbdb8.jpg",
      "popularity": 21.085,
      "adult": false,
      "known_for_department": "Acting"
    },
    {
      "id": 150698,
      "name": "Song Joong-ki",
      "profile_path": "/kgjb5OppOVTh5tz3hhnfDVnTvDv.jpg",
      "popularity": 21.058,
      "adult": false,
      "known_for_department": "Acting"
    },
    {
      "id": 36662,
      "name": "Carey Mulligan",
      "profile_path": "/3B1PDEBAZKyNLUbXggU7C215BCs.jpg",
      "popularity": 21.05,
      "adult": false,
      "known_for_department": "Acting"
    },
    {
      "id": 10993,
      "name": "Tom Felton",
      "profile_path": "/4fO0PjiBbNFEnYLPe55xUUP7Wgf.jpg",
      "popularity": 21,
      "adult": false,
      "known_for_department": "Acting"
    },
    {
      "id": 52851,
      "name": "Paula Patton",
      "profile_path": "/9sLIo0nCh4UEi3dHQCAwrFh0r4j.jpg",
      "popularity": 20.989,
      "adult": false,
      "known_for_department": "Acting"
    },
    {
      "id": 9195,
      "name": "Hiroyuki Sanada",
      "profile_path": "/x6QHfdTvuuOclypoPqtdqQmlaGW.jpg",
      "popularity": 20.979,
      "adult": false,
      "known_for_department": "Acting"
    },
    {
      "id": 1016071,
      "name": "Déborah Révy",
      "profile_path": "/a3EmfvlSIcRhIwFm6nFLWCnIuFi.jpg",
      "popularity": 20.966,
      "adult": false,
      "known_for_department": "Acting"
    },
    {
      "id": 1396124,
      "name": "Sosie Bacon",
      "profile_path": "/pDvjTHGv8NhBkbIcBJFGt9zDw8.jpg",
      "popularity": 20.954,
      "adult": false,
      "known_for_department": "Acting"
    }
  ]
}