{
  "page": 12,
  "total_results": 10000,
  "total_pages": 500,
  "results": [
    {
      "id": 22226,
      "name": "Paul Rudd",
      "profile_path": "/8eTtJ7XVXY0BnEeUaSiTAraTIXd.jpg",
      "popularity": 44.369,
      "adult": false,
      "known_for_department": "Acting"
    },
    {
      "id": 220448,
      "name": "Paul Anderson",
      "profile_path": "/nds5rTBZvJ4rEsP4N6OaoEgQDkW.jpg",
      "popularity": 44.348,
      "adult": false,
      "known_for_department": "Acting"
    },
    {
      "id": 1771,
      "name": "Giovanni Ribisi",
      "profile_path": "/xJrjoGhAfufROCiG2C86uYYjqpP.jpg",
      "popularity": 44.253,
      "adult": false,
      "known_for_department": "Acting"
    },
    {
      "id": 78029,
      "name": "Martin Lawrence",
      "profile_path": "/15Ck85zfgWkmSMfNYLkE9JLTP7s.jpg",
      "popularity": 44.155,
      "adult": false,
      "known_for_department": "Acting"
    },
    {
      "id": 53493,
      "name": "Kal Penn",
      "profile_path": "/yICM1JcxKbEpaqTUreY0yFMIc8W.jpg",
      "popularity": 44.137,
      "adult": false,
      "known_for_department": "Acting"
    },
    {
      "id": 518,
      "name": "Danny DeVito",
      "profile_path": "/gNHF2SNXFFCRqwIQ2Xv6r6aV6UD.jpg",
      "popularity": 44.127,
      "adult": false,
      "known_for_department": "Acting"
    },
    {
      "id": 33192,
      "name": "Joel Edgerton",
      "profile_path": "/2YzeeiYUbI94Ywc7MVMo1NcN6jf.jpg",
      "popularity": 44.028,
      "adult": false,
      "known_for_department": "Acting"
    },
    {
      "id": 935,
      "name": "Connie Nielsen",
      "profile_path": "/lvQypTfeH2Gn2PTbzq6XkT2PLmn.jpg",
      "popularity": 43.955,
      "adult": false,
      "known_for_department": "Acting"
    },
    {
      "id": 1301092,
      "name": "Tanaya Beatty",
      "profile_path": "/nQQd9rpMxYM2MshYlOSV0PfffPP.jpg",
      "popularity": 43.933,
      "adult": false,
      "known_for_department": "Acting"
    },
    {
      "id": 12851,
      "name": "Ally Sheedy",
      "profile_path": "/lS0wc4tOstj7jOMoWnQDYc1aESC.jpg",
      "popularity": 43.857,
      "adult": false,
      "known_for_department": "Acting"
    },
    {
      "id": 1369057,
      "name": "Katherine Cunningham",
      "profile_path": "/z9O8kEPRiIDh4lhC0GCryQXhmX.jpg",
      "popularity": 43.847,
      "adult": false,
      "known_for_department": "Acting"
    },
    {
      "id": 74720,
      "name": "Ida Elise Broch",
      "profile_path": "/rXDteWMDq2xJFH8uBD4u5Et9rrf.jpg",
      "popularity": 43.844,
      "adult": false,
      "known_for_department": "Acting"
    },
    {
      "id": 20212,
      "name": "Dermot Mulroney",
      "profile_path": "/5gJszOF45KMPB5tmAbKdK0qgQBx.jpg",
      "popularity": 43.783,
      "adult": false,
      "known_for_department": "Acting"
    },
    {
      "id": 17604,
      "name": "Jeremy Renner",
      "profile_path": "/rmYtdQDhBdCXI0bu1WBY50Fqf1O.jpg",
      "popularity": 43.736,
      "adult": false,
      "known_for_department": "Acting"
    },
    {
      "id": 83002,
      "name": "Jessica Chastain",
      "profile_path": "/mR1ELpP0T2Q1ZRSaADPgtrbPGla.jpg",
      "popularity": 43.706,
      "adult": false,
      "known_for_department": "Acting"
    },
    {
      "id": 2888,
      "name": "Will Smith",
      "profile_path": "/rqqhzESgnlxREv7Q8ZtjqBZtSry.jpg",
      "popularity": 43.686,
      "adult": false,
      "known_for_department": "Acting"
    },
    {
      "id": 1229,
      "name": "Jeff Bridges",
      "profile_path": "/xms1RAY6q7Lzp7wNeRCB0kzhucn.jpg",
      "popularity": 43.53,
      "adult": false,
      "known_for_department": "Acting"
    },
    {
      "id": 3030333,
      "name": "Wichapas Sumettikul",
      "profile_path": "/3QP5MVkDeisV076AyhtFLB2zYVh.jpg",
      "popularity": 43.517,
      "adult": false,
      "known_for_department": "Acting"
    },
    {
      "id": 85,
      "name": "Johnny Depp",
      "profile_path": "/dHvp2FafEE5OGFy9kcX2l8oMIsH.jpg",
      "popularity": 43.481,
      "adult": false,
      "known_for_department": "Acting"
    },
    {
      "id": 37625,
      "name": "Andrew Garfield",
      "profile_path": "/9hJ59ogLxgcZDkvfGcjLHqbB5Pl.jpg",
      "popularity": 43.438,
      "adult": false,
      "known_for_department": "Acting"
    }
  ]
}