{
  "page": 378,
  "total_results": 10000,
  "total_pages": 500,
  "results": [
    {
      "id": 113809,
      "name": "Kajal Agarwal",
      "profile_path": "/wDzYjnDRNzyigCPBEwc9gf1hZ0Q.jpg",
      "popularity": 8.454,
      "adult": false,
      "known_for_department": "Acting"
    },
    {
      "id": 34982,
      "name": "Jeff Bennett",
      "profile_path": "/p78svoOr99IA2oBOUzAH9cnPOwf.jpg",
      "popularity": 8.453,
      "adult": false,
      "known_for_department": "Acting"
    },
    {
      "id": 3664,
      "name": "Sandra Bernhard",
      "profile_path": "/3S93MgFQtXH4eO3oCxx1BA13nBj.jpg",
      "popularity": 8.452,
      "adult": false,
      "known_for_department": "Acting"
    },
    {
      "id": 33668,
      "name": "Noam Jenkins",
      "profile_path": "/6cGnnTzHgvl4aEpD98gtcQ9DDU7.jpg",
      "popularity": 8.451,
      "adult": false,
      "known_for_department": "Acting"
    },
    {
      "id": 32428,
      "name": "William Powell",
      "profile_path": "/pSErqBgc4Nmru8dHVtdZ9zUa3Ot.jpg",
      "popularity": 8.451,
      "adult": false,
      "known_for_department": "Acting"
    },
    {
      "id": 24292,
      "name": "Jerry Adler",
      "profile_path": "/8HZi9sk98qH5IroTc1vyyo2AZ3C.jpg",
      "popularity": 8.451,
      "adult": false,
      "known_for_department": "Acting"
    },
    {
      "id": 15899,
      "name": "Jenifer Lewis",
      "profile_path": "/htrTYcoJQQpSYo6BrRehe3h46vo.jpg",
      "popularity": 8.451,
      "adult": false,
      "known_for_department": "Acting"
    },
    {
      "id": 205176,
      "name": "Cassi Thomson",
      "profile_path": "/6FmtUKw9wcqR3IXMnSQolaKoANc.jpg",
      "popularity": 8.45,
      "adult": false,
      "known_for_department": "Acting"
    },
    {
      "id": 93936,
      "name": "Glori-Anne Gilbert",
      "profile_path": "/fZvIR6QQQz6fotZ7eErIDYGuxD2.jpg",
      "popularity": 8.45,
      "adult": false,
      "known_for_department": "Acting"
    },
    {
      "id": 41039,
      "name": "Judd Apatow",
      "profile_path": "/7iD2D263nT0ZOF6vuUojQYQ5cbf.jpg",
      "popularity": 8.45,
      "adult": false,
      "known_for_department": "Directing"
    },
    {
      "id": 32280,
      "name": "Gandhi Bob Arrollo",
      "profile_path": "",
      "popularity": 8.45,
      "adult": false,
      "known_for_department": "Costume \u0026 Make-Up"
    },
    {
      "id": 148125,
      "name": "Gabriel Hogan",
      "profile_path": "/phKmguA7pcquBJygZYwLEzPX28Q.jpg",
      "popularity": 8.448,
      "adult": false,
      "known_for_department": "Acting"
    },
    {
      "id": 1377670,
      "name": "Glenn Fleshler",
      "profile_path": "/x1Cef2yPZS7bJTwxI7DX3q0HNcv.jpg",
      "popularity": 8.445,
      "adult": false,
      "known_for_department": "Acting"
    },
    {
      "id": 121426,
      "name": "Okan Yalabık",
      "profile_path": "/knRL3PvS06929k0ykjyVyUwXeSi.jpg",
      "popularity": 8.444,
      "adult": false,
      "known_for_department": "Acting"
    },
    {
      "id": 1767809,
      "name": "Noémie Nakai",
      "profile_path": "/gS0BXE5CL7F3TZDxaj8vEQtY0Ym.jpg",
      "popularity": 8.443,
      "adult": false,
      "known_for_department": "Acting"
    },
    {
      "id": 33936,
      "name": "Barbara Nedeljakova",
      "profile_path": "/5MAgtYixlm9ULnIQOuXOmOXjVEZ.jpg",
      "popularity": 8.443,
      "adult": false,
      "known_for_department": "Acting"
    },
    {
      "id": 29224,
      "name": "Nikki Blonsky",
      "profile_path": "/dTsVd4Mlt78S7sc7Wev10TWqrzq.jpg",
      "popularity": 8.443,
      "adult": false,
      "known_for_department": "Acting"
    },
    {
      "id": 1794375,
      "name": "Andy Biersack",
      "profile_path": "/xKTOSO2idRFLrRDoaBUB3BLlHH.jpg",
      "popularity": 8.442,
      "adult": false,
      "known_for_department": "Acting"
    },
    {
      "id": 84508,
      "name": "Takehito Koyasu",
      "profile_path": "/8uBkNDKPNmp9JWgMUI02NVyfhi1.jpg",
      "popularity": 8.442,
      "adult": false,
      "known_for_department": "Acting"
    },
    {
      "id": 1419822,
      "name": "Hande Doğandemir",
      "profile_path": "/UUL2hfYWIaxLe06hf97Q3fBXHJ.jpg",
      "popularity": 8.441,
      "adult": false,
      "known_for_department": "Acting"
    }
  ]
}