{
  "page": 349,
  "total_results": 10000,
  "total_pages": 500,
  "results": [
    {
      "id": 2392,
      "name": "Gates McFadden",
      "profile_path": "/5z4rWmLHBHydQRwLHldQllIDq9x.jpg",
      "popularity": 9.464,
      "adult": false,
      "known_for_department": "Acting"
    },
    {
      "id": 1364121,
      "name": "Emily Brobst",
      "profile_path": "/vc9Y7bM9PnXvt5D5BuozJvP5Gzd.jpg",
      "popularity": 9.463,
      "adult": false,
      "known_for_department": "Crew"
    },
    {
      "id": 1246603,
      "name": "Nebahat Çehre",
      "profile_path": "/SbrtoCQtfTSh1kRQrE0fSxmuAN.jpg",
      "popularity": 9.461,
      "adult": false,
      "known_for_department": "Acting"
    },
    {
      "id": 17200,
      "name": "Bill Smitrovich",
      "profile_path": "/yzZUYnAdX0MMA8eZMTVsXufRCfU.jpg",
      "popularity": 9.461,
      "adult": false,
      "known_for_department": "Acting"
    },
    {
      "id": 15265,
      "name": "Srđan Todorović",
      "profile_path": "/drsYd3lcoq60vWSeteU3bKtpSOP.jpg",
      "popularity": 9.461,
      "adult": false,
      "known_for_department": "Acting"
    },
    {
      "id": 29051,
      "name": "L. Scott Caldwell",
      "profile_path": "/aGNjz17Fi2Ran0GT7e2quZHk131.jpg",
      "popularity": 9.459,
      "adult": false,
      "known_for_department": "Acting"
    },
    {
      "id": 584313,
      "name": "Kimberly Oja",
      "profile_path": "/qa2INrKBzmM03ppXT1wRNkSAemV.jpg",
      "popularity": 9.458,
      "adult": false,
      "known_for_department": "Acting"
    },
    {
      "id": 1906646,
      "name": "Sakura Miyawaki",
      "profile_path": "/8JGqFq9a2up1BWvz9qhlVc0106p.jpg",
      "popularity": 9.457,
      "adult": false,
      "known_for_department": "Acting"
    },
    {
      "id": 1854900,
      "name": "Benjamin Norris",
      "profile_path": "/leJ19kqSPgSyTZoiElevq8CfgjE.jpg",
      "popularity": 9.457,
      "adult": false,
      "known_for_department": "Acting"
    },
    {
      "id": 1156587,
      "name": "Jeana Ho Pui-Yu",
      "profile_path": "/cN6pLAyc66KdLeMeBK0NG1C5X2q.jpg",
      "popularity": 9.457,
      "adult": false,
      "known_for_department": "Acting"
    },
    {
      "id": 1134569,
      "name": "Ai Shinozaki",
      "profile_path": "/vMpmXyQXbTLrhmNOSdCEgLM90pR.jpg",
      "popularity": 9.457,
      "adult": false,
      "known_for_department": "Acting"
    },
    {
      "id": 28743,
      "name": "John Lynch",
      "profile_path": "/4TG8HYZ5SEFh1Yk5CCG4fXD55j9.jpg",
      "popularity": 9.457,
      "adult": false,
      "known_for_department": "Acting"
    },
    {
      "id": 2137,
      "name": "Benito Martinez",
      "profile_path": "/3lPxnrPCs31lnliBNEssgxw7Qxg.jpg",
      "popularity": 9.457,
      "adult": false,
      "known_for_department": "Acting"
    },
    {
      "id": 58965,
      "name": "Alyson Stoner",
      "profile_path": "/xFRoIsR4XJ9QI8IIZfM9sVD8Qa4.jpg",
      "popularity": 9.456,
      "adult": false,
      "known_for_department": "Acting"
    },
    {
      "id": 19740,
      "name": "Kate Vernon",
      "profile_path": "/zFg9qFTWui0l72b7MUIdDO1k817.jpg",
      "popularity": 9.456,
      "adult": false,
      "known_for_department": "Acting"
    },
    {
      "id": 151246,
      "name": "Nicole Scherzinger",
      "profile_path": "/wO4HTtGVKghqiuIr1pkaAP5iqtr.jpg",
      "popularity": 9.455,
      "adult": false,
      "known_for_department": "Acting"
    },
    {
      "id": 1339629,
      "name": "Stephanie Hyam",
      "profile_path": "/ajX4eKfpvg1fGa3d6fHJtspZp9D.jpg",
      "popularity": 9.453,
      "adult": false,
      "known_for_department": "Acting"
    },
    {
      "id": 21675,
      "name": "Jack Conley",
      "profile_path": "/78bceHx2BdTJLhhomIbpQKm15TR.jpg",
      "popularity": 9.453,
      "adult": false,
      "known_for_department": "Acting"
    },
    {
      "id": 1437417,
      "name": "Natalie Madueño",
      "profile_path": "/gdl4TUomjJiWBiHz6DbWeXGubQZ.jpg",
      "popularity": 9.451,
      "adult": false,
      "known_for_department": "Acting"
    },
    {
      "id": 10461,
      "name": "Caroline Munro",
      "profile_path": "/CroSsO59Xc1ZddNDxRIH2qaj2I.jpg",
      "popularity": 9.449,
      "adult": false,
      "known_for_department": "Acting"
    }
  ]
}