{
  "page": 157,
  "total_results": 10000,
  "total_pages": 500,
  "results": [
    {
      "id": 1181361,
      "name": "Luke Mitchell",
      "profile_path": "/7LFvkcJn2NqHu4pi2oLYfGqFJyz.jpg",
      "popularity": 12.279,
      "adult": false,
      "known_for_department": "Acting"
    },
    {
      "id": 27552,
      "name": "David Eigenberg",
      "profile_path": "/3JOY715n7Low0Y1a9YZAzhNjvZM.jpg",
      "popularity": 12.274,
      "adult": false,
      "known_for_department": "Acting"
    },
    {
      "id": 1822751,
      "name": "Raquel Xu",
      "profile_path": "/kTtlxvYvkxOOEKZbd3xPreE5MX5.jpg",
      "popularity": 12.273,
      "adult": false,
      "known_for_department": "Acting"
    },
    {
      "id": 51214,
      "name": "Brad Renfro",
      "profile_path": "/oOtzyE9wkbBV58ZxyYsGzyPxoSw.jpg",
      "popularity": 12.271,
      "adult": false,
      "known_for_department": "Acting"
    },
    {
      "id": 5725,
      "name": "Goran Visnjic",
      "profile_path": "/k2n2EH1unojcnSTu46ZAA7jkO31.jpg",
      "popularity": 12.271,
      "adult": false,
      "known_for_department": "Acting"
    },
    {
      "id": 201665,
      "name": "Eve Best",
      "profile_path": "/wCHFBoaVIQsGSyEerFacCSYhdMl.jpg",
      "popularity": 12.269,
      "adult": false,
      "known_for_department": "Acting"
    },
    {
      "id": 42191,
      "name": "Kenny Johnson",
      "profile_path": "/AvokUhBWsqAdnRO3xAzWluf8vdx.jpg",
      "popularity": 12.268,
      "adult": false,
      "known_for_department": "Acting"
    },
    {
      "id": 89142,
      "name": "Yuliya Mayarchuk",
      "profile_path": "/tUvJSGa8qF0Rqnl1VNJfT4LptqC.jpg",
      "popularity": 12.265,
      "adult": false,
      "known_for_department": "Acting"
    },
    {
      "id": 1328,
      "name": "Sean Astin",
      "profile_path": "/5oJzy6Ra0tuMEV7mfxjtqye5qUX.jpg",
      "popularity": 12.262,
      "adult": false,
      "known_for_department": "Acting"
    },
    {
      "id": 55615,
      "name": "Megan Park",
      "profile_path": "/gKRr9DaU91WMh9BAAM3HgkauJhf.jpg",
      "popularity": 12.259,
      "adult": false,
      "known_for_department": "Acting"
    },
    {
      "id": 1798860,
      "name": "Doralynn Mui",
      "profile_path": "/AcR2svME13NJJgK9Y7XLFbL4Tih.jpg",
      "popularity": 12.254,
      "adult": false,
      "known_for_department": "Acting"
    },
    {
      "id": 63681,
      "name": "Julie Warner",
      "profile_path": "/zsuQf2FhJB4vER6xcNJVXemn4i4.jpg",
      "popularity": 12.253,
      "adult": false,
      "known_for_department": "Acting"
    },
    {
      "id": 140182,
      "name": "Matthew MacCaull",
      "profile_path": "/aewHo2WLk00xLx6yPuS8BEFstbn.jpg",
      "popularity": 12.251,
      "adult": false,
      "known_for_department": "Acting"
    },
    {
      "id": 54865,
      "name": "Jeff Kober",
      "profile_path": "/rSHfqqDdNCBbia04NqxIB2U19wM.jpg",
      "popularity": 12.248,
      "adult": false,
      "known_for_department": "Acting"
    },
    {
      "id": 26456,
      "name": "Lori Singer",
      "profile_path": "/anpEryFcsfbe5x3zGH27ih30SSA.jpg",
      "popularity": 12.247,
      "adult": false,
      "known_for_department": "Acting"
    },
    {
      "id": 87003,
      "name": "Curtis Armstrong",
      "profile_path": "/psCxFYdotzPkLEVxSfLReQ6jql6.jpg",
      "popularity": 12.246,
      "adult": false,
      "known_for_department": "Acting"
    },
    {
      "id": 12791,
      "name": "Hugh Dancy",
      "profile_path": "/sNdeWUm0aHUW4YMARuvZTLzpWwY.jpg",
      "popularity": 12.245,
      "adult": false,
      "known_for_department": "Acting"
    },
    {
      "id": 6677,
      "name": "Kyle MacLachlan",
      "profile_path": "/ooI51tWwL5qVHV6KrOdbi01s2ib.jpg",
      "popularity": 12.245,
      "adult": false,
      "known_for_department": "Acting"
    },
    {
      "id": 93031,
      "name": "Ryan McPartlin",
      "profile_path": "/v0vKYfoSVLBEGBZ2ldjm3cHJwf3.jpg",
      "popularity": 12.243,
      "adult": false,
      "known_for_department": "Acting"
    },
    {
      "id": 1213613,
      "name": "Jeri Ryan",
      "profile_path": "/d1FaZumY8fWbYTUuPokYUYx8x5G.jpg",
      "popularity": 12.242,
      "adult": false,
      "known_for_department": "Acting"
    }
  ]
}