{
  "page": 417,
  "total_results": 10000,
  "total_pages": 500,
  "results": [
    {
      "id": 29803,
      "name": "Madeline Kahn",
      "profile_path": "/iEaCnVYtwbQ5xMaGQylcpmxgZcG.jpg",
      "popularity": 8.323,
      "adult": false,
      "known_for_department": "Acting"
    },
    {
      "id": 1003843,
      "name": "Stephanie Allynne",
      "profile_path": "/orxxs8G1QdKt1tECyJu3qiWCV8M.jpg",
      "popularity": 8.322,
      "adult": false,
      "known_for_department": "Acting"
    },
    {
      "id": 234548,
      "name": "Daniel Webber",
      "profile_path": "/ldOZipwbPQP7AXoQTQHXQymwu9q.jpg",
      "popularity": 8.322,
      "adult": false,
      "known_for_department": "Acting"
    },
    {
      "id": 59942,
      "name": "Amanda Peterson",
      "profile_path": "/m1O3HsAupOQvakIYqcxb6QpZ6dg.jpg",
      "popularity": 8.322,
      "adult": false,
      "known_for_department": "Acting"
    },
    {
      "id": 999725,
      "name": "Seiyo Uchino",
      "profile_path": "/78dsbEHIKw1JvQPjrssSaFIdgCO.jpg",
      "popularity": 8.32,
      "adult": false,
      "known_for_department": "Acting"
    },
    {
      "id": 84752,
      "name": "Park Si-yeon",
      "profile_path": "/iaP44f9OYuHoLKi2Mhyo27LdBlJ.jpg",
      "popularity": 8.32,
      "adult": false,
      "known_for_department": "Acting"
    },
    {
      "id": 175977,
      "name": "Patricia Hodge",
      "profile_path": "/e9IwLFI1kB9hWCyH47S2GDkkpp6.jpg",
      "popularity": 8.319,
      "adult": false,
      "known_for_department": "Acting"
    },
    {
      "id": 18687,
      "name": "William McNamara",
      "profile_path": "/hVOdM3UUmJqpREnBxzm0J4j0b5R.jpg",
      "popularity": 8.317,
      "adult": false,
      "known_for_department": "Acting"
    },
    {
      "id": 6623,
      "name": "Vik Sahay",
      "profile_path": "/690bPfmzaXsrZ1eDcUOCDT5TPpq.jpg",
      "popularity": 8.317,
      "adult": false,
      "known_for_department": "Acting"
    },
    {
      "id": 1033632,
      "name": "Victoria Guerra",
      "profile_path": "/2baLSCRfyT4b9z9DcBqwVvHI1XF.jpg",
      "popularity": 8.316,
      "adult": false,
      "known_for_department": "Acting"
    },
    {
      "id": 142108,
      "name": "Jennifer Stone",
      "profile_path": "/8QvMZ4LEnpAfymGox3ESAWyIu4S.jpg",
      "popularity": 8.316,
      "adult": false,
      "known_for_department": "Acting"
    },
    {
      "id": 2354327,
      "name": "Aimer",
      "profile_path": "/dJIt5EUmbhYoNjEVMEwsHyG1I1w.jpg",
      "popularity": 8.315,
      "adult": false,
      "known_for_department": "Sound"
    },
    {
      "id": 87334,
      "name": "Nicole Richie",
      "profile_path": "/1cy5WZuX3AFC9nnsh4Dwm66cm67.jpg",
      "popularity": 8.315,
      "adult": false,
      "known_for_department": "Acting"
    },
    {
      "id": 57997,
      "name": "Malcolm Goodwin",
      "profile_path": "/h2AVP07OdXOsX3ERNwpsQuvrUEB.jpg",
      "popularity": 8.315,
      "adult": false,
      "known_for_department": "Acting"
    },
    {
      "id": 5247,
      "name": "John Fiedler",
      "profile_path": "/6vfLLGeGuO6Ko0VRnyhgE2v6RUu.jpg",
      "popularity": 8.315,
      "adult": false,
      "known_for_department": "Acting"
    },
    {
      "id": 69764,
      "name": "Laurence Naismith",
      "profile_path": "/vvutdGY5Aj5kk6asneApTOs3X6w.jpg",
      "popularity": 8.313,
      "adult": false,
      "known_for_department": "Acting"
    },
    {
      "id": 60339,
      "name": "Sally Bretton",
      "profile_path": "/kAj4gQSY6HycjDt0qMUbPvZBY3b.jpg",
      "popularity": 8.313,
      "adult": false,
      "known_for_department": "Acting"
    },
    {
      "id": 47297,
      "name": "James Marsters",
      "profile_path": "/oJnBB3g2IINnsLSr8B79bJ9ykkx.jpg",
      "popularity": 8.313,
      "adult": false,
      "known_for_department": "Acting"
    },
    {
      "id": 726,
      "name": "Jack Weston",
      "profile_path": "/huxN66E1BVXEvyICtOlcRfEekLU.jpg",
      "popularity": 8.313,
      "adult": false,
      "known_for_department": "Acting"
    },
    {
      "id": 12660,
      "name": "Gavan O'Herlihy",
      "profile_path": "/6R6DnhybYINVbJUhKpACQit7RME.jpg",
      "popularity": 8.312,
      "adult": false,
      "known_for_department": "Acting"
    }
  ]
}