{
  "page": 26,
  "total_results": 10000,
  "total_pages": 500,
  "results": [
    {
      "id": 4495,
      "name": "Steve Carell",
      "profile_path": "/dzJtsLspH5Bf8Tvw7OQC47ETNfJ.jpg",
      "popularity": 29.922,
      "adult": false,
      "known_for_department": "Acting"
    },
    {
      "id": 10978,
      "name": "Maggie Smith",
      "profile_path": "/qZyJ7DaOtkfqw58Iv7EqADi428P.jpg",
      "popularity": 29.874,
      "adult": false,
      "known_for_department": "Acting"
    },
    {
      "id": 220448,
      "name": "Paul Anderson",
      "profile_path": "/nds5rTBZvJ4rEsP4N6OaoEgQDkW.jpg",
      "popularity": 29.867,
      "adult": false,
      "known_for_department": "Acting"
    },
    {
      "id": 501,
      "name": "Dakota Fanning",
      "profile_path": "/6bNiiHnZZfA7YYIxO5FszvNFBlI.jpg",
      "popularity": 29.855,
      "adult": false,
      "known_for_department": "Acting"
    },
    {
      "id": 215055,
      "name": "Steven Yeun",
      "profile_path": "/5XU0L0drBa7JlGrLg2w3LhAgjG0.jpg",
      "popularity": 29.842,
      "adult": false,
      "known_for_department": "Acting"
    },
    {
      "id": 1336,
      "name": "Jet Li",
      "profile_path": "/7d4hgOzFW7CWPcE92eTSEFRSObC.jpg",
      "popularity": 29.812,
      "adult": false,
      "known_for_department": "Acting"
    },
    {
      "id": 449513,
      "name": "Meredith Hagner",
      "profile_path": "/k4SQGzj6k2HqYfed0NU3KtJi78o.jpg",
      "popularity": 29.761,
      "adult": false,
      "known_for_department": "Acting"
    },
    {
      "id": 1062,
      "name": "Christopher Lloyd",
      "profile_path": "/nxVjpyb3UrfbPZnEyDNlQVlFAs5.jpg",
      "popularity": 29.724,
      "adult": false,
      "known_for_department": "Acting"
    },
    {
      "id": 6553,
      "name": "Isabelle Adjani",
      "profile_path": "/78hf5dChs9YmqXTKQ8zj1oLqc21.jpg",
      "popularity": 29.718,
      "adult": false,
      "known_for_department": "Acting"
    },
    {
      "id": 19,
      "name": "Allison Janney",
      "profile_path": "/hpBKWV1jjoXQbr1s0iUZTSvw582.jpg",
      "popularity": 29.659,
      "adult": false,
      "known_for_department": "Acting"
    },
    {
      "id": 27563,
      "name": "Amy Irving",
      "profile_path": "/dGPkygyZ8F5lKJyiuqBLs3WveeF.jpg",
      "popularity": 29.647,
      "adult": false,
      "known_for_department": "Acting"
    },
    {
      "id": 193,
      "name": "Gene Hackman",
      "profile_path": "/xPmETCv0APDoIK5CvIIJwbTcjPA.jpg",
      "popularity": 29.61,
      "adult": false,
      "known_for_department": "Acting"
    },
    {
      "id": 973667,
      "name": "Rosa Salazar",
      "profile_path": "/hrU1Kg1SH03x0RRmWEzmnWEonuU.jpg",
      "popularity": 29.538,
      "adult": false,
      "known_for_department": "Acting"
    },
    {
      "id": 1172108,
      "name": "Mckenna Grace",
      "profile_path": "/4ZUnnSVv6w6aZ44On8ObgBOKsRo.jpg",
      "popularity": 29.52,
      "adult": false,
      "known_for_department": "Acting"
    },
    {
      "id": 4724,
      "name": "Kevin Bacon",
      "profile_path": "/rjX2Oz3tCZMfSwOoIAyEhdtXnTE.jpg",
      "popularity": 29.488,
      "adult": false,
      "known_for_department": "Acting"
    },
    {
      "id": 25541,
      "name": "Katherine Heigl",
      "profile_path": "/jh5vQj92V3eBcPMMVW8VSOOQMX8.jpg",
      "popularity": 29.477,
      "adult": false,
      "known_for_department": "Acting"
    },
    {
      "id": 1369057,
      "name": "Katherine Cunningham",
      "profile_path": "/z9O8kEPRiIDh4lhC0GCryQXhmX.jpg",
      "popularity": 29.399,
      "adult": false,
      "known_for_department": "Acting"
    },
    {
      "id": 2155,
      "name": "Thora Birch",
      "profile_path": "/7rRirYcL5JJS5P2W67yhsmAfO3x.jpg",
      "popularity": 29.382,
      "adult": false,
      "known_for_department": "Acting"
    },
    {
      "id": 1914924,
      "name": "Miles Wei",
      "profile_path": "/fT4v4LTDXGEFGHe7ZAaRTtqBFYM.jpg",
      "popularity": 29.366,
      "adult": false,
      "known_for_department": "Acting"
    },
    {
      "id": 139820,
      "name": "Pom Klementieff",
      "profile_path": "/hfUKAI2kXTMMWjno0i4sLPJud5N.jpg",
      "popularity": 29.35,
      "adult": false,
      "known_for_department": "Acting"
    }
  ]
}