{
  "page": 462,
  "total_results": 10000,
  "total_pages": 500,
  "results": [
    {
      "id": 21992,
      "name": "Pia Zadora",
      "profile_path": "/dRuW1EJAYSBFNtO7sZlL1AIOfjQ.jpg",
      "popularity": 8.558,
      "adult": false,
      "known_for_department": "Acting"
    },
    {
      "id": 2259152,
      "name": "Riley Dandy",
      "profile_path": "/wqiwt09LtDLjmHHINGlbiThTbhV.jpg",
      "popularity": 8.556,
      "adult": false,
      "known_for_department": "Acting"
    },
    {
      "id": 178630,
      "name": "Kate Fleetwood",
      "profile_path": "/orPJGGiddJHEEXSUea53vYSP2cD.jpg",
      "popularity": 8.556,
      "adult": false,
      "known_for_department": "Acting"
    },
    {
      "id": 588627,
      "name": "Linda Evangelista",
      "profile_path": "/8wYfDQGnEroVD6oGPsM7UFsTVDo.jpg",
      "popularity": 8.555,
      "adult": false,
      "known_for_department": "Acting"
    },
    {
      "id": 1526579,
      "name": "Lenita Susi",
      "profile_path": "/kRybXg3oQGXPxeHR5d0Q35Fa0lb.jpg",
      "popularity": 8.554,
      "adult": false,
      "known_for_department": "Acting"
    },
    {
      "id": 990512,
      "name": "Angie Diaz",
      "profile_path": "/2PrNSV9AE8rYddkaw5bXArwBLMa.jpg",
      "popularity": 8.554,
      "adult": false,
      "known_for_department": "Acting"
    },
    {
      "id": 1136638,
      "name": "Pia Halvorsen",
      "profile_path": "/fo6q27Mkx3Uzpl69ITQY0hsLKst.jpg",
      "popularity": 8.553,
      "adult": false,
      "known_for_department": "Acting"
    },
    {
      "id": 1048644,
      "name": "Sarah Greene",
      "profile_path": "/hql67slgh3xYfs1efMd3Wz58X2F.jpg",
      "popularity": 8.552,
      "adult": false,
      "known_for_department": "Acting"
    },
    {
      "id": 72040,
      "name": "Isabella Leong",
      "profile_path": "/goc7CVYEW0Fd6cB5hjUjOG8KY9N.jpg",
      "popularity": 8.552,
      "adult": false,
      "known_for_department": "Acting"
    },
    {
      "id": 38129,
      "name": "Robert Fuller",
      "profile_path": "/pDrDechryrHA4nBXBYgOlJoq4S3.jpg",
      "popularity": 8.552,
      "adult": false,
      "known_for_department": "Acting"
    },
    {
      "id": 1494305,
      "name": "Salih Bademci",
      "profile_path": "/3UfaJI7OS4HSobay5cm56o5rqvd.jpg",
      "popularity": 8.551,
      "adult": false,
      "known_for_department": "Acting"
    },
    {
      "id": 179508,
      "name": "Gary Valentine",
      "profile_path": "/7mN9QMY3T9hw2CUzWV7XOjQmFqA.jpg",
      "popularity": 8.551,
      "adult": false,
      "known_for_department": "Acting"
    },
    {
      "id": 130534,
      "name": "Matt Bennett",
      "profile_path": "/dpfVE0GvUguIUng1HBFKhjTtAr.jpg",
      "popularity": 8.55,
      "adult": false,
      "known_for_department": "Acting"
    },
    {
      "id": 97188,
      "name": "Steve Schirripa",
      "profile_path": "/2Nd2Hd4zIBCv4ZoXFhSkrJCx6wB.jpg",
      "popularity": 8.55,
      "adult": false,
      "known_for_department": "Acting"
    },
    {
      "id": 938258,
      "name": "Kim Hye-sun",
      "profile_path": "/1wUftjM8vMeERxsVFkAkp4YrmRP.jpg",
      "popularity": 8.549,
      "adult": false,
      "known_for_department": "Acting"
    },
    {
      "id": 30553,
      "name": "Henry Brandon",
      "profile_path": "/kwc3oyYhq53tG2WMXXMOrMJopcA.jpg",
      "popularity": 8.549,
      "adult": false,
      "known_for_department": "Acting"
    },
    {
      "id": 1789278,
      "name": "Olivia Macklin",
      "profile_path": "/pkYhdqDVnc3EAivgmtAJcIG6fJP.jpg",
      "popularity": 8.547,
      "adult": false,
      "known_for_department": "Acting"
    },
    {
      "id": 1206434,
      "name": "Jeannie Chan",
      "profile_path": "/ualtP0ijERgAcWXb2fqWqCnZ6g2.jpg",
      "popularity": 8.547,
      "adult": false,
      "known_for_department": "Acting"
    },
    {
      "id": 112785,
      "name": "Jung Woong-in",
      "profile_path": "/8chD5NkFYH5glIqBt6zyevoQRhK.jpg",
      "popularity": 8.546,
      "adult": false,
      "known_for_department": "Acting"
    },
    {
      "id": 117443,
      "name": "Dick Wolf",
      "profile_path": "/tRMEuYNVFjXYJ7gh1sGJSxq9Vwq.jpg",
      "popularity": 8.545,
      "adult": false,
      "known_for_department": "Creator"
    }
  ]
}