{
  "page": 243,
  "total_results": 10000,
  "total_pages": 500,
  "results": [
    {
      "id": 855,
      "name": "Lee Remick",
      "profile_path": "/90TB8k134kouctQkNU641aHkiHm.jpg",
      "popularity": 10.219,
      "adult": false,
      "known_for_department": "Acting"
    },
    {
      "id": 32363,
      "name": "Will Estes",
      "profile_path": "/ddxb9Me3pNLpBUYZQ7stpCrIxFs.jpg",
      "popularity": 10.217,
      "adult": false,
      "known_for_department": "Acting"
    },
    {
      "id": 29236,
      "name": "Anna Maxwell Martin",
      "profile_path": "/vBAsZPe1tHPvVLViiDWYkb5k1Cu.jpg",
      "popularity": 10.216,
      "adult": false,
      "known_for_department": "Acting"
    },
    {
      "id": 2341408,
      "name": "Lee Do-hyun",
      "profile_path": "/6ZWE4UK4GJetyyJj68uiykE9yID.jpg",
      "popularity": 10.215,
      "adult": false,
      "known_for_department": "Acting"
    },
    {
      "id": 47730,
      "name": "Jessica Hynes",
      "profile_path": "/eyJ9aC1FXyPAI5xose0HqA26bnm.jpg",
      "popularity": 10.215,
      "adult": false,
      "known_for_department": "Acting"
    },
    {
      "id": 5656,
      "name": "Noah Baumbach",
      "profile_path": "/jIeAFowGbCt5OSMI6to00QrIvXN.jpg",
      "popularity": 10.214,
      "adult": false,
      "known_for_department": "Writing"
    },
    {
      "id": 1421349,
      "name": "Ana Alexander",
      "profile_path": "/1IlEGAdccjtTZKNSxvTHnHG1ROI.jpg",
      "popularity": 10.21,
      "adult": false,
      "known_for_department": "Acting"
    },
    {
      "id": 56819,
      "name": "Dudley Moore",
      "profile_path": "/8xLueKMu5tpBmLNzZ73eWBNHycW.jpg",
      "popularity": 10.21,
      "adult": false,
      "known_for_department": "Acting"
    },
    {
      "id": 52474,
      "name": "Jason London",
      "profile_path": "/bFkC2ZRcurTQzbjBuuMljFCKfEv.jpg",
      "popularity": 10.21,
      "adult": false,
      "known_for_department": "Acting"
    },
    {
      "id": 1584273,
      "name": "Dilan Çiçek Deniz",
      "profile_path": "/wj7il56BPBRXtaFVj7cejXpg578.jpg",
      "popularity": 10.209,
      "adult": false,
      "known_for_department": "Acting"
    },
    {
      "id": 89838,
      "name": "Leo Penn",
      "profile_path": "/efb6SAVE9jBrHaBxAWMMRiMr1CG.jpg",
      "popularity": 10.209,
      "adult": false,
      "known_for_department": "Directing"
    },
    {
      "id": 2217977,
      "name": "Rachel Zegler",
      "profile_path": "/ycseVLFDnnTQ9QubleZjdbrGl4r.jpg",
      "popularity": 10.207,
      "adult": false,
      "known_for_department": "Acting"
    },
    {
      "id": 1256258,
      "name": "Toks Olagundoye",
      "profile_path": "/2tKnfTA0gh6QnTcHb18hj8o70uG.jpg",
      "popularity": 10.207,
      "adult": false,
      "known_for_department": "Acting"
    },
    {
      "id": 161932,
      "name": "Jim Rash",
      "profile_path": "/cXat9HZ5ajQZsrAZ8xE4zIEVEcb.jpg",
      "popularity": 10.207,
      "adult": false,
      "known_for_department": "Acting"
    },
    {
      "id": 81243,
      "name": "Romi Park",
      "profile_path": "/fl9vyA3HEkOyTiZBJBhAR3OSmrO.jpg",
      "popularity": 10.207,
      "adult": false,
      "known_for_department": "Acting"
    },
    {
      "id": 27932,
      "name": "Lilli Palmer",
      "profile_path": "/gUiroPwEWr80afRywcvZlodcXfD.jpg",
      "popularity": 10.207,
      "adult": false,
      "known_for_department": "Acting"
    },
    {
      "id": 20980,
      "name": "Victoria Pratt",
      "profile_path": "/ej5U4JNHrhu85QSPXpON3Q0WxdF.jpg",
      "popularity": 10.206,
      "adult": false,
      "known_for_department": "Acting"
    },
    {
      "id": 3010184,
      "name": "Hee Jeong",
      "profile_path": "/m6AScRlyNLlRbVr0i7xod90eVFQ.jpg",
      "popularity": 10.205,
      "adult": false,
      "known_for_department": "Acting"
    },
    {
      "id": 110421,
      "name": "Hanna Mangan Lawrence",
      "profile_path": "/mVvrN5zYrMbIMiBv8bgpfp0YSC6.jpg",
      "popularity": 10.205,
      "adult": false,
      "known_for_department": "Acting"
    },
    {
      "id": 18662,
      "name": "Erin Daniels",
      "profile_path": "/cp4NlgaY3sXH0cRwOm7meBL4uBc.jpg",
      "popularity": 10.205,
      "adult": false,
      "known_for_department": "Acting"
    }
  ]
}