{
  "page": 28,
  "total_results": 10000,
  "total_pages": 500,
  "results": [
    {
      "id": 1187068,
      "name": "Charlbi Dean",
      "profile_path": "/bdWguLfrKPfRVIFvEOsVNMdeqw9.jpg",
      "popularity": 27.814,
      "adult": false,
      "known_for_department": "Acting"
    },
    {
      "id": 15453,
      "name": "Debra Jo Rupp",
      "profile_path": "/9Ctz7eHGE1TSxELdxAUztp9Gt3t.jpg",
      "popularity": 27.812,
      "adult": false,
      "known_for_department": "Acting"
    },
    {
      "id": 3810,
      "name": "Javier Bardem",
      "profile_path": "/IShnFg6ijWhpbu29dFBd9PtqQg.jpg",
      "popularity": 27.807,
      "adult": false,
      "known_for_department": "Acting"
    },
    {
      "id": 1594612,
      "name": "Wang Yibo",
      "profile_path": "/k8h67KZ5BJKzmxkkAnXorvAJy0N.jpg",
      "popularity": 27.794,
      "adult": false,
      "known_for_department": "Acting"
    },
    {
      "id": 33528,
      "name": "Joseph Cross",
      "profile_path": "/exxcI1BPy7BFQvXWM5DiH7xpwPO.jpg",
      "popularity": 27.759,
      "adult": false,
      "known_for_department": "Acting"
    },
    {
      "id": 77996,
      "name": "Asa Butterfield",
      "profile_path": "/1IoQIesuvI9o1IpYZqdjBWvKhRf.jpg",
      "popularity": 27.742,
      "adult": false,
      "known_for_department": "Acting"
    },
    {
      "id": 933238,
      "name": "Rebecca Ferguson",
      "profile_path": "/6NRlV9oUipeak7r00V6k73Jb7we.jpg",
      "popularity": 27.74,
      "adult": false,
      "known_for_department": "Acting"
    },
    {
      "id": 550843,
      "name": "Elizabeth Olsen",
      "profile_path": "/wIU675y4dofIDVuhaNWPizJNtep.jpg",
      "popularity": 27.739,
      "adult": false,
      "known_for_department": "Acting"
    },
    {
      "id": 14464,
      "name": "Jenny Agutter",
      "profile_path": "/hxroyCTMk54hesfCRo4g6Jwc8dT.jpg",
      "popularity": 27.719,
      "adult": false,
      "known_for_department": "Acting"
    },
    {
      "id": 87265,
      "name": "Tenoch Huerta Mejía",
      "profile_path": "/5qoAmQpcPCjf4Pd6aTZOeINGYzk.jpg",
      "popularity": 27.682,
      "adult": false,
      "known_for_department": "Acting"
    },
    {
      "id": 91606,
      "name": "Tom Hiddleston",
      "profile_path": "/mclHxMm8aPlCPKptP67257F5GPo.jpg",
      "popularity": 27.677,
      "adult": false,
      "known_for_department": "Acting"
    },
    {
      "id": 17178,
      "name": "Patrick Wilson",
      "profile_path": "/tc1ezEfIY8BhCy85svOUDtpBFPt.jpg",
      "popularity": 27.621,
      "adult": false,
      "known_for_department": "Acting"
    },
    {
      "id": 20049,
      "name": "David Tennant",
      "profile_path": "/zM76EBPZkdkSHyESyIUa47aP87R.jpg",
      "popularity": 27.561,
      "adult": false,
      "known_for_department": "Acting"
    },
    {
      "id": 2178,
      "name": "Forest Whitaker",
      "profile_path": "/fugyEeN6sisuYi07HSoxdVHm0CZ.jpg",
      "popularity": 27.556,
      "adult": false,
      "known_for_department": "Acting"
    },
    {
      "id": 57395,
      "name": "Natasha Henstridge",
      "profile_path": "/lfRFm3MLOGPtaDHWTstoQfKAyLM.jpg",
      "popularity": 27.551,
      "adult": false,
      "known_for_department": "Acting"
    },
    {
      "id": 2176,
      "name": "Tommy Lee Jones",
      "profile_path": "/dnfFKIRi4RL77Z84EMiDAuocMrO.jpg",
      "popularity": 27.533,
      "adult": false,
      "known_for_department": "Acting"
    },
    {
      "id": 1110405,
      "name": "Mackenzie Davis",
      "profile_path": "/ekQbEIKh26jbz17P0wwLbo6uNs9.jpg",
      "popularity": 27.506,
      "adult": false,
      "known_for_department": "Acting"
    },
    {
      "id": 1039011,
      "name": "Natalia Dyer",
      "profile_path": "/cQaa3XEiUTgJxp85VeFYFyblJIH.jpg",
      "popularity": 27.496,
      "adult": false,
      "known_for_department": "Acting"
    },
    {
      "id": 3894,
      "name": "Christian Bale",
      "profile_path": "/qCpZn2e3dimwbryLnqxZuI88PTi.jpg",
      "popularity": 27.486,
      "adult": false,
      "known_for_department": "Acting"
    },
    {
      "id": 13918,
      "name": "Elizabeth Hurley",
      "profile_path": "/1z6bx9I3J8gTQAQPrA5cJgzkiqt.jpg",
      "popularity": 27.48,
      "adult": false,
      "known_for_department": "Acting"
    }
  ]
}