{
  "page": 432,
  "total_results": 10000,
  "total_pages": 500,
  "results": [
    {
      "id": 139900,
      "name": "Florence Kasumba",
      "profile_path": "/vivJLQhtwca5hupqoRRgL8BRs6o.jpg",
      "popularity": 7.983,
      "adult": false,
      "known_for_department": "Acting"
    },
    {
      "id": 145989,
      "name": "Ji Jin-hee",
      "profile_path": "/7O6u0vn1SafFgcyJwP4rJwBfvaR.jpg",
      "popularity": 7.982,
      "adult": false,
      "known_for_department": "Acting"
    },
    {
      "id": 213315,
      "name": "Lucas Bryant",
      "profile_path": "/5UUlXdQzKMxinn5aMJF1IFvUFd8.jpg",
      "popularity": 7.981,
      "adult": false,
      "known_for_department": "Acting"
    },
    {
      "id": 56867,
      "name": "Mark McKinney",
      "profile_path": "/59907rm4HF2IVuMJnKpJJAOGkRU.jpg",
      "popularity": 7.981,
      "adult": false,
      "known_for_department": "Acting"
    },
    {
      "id": 24980,
      "name": "Kandido Uranga",
      "profile_path": "/wbI5XwwzaqxcxctuqNMHG3Qecmr.jpg",
      "popularity": 7.981,
      "adult": false,
      "known_for_department": "Acting"
    },
    {
      "id": 15810,
      "name": "Ron Clements",
      "profile_path": "/iCq89uPdVjtGkO7UbTn5UPqHIPx.jpg",
      "popularity": 7.981,
      "adult": false,
      "known_for_department": "Writing"
    },
    {
      "id": 113236,
      "name": "Mia McKenna-Bruce",
      "profile_path": "/3CbwQW082wmd8C0IpmgDvxJUjog.jpg",
      "popularity": 7.979,
      "adult": false,
      "known_for_department": "Acting"
    },
    {
      "id": 63220,
      "name": "Kerri Kenney",
      "profile_path": "/8BIBidgv08VXLttLeCN0trPFXNf.jpg",
      "popularity": 7.979,
      "adult": false,
      "known_for_department": "Acting"
    },
    {
      "id": 10386,
      "name": "Debra Monk",
      "profile_path": "/qdb43ggK8PhAoQO357hE5f5Gw3O.jpg",
      "popularity": 7.979,
      "adult": false,
      "known_for_department": "Acting"
    },
    {
      "id": 20286,
      "name": "Toby Kebbell",
      "profile_path": "/5YrRWDQ8GKYP7uFw1PlJLuKE8O8.jpg",
      "popularity": 7.978,
      "adult": false,
      "known_for_department": "Acting"
    },
    {
      "id": 2138291,
      "name": "Ryota Suzuki",
      "profile_path": "/4Xq18mQttuW2yfRCflnWoU7UqQ5.jpg",
      "popularity": 7.977,
      "adult": false,
      "known_for_department": "Acting"
    },
    {
      "id": 1569982,
      "name": "Brock O'Hurn",
      "profile_path": "/3HMTNv2YDcWsAnJvwJyHDMpBTPR.jpg",
      "popularity": 7.976,
      "adult": false,
      "known_for_department": "Acting"
    },
    {
      "id": 236369,
      "name": "Vladimir Vdovichenkov",
      "profile_path": "/5jcTzL82XLKHS7rqudSryOTriIh.jpg",
      "popularity": 7.976,
      "adult": false,
      "known_for_department": "Acting"
    },
    {
      "id": 150126,
      "name": "Jeon Hye-jin",
      "profile_path": "/7PliJIOzUei41vyE9FaIWvFMNzC.jpg",
      "popularity": 7.974,
      "adult": false,
      "known_for_department": "Acting"
    },
    {
      "id": 131732,
      "name": "Xiong Xin-Xin",
      "profile_path": "/nEk3tdN3Qbrq9yrEQEINo4cqwT6.jpg",
      "popularity": 7.974,
      "adult": false,
      "known_for_department": "Acting"
    },
    {
      "id": 21353,
      "name": "Isaiah Washington",
      "profile_path": "/3yY5h1t7AKZpf4lfdSMwDQvCroQ.jpg",
      "popularity": 7.974,
      "adult": false,
      "known_for_department": "Acting"
    },
    {
      "id": 2934419,
      "name": "Chae Jong-hyeop",
      "profile_path": "/vb07Azc5lo7wtH1oJj6wcyOMman.jpg",
      "popularity": 7.973,
      "adult": false,
      "known_for_department": "Acting"
    },
    {
      "id": 106776,
      "name": "Sam Vincent",
      "profile_path": "/eJadsFcztqQZQIKzL5cMyasi1oa.jpg",
      "popularity": 7.973,
      "adult": false,
      "known_for_department": "Acting"
    },
    {
      "id": 5251,
      "name": "Jack Warden",
      "profile_path": "/hSShXiYMfRpMByaB5euZ59qCKN.jpg",
      "popularity": 7.973,
      "adult": false,
      "known_for_department": "Acting"
    },
    {
      "id": 1058,
      "name": "Bob Gale",
      "profile_path": "/wZLj3qLrieFQzt49i981lMVijPm.jpg",
      "popularity": 7.973,
      "adult": false,
      "known_for_department": "Writing"
    }
  ]
}