{
  "page": 72,
  "total_results": 10000,
  "total_pages": 500,
  "results": [
    {
      "id": 2314,
      "name": "Peter Falk",
      "profile_path": "/5HhzU8ErKK5tUSRMUAE8P4n26C0.jpg",
      "popularity": 18.623,
      "adult": false,
      "known_for_department": "Acting"
    },
    {
      "id": 3489,
      "name": "Naomi Watts",
      "profile_path": "/k6l8BWX1yqfGt95enzEkHoPvON4.jpg",
      "popularity": 18.618,
      "adult": false,
      "known_for_department": "Acting"
    },
    {
      "id": 404,
      "name": "Melora Hardin",
      "profile_path": "/w8yg5ZPXelD47sfDRQFvGHD7jP0.jpg",
      "popularity": 18.617,
      "adult": false,
      "known_for_department": "Acting"
    },
    {
      "id": 1090062,
      "name": "Sarah-Sofie Boussnina",
      "profile_path": "/x2ox5nJzT77qct65fl5z7hEPlPn.jpg",
      "popularity": 18.602,
      "adult": false,
      "known_for_department": "Acting"
    },
    {
      "id": 16560,
      "name": "David Caruso",
      "profile_path": "/7XjPzadIBQ0mIVwVT7o87B7NkJJ.jpg",
      "popularity": 18.589,
      "adult": false,
      "known_for_department": "Acting"
    },
    {
      "id": 14692,
      "name": "Nick Castle",
      "profile_path": "/bKJuXeKR8GZLyiutiDSCwwCzZ7n.jpg",
      "popularity": 18.588,
      "adult": false,
      "known_for_department": "Acting"
    },
    {
      "id": 72855,
      "name": "Felicity Jones",
      "profile_path": "/35KdWSfTldNEdsn4MUGFIRoxJEu.jpg",
      "popularity": 18.574,
      "adult": false,
      "known_for_department": "Acting"
    },
    {
      "id": 1252318,
      "name": "IU",
      "profile_path": "/xxYawgFO1woBRveH7WL9D1BxB4W.jpg",
      "popularity": 18.567,
      "adult": false,
      "known_for_department": "Acting"
    },
    {
      "id": 4687,
      "name": "Patricia Arquette",
      "profile_path": "/jeThSouMatiuRiLkjDvSBLHpmq0.jpg",
      "popularity": 18.562,
      "adult": false,
      "known_for_department": "Acting"
    },
    {
      "id": 88995,
      "name": "Adrianne Palicki",
      "profile_path": "/3qpWQ5d2XxvZuoZDsGgZUsOI60q.jpg",
      "popularity": 18.561,
      "adult": false,
      "known_for_department": "Acting"
    },
    {
      "id": 20624,
      "name": "Mary Wickes",
      "profile_path": "/3cBGc8kRLL2M01VOEcmlFgjAGo8.jpg",
      "popularity": 18.559,
      "adult": false,
      "known_for_department": "Acting"
    },
    {
      "id": 17825,
      "name": "Shawn Levy",
      "profile_path": "/b1ulkCHz8biG87LjLQQiMCebEZo.jpg",
      "popularity": 18.548,
      "adult": false,
      "known_for_department": "Production"
    },
    {
      "id": 2394,
      "name": "Alan Ruck",
      "profile_path": "/cAiV9s6Pg1HYsqSXb3Q7OkMGF0a.jpg",
      "popularity": 18.548,
      "adult": false,
      "known_for_department": "Acting"
    },
    {
      "id": 3052,
      "name": "Rachel Griffiths",
      "profile_path": "/n7rKwLjZmbkBKWBwhj9SYzsRaF6.jpg",
      "popularity": 18.541,
      "adult": false,
      "known_for_department": "Acting"
    },
    {
      "id": 15140,
      "name": "Terence Hill",
      "profile_path": "/vBkWDZh93QRUvg3oh5d96QQZWLn.jpg",
      "popularity": 18.536,
      "adult": false,
      "known_for_department": "Acting"
    },
    {
      "id": 1625558,
      "name": "Awkwafina",
      "profile_path": "/l5AKkg3H1QhMuXmTTmq1EyjyiRb.jpg",
      "popularity": 18.534,
      "adult": false,
      "known_for_department": "Acting"
    },
    {
      "id": 9278,
      "name": "Jennifer Garner",
      "profile_path": "/ftymEXqdTnXfaI6dGd9qrJoFOSE.jpg",
      "popularity": 18.532,
      "adult": false,
      "known_for_department": "Acting"
    },
    {
      "id": 35028,
      "name": "Zoe Kazan",
      "profile_path": "/xzTMbybHtckbiEmbKkbXVNegSVs.jpg",
      "popularity": 18.524,
      "adult": false,
      "known_for_department": "Acting"
    },
    {
      "id": 38560,
      "name": "Lou Diamond Phillips",
      "profile_path": "/yqGZwaGe8XgoxfO7zmx7weGBaXZ.jpg",
      "popularity": 18.519,
      "adult": false,
      "known_for_department": "Acting"
    },
    {
      "id": 1067849,
      "name": "Kim Go-eun",
      "profile_path": "/qjuCNIwVxXZ7B81jpuCSHkXBLPP.jpg",
      "popularity": 18.511,
      "adult": false,
      "known_for_department": "Acting"
    }
  ]
}