{
  "page": 52,
  "total_results": 10000,
  "total_pages": 500,
  "results": [
    {
      "id": 449513,
      "name": "Meredith Hagner",
      "profile_path": "/k4SQGzj6k2HqYfed0NU3KtJi78o.jpg",
      "popularity": 21.603,
      "adult": false,
      "known_for_department": "Acting"
    },
    {
      "id": 10964,
      "name": "Laz Alonso",
      "profile_path": "/nmgOd3X2Xn3jIp9OLCRJzLExRWN.jpg",
      "popularity": 21.6,
      "adult": false,
      "known_for_department": "Acting"
    },
    {
      "id": 1768319,
      "name": "Madeline Wise",
      "profile_path": "/8au11zMSOm2dRPUi6akSf3FpSdz.jpg",
      "popularity": 21.592,
      "adult": false,
      "known_for_department": "Acting"
    },
    {
      "id": 49971,
      "name": "Jennifer Ehle",
      "profile_path": "/kMddVKineLFpxsUoGrb3E6edkOv.jpg",
      "popularity": 21.578,
      "adult": false,
      "known_for_department": "Acting"
    },
    {
      "id": 4687,
      "name": "Patricia Arquette",
      "profile_path": "/jeThSouMatiuRiLkjDvSBLHpmq0.jpg",
      "popularity": 21.564,
      "adult": false,
      "known_for_department": "Acting"
    },
    {
      "id": 125660,
      "name": "Andrew Scott",
      "profile_path": "/4F8XpjyQCvtuu21WFm5d8RF5Rl.jpg",
      "popularity": 21.563,
      "adult": false,
      "known_for_department": "Acting"
    },
    {
      "id": 1565392,
      "name": "Kang Tae-oh",
      "profile_path": "/aMenmaLlcK6YMZnN7NBvvaVuq4O.jpg",
      "popularity": 21.56,
      "adult": false,
      "known_for_department": "Acting"
    },
    {
      "id": 3391,
      "name": "Kathleen Turner",
      "profile_path": "/xF6SwVRbVj08woMqFY2FWJQmjtK.jpg",
      "popularity": 21.559,
      "adult": false,
      "known_for_department": "Acting"
    },
    {
      "id": 90451,
      "name": "Tom Sturridge",
      "profile_path": "/dm5GA0xwJwvPsAU6YBPCfyvvWSb.jpg",
      "popularity": 21.531,
      "adult": false,
      "known_for_department": "Acting"
    },
    {
      "id": 74289,
      "name": "Amanda Righetti",
      "profile_path": "/glAhErOplmToSjCf5QB8mjAnuXt.jpg",
      "popularity": 21.53,
      "adult": false,
      "known_for_department": "Acting"
    },
    {
      "id": 17648,
      "name": "James Purefoy",
      "profile_path": "/w49L5ZthjOyeNLZvPaet6qz1YRs.jpg",
      "popularity": 21.528,
      "adult": false,
      "known_for_department": "Acting"
    },
    {
      "id": 116277,
      "name": "Nathalie Kelley",
      "profile_path": "/wawAz251CPJelmOVwTeNvjrYnqO.jpg",
      "popularity": 21.525,
      "adult": false,
      "known_for_department": "Acting"
    },
    {
      "id": 1716493,
      "name": "Harris Dickinson",
      "profile_path": "/pqqnYWWHa3Va80EXofXrVlRqIDM.jpg",
      "popularity": 21.512,
      "adult": false,
      "known_for_department": "Acting"
    },
    {
      "id": 1488952,
      "name": "Mary Holland",
      "profile_path": "/iwEK2fIrU1q7aijjD8FI9hCUMEL.jpg",
      "popularity": 21.51,
      "adult": false,
      "known_for_department": "Acting"
    },
    {
      "id": 113830,
      "name": "Chad Rosen",
      "profile_path": "",
      "popularity": 21.507,
      "adult": false,
      "known_for_department": "Directing"
    },
    {
      "id": 62765,
      "name": "Rhea Seehorn",
      "profile_path": "/59pHXuk5siBXX17fEoIxEg2CEZL.jpg",
      "popularity": 21.497,
      "adult": false,
      "known_for_department": "Acting"
    },
    {
      "id": 56128,
      "name": "Kristy Swanson",
      "profile_path": "/8gPVElKDCBllmfIP0pjZL9zISKv.jpg",
      "popularity": 21.466,
      "adult": false,
      "known_for_department": "Acting"
    },
    {
      "id": 43543,
      "name": "Anna Calder-Marshall",
      "profile_path": "/5XtQM3n79mM0V7nHpopJXSgmAtJ.jpg",
      "popularity": 21.453,
      "adult": false,
      "known_for_department": "Acting"
    },
    {
      "id": 1254211,
      "name": "Lin Gengxin",
      "profile_path": "/dIMjGUMruX8A7Qmaqa4S6c5ZQtV.jpg",
      "popularity": 21.449,
      "adult": false,
      "known_for_department": "Acting"
    },
    {
      "id": 117995,
      "name": "Alissa Skovbye",
      "profile_path": "/smnFa3aKNJyzwtYmGQThBsXHG4J.jpg",
      "popularity": 21.426,
      "adult": false,
      "known_for_department": "Acting"
    }
  ]
}