{
  "page": 147,
  "total_results": 10000,
  "total_pages": 500,
  "results": [
    {
      "id": 76931,
      "name": "Kiichi Nakai",
      "profile_path": "/5ztRTQSsoEKwTbMNe4Cpo0SWXt.jpg",
      "popularity": 14.535,
      "adult": false,
      "known_for_department": "Acting"
    },
    {
      "id": 212285,
      "name": "Jack Whitehall",
      "profile_path": "/qBHLpjH3Dad9ZoZsrcMplIPwkHC.jpg",
      "popularity": 14.533,
      "adult": false,
      "known_for_department": "Acting"
    },
    {
      "id": 9656,
      "name": "Johnny Knoxville",
      "profile_path": "/m7pkqxOSdIojhcLwVmlww2nwJCl.jpg",
      "popularity": 14.528,
      "adult": false,
      "known_for_department": "Acting"
    },
    {
      "id": 21045,
      "name": "Maggie Q",
      "profile_path": "/1Z0A8axunWqZrskGkfANv6W5qCl.jpg",
      "popularity": 14.526,
      "adult": false,
      "known_for_department": "Acting"
    },
    {
      "id": 5528,
      "name": "William Moseley",
      "profile_path": "/wPahfIdOR6ohIgmgVrCb3RPApAU.jpg",
      "popularity": 14.526,
      "adult": false,
      "known_for_department": "Acting"
    },
    {
      "id": 30233,
      "name": "Rosalind Russell",
      "profile_path": "/rM7cjXZv9ikJ3QOOqK2muzMhHsE.jpg",
      "popularity": 14.522,
      "adult": false,
      "known_for_department": "Acting"
    },
    {
      "id": 56730,
      "name": "Cole Sprouse",
      "profile_path": "/mQAXL0rUGwX316d1FBBQmloZzHu.jpg",
      "popularity": 14.521,
      "adult": false,
      "known_for_department": "Acting"
    },
    {
      "id": 86655,
      "name": "Ashley Boettcher",
      "profile_path": "/7ZBF6UnARYCff3lgZY7rp5UVfzB.jpg",
      "popularity": 14.518,
      "adult": false,
      "known_for_department": "Acting"
    },
    {
      "id": 1493218,
      "name": "Cyrus Arnold",
      "profile_path": "/p9ugSy9MyfBhYrlGOMpH81lk8iT.jpg",
      "popularity": 14.516,
      "adult": false,
      "known_for_department": "Acting"
    },
    {
      "id": 144009,
      "name": "Josh Radnor",
      "profile_path": "/rHx4D70iRUkka5kl9064kOvmSQs.jpg",
      "popularity": 14.514,
      "adult": false,
      "known_for_department": "Acting"
    },
    {
      "id": 520,
      "name": "Sarah Jessica Parker",
      "profile_path": "/f4HGGM8LR2fSoBQXM2mlfa4xzxt.jpg",
      "popularity": 14.513,
      "adult": false,
      "known_for_department": "Acting"
    },
    {
      "id": 1461038,
      "name": "Jon Bass",
      "profile_path": "/2eo9pMyPhA9mBaSrNlD6UP3Nkyw.jpg",
      "popularity": 14.51,
      "adult": false,
      "known_for_department": "Acting"
    },
    {
      "id": 1350149,
      "name": "Lee Tae-ri",
      "profile_path": "/fmAWXeOk5zDXSf56Ud3zjTRHqNR.jpg",
      "popularity": 14.501,
      "adult": false,
      "known_for_department": "Acting"
    },
    {
      "id": 6383,
      "name": "Aaron Eckhart",
      "profile_path": "/5EFQvRHlpP1Iaw2e6vjOaBny6DV.jpg",
      "popularity": 14.5,
      "adult": false,
      "known_for_department": "Acting"
    },
    {
      "id": 1265935,
      "name": "Ornella Vanoni",
      "profile_path": "/mHU9hzD4xhRdU0I9C5B8e2GsaXa.jpg",
      "popularity": 14.498,
      "adult": false,
      "known_for_department": "Acting"
    },
    {
      "id": 558900,
      "name": "Stephen Huszar",
      "profile_path": "/8tAp0omX7S5qfFCeodIg0IZuMwC.jpg",
      "popularity": 14.496,
      "adult": false,
      "known_for_department": "Acting"
    },
    {
      "id": 141892,
      "name": "Ruta Gedmintas",
      "profile_path": "/ArRuSKwJJwr3venBPjwoukApa8j.jpg",
      "popularity": 14.496,
      "adult": false,
      "known_for_department": "Acting"
    },
    {
      "id": 578,
      "name": "Ridley Scott",
      "profile_path": "/zABJmN9opmqD4orWl3KSdCaSo7Q.jpg",
      "popularity": 14.494,
      "adult": false,
      "known_for_department": "Directing"
    },
    {
      "id": 1629663,
      "name": "Alp Navruz",
      "profile_path": "/lZx9SctAD49HTSgALQFdkMBOrUr.jpg",
      "popularity": 14.493,
      "adult": false,
      "known_for_department": "Acting"
    },
    {
      "id": 10967,
      "name": "Steve Kloves",
      "profile_path": "/tkkE99QkVM1ofplEIIHoS709jVk.jpg",
      "popularity": 14.491,
      "adult": false,
      "known_for_department": "Writing"
    }
  ]
}