{
  "page": 489,
  "total_results": 10000,
  "total_pages": 500,
  "results": [
    {
      "id": 154694,
      "name": "Alex Black",
      "profile_path": "/mgenA1xwMvCDQjOQ14mJdFnxXJH.jpg",
      "popularity": 7.414,
      "adult": false,
      "known_for_department": "Acting"
    },
    {
      "id": 4353,
      "name": "Peter Lawford",
      "profile_path": "/lmD2YbX6NrqCHrMdrTTCkAh3Ry0.jpg",
      "popularity": 7.414,
      "adult": false,
      "known_for_department": "Acting"
    },
    {
      "id": 1429670,
      "name": "Victor Dobronravov",
      "profile_path": "/2bF7r6maALCa6cAn9NmFMXylCum.jpg",
      "popularity": 7.413,
      "adult": false,
      "known_for_department": "Acting"
    },
    {
      "id": 1164499,
      "name": "Kim Chang-hwan",
      "profile_path": "/8c9u3ziEgdSuuD9gHWFjcBevywg.jpg",
      "popularity": 7.413,
      "adult": false,
      "known_for_department": "Acting"
    },
    {
      "id": 1044250,
      "name": "Panos Cosmatos",
      "profile_path": "/yjn2Js2cbFgMvYr6rLZgzhYOgij.jpg",
      "popularity": 7.413,
      "adult": false,
      "known_for_department": "Directing"
    },
    {
      "id": 88338,
      "name": "Joe Souza",
      "profile_path": "/tMjXAWqnxJmbIJAAT6LVLWfLgB9.jpg",
      "popularity": 7.413,
      "adult": false,
      "known_for_department": "Acting"
    },
    {
      "id": 80405,
      "name": "Karen Holness",
      "profile_path": "/mKyNgWJMLA3dKRNHyAU0qaZWSRY.jpg",
      "popularity": 7.413,
      "adult": false,
      "known_for_department": "Acting"
    },
    {
      "id": 40275,
      "name": "Tim Guinee",
      "profile_path": "/rS2K7cJx6Vm2buE0HhIUp9tuC1g.jpg",
      "popularity": 7.413,
      "adult": false,
      "known_for_department": "Acting"
    },
    {
      "id": 1572218,
      "name": "Greg Hovanessian",
      "profile_path": "/t7kMVx2W4QA12T8CYdq2X6meC7s.jpg",
      "popularity": 7.412,
      "adult": false,
      "known_for_department": "Acting"
    },
    {
      "id": 1419605,
      "name": "Brooke Lyndon-Stanford",
      "profile_path": "",
      "popularity": 7.412,
      "adult": false,
      "known_for_department": "Visual Effects"
    },
    {
      "id": 1261264,
      "name": "Avneet Kaur",
      "profile_path": "/kF32tCe2GGKzObOAdHlaEtFME65.jpg",
      "popularity": 7.412,
      "adult": false,
      "known_for_department": "Acting"
    },
    {
      "id": 5537,
      "name": "Sophie Winkleman",
      "profile_path": "/ZzBZMNSa6uLqZborMEfAaoIcj.jpg",
      "popularity": 7.412,
      "adult": false,
      "known_for_department": "Acting"
    },
    {
      "id": 2476148,
      "name": "Lou Llobell",
      "profile_path": "/mTzgWFs5PAKcM09bOtiwCeVc67Z.jpg",
      "popularity": 7.41,
      "adult": false,
      "known_for_department": "Acting"
    },
    {
      "id": 2272490,
      "name": "Luna Fulgencio",
      "profile_path": "/bg4TTV3Ix4S3AQWtvxDC0AkwwIw.jpg",
      "popularity": 7.409,
      "adult": false,
      "known_for_department": "Acting"
    },
    {
      "id": 28568,
      "name": "Ruth-Maria Kubitschek",
      "profile_path": "/yqOVbKIXghF1EBO7JsurOVBMoFH.jpg",
      "popularity": 7.409,
      "adult": false,
      "known_for_department": "Acting"
    },
    {
      "id": 17475,
      "name": "Sabrina Ouazani",
      "profile_path": "/3uTfUTxkETtKqjpxfL73ZPaPoLh.jpg",
      "popularity": 7.409,
      "adult": false,
      "known_for_department": "Acting"
    },
    {
      "id": 6840,
      "name": "Larry Hagman",
      "profile_path": "/6z5tCuu0Qhq6a0YKpqXfHmiMbD4.jpg",
      "popularity": 7.408,
      "adult": false,
      "known_for_department": "Acting"
    },
    {
      "id": 41885,
      "name": "Logan Polish",
      "profile_path": "/m6CzAFC754lLMsc2BEDkpgoOPNS.jpg",
      "popularity": 7.407,
      "adult": false,
      "known_for_department": "Acting"
    },
    {
      "id": 1561575,
      "name": "Miguel Gómez",
      "profile_path": "/hQYAe8Bamt73hGu3ofkC0X5OSLE.jpg",
      "popularity": 7.406,
      "adult": false,
      "known_for_department": "Acting"
    },
    {
      "id": 78665,
      "name": "Matt Riedy",
      "profile_path": "/2IRLwSNIfym7daFEfeYCU2fAswf.jpg",
      "popularity": 7.406,
      "adult": false,
      "known_for_department": "Acting"
    }
  ]
}