{
  "page": 444,
  "total_results": 10000,
  "total_pages": 500,
  "results": [
    {
      "id": 122535,
      "name": "Samantha Spiro",
      "profile_path": "/qRHDueWNjMHLNstQen26vSDtV05.jpg",
      "popularity": 6.763,
      "adult": false,
      "known_for_department": "Acting"
    },
    {
      "id": 20640,
      "name": "Chen Kaige",
      "profile_path": "/8XLZnrIzTjtee1eGOkxGWMWo8SE.jpg",
      "popularity": 6.762,
      "adult": false,
      "known_for_department": "Directing"
    },
    {
      "id": 13578,
      "name": "Dana Andrews",
      "profile_path": "/gTZaqIS441ejTsQmfZff6SHvWja.jpg",
      "popularity": 6.762,
      "adult": false,
      "known_for_department": "Acting"
    },
    {
      "id": 3092093,
      "name": "Sunshine Guimary",
      "profile_path": "/5oFFYpUUjtBIxEREffv56EqeygH.jpg",
      "popularity": 6.761,
      "adult": false,
      "known_for_department": "Acting"
    },
    {
      "id": 102222,
      "name": "Carmen Machi",
      "profile_path": "/wall07B0Im8UfOmVYCdZvmdn5E8.jpg",
      "popularity": 6.761,
      "adult": false,
      "known_for_department": "Acting"
    },
    {
      "id": 78805,
      "name": "Laura Leighton",
      "profile_path": "/w0ZnalKAdi6FNWPTR49AfpVf6u4.jpg",
      "popularity": 6.761,
      "adult": false,
      "known_for_department": "Acting"
    },
    {
      "id": 65598,
      "name": "Tony Jay",
      "profile_path": "/uj5BYkgIJ5xyjosHcwrTM6cemel.jpg",
      "popularity": 6.761,
      "adult": false,
      "known_for_department": "Acting"
    },
    {
      "id": 24970,
      "name": "John Asher",
      "profile_path": "/jWdL4BL8aIQrPziVGKCnTQBjBhx.jpg",
      "popularity": 6.761,
      "adult": false,
      "known_for_department": "Acting"
    },
    {
      "id": 1862434,
      "name": "Jacob McCarthy",
      "profile_path": "/kU6N4Z2L7f3mFeSZnrnmFE0k4ZZ.jpg",
      "popularity": 6.76,
      "adult": false,
      "known_for_department": "Acting"
    },
    {
      "id": 68527,
      "name": "William R. Moses",
      "profile_path": "/AuSpAvhgFSTsAZ16Q0b9ZI8yZH1.jpg",
      "popularity": 6.76,
      "adult": false,
      "known_for_department": "Acting"
    },
    {
      "id": 68,
      "name": "Fritz Lang",
      "profile_path": "/9YT60DvkqsSPxoS4b8ezIv76ses.jpg",
      "popularity": 6.76,
      "adult": false,
      "known_for_department": "Directing"
    },
    {
      "id": 2164942,
      "name": "Ireine Song",
      "profile_path": "/q97r6UwDSuNeWk0eq3ddXKBCspz.jpg",
      "popularity": 6.759,
      "adult": false,
      "known_for_department": "Acting"
    },
    {
      "id": 1192265,
      "name": "Rose Namajunas",
      "profile_path": "/4vYivjt8N38OLzwi47h3B89dA2L.jpg",
      "popularity": 6.759,
      "adult": false,
      "known_for_department": "Acting"
    },
    {
      "id": 2086629,
      "name": "Maria Chiara Giannetta",
      "profile_path": "/gQS9juQeuC6uFTXKAmLfrXyktiv.jpg",
      "popularity": 6.758,
      "adult": false,
      "known_for_department": "Acting"
    },
    {
      "id": 1405983,
      "name": "Shono Hayama",
      "profile_path": "/kMh0EZtDDsfDTfKU27TFZ0LcyJ0.jpg",
      "popularity": 6.758,
      "adult": false,
      "known_for_department": "Acting"
    },
    {
      "id": 430313,
      "name": "Jan Broberg",
      "profile_path": "/sDpjgc33XT5JP9EqK4UsZYkTMWQ.jpg",
      "popularity": 6.758,
      "adult": false,
      "known_for_department": "Acting"
    },
    {
      "id": 216140,
      "name": "Deon Cole",
      "profile_path": "/3QTNxodSEL6HLDuv7Ub3vQzcNij.jpg",
      "popularity": 6.758,
      "adult": false,
      "known_for_department": "Acting"
    },
    {
      "id": 148112,
      "name": "Kristin Lehman",
      "profile_path": "/solF0MIx48QCtiLeBistP0fpd66.jpg",
      "popularity": 6.758,
      "adult": false,
      "known_for_department": "Acting"
    },
    {
      "id": 2018022,
      "name": "Hanhae",
      "profile_path": "/yFWEBblm0s0GBQQQiP7GBrrjqQy.jpg",
      "popularity": 6.757,
      "adult": false,
      "known_for_department": "Acting"
    },
    {
      "id": 1823155,
      "name": "Ian Verdun",
      "profile_path": "/r4b2nXl1fBQEXfdScOt7NvBvzuT.jpg",
      "popularity": 6.757,
      "adult": false,
      "known_for_department": "Acting"
    }
  ]
}