{
  "page": 46,
  "total_results": 10000,
  "total_pages": 500,
  "results": [
    {
      "id": 2233,
      "name": "Bridget Fonda",
      "profile_path": "/k8ct3vqrs0TOATaDCe0gcu5K0Dz.jpg",
      "popularity": 24.116,
      "adult": false,
      "known_for_department": "Acting"
    },
    {
      "id": 122503,
      "name": "Liu Yifei",
      "profile_path": "/cL6JccAYqiZQEAIEFObEUC9LTt7.jpg",
      "popularity": 24.102,
      "adult": false,
      "known_for_department": "Acting"
    },
    {
      "id": 6240,
      "name": "Mariska Hargitay",
      "profile_path": "/dQTXg59BAmEH6iUHQ3XUjg7drtd.jpg",
      "popularity": 24.097,
      "adult": false,
      "known_for_department": "Acting"
    },
    {
      "id": 9278,
      "name": "Jennifer Garner",
      "profile_path": "/ftymEXqdTnXfaI6dGd9qrJoFOSE.jpg",
      "popularity": 24.069,
      "adult": false,
      "known_for_department": "Acting"
    },
    {
      "id": 49624,
      "name": "Jensen Ackles",
      "profile_path": "/vFegIjLLQGwPn6af4SE9LAbnGNE.jpg",
      "popularity": 24.062,
      "adult": false,
      "known_for_department": "Acting"
    },
    {
      "id": 6613,
      "name": "Minnie Driver",
      "profile_path": "/pROqdpF9tTCA2giYB50dMwhCJvC.jpg",
      "popularity": 24.061,
      "adult": false,
      "known_for_department": "Acting"
    },
    {
      "id": 27563,
      "name": "Amy Irving",
      "profile_path": "/dGPkygyZ8F5lKJyiuqBLs3WveeF.jpg",
      "popularity": 24.045,
      "adult": false,
      "known_for_department": "Acting"
    },
    {
      "id": 6159,
      "name": "Ron Howard",
      "profile_path": "/tDKn6gAgvARdQRfuem2JwyNcP3B.jpg",
      "popularity": 24.037,
      "adult": false,
      "known_for_department": "Directing"
    },
    {
      "id": 1829151,
      "name": "Cem Yiğit Üzümoğlu",
      "profile_path": "/AnC4ubfPmvtRd206dAsrjnGFMoc.jpg",
      "popularity": 24.019,
      "adult": false,
      "known_for_department": "Acting"
    },
    {
      "id": 8338,
      "name": "Jodelle Ferland",
      "profile_path": "/5N83sI2aDqnvcxIXsoXk0kBUwDz.jpg",
      "popularity": 24.008,
      "adult": false,
      "known_for_department": "Acting"
    },
    {
      "id": 16940,
      "name": "Jeremy Irons",
      "profile_path": "/w8Ct1q02Ht3sWdOSqfp3B85TzT.jpg",
      "popularity": 23.991,
      "adult": false,
      "known_for_department": "Acting"
    },
    {
      "id": 1674162,
      "name": "Jonathan Majors",
      "profile_path": "/6hI9NKqF7J6FtrQu9Afr7ZqipIL.jpg",
      "popularity": 23.979,
      "adult": false,
      "known_for_department": "Acting"
    },
    {
      "id": 35705,
      "name": "Regina Hall",
      "profile_path": "/jiFZ4xNrvUUZLBHnJu71CvdN4kj.jpg",
      "popularity": 23.973,
      "adult": false,
      "known_for_department": "Acting"
    },
    {
      "id": 5529,
      "name": "Anna Popplewell",
      "profile_path": "/ooYeKc28Ayqo9KW8gOacDXDghVL.jpg",
      "popularity": 23.972,
      "adult": false,
      "known_for_department": "Acting"
    },
    {
      "id": 2127,
      "name": "James Wan",
      "profile_path": "/bNJccMIKzCtYnndcOKniSKCzo5Y.jpg",
      "popularity": 23.967,
      "adult": false,
      "known_for_department": "Production"
    },
    {
      "id": 20508,
      "name": "Iain Glen",
      "profile_path": "/n9zXQhjtXQnc30kqF66hdX4i3PG.jpg",
      "popularity": 23.96,
      "adult": false,
      "known_for_department": "Acting"
    },
    {
      "id": 20374,
      "name": "Teresa Palmer",
      "profile_path": "/sjSiLSCp9LS1Z0nyGpmquTBuUyr.jpg",
      "popularity": 23.951,
      "adult": false,
      "known_for_department": "Acting"
    },
    {
      "id": 36669,
      "name": "Rupert Friend",
      "profile_path": "/mYgY8LrMkQ4OkGTIOf6MtkbMnnW.jpg",
      "popularity": 23.947,
      "adult": false,
      "known_for_department": "Acting"
    },
    {
      "id": 3636,
      "name": "Paul Newman",
      "profile_path": "/bP2fByqNR7BorsUNuD6nSm0u2vJ.jpg",
      "popularity": 23.921,
      "adult": false,
      "known_for_department": "Acting"
    },
    {
      "id": 10742,
      "name": "Teri Hatcher",
      "profile_path": "/rgdIWxYCCe1wK1ycdKiPhMBI9Fs.jpg",
      "popularity": 23.916,
      "adult": false,
      "known_for_department": "Acting"
    }
  ]
}