{
  "page": 251,
  "total_results": 10000,
  "total_pages": 500,
  "results": [
    {
      "id": 209038,
      "name": "Alessandra Torresani",
      "profile_path": "/jR6VlKofhJhukFcSLQKXGO6kcls.jpg",
      "popularity": 13.089,
      "adult": false,
      "known_for_department": "Acting"
    },
    {
      "id": 128026,
      "name": "Huang Bo",
      "profile_path": "/zOzz4woq7dfcll9AR1yGiQbjY4.jpg",
      "popularity": 13.089,
      "adult": false,
      "known_for_department": "Acting"
    },
    {
      "id": 123727,
      "name": "Kirsten Vangsness",
      "profile_path": "/mZvRWbF0JBUAZpguLRxMyrkfKno.jpg",
      "popularity": 13.089,
      "adult": false,
      "known_for_department": "Acting"
    },
    {
      "id": 11179,
      "name": "Sean Biggerstaff",
      "profile_path": "/6g9cQWg3ikD3xboDtyF8qKdpmgl.jpg",
      "popularity": 13.089,
      "adult": false,
      "known_for_department": "Acting"
    },
    {
      "id": 36666,
      "name": "Pip Torrens",
      "profile_path": "/2CMGIZ0hXTB4FcCXGlfVGaHGBBm.jpg",
      "popularity": 13.084,
      "adult": false,
      "known_for_department": "Acting"
    },
    {
      "id": 64896,
      "name": "Michael Wong",
      "profile_path": "/vZ54bIBr2OQ0d3Sy0icHFDL9ugU.jpg",
      "popularity": 13.083,
      "adult": false,
      "known_for_department": "Acting"
    },
    {
      "id": 30083,
      "name": "Lindsay Duncan",
      "profile_path": "/v91oNKrP713n5NQI4dg6LY425Pr.jpg",
      "popularity": 13.08,
      "adult": false,
      "known_for_department": "Acting"
    },
    {
      "id": 1223134,
      "name": "Kim Jae-wook",
      "profile_path": "/kCq8iKzKa2MxF9kxX7QfhRf6uin.jpg",
      "popularity": 13.079,
      "adult": false,
      "known_for_department": "Acting"
    },
    {
      "id": 137424,
      "name": "Gia Mantegna",
      "profile_path": "/2quFKGJ061j91iUQJNoKJnDP6Bd.jpg",
      "popularity": 13.077,
      "adult": false,
      "known_for_department": "Acting"
    },
    {
      "id": 21798,
      "name": "Johnny Messner",
      "profile_path": "/1TL83UaGFeBg0Se3h9r066VcHjo.jpg",
      "popularity": 13.077,
      "adult": false,
      "known_for_department": "Acting"
    },
    {
      "id": 59270,
      "name": "Riccardo Scamarcio",
      "profile_path": "/s3ZAW6QA6yZaOx9wmAZfGZ1Z8BP.jpg",
      "popularity": 13.076,
      "adult": false,
      "known_for_department": "Acting"
    },
    {
      "id": 1346173,
      "name": "Push Puttichai Kasetsin",
      "profile_path": "/wKeGJSqX4txNq996nrOmfoFoloA.jpg",
      "popularity": 13.075,
      "adult": false,
      "known_for_department": "Acting"
    },
    {
      "id": 1023324,
      "name": "Emily Bloom",
      "profile_path": "",
      "popularity": 13.075,
      "adult": false,
      "known_for_department": "Art"
    },
    {
      "id": 117669,
      "name": "Portia Doubleday",
      "profile_path": "/aCbp5EX9vC7K1N426qOfUuIByOa.jpg",
      "popularity": 13.075,
      "adult": false,
      "known_for_department": "Acting"
    },
    {
      "id": 47628,
      "name": "Julian Morris",
      "profile_path": "/y6ESECy7RcHMvedUm2wlPczgvBf.jpg",
      "popularity": 13.075,
      "adult": false,
      "known_for_department": "Acting"
    },
    {
      "id": 234984,
      "name": "Thomas McDonell",
      "profile_path": "/iR0ElrLlagBaGSsOZVphTLbU8TE.jpg",
      "popularity": 13.074,
      "adult": false,
      "known_for_department": "Acting"
    },
    {
      "id": 15789,
      "name": "Alex D. Linz",
      "profile_path": "/pem026eNKMUMnCEVXZf5T5yjH64.jpg",
      "popularity": 13.074,
      "adult": false,
      "known_for_department": "Acting"
    },
    {
      "id": 105641,
      "name": "James Patrick Stuart",
      "profile_path": "/sFDP6Ahkr3LuMr1kTsLzwB5jV93.jpg",
      "popularity": 13.073,
      "adult": false,
      "known_for_department": "Acting"
    },
    {
      "id": 34981,
      "name": "Efrem Zimbalist Jr.",
      "profile_path": "/nMfmluUYjgQODrLwwUDHh7QQtww.jpg",
      "popularity": 13.073,
      "adult": false,
      "known_for_department": "Acting"
    },
    {
      "id": 37233,
      "name": "Kareena Kapoor Khan",
      "profile_path": "/pJZJJ93NwJq3kb3RWtaZBYVga1x.jpg",
      "popularity": 13.069,
      "adult": false,
      "known_for_department": "Acting"
    }
  ]
}