{
  "page": 289,
  "total_results": 10000,
  "total_pages": 500,
  "results": [
    {
      "id": 240081,
      "name": "Choi Moo-sung",
      "profile_path": "/12HgvMObzV5Tunex0nHPNqqkqk0.jpg",
      "popularity": 11.454,
      "adult": false,
      "known_for_department": "Acting"
    },
    {
      "id": 169024,
      "name": "Melinda Page Hamilton",
      "profile_path": "/etm8wKAz8ORm4oHtkTMFPCu8KR3.jpg",
      "popularity": 11.452,
      "adult": false,
      "known_for_department": "Acting"
    },
    {
      "id": 211993,
      "name": "Caitlin FitzGerald",
      "profile_path": "/nEomuqK9k8lElFaF49w4ADYJmhy.jpg",
      "popularity": 11.451,
      "adult": false,
      "known_for_department": "Acting"
    },
    {
      "id": 69085,
      "name": "Dalpalan",
      "profile_path": "/tGH9zerISvma1JfyL1bCSthNcWD.jpg",
      "popularity": 11.451,
      "adult": false,
      "known_for_department": "Sound"
    },
    {
      "id": 1539216,
      "name": "Ferdia Walsh-Peelo",
      "profile_path": "/zkBUotUEE6WNlKzd0QPwqf8PE3T.jpg",
      "popularity": 11.449,
      "adult": false,
      "known_for_department": "Acting"
    },
    {
      "id": 1299243,
      "name": "Uhm Ji-won",
      "profile_path": "/tpWZnjZUREwMSzCbKbGPI6DVUdw.jpg",
      "popularity": 11.449,
      "adult": false,
      "known_for_department": "Acting"
    },
    {
      "id": 67802,
      "name": "Rick Jaffa",
      "profile_path": "/iki2KpmMFhLIdq3pvHhq7tit8Q1.jpg",
      "popularity": 11.448,
      "adult": false,
      "known_for_department": "Writing"
    },
    {
      "id": 30553,
      "name": "Henry Brandon",
      "profile_path": "/kwc3oyYhq53tG2WMXXMOrMJopcA.jpg",
      "popularity": 11.446,
      "adult": false,
      "known_for_department": "Acting"
    },
    {
      "id": 81083,
      "name": "Max Burkholder",
      "profile_path": "/8uNNDZPSxLsNetHPl1zxMwKULTC.jpg",
      "popularity": 11.445,
      "adult": false,
      "known_for_department": "Acting"
    },
    {
      "id": 1312526,
      "name": "Andrew Leung",
      "profile_path": "/hXK4gUIooj3SpQ2qwEN9JLV0B7d.jpg",
      "popularity": 11.443,
      "adult": false,
      "known_for_department": "Acting"
    },
    {
      "id": 84854,
      "name": "Jung Joon-ho",
      "profile_path": "/nWvJeFnFQYfh2M8LbRsb2AUUSda.jpg",
      "popularity": 11.443,
      "adult": false,
      "known_for_department": "Acting"
    },
    {
      "id": 70785,
      "name": "Anita Briem",
      "profile_path": "/8M6MkLKpAXKRoYlhOH5LzBhBGFv.jpg",
      "popularity": 11.441,
      "adult": false,
      "known_for_department": "Acting"
    },
    {
      "id": 40327,
      "name": "Toru Furuya",
      "profile_path": "/nsibN89E7tYhy0B6Xk9UvkirSXF.jpg",
      "popularity": 11.441,
      "adult": false,
      "known_for_department": "Acting"
    },
    {
      "id": 86270,
      "name": "Joseph Kosinski",
      "profile_path": "/oWLUXWY0j8TYzwnf2wETYWO181S.jpg",
      "popularity": 11.439,
      "adult": false,
      "known_for_department": "Directing"
    },
    {
      "id": 31169,
      "name": "Julie Adams",
      "profile_path": "/uIHWhDTSISwHXziBttr7V34MXTt.jpg",
      "popularity": 11.439,
      "adult": false,
      "known_for_department": "Acting"
    },
    {
      "id": 224185,
      "name": "James Maslow",
      "profile_path": "/yWU57nqz43oD0Hk7ZVffEyTgN0x.jpg",
      "popularity": 11.438,
      "adult": false,
      "known_for_department": "Acting"
    },
    {
      "id": 105350,
      "name": "Sydne Rome",
      "profile_path": "/oWYXLt58lB8RxP3it2ChcmbMSAR.jpg",
      "popularity": 11.438,
      "adult": false,
      "known_for_department": "Acting"
    },
    {
      "id": 34248,
      "name": "Rena Sofer",
      "profile_path": "/k9KztxV6396WMKZxPk1X74P6z9G.jpg",
      "popularity": 11.438,
      "adult": false,
      "known_for_department": "Acting"
    },
    {
      "id": 8895,
      "name": "Didi Conn",
      "profile_path": "/j5vV7rFoVLCg0pRPiODseGm8e68.jpg",
      "popularity": 11.438,
      "adult": false,
      "known_for_department": "Acting"
    },
    {
      "id": 2485582,
      "name": "Sarah Catherine Hook",
      "profile_path": "/7hYMXYq70cd8DlQjZZCRrbXy9Jy.jpg",
      "popularity": 11.437,
      "adult": false,
      "known_for_department": "Acting"
    }
  ]
}