{
  "page": 192,
  "total_results": 10000,
  "total_pages": 500,
  "results": [
    {
      "id": 3033,
      "name": "Wil Wheaton",
      "profile_path": "/yqEW17L7Fdg2RDRLLo4SqRHkjyw.jpg",
      "popularity": 11.773,
      "adult": false,
      "known_for_department": "Acting"
    },
    {
      "id": 1496155,
      "name": "Go Won-hee",
      "profile_path": "/iHGHhIe4keVyxzUKNB0skR1wfGW.jpg",
      "popularity": 11.772,
      "adult": false,
      "known_for_department": "Acting"
    },
    {
      "id": 1432528,
      "name": "Zoe Chao",
      "profile_path": "/4QZrFVx3VUmiII8iI5rGLiElc9m.jpg",
      "popularity": 11.771,
      "adult": false,
      "known_for_department": "Acting"
    },
    {
      "id": 8395,
      "name": "Luke Perry",
      "profile_path": "/78TAr0wLoRHyubnYxjyHNCt70V2.jpg",
      "popularity": 11.771,
      "adult": false,
      "known_for_department": "Acting"
    },
    {
      "id": 545087,
      "name": "Jaime Camil",
      "profile_path": "/o9sd2V9Sx1Be7w9RGTI9JbUo9rU.jpg",
      "popularity": 11.77,
      "adult": false,
      "known_for_department": "Acting"
    },
    {
      "id": 3152,
      "name": "George Raft",
      "profile_path": "/fuKfrJHsCW3dvCPN8M0BjZ4DdPk.jpg",
      "popularity": 11.77,
      "adult": false,
      "known_for_department": "Acting"
    },
    {
      "id": 357551,
      "name": "Amy Landecker",
      "profile_path": "/3woCLCbumhHOxrkeVOT7ylWi7Lg.jpg",
      "popularity": 11.769,
      "adult": false,
      "known_for_department": "Acting"
    },
    {
      "id": 544107,
      "name": "Hyun Bin",
      "profile_path": "/p2OwuwCGsQnrvGhexe9FfJTEnQ1.jpg",
      "popularity": 11.766,
      "adult": false,
      "known_for_department": "Acting"
    },
    {
      "id": 770,
      "name": "Jerry Bruckheimer",
      "profile_path": "/vTKQVRrj9vOrKLkPEsXHxmpV9c3.jpg",
      "popularity": 11.766,
      "adult": false,
      "known_for_department": "Production"
    },
    {
      "id": 20387,
      "name": "Clea DuVall",
      "profile_path": "/yueygn1Lmmni7EaMQD9LslexDlu.jpg",
      "popularity": 11.763,
      "adult": false,
      "known_for_department": "Acting"
    },
    {
      "id": 1443708,
      "name": "Kimiko Glenn",
      "profile_path": "/4I3h28QG7nVgIwjLGTsGXbcKirA.jpg",
      "popularity": 11.761,
      "adult": false,
      "known_for_department": "Acting"
    },
    {
      "id": 1212016,
      "name": "Alison Sweeney",
      "profile_path": "/xSFd60uTym5aTbQRGKOZ8EPxBDX.jpg",
      "popularity": 11.761,
      "adult": false,
      "known_for_department": "Acting"
    },
    {
      "id": 11916,
      "name": "Liv Ullmann",
      "profile_path": "/55dWq9huV2qLaFbc8ZkDq0iz4iD.jpg",
      "popularity": 11.761,
      "adult": false,
      "known_for_department": "Acting"
    },
    {
      "id": 45446,
      "name": "Megan Follows",
      "profile_path": "/ujKoDCJZ5tp4nSU2rw9LfbrP9ny.jpg",
      "popularity": 11.76,
      "adult": false,
      "known_for_department": "Acting"
    },
    {
      "id": 1358460,
      "name": "Annie Q.",
      "profile_path": "/dhNuZO98l6qmKLSwirdWOmUJNJ1.jpg",
      "popularity": 11.759,
      "adult": false,
      "known_for_department": "Acting"
    },
    {
      "id": 41292,
      "name": "Keri Russell",
      "profile_path": "/u81mC6vZwliDRfnX1DpdGmmex61.jpg",
      "popularity": 11.759,
      "adult": false,
      "known_for_department": "Acting"
    },
    {
      "id": 25136,
      "name": "Ken Stott",
      "profile_path": "/qmmhRvSwfoJ7TOF5L6p2VMQQz3u.jpg",
      "popularity": 11.759,
      "adult": false,
      "known_for_department": "Acting"
    },
    {
      "id": 1572353,
      "name": "Lee Joo-woo",
      "profile_path": "/tvDcoBmPaKspg30FUmRkgH7pQDy.jpg",
      "popularity": 11.754,
      "adult": false,
      "known_for_department": "Acting"
    },
    {
      "id": 1492982,
      "name": "Rie Takahashi",
      "profile_path": "/6S7G3FZnma2vo4B8ODqAdbeRKda.jpg",
      "popularity": 11.753,
      "adult": false,
      "known_for_department": "Acting"
    },
    {
      "id": 24291,
      "name": "Annie Parisse",
      "profile_path": "/qYi44BzmKixH1ISPD0e48W14Zns.jpg",
      "popularity": 11.752,
      "adult": false,
      "known_for_department": "Acting"
    }
  ]
}