{
  "page": 29,
  "total_results": 10000,
  "total_pages": 500,
  "results": [
    {
      "id": 29930,
      "name": "Ivana Miličević",
      "profile_path": "/furpjcSjTMOq8XKO0mu7Za84Gk2.jpg",
      "popularity": 27.095,
      "adult": false,
      "known_for_department": "Acting"
    },
    {
      "id": 1062,
      "name": "Christopher Lloyd",
      "profile_path": "/nxVjpyb3UrfbPZnEyDNlQVlFAs5.jpg",
      "popularity": 27.08,
      "adult": false,
      "known_for_department": "Acting"
    },
    {
      "id": 25703,
      "name": "Lake Bell",
      "profile_path": "/tpBmxNKBebx04vQGnnQ3QNs6nvV.jpg",
      "popularity": 27.072,
      "adult": false,
      "known_for_department": "Acting"
    },
    {
      "id": 935,
      "name": "Connie Nielsen",
      "profile_path": "/lvQypTfeH2Gn2PTbzq6XkT2PLmn.jpg",
      "popularity": 27.072,
      "adult": false,
      "known_for_department": "Acting"
    },
    {
      "id": 59860,
      "name": "Alice Eve",
      "profile_path": "/tJUSx0Cw7pCnRsCWbGTX2POiTKM.jpg",
      "popularity": 27.05,
      "adult": false,
      "known_for_department": "Acting"
    },
    {
      "id": 14406,
      "name": "Lisa Kudrow",
      "profile_path": "/9YNzHuT7L0wdEl3zua6iUYz5tYT.jpg",
      "popularity": 27.05,
      "adult": false,
      "known_for_department": "Acting"
    },
    {
      "id": 8293,
      "name": "Marion Cotillard",
      "profile_path": "/zChwjQ9D90fxx6cgWz5mUWHNd5b.jpg",
      "popularity": 27.048,
      "adult": false,
      "known_for_department": "Acting"
    },
    {
      "id": 16851,
      "name": "Josh Brolin",
      "profile_path": "/onuJtTCrPB63F72VXAD2izpzLFt.jpg",
      "popularity": 27.026,
      "adult": false,
      "known_for_department": "Acting"
    },
    {
      "id": 1467219,
      "name": "Joe Keery",
      "profile_path": "/ayIAVLMfZGEGIFwAo3pPnY7p59.jpg",
      "popularity": 27.003,
      "adult": false,
      "known_for_department": "Acting"
    },
    {
      "id": 2130,
      "name": "Cary Elwes",
      "profile_path": "/9UszBdQJ9PmyBydIeIBxlStozhW.jpg",
      "popularity": 26.995,
      "adult": false,
      "known_for_department": "Acting"
    },
    {
      "id": 74091,
      "name": "Makoto Shinkai",
      "profile_path": "/mSCk6PmAR99bCsKJYlMx94vq5qe.jpg",
      "popularity": 26.981,
      "adult": false,
      "known_for_department": "Directing"
    },
    {
      "id": 41230,
      "name": "John Astin",
      "profile_path": "/xczlYoJJblfyoOudcn7riLqsbXW.jpg",
      "popularity": 26.981,
      "adult": false,
      "known_for_department": "Acting"
    },
    {
      "id": 3136,
      "name": "Salma Hayek",
      "profile_path": "/a1VhN6kvw4tuRrIvGnvAjHAWnD5.jpg",
      "popularity": 26.97,
      "adult": false,
      "known_for_department": "Acting"
    },
    {
      "id": 504,
      "name": "Tim Robbins",
      "profile_path": "/hsCu1JUzQQ4pl7uFxAVFLOs9yHh.jpg",
      "popularity": 26.962,
      "adult": false,
      "known_for_department": "Acting"
    },
    {
      "id": 10431,
      "name": "Jennifer Jason Leigh",
      "profile_path": "/7DbG2AO3nygHAkNC866HLPKkxv9.jpg",
      "popularity": 26.945,
      "adult": false,
      "known_for_department": "Acting"
    },
    {
      "id": 13920,
      "name": "Mimi Rogers",
      "profile_path": "/tRgFtPEr9eSwGjKXpg0p0MNItry.jpg",
      "popularity": 26.942,
      "adult": false,
      "known_for_department": "Acting"
    },
    {
      "id": 1331457,
      "name": "Sofia Carson",
      "profile_path": "/v6N7ZrwG7C7fII2hOzfzPFNMtK.jpg",
      "popularity": 26.922,
      "adult": false,
      "known_for_department": "Acting"
    },
    {
      "id": 1654001,
      "name": "Amber Midthunder",
      "profile_path": "/f8VWGyaIS38NkDIzQ2hapXKt0N5.jpg",
      "popularity": 26.913,
      "adult": false,
      "known_for_department": "Acting"
    },
    {
      "id": 3130,
      "name": "Jennifer Beals",
      "profile_path": "/gSgjPBfke1fz55WyO8AnFWtidOq.jpg",
      "popularity": 26.867,
      "adult": false,
      "known_for_department": "Acting"
    },
    {
      "id": 27260,
      "name": "Laila Robins",
      "profile_path": "/6ihD0IVKKKBqPO3gG3fXSiP8GMy.jpg",
      "popularity": 26.866,
      "adult": false,
      "known_for_department": "Acting"
    }
  ]
}