{
  "page": 59,
  "total_results": 10000,
  "total_pages": 500,
  "results": [
    {
      "id": 56890,
      "name": "Malcolm McDowell",
      "profile_path": "/hL8ep4Hqj6izX7IlzE7Bbcfq62w.jpg",
      "popularity": 25.162,
      "adult": false,
      "known_for_department": "Acting"
    },
    {
      "id": 106725,
      "name": "Kathryn Davis",
      "profile_path": "/hs3fjziV9U4cmw4Px92KRbfE1Ea.jpg",
      "popularity": 25.141,
      "adult": false,
      "known_for_department": "Acting"
    },
    {
      "id": 51037,
      "name": "Athena Karkanis",
      "profile_path": "/bxKJJWXfnTfWVpsD5Y5H8g4vFUq.jpg",
      "popularity": 25.121,
      "adult": false,
      "known_for_department": "Acting"
    },
    {
      "id": 1654001,
      "name": "Amber Midthunder",
      "profile_path": "/f8VWGyaIS38NkDIzQ2hapXKt0N5.jpg",
      "popularity": 25.116,
      "adult": false,
      "known_for_department": "Acting"
    },
    {
      "id": 43858,
      "name": "Ryan Hurst",
      "profile_path": "/467wpYYeeDyF4MeoDMuNp4bwgzH.jpg",
      "popularity": 25.115,
      "adult": false,
      "known_for_department": "Acting"
    },
    {
      "id": 15440,
      "name": "Jared Harris",
      "profile_path": "/jAyPWkmge3BqXtgxIG9MfXBzOGj.jpg",
      "popularity": 25.108,
      "adult": false,
      "known_for_department": "Acting"
    },
    {
      "id": 5823,
      "name": "Julie Andrews",
      "profile_path": "/kTXM2KfsXh2vSav0s9vaDKfs4lR.jpg",
      "popularity": 25.107,
      "adult": false,
      "known_for_department": "Acting"
    },
    {
      "id": 122503,
      "name": "Liu Yifei",
      "profile_path": "/cL6JccAYqiZQEAIEFObEUC9LTt7.jpg",
      "popularity": 25.098,
      "adult": false,
      "known_for_department": "Acting"
    },
    {
      "id": 1396124,
      "name": "Sosie Bacon",
      "profile_path": "/pDvjTHGv8NhBkbIcBJFGt9zDw8.jpg",
      "popularity": 25.096,
      "adult": false,
      "known_for_department": "Acting"
    },
    {
      "id": 14888,
      "name": "Bruce McGill",
      "profile_path": "/9zF43TgWiO3AlKC4I48S7ZK09lK.jpg",
      "popularity": 25.096,
      "adult": false,
      "known_for_department": "Acting"
    },
    {
      "id": 2034418,
      "name": "Jacob Elordi",
      "profile_path": "/khfLyxY9gsKiLFoz2zj0h3uhDFJ.jpg",
      "popularity": 25.082,
      "adult": false,
      "known_for_department": "Acting"
    },
    {
      "id": 2,
      "name": "Mark Hamill",
      "profile_path": "/9Wws35pCsT0KoZpiV4Gk5nbn9ZD.jpg",
      "popularity": 25.045,
      "adult": false,
      "known_for_department": "Acting"
    },
    {
      "id": 1590758,
      "name": "Emily Carey",
      "profile_path": "/cH93v8Ig7yaVh3QZCVsrDCXjkr1.jpg",
      "popularity": 25.039,
      "adult": false,
      "known_for_department": "Acting"
    },
    {
      "id": 38666,
      "name": "Tania Raymonde",
      "profile_path": "/rqzi5xaXbgfxZXNbsJVCDsSXPKx.jpg",
      "popularity": 25.035,
      "adult": false,
      "known_for_department": "Acting"
    },
    {
      "id": 17052,
      "name": "Topher Grace",
      "profile_path": "/tgF5PeH4xwz32FjB80n5aFiuHX.jpg",
      "popularity": 25.032,
      "adult": false,
      "known_for_department": "Acting"
    },
    {
      "id": 59254,
      "name": "Pablo Schreiber",
      "profile_path": "/wOze8R9lgoZxZoTsPSHID4Nt2Ee.jpg",
      "popularity": 25.03,
      "adult": false,
      "known_for_department": "Acting"
    },
    {
      "id": 3165040,
      "name": "Rika",
      "profile_path": "/vwYqrhcSRVrnra4S0NopnywN8rK.jpg",
      "popularity": 25.024,
      "adult": false,
      "known_for_department": "Acting"
    },
    {
      "id": 1642789,
      "name": "Madelyn Cline",
      "profile_path": "/cIu81JbUScQOnSd73X97aDgxCAI.jpg",
      "popularity": 25.002,
      "adult": false,
      "known_for_department": "Acting"
    },
    {
      "id": 27855,
      "name": "Shannyn Sossamon",
      "profile_path": "/nJUFCRm7Y0YVR3GQ8GSZUzDavH1.jpg",
      "popularity": 25,
      "adult": false,
      "known_for_department": "Acting"
    },
    {
      "id": 129050,
      "name": "Rachel Hurd-Wood",
      "profile_path": "/9OMWHFdFAk45dF00BgZR4BcjANI.jpg",
      "popularity": 24.996,
      "adult": false,
      "known_for_department": "Acting"
    }
  ]
}