{
  "page": 11,
  "total_results": 10000,
  "total_pages": 500,
  "results": [
    {
      "id": 55089,
      "name": "Evan Peters",
      "profile_path": "/zqbdd5pLDD8DJ4TXr3HDNmFXrYn.jpg",
      "popularity": 45.502,
      "adult": false,
      "known_for_department": "Acting"
    },
    {
      "id": 1283,
      "name": "Helena Bonham Carter",
      "profile_path": "/DDeITcCpnBd0CkAIRPhggy9bt5.jpg",
      "popularity": 45.375,
      "adult": false,
      "known_for_department": "Acting"
    },
    {
      "id": 37917,
      "name": "Kristen Stewart",
      "profile_path": "/rCU7XhHavFAKatkrC2yFWO4FCXX.jpg",
      "popularity": 45.258,
      "adult": false,
      "known_for_department": "Acting"
    },
    {
      "id": 8944,
      "name": "Jamie Lee Curtis",
      "profile_path": "/9KWvPVeiLOXlOGl0XVyHZtJWQtx.jpg",
      "popularity": 45.091,
      "adult": false,
      "known_for_department": "Acting"
    },
    {
      "id": 10978,
      "name": "Maggie Smith",
      "profile_path": "/qZyJ7DaOtkfqw58Iv7EqADi428P.jpg",
      "popularity": 45.027,
      "adult": false,
      "known_for_department": "Acting"
    },
    {
      "id": 64,
      "name": "Gary Oldman",
      "profile_path": "/2v9FVVBUrrkW2m3QOcYkuhq9A6o.jpg",
      "popularity": 44.947,
      "adult": false,
      "known_for_department": "Acting"
    },
    {
      "id": 11006,
      "name": "James Marsden",
      "profile_path": "/mk142GG0saiSXALY6V4wWcmPROW.jpg",
      "popularity": 44.912,
      "adult": false,
      "known_for_department": "Acting"
    },
    {
      "id": 1110405,
      "name": "Mackenzie Davis",
      "profile_path": "/ekQbEIKh26jbz17P0wwLbo6uNs9.jpg",
      "popularity": 44.884,
      "adult": false,
      "known_for_department": "Acting"
    },
    {
      "id": 3196,
      "name": "Juliette Lewis",
      "profile_path": "/oErIsGmtxeluwtzRoWI3dx2pYGQ.jpg",
      "popularity": 44.633,
      "adult": false,
      "known_for_department": "Acting"
    },
    {
      "id": 1729496,
      "name": "Thomas Doherty",
      "profile_path": "/z3vAK2Z2W4hh3QZRGyGcz9g2TaQ.jpg",
      "popularity": 44.576,
      "adult": false,
      "known_for_department": "Acting"
    },
    {
      "id": 74720,
      "name": "Ida Elise Broch",
      "profile_path": "/rXDteWMDq2xJFH8uBD4u5Et9rrf.jpg",
      "popularity": 44.247,
      "adult": false,
      "known_for_department": "Acting"
    },
    {
      "id": 192,
      "name": "Morgan Freeman",
      "profile_path": "/jPsLqiYGSofU4s6BjrxnefMfabb.jpg",
      "popularity": 44.217,
      "adult": false,
      "known_for_department": "Acting"
    },
    {
      "id": 2230991,
      "name": "Daisy Edgar-Jones",
      "profile_path": "/uhrgWinc0W2Q1K0ynUmyTaWd8dv.jpg",
      "popularity": 44.168,
      "adult": false,
      "known_for_department": "Acting"
    },
    {
      "id": 6384,
      "name": "Keanu Reeves",
      "profile_path": "/4D0PpNI0kmP58hgrwGC3wCjxhnm.jpg",
      "popularity": 44.08,
      "adult": false,
      "known_for_department": "Acting"
    },
    {
      "id": 3895,
      "name": "Michael Caine",
      "profile_path": "/hZruclwEPCKw3e83rnFSIH5sRFZ.jpg",
      "popularity": 44.053,
      "adult": false,
      "known_for_department": "Acting"
    },
    {
      "id": 2882,
      "name": "Diane Lane",
      "profile_path": "/yFmVATUjhT7kf12CWXnK5l02pJO.jpg",
      "popularity": 43.96,
      "adult": false,
      "known_for_department": "Acting"
    },
    {
      "id": 13472,
      "name": "Tim Curry",
      "profile_path": "/aWGnGa7scPeGCP5DRhHosTrYdfA.jpg",
      "popularity": 43.917,
      "adult": false,
      "known_for_department": "Acting"
    },
    {
      "id": 16828,
      "name": "Chris Evans",
      "profile_path": "/3bOGNsHlrswhyW79uvIHH1V43JI.jpg",
      "popularity": 43.847,
      "adult": false,
      "known_for_department": "Acting"
    },
    {
      "id": 3646307,
      "name": "Azi Acosta",
      "profile_path": "",
      "popularity": 43.739,
      "adult": false,
      "known_for_department": "Acting"
    },
    {
      "id": 83271,
      "name": "Glen Powell",
      "profile_path": "/lRbbndkwOXyvep9Y7kHiwbh9Ji5.jpg",
      "popularity": 43.685,
      "adult": false,
      "known_for_department": "Acting"
    }
  ]
}