{
  "page": 215,
  "total_results": 10000,
  "total_pages": 500,
  "results": [
    {
      "id": 222340,
      "name": "Yuhko Kaida",
      "profile_path": "/wttsRGyYySLPfNcDtAbNLVizHLx.jpg",
      "popularity": 9.892,
      "adult": false,
      "known_for_department": "Acting"
    },
    {
      "id": 152660,
      "name": "Arlene Martel",
      "profile_path": "/9uGbqejFQvZF1ykAbxQNW6mxShd.jpg",
      "popularity": 9.891,
      "adult": false,
      "known_for_department": "Acting"
    },
    {
      "id": 20011,
      "name": "Margot Kidder",
      "profile_path": "/bqFP3Tnd40ff9GzaBzqfNxWZkFq.jpg",
      "popularity": 9.89,
      "adult": false,
      "known_for_department": "Acting"
    },
    {
      "id": 40543,
      "name": "John Ortiz",
      "profile_path": "/tMDPYhpc9nqIJAK3vtMroEH9qho.jpg",
      "popularity": 9.888,
      "adult": false,
      "known_for_department": "Acting"
    },
    {
      "id": 40186,
      "name": "Jacqueline Scott",
      "profile_path": "/4XTAShFoipPwblFD8AMPTCdAhDn.jpg",
      "popularity": 9.886,
      "adult": false,
      "known_for_department": "Acting"
    },
    {
      "id": 237405,
      "name": "Lady Gaga",
      "profile_path": "/9Y4Pz7AEXhB9qNar2tMsx5EVXML.jpg",
      "popularity": 9.885,
      "adult": false,
      "known_for_department": "Acting"
    },
    {
      "id": 93936,
      "name": "Glori-Anne Gilbert",
      "profile_path": "/fZvIR6QQQz6fotZ7eErIDYGuxD2.jpg",
      "popularity": 9.885,
      "adult": false,
      "known_for_department": "Acting"
    },
    {
      "id": 57027,
      "name": "Louis D'Esposito",
      "profile_path": "/k9k3WWYdD3uDnrtwM60QirzG9cH.jpg",
      "popularity": 9.885,
      "adult": false,
      "known_for_department": "Production"
    },
    {
      "id": 1793,
      "name": "Ricardo Montalban",
      "profile_path": "/lL4I7U0j6Jc31XNohM86FN6D23I.jpg",
      "popularity": 9.885,
      "adult": false,
      "known_for_department": "Acting"
    },
    {
      "id": 1252492,
      "name": "Zoe Boyle",
      "profile_path": "/rvWDe781qxlERN28xDB5HlFRN9L.jpg",
      "popularity": 9.883,
      "adult": false,
      "known_for_department": "Acting"
    },
    {
      "id": 6730,
      "name": "Sacha Baron Cohen",
      "profile_path": "/8J2LxfW3owPTc9OzbBoUbADFOBb.jpg",
      "popularity": 9.883,
      "adult": false,
      "known_for_department": "Acting"
    },
    {
      "id": 1157292,
      "name": "Miles Robbins",
      "profile_path": "/88tN1713VGkeHLcA4oRA1stIZha.jpg",
      "popularity": 9.882,
      "adult": false,
      "known_for_department": "Acting"
    },
    {
      "id": 221981,
      "name": "Antonia Thomas",
      "profile_path": "/ybmnPYUzcr3RMdaXnZIw2jEw9ju.jpg",
      "popularity": 9.878,
      "adult": false,
      "known_for_department": "Acting"
    },
    {
      "id": 59270,
      "name": "Riccardo Scamarcio",
      "profile_path": "/s3ZAW6QA6yZaOx9wmAZfGZ1Z8BP.jpg",
      "popularity": 9.878,
      "adult": false,
      "known_for_department": "Acting"
    },
    {
      "id": 44151,
      "name": "Andrea Roth",
      "profile_path": "/upv6wjBLhbHY4uadqEovtxvxVr4.jpg",
      "popularity": 9.878,
      "adult": false,
      "known_for_department": "Acting"
    },
    {
      "id": 1671407,
      "name": "Kaya Kiyohara",
      "profile_path": "/e7C7xq4RjlgmIgLSXHQuZRKP52o.jpg",
      "popularity": 9.877,
      "adult": false,
      "known_for_department": "Acting"
    },
    {
      "id": 224197,
      "name": "Brett Gelman",
      "profile_path": "/ub2IuMWFNQGYghHTPq0lpmn2Ue0.jpg",
      "popularity": 9.877,
      "adult": false,
      "known_for_department": "Acting"
    },
    {
      "id": 88699,
      "name": "Steven R. McQueen",
      "profile_path": "/y07CdWjGxsDU5qiukWpSEFDZT91.jpg",
      "popularity": 9.877,
      "adult": false,
      "known_for_department": "Acting"
    },
    {
      "id": 1255055,
      "name": "Jessica Green",
      "profile_path": "/fIo9WCfnEQAK36Lrg5WWy77LS3K.jpg",
      "popularity": 9.876,
      "adult": false,
      "known_for_department": "Acting"
    },
    {
      "id": 92810,
      "name": "Julia Montgomery",
      "profile_path": "/14GufOQTNDCVcLXr33U4LvqbxY8.jpg",
      "popularity": 9.876,
      "adult": false,
      "known_for_department": "Acting"
    }
  ]
}