{
  "page": 219,
  "total_results": 10000,
  "total_pages": 500,
  "results": [
    {
      "id": 1268846,
      "name": "Daniel Padilla",
      "profile_path": "/rOXqdSjuxGGXJbZ8hNM8qrMZqPZ.jpg",
      "popularity": 10.717,
      "adult": false,
      "known_for_department": "Acting"
    },
    {
      "id": 11025,
      "name": "Agnes Moorehead",
      "profile_path": "/h9vMkb6cjd5J3i0GCQ0t73DlQl0.jpg",
      "popularity": 10.715,
      "adult": false,
      "known_for_department": "Acting"
    },
    {
      "id": 1576235,
      "name": "Riho Yoshioka",
      "profile_path": "/2XIkW7JCuBDCuLEMoUD68IQJltU.jpg",
      "popularity": 10.713,
      "adult": false,
      "known_for_department": "Acting"
    },
    {
      "id": 55643,
      "name": "Prunella Scales",
      "profile_path": "/d4LgFFrAo3O5P8FxS5d6qg6bO1E.jpg",
      "popularity": 10.713,
      "adult": false,
      "known_for_department": "Acting"
    },
    {
      "id": 1343865,
      "name": "Salvatore Esposito",
      "profile_path": "/lvTeMD1NqYmYbaH0jYek2oXaSvR.jpg",
      "popularity": 10.712,
      "adult": false,
      "known_for_department": "Acting"
    },
    {
      "id": 24815,
      "name": "Dorothy McGuire",
      "profile_path": "/qFmleePjyWzYbnfACnlA0k0Fqdj.jpg",
      "popularity": 10.711,
      "adult": false,
      "known_for_department": "Acting"
    },
    {
      "id": 1376567,
      "name": "Kim Shin-young",
      "profile_path": "/bDeitK2lm0JwyMOKQiPOL7ci56.jpg",
      "popularity": 10.708,
      "adult": false,
      "known_for_department": "Acting"
    },
    {
      "id": 1072776,
      "name": "Ayana Taketatsu",
      "profile_path": "/8vGKUIJrpbdURA7XSyGnkbi1Qqg.jpg",
      "popularity": 10.707,
      "adult": false,
      "known_for_department": "Acting"
    },
    {
      "id": 156204,
      "name": "Constance Zimmer",
      "profile_path": "/6lnaGnzw6ZBwomgdjN1cGqp7HNq.jpg",
      "popularity": 10.706,
      "adult": false,
      "known_for_department": "Acting"
    },
    {
      "id": 100602,
      "name": "Julia Duffy",
      "profile_path": "/mROYemMqxBKkKRjcH09pnrGNThw.jpg",
      "popularity": 10.701,
      "adult": false,
      "known_for_department": "Acting"
    },
    {
      "id": 12901,
      "name": "Erik von Detten",
      "profile_path": "/7fHjKnLKmqzR0kmvRPLxpQE7BsK.jpg",
      "popularity": 10.701,
      "adult": false,
      "known_for_department": "Acting"
    },
    {
      "id": 1782117,
      "name": "Molly Gordon",
      "profile_path": "/9aetjZLHPK1U9k1fI3svTZYytRL.jpg",
      "popularity": 10.7,
      "adult": false,
      "known_for_department": "Acting"
    },
    {
      "id": 75355,
      "name": "Marion Ross",
      "profile_path": "/eZpOYvFoJnej8n7aKSi2LVvvlQu.jpg",
      "popularity": 10.7,
      "adult": false,
      "known_for_department": "Acting"
    },
    {
      "id": 76555,
      "name": "Jakob Oftebro",
      "profile_path": "/qwCdGExEyucOFLFTkYSrhpGfJ0N.jpg",
      "popularity": 10.695,
      "adult": false,
      "known_for_department": "Acting"
    },
    {
      "id": 17039,
      "name": "Nick Offerman",
      "profile_path": "/zhmWZEJkzqgkIbSqZmFtUm0AwUV.jpg",
      "popularity": 10.695,
      "adult": false,
      "known_for_department": "Acting"
    },
    {
      "id": 23775,
      "name": "Eliza Bennett",
      "profile_path": "/8SW0tXZNPwe7z6k1p7IFOz4Izs2.jpg",
      "popularity": 10.694,
      "adult": false,
      "known_for_department": "Acting"
    },
    {
      "id": 87287,
      "name": "Bonnie Aarons",
      "profile_path": "/iEtWuoXKx4ZKbIWwJp1V76Heavy.jpg",
      "popularity": 10.693,
      "adult": false,
      "known_for_department": "Acting"
    },
    {
      "id": 1253972,
      "name": "Mutsumi Tamura",
      "profile_path": "/uvbBIRiBK6GDLEESiYSFWOVlaE4.jpg",
      "popularity": 10.692,
      "adult": false,
      "known_for_department": "Acting"
    },
    {
      "id": 15760,
      "name": "Josh Peck",
      "profile_path": "/qoapD8slSdb550o1JEoepv1SvT0.jpg",
      "popularity": 10.683,
      "adult": false,
      "known_for_department": "Acting"
    },
    {
      "id": 1836114,
      "name": "Malachi Barton",
      "profile_path": "/3qR4YL4gGOpXsHkAQirrtEBGXrg.jpg",
      "popularity": 10.681,
      "adult": false,
      "known_for_department": "Acting"
    }
  ]
}