{
  "page": 175,
  "total_results": 10000,
  "total_pages": 500,
  "results": [
    {
      "id": 115730,
      "name": "Patrick John Flueger",
      "profile_path": "/clfZivMXQzmxwO5XGXfNtycX3Xn.jpg",
      "popularity": 13.034,
      "adult": false,
      "known_for_department": "Acting"
    },
    {
      "id": 1233840,
      "name": "Koo Hye-sun",
      "profile_path": "/udHk7KExmXRuOVO6utT3IDpm6E1.jpg",
      "popularity": 13.033,
      "adult": false,
      "known_for_department": "Acting"
    },
    {
      "id": 52971,
      "name": "John Abraham",
      "profile_path": "/2ITVYVFou0dh3QVcJlhNJVzrA2p.jpg",
      "popularity": 13.031,
      "adult": false,
      "known_for_department": "Acting"
    },
    {
      "id": 20904,
      "name": "James Hong",
      "profile_path": "/v3lfw5aHOy0paOCx6WHiSnwzbH0.jpg",
      "popularity": 13.028,
      "adult": false,
      "known_for_department": "Acting"
    },
    {
      "id": 12850,
      "name": "Dabney Coleman",
      "profile_path": "/3CzM56fVawKlm5jaAHHqkc2CACm.jpg",
      "popularity": 13.026,
      "adult": false,
      "known_for_department": "Acting"
    },
    {
      "id": 81364,
      "name": "Olivia Munn",
      "profile_path": "/iDQjE8DesSGpoIi3l6mx1YoOuI7.jpg",
      "popularity": 13.024,
      "adult": false,
      "known_for_department": "Acting"
    },
    {
      "id": 3380429,
      "name": "Heng Asavarid Pinitkanjanapun",
      "profile_path": "",
      "popularity": 13.021,
      "adult": false,
      "known_for_department": "Acting"
    },
    {
      "id": 17039,
      "name": "Nick Offerman",
      "profile_path": "/zhmWZEJkzqgkIbSqZmFtUm0AwUV.jpg",
      "popularity": 13.021,
      "adult": false,
      "known_for_department": "Acting"
    },
    {
      "id": 21711,
      "name": "Erika Christensen",
      "profile_path": "/2QQJgrGVe3Fr8x7y50dBpN2g9lS.jpg",
      "popularity": 13.019,
      "adult": false,
      "known_for_department": "Acting"
    },
    {
      "id": 1157294,
      "name": "Colby Minifie",
      "profile_path": "/56FVZRFdctYhZI8zHNbegkKMwl3.jpg",
      "popularity": 13.017,
      "adult": false,
      "known_for_department": "Acting"
    },
    {
      "id": 1367322,
      "name": "Brighton Sharbino",
      "profile_path": "/6xB81yi0MrrEbKb4Mn0sgscdE4C.jpg",
      "popularity": 13.016,
      "adult": false,
      "known_for_department": "Acting"
    },
    {
      "id": 69395,
      "name": "Bug Hall",
      "profile_path": "/axuZx8nn7R7ohlkfnxO9k3TIGiq.jpg",
      "popularity": 13.016,
      "adult": false,
      "known_for_department": "Acting"
    },
    {
      "id": 515628,
      "name": "Sofia Black-D'Elia",
      "profile_path": "/4fFr8QkAGx7e9mRVp4zLGl9M8PV.jpg",
      "popularity": 13.013,
      "adult": false,
      "known_for_department": "Acting"
    },
    {
      "id": 52852,
      "name": "Kat Dennings",
      "profile_path": "/rrfyo9z1wW5nY9ZsFlj1Ozfj9g2.jpg",
      "popularity": 13.013,
      "adult": false,
      "known_for_department": "Acting"
    },
    {
      "id": 1234603,
      "name": "Park Min-young",
      "profile_path": "/5Op0Gx0DULFLHtGdWVdqnYdwkAS.jpg",
      "popularity": 13.012,
      "adult": false,
      "known_for_department": "Acting"
    },
    {
      "id": 240174,
      "name": "Johnny Wang Lung-Wei",
      "profile_path": "/i4ylq9Pn4NgQAzKl0trF5xZAzCS.jpg",
      "popularity": 13.012,
      "adult": false,
      "known_for_department": "Acting"
    },
    {
      "id": 2286339,
      "name": "Thuso Mbedu",
      "profile_path": "/v2Fw1NlHZ1sPS97DG2aDnreZwLR.jpg",
      "popularity": 13.008,
      "adult": false,
      "known_for_department": "Acting"
    },
    {
      "id": 208099,
      "name": "Kunal Nayyar",
      "profile_path": "/8W16ABvzYBvMp9xMUV5FvM3QV8e.jpg",
      "popularity": 13.006,
      "adult": false,
      "known_for_department": "Acting"
    },
    {
      "id": 2179,
      "name": "Suzy Amis",
      "profile_path": "/zmxGcr3RkqX7AWizlTefWtMfjKe.jpg",
      "popularity": 13,
      "adult": false,
      "known_for_department": "Acting"
    },
    {
      "id": 5589,
      "name": "John Glover",
      "profile_path": "/aPmq20MXqFALrUxaaJoC2Xonumo.jpg",
      "popularity": 12.999,
      "adult": false,
      "known_for_department": "Acting"
    }
  ]
}