{
  "page": 359,
  "total_results": 10000,
  "total_pages": 500,
  "results": [
    {
      "id": 1325034,
      "name": "Sora Amamiya",
      "profile_path": "/4ZZcdFH4QgbIC8AeJ3BLG1ue7G5.jpg",
      "popularity": 9.482,
      "adult": false,
      "known_for_department": "Acting"
    },
    {
      "id": 1306884,
      "name": "Olgun Toker",
      "profile_path": "/hzj7OrQHovXyPNRLknAOSdNbR9k.jpg",
      "popularity": 9.482,
      "adult": false,
      "known_for_department": "Acting"
    },
    {
      "id": 89251,
      "name": "Melinda Clarke",
      "profile_path": "/4drY26vTehdf9KjFmthf4xK05DB.jpg",
      "popularity": 9.481,
      "adult": false,
      "known_for_department": "Acting"
    },
    {
      "id": 71727,
      "name": "Betty White",
      "profile_path": "/lMczhrxuq5AlQCzyVVnU610TYnD.jpg",
      "popularity": 9.481,
      "adult": false,
      "known_for_department": "Acting"
    },
    {
      "id": 37937,
      "name": "Gregory Alan Williams",
      "profile_path": "/3IM9qtI4c4zgraPNtRI3kCPivAo.jpg",
      "popularity": 9.48,
      "adult": false,
      "known_for_department": "Acting"
    },
    {
      "id": 664,
      "name": "Frank Marshall",
      "profile_path": "/lt2aBdnfDRJI4hvBu4733ZPGaCa.jpg",
      "popularity": 9.48,
      "adult": false,
      "known_for_department": "Directing"
    },
    {
      "id": 556475,
      "name": "Türkan Şoray",
      "profile_path": "/wUAijeqo04wtxAOdoX2whnuRH1b.jpg",
      "popularity": 9.478,
      "adult": false,
      "known_for_department": "Acting"
    },
    {
      "id": 16214,
      "name": "Mario Van Peebles",
      "profile_path": "/fiExKjVttfePRwmfVvMHPjC7F9n.jpg",
      "popularity": 9.477,
      "adult": false,
      "known_for_department": "Acting"
    },
    {
      "id": 104894,
      "name": "Jamie Luner",
      "profile_path": "/oNlfauLLlRJ3lgSPiF3BepDkr6A.jpg",
      "popularity": 9.475,
      "adult": false,
      "known_for_department": "Acting"
    },
    {
      "id": 1001946,
      "name": "Sydney Park",
      "profile_path": "/2wHI7wH0Xhe7ocd1QdVaoxidmdy.jpg",
      "popularity": 9.474,
      "adult": false,
      "known_for_department": "Acting"
    },
    {
      "id": 109180,
      "name": "Tony Campisi",
      "profile_path": "/qwuSCouwr9PVW7wOHbRdqOUbcDG.jpg",
      "popularity": 9.473,
      "adult": false,
      "known_for_department": "Acting"
    },
    {
      "id": 4693,
      "name": "Paul Bates",
      "profile_path": "/cvHI8cb5vKjqaigqwljpsERsv8R.jpg",
      "popularity": 9.472,
      "adult": false,
      "known_for_department": "Acting"
    },
    {
      "id": 38024,
      "name": "Cynthia Nixon",
      "profile_path": "/a366FCtQYmT80vQnPMFZ4hsTwuU.jpg",
      "popularity": 9.471,
      "adult": false,
      "known_for_department": "Acting"
    },
    {
      "id": 14317,
      "name": "Ebonie Smith",
      "profile_path": "/itJRhpA4qfkdYvtpfgWc5xRatHX.jpg",
      "popularity": 9.471,
      "adult": false,
      "known_for_department": "Acting"
    },
    {
      "id": 90134,
      "name": "Tetsuya Kakihara",
      "profile_path": "/uogW9g7uqEdB1nbShhjp6NSXeue.jpg",
      "popularity": 9.47,
      "adult": false,
      "known_for_department": "Acting"
    },
    {
      "id": 33229,
      "name": "Carole Landis",
      "profile_path": "/9A5fTYXO61B7u0nQydpsywB7ih2.jpg",
      "popularity": 9.47,
      "adult": false,
      "known_for_department": "Acting"
    },
    {
      "id": 12522,
      "name": "Siân Phillips",
      "profile_path": "/k2OIQZUWLTlZYfHjpS5X8csYbSY.jpg",
      "popularity": 9.47,
      "adult": false,
      "known_for_department": "Acting"
    },
    {
      "id": 36097,
      "name": "Laurence Rupp",
      "profile_path": "/91VVksg6HJxUv0ahiay7ryatUqP.jpg",
      "popularity": 9.469,
      "adult": false,
      "known_for_department": "Acting"
    },
    {
      "id": 52478,
      "name": "Rachel Blanchard",
      "profile_path": "/5qgw9hM15TnZlLcLY0auovHJWLC.jpg",
      "popularity": 9.468,
      "adult": false,
      "known_for_department": "Acting"
    },
    {
      "id": 8768,
      "name": "Maia Morgenstern",
      "profile_path": "/zmqKMZcT5z0QKwTTmmb9O0rekbt.jpg",
      "popularity": 9.468,
      "adult": false,
      "known_for_department": "Acting"
    }
  ]
}