{
  "page": 341,
  "total_results": 10000,
  "total_pages": 500,
  "results": [
    {
      "id": 1052211,
      "name": "Mark Steger",
      "profile_path": "/3EeztYq3OfdeHsqjYSwRuNHrvnk.jpg",
      "popularity": 9.005,
      "adult": false,
      "known_for_department": "Acting"
    },
    {
      "id": 1193604,
      "name": "Jack Kilmer",
      "profile_path": "/t3ufi6Zc3YCINV56Bp3AhJgWCBL.jpg",
      "popularity": 9.004,
      "adult": false,
      "known_for_department": "Acting"
    },
    {
      "id": 65562,
      "name": "Andy Griffith",
      "profile_path": "/akaxOUO7UmxSX0Xlr6vrCNwzqt3.jpg",
      "popularity": 9.004,
      "adult": false,
      "known_for_department": "Acting"
    },
    {
      "id": 1167897,
      "name": "Natasha O'Keeffe",
      "profile_path": "/tOX10C02tSFnOSra8a8rGuA6QZ5.jpg",
      "popularity": 9.003,
      "adult": false,
      "known_for_department": "Acting"
    },
    {
      "id": 49352,
      "name": "Sally Struthers",
      "profile_path": "/9EeuFTEUG1mfPiZwNw38U3ovUa.jpg",
      "popularity": 9.002,
      "adult": false,
      "known_for_department": "Acting"
    },
    {
      "id": 4095,
      "name": "David Lewis",
      "profile_path": "/6i4FD9BsdDacX4Tma41dBWYVCpw.jpg",
      "popularity": 9.001,
      "adult": false,
      "known_for_department": "Acting"
    },
    {
      "id": 1957145,
      "name": "Kaia Gerber",
      "profile_path": "/mUM9LGM3mtf6TEJXDpPou3KJhNR.jpg",
      "popularity": 9,
      "adult": false,
      "known_for_department": "Acting"
    },
    {
      "id": 932091,
      "name": "Ryan Guzman",
      "profile_path": "/87saYOHLNaijt4P1nsZYDBt0kOD.jpg",
      "popularity": 9,
      "adult": false,
      "known_for_department": "Acting"
    },
    {
      "id": 118372,
      "name": "Yara Shahidi",
      "profile_path": "/3UVnSdjRyCGLUxmkzPrG7mInZog.jpg",
      "popularity": 8.999,
      "adult": false,
      "known_for_department": "Acting"
    },
    {
      "id": 35956,
      "name": "Laura Antonelli",
      "profile_path": "/6pwHBvKtro1jcJmXdotKB3ShUQZ.jpg",
      "popularity": 8.998,
      "adult": false,
      "known_for_department": "Acting"
    },
    {
      "id": 30846,
      "name": "Jim Davis",
      "profile_path": "/yIPtxRyA4LgWnLWG8Xo4IX9Uc1L.jpg",
      "popularity": 8.998,
      "adult": false,
      "known_for_department": "Acting"
    },
    {
      "id": 1597386,
      "name": "Sheila Flitton",
      "profile_path": "/4kmscr7OwIUQGGqCsneCEZ2sVfc.jpg",
      "popularity": 8.997,
      "adult": false,
      "known_for_department": "Acting"
    },
    {
      "id": 95136,
      "name": "David Henrie",
      "profile_path": "/1NuD0ltILDRRCMfmLPHM8bSfzhb.jpg",
      "popularity": 8.997,
      "adult": false,
      "known_for_department": "Acting"
    },
    {
      "id": 7664,
      "name": "Joseph Cotten",
      "profile_path": "/djfCB0jPOgmq3w7RD3BMLzWsAu8.jpg",
      "popularity": 8.997,
      "adult": false,
      "known_for_department": "Acting"
    },
    {
      "id": 210050,
      "name": "Eliza Coupe",
      "profile_path": "/uscVJ5XW8pA74wPaT29OlIx1Fy5.jpg",
      "popularity": 8.996,
      "adult": false,
      "known_for_department": "Acting"
    },
    {
      "id": 2354327,
      "name": "Aimer",
      "profile_path": "/dJIt5EUmbhYoNjEVMEwsHyG1I1w.jpg",
      "popularity": 8.994,
      "adult": false,
      "known_for_department": "Sound"
    },
    {
      "id": 127705,
      "name": "Cha Ye-ryun",
      "profile_path": "/d2iUiT1wTD6Ezjbkbh3ZzD5vYtl.jpg",
      "popularity": 8.993,
      "adult": false,
      "known_for_department": "Acting"
    },
    {
      "id": 33644,
      "name": "Paula Prentiss",
      "profile_path": "/mIraH5dR5teHIQVIYK22HIX3pwP.jpg",
      "popularity": 8.993,
      "adult": false,
      "known_for_department": "Acting"
    },
    {
      "id": 23775,
      "name": "Eliza Bennett",
      "profile_path": "/8SW0tXZNPwe7z6k1p7IFOz4Izs2.jpg",
      "popularity": 8.991,
      "adult": false,
      "known_for_department": "Acting"
    },
    {
      "id": 11281,
      "name": "Sinéad Cusack",
      "profile_path": "/g2Gvib6tvi9kkLTW4QLirJXuLTb.jpg",
      "popularity": 8.99,
      "adult": false,
      "known_for_department": "Acting"
    }
  ]
}