{
  "page": 158,
  "total_results": 10000,
  "total_pages": 500,
  "results": [
    {
      "id": 239060,
      "name": "Bülent İnal",
      "profile_path": "/99f6P5oKOe7TTtM9urbcackDFDg.jpg",
      "popularity": 13.103,
      "adult": false,
      "known_for_department": "Acting"
    },
    {
      "id": 19277,
      "name": "Todd Stashwick",
      "profile_path": "/ouhHa3CikuhcvgLvKYknUvRWG47.jpg",
      "popularity": 13.103,
      "adult": false,
      "known_for_department": "Acting"
    },
    {
      "id": 534,
      "name": "Mark Boone Junior",
      "profile_path": "/rcncVr356hpfKX9qOrKL3SJlEO7.jpg",
      "popularity": 13.102,
      "adult": false,
      "known_for_department": "Acting"
    },
    {
      "id": 1666,
      "name": "Julie Christie",
      "profile_path": "/siAi4XZhDPP8LRgbByzwLqVaLIQ.jpg",
      "popularity": 13.1,
      "adult": false,
      "known_for_department": "Acting"
    },
    {
      "id": 76126,
      "name": "T.I.",
      "profile_path": "/dHnR4QavU2ILjvbr3SXBh4cJSdJ.jpg",
      "popularity": 13.094,
      "adult": false,
      "known_for_department": "Acting"
    },
    {
      "id": 1256258,
      "name": "Toks Olagundoye",
      "profile_path": "/2tKnfTA0gh6QnTcHb18hj8o70uG.jpg",
      "popularity": 13.09,
      "adult": false,
      "known_for_department": "Acting"
    },
    {
      "id": 4443,
      "name": "Christopher McDonald",
      "profile_path": "/gK1XhbfD9Xd8s3VXRPpgDCluyZp.jpg",
      "popularity": 13.082,
      "adult": false,
      "known_for_department": "Acting"
    },
    {
      "id": 121575,
      "name": "Ashlynn Yennie",
      "profile_path": "/8GIgCCdqxFfSeNEagpvKPBjSWDm.jpg",
      "popularity": 13.078,
      "adult": false,
      "known_for_department": "Acting"
    },
    {
      "id": 49706,
      "name": "Adam Rodríguez",
      "profile_path": "/qFSbLvyNPZK40hY9gZXJDvq0qVK.jpg",
      "popularity": 13.077,
      "adult": false,
      "known_for_department": "Acting"
    },
    {
      "id": 1219226,
      "name": "Matthew Glave",
      "profile_path": "/lXtmDEZlLEF6Hvp8arN0lC96Wqe.jpg",
      "popularity": 13.076,
      "adult": false,
      "known_for_department": "Acting"
    },
    {
      "id": 74687,
      "name": "Stella Maeve",
      "profile_path": "/eVDO0GLQqjfeQiIJj5LDOBt6Ms.jpg",
      "popularity": 13.075,
      "adult": false,
      "known_for_department": "Acting"
    },
    {
      "id": 51930,
      "name": "Wade Williams",
      "profile_path": "/aCbu0BrVJMRCaZn24XGqqEO2Rcf.jpg",
      "popularity": 13.074,
      "adult": false,
      "known_for_department": "Acting"
    },
    {
      "id": 1385063,
      "name": "Olivia DeJonge",
      "profile_path": "/wsuLRToXghO8qv1nYMnEeppkwdR.jpg",
      "popularity": 13.071,
      "adult": false,
      "known_for_department": "Acting"
    },
    {
      "id": 24048,
      "name": "Jeffrey Nordling",
      "profile_path": "/ncN63j4FAErxhXCsFZtWdskcp48.jpg",
      "popularity": 13.069,
      "adult": false,
      "known_for_department": "Acting"
    },
    {
      "id": 51544,
      "name": "Mare Winningham",
      "profile_path": "/nXawdsVgNQp4Q41vu735nvajIT9.jpg",
      "popularity": 13.068,
      "adult": false,
      "known_for_department": "Acting"
    },
    {
      "id": 1349163,
      "name": "Oh Na-ra",
      "profile_path": "/3aZs3KSeOz17XaM1BWw1L0J8mqp.jpg",
      "popularity": 13.065,
      "adult": false,
      "known_for_department": "Acting"
    },
    {
      "id": 1253404,
      "name": "Chiaki Omigawa",
      "profile_path": "/hNHPri7hu7ApEht5uGdQxTaV3GO.jpg",
      "popularity": 13.063,
      "adult": false,
      "known_for_department": "Acting"
    },
    {
      "id": 27127,
      "name": "Brent Stait",
      "profile_path": "/qUYlkCHoOmr9YQ651Cl7QYDIJPK.jpg",
      "popularity": 13.062,
      "adult": false,
      "known_for_department": "Acting"
    },
    {
      "id": 25911,
      "name": "Cecilia Suárez",
      "profile_path": "/m2lUTpivduEiRwyPIrdg8hcI8zq.jpg",
      "popularity": 13.062,
      "adult": false,
      "known_for_department": "Acting"
    },
    {
      "id": 18706,
      "name": "Meredith Salenger",
      "profile_path": "/8lOt7vQQkrZWmjg0STb4D7umIta.jpg",
      "popularity": 13.062,
      "adult": false,
      "known_for_department": "Acting"
    }
  ]
}