{
  "page": 435,
  "total_results": 10000,
  "total_pages": 500,
  "results": [
    {
      "id": 56265,
      "name": "Dale Midkiff",
      "profile_path": "/lOxrQtMLFlbZQs8hykfCQzPfMSg.jpg",
      "popularity": 7.574,
      "adult": false,
      "known_for_department": "Acting"
    },
    {
      "id": 47699,
      "name": "Alison Steadman",
      "profile_path": "/lPthoSzhSr8KDgFKOmILAYUkJ2l.jpg",
      "popularity": 7.574,
      "adult": false,
      "known_for_department": "Acting"
    },
    {
      "id": 23658,
      "name": "Jennifer Schwalbach Smith",
      "profile_path": "/obaf42TXZQqAdidfQ8wnu1lJuNs.jpg",
      "popularity": 7.574,
      "adult": false,
      "known_for_department": "Acting"
    },
    {
      "id": 7031,
      "name": "Julian Rhind-Tutt",
      "profile_path": "/jvwtFc8XFpTb7NX1XRJX8TOfH5.jpg",
      "popularity": 7.574,
      "adult": false,
      "known_for_department": "Acting"
    },
    {
      "id": 59449,
      "name": "Paula Marshall",
      "profile_path": "/rBmk7DDOYHempHWrPnijRvPDFaW.jpg",
      "popularity": 7.572,
      "adult": false,
      "known_for_department": "Acting"
    },
    {
      "id": 1704579,
      "name": "Shuya Sophia Cai",
      "profile_path": "/ihdMC7BORUxqJWEsiRkJI7KddHA.jpg",
      "popularity": 7.571,
      "adult": false,
      "known_for_department": "Acting"
    },
    {
      "id": 102860,
      "name": "Darleen Carr",
      "profile_path": "/1QuAfAxCrcvUcVoyyeS5z39rSDM.jpg",
      "popularity": 7.571,
      "adult": false,
      "known_for_department": "Acting"
    },
    {
      "id": 1428,
      "name": "Mick Jagger",
      "profile_path": "/r1uFIYnBCDhIlqNbiTS4nDrjHrl.jpg",
      "popularity": 7.571,
      "adult": false,
      "known_for_department": "Acting"
    },
    {
      "id": 1181049,
      "name": "Kumi Takiuchi",
      "profile_path": "/bQTkkGpy9CIAw5AKx9IkpBu0na4.jpg",
      "popularity": 7.57,
      "adult": false,
      "known_for_department": "Acting"
    },
    {
      "id": 969412,
      "name": "Ximena Romo",
      "profile_path": "/fFGnB7qbbIT0yc2yjn5SRLefd7R.jpg",
      "popularity": 7.57,
      "adult": false,
      "known_for_department": "Acting"
    },
    {
      "id": 130875,
      "name": "Andrea Osvárt",
      "profile_path": "/eisI0LGj3SoyADQ2VOHyLqHNUaT.jpg",
      "popularity": 7.57,
      "adult": false,
      "known_for_department": "Acting"
    },
    {
      "id": 116027,
      "name": "Eli Marienthal",
      "profile_path": "/lrIygexYKs1bhcIjbHtyCejRaAe.jpg",
      "popularity": 7.57,
      "adult": false,
      "known_for_department": "Acting"
    },
    {
      "id": 3247402,
      "name": "Clara Galle",
      "profile_path": "/ipZQNX8KECqeCHoD4dmbb883lzP.jpg",
      "popularity": 7.569,
      "adult": false,
      "known_for_department": "Acting"
    },
    {
      "id": 49729,
      "name": "Katherine Kelly Lang",
      "profile_path": "/1AUSJOlP6lvnpgCknvjNjbStULB.jpg",
      "popularity": 7.569,
      "adult": false,
      "known_for_department": "Acting"
    },
    {
      "id": 1967321,
      "name": "İsmail Ege Şaşmaz",
      "profile_path": "/eTokKIXLSlmYJtrf6HC6Yo52ghw.jpg",
      "popularity": 7.567,
      "adult": false,
      "known_for_department": "Acting"
    },
    {
      "id": 1029717,
      "name": "Sayaka Akimoto",
      "profile_path": "/2MxwyfkqBFwSSvAFBKUir4e1NV8.jpg",
      "popularity": 7.567,
      "adult": false,
      "known_for_department": "Acting"
    },
    {
      "id": 52909,
      "name": "Masato Harada",
      "profile_path": "/dvaQECb1hQ15TV3ytt2tT8Pnknl.jpg",
      "popularity": 7.567,
      "adult": false,
      "known_for_department": "Directing"
    },
    {
      "id": 73528,
      "name": "Marc Pickering",
      "profile_path": "/g8DOazQXfxoOnVbLrCAGYhW3jKE.jpg",
      "popularity": 7.566,
      "adult": false,
      "known_for_department": "Acting"
    },
    {
      "id": 31711,
      "name": "Troy Garity",
      "profile_path": "/eNK78vBECYQbug1h7jFVo8OeHr0.jpg",
      "popularity": 7.566,
      "adult": false,
      "known_for_department": "Acting"
    },
    {
      "id": 18065,
      "name": "Jimmy Nail",
      "profile_path": "/nsQI0Q78UtlQqSC5dKjIbMJyinW.jpg",
      "popularity": 7.566,
      "adult": false,
      "known_for_department": "Acting"
    }
  ]
}