{
  "page": 269,
  "total_results": 10000,
  "total_pages": 500,
  "results": [
    {
      "id": 55541,
      "name": "Eddie Cibrian",
      "profile_path": "/swcAPvqyUlcn1SfVwcEBzhlFqVP.jpg",
      "popularity": 9.162,
      "adult": false,
      "known_for_department": "Acting"
    },
    {
      "id": 3418,
      "name": "Vincent Schiavelli",
      "profile_path": "/8wq2WF9ohUUZZjfVxEEiUGxLHzp.jpg",
      "popularity": 9.162,
      "adult": false,
      "known_for_department": "Acting"
    },
    {
      "id": 1883866,
      "name": "Lulu Wilson",
      "profile_path": "/Aba6EJ1NxhDTsJyO5F0oigTjeuD.jpg",
      "popularity": 9.158,
      "adult": false,
      "known_for_department": "Acting"
    },
    {
      "id": 79257,
      "name": "Björn Bengtsson",
      "profile_path": "/vwTWzUeQc4BUc7vnD87lPds1Ns8.jpg",
      "popularity": 9.153,
      "adult": false,
      "known_for_department": "Acting"
    },
    {
      "id": 28950,
      "name": "Lisa Eichhorn",
      "profile_path": "/gMKTeKne8A3E8p5HxwOCX5Wts1A.jpg",
      "popularity": 9.152,
      "adult": false,
      "known_for_department": "Acting"
    },
    {
      "id": 13283,
      "name": "Akira Emoto",
      "profile_path": "/xzkNCTcLGNkcyd6BctEhtRVP4L3.jpg",
      "popularity": 9.151,
      "adult": false,
      "known_for_department": "Acting"
    },
    {
      "id": 1373212,
      "name": "Aoi Morikawa",
      "profile_path": "/p8hsgOvx7agnHAfJNHA71r6W4bO.jpg",
      "popularity": 9.149,
      "adult": false,
      "known_for_department": "Acting"
    },
    {
      "id": 1324449,
      "name": "Hyunri",
      "profile_path": "/7C3LQglrbKXkWa649Y7xeTr8F23.jpg",
      "popularity": 9.148,
      "adult": false,
      "known_for_department": "Acting"
    },
    {
      "id": 31841,
      "name": "Matt Schulze",
      "profile_path": "/1dPinwDyFIEN30wUQG9Mm3Emnjh.jpg",
      "popularity": 9.146,
      "adult": false,
      "known_for_department": "Acting"
    },
    {
      "id": 11769,
      "name": "Ted Raimi",
      "profile_path": "/vCfwp1BzY7qXs74fMLE1ydGxsTY.jpg",
      "popularity": 9.145,
      "adult": false,
      "known_for_department": "Acting"
    },
    {
      "id": 39644,
      "name": "Marie Laforêt",
      "profile_path": "/mlShqSmfa4LMtSLzcTfJW5SL75R.jpg",
      "popularity": 9.144,
      "adult": false,
      "known_for_department": "Acting"
    },
    {
      "id": 74421,
      "name": "Song Hye-kyo",
      "profile_path": "/tlAX3f82Mf5h0rznpVBVK7nD2om.jpg",
      "popularity": 9.142,
      "adult": false,
      "known_for_department": "Acting"
    },
    {
      "id": 47644,
      "name": "Frances Barber",
      "profile_path": "/j4vvOB1GPVDqFJYEp56v23CF0CW.jpg",
      "popularity": 9.142,
      "adult": false,
      "known_for_department": "Acting"
    },
    {
      "id": 27552,
      "name": "David Eigenberg",
      "profile_path": "/3JOY715n7Low0Y1a9YZAzhNjvZM.jpg",
      "popularity": 9.142,
      "adult": false,
      "known_for_department": "Acting"
    },
    {
      "id": 40938,
      "name": "Romane Bohringer",
      "profile_path": "/keVDM0uUbKmo0yOVNrjMuKiH1B2.jpg",
      "popularity": 9.141,
      "adult": false,
      "known_for_department": "Acting"
    },
    {
      "id": 77182,
      "name": "Kim Byeong-ok",
      "profile_path": "/oGVs2OmYTyXR0KT9xvzVWCAKx8t.jpg",
      "popularity": 9.14,
      "adult": false,
      "known_for_department": "Acting"
    },
    {
      "id": 3712,
      "name": "Saul Rubinek",
      "profile_path": "/7mni2M32yjgbFxi6DjBXdhPXLEO.jpg",
      "popularity": 9.14,
      "adult": false,
      "known_for_department": "Acting"
    },
    {
      "id": 994641,
      "name": "Frankie Ng Chi-Hung",
      "profile_path": "/zA2ItbtabU4sMI65sh5IRIfgQsT.jpg",
      "popularity": 9.139,
      "adult": false,
      "known_for_department": "Acting"
    },
    {
      "id": 2039484,
      "name": "Jung Moon-sung",
      "profile_path": "/8xZ92BPXva8Siab29Mq0KNbyAOI.jpg",
      "popularity": 9.138,
      "adult": false,
      "known_for_department": "Acting"
    },
    {
      "id": 19239,
      "name": "Judith Ivey",
      "profile_path": "/yaeKvc55qRoE3snY5axr86dQnHp.jpg",
      "popularity": 9.138,
      "adult": false,
      "known_for_department": "Acting"
    }
  ]
}