{
  "page": 80,
  "total_results": 10000,
  "total_pages": 500,
  "results": [
    {
      "id": 1255487,
      "name": "Tsubasa Honda",
      "profile_path": "/1xdR7FXHc3zeRrMyy5qHlDQr9Ou.jpg",
      "popularity": 20.423,
      "adult": false,
      "known_for_department": "Acting"
    },
    {
      "id": 103994,
      "name": "Sophie Lowe",
      "profile_path": "/5nco3uflgKK5JGmoLbc0Yna34ZQ.jpg",
      "popularity": 20.417,
      "adult": false,
      "known_for_department": "Acting"
    },
    {
      "id": 2058708,
      "name": "Isabella Sermon",
      "profile_path": "/17lNC9C1mNuP0o5AJamwTJ9oaD5.jpg",
      "popularity": 20.416,
      "adult": false,
      "known_for_department": "Acting"
    },
    {
      "id": 13014,
      "name": "Toby Jones",
      "profile_path": "/1qNisdp4f1KstdfvAgYXMdrhwfk.jpg",
      "popularity": 20.411,
      "adult": false,
      "known_for_department": "Acting"
    },
    {
      "id": 27888,
      "name": "Raúl Juliá",
      "profile_path": "/rC9ALBVjGMWQEFtRiIS20Ps38dq.jpg",
      "popularity": 20.404,
      "adult": false,
      "known_for_department": "Acting"
    },
    {
      "id": 1122543,
      "name": "Tinatin Dalakishvili",
      "profile_path": "/ulnFxigewurjUXWEZLLgva47XH8.jpg",
      "popularity": 20.382,
      "adult": false,
      "known_for_department": "Acting"
    },
    {
      "id": 100634,
      "name": "Jo Ann Harris",
      "profile_path": "/p7VptoDCwgbdujzEzrFJrHH4pYA.jpg",
      "popularity": 20.38,
      "adult": false,
      "known_for_department": "Acting"
    },
    {
      "id": 27319,
      "name": "Christoph Waltz",
      "profile_path": "/2Hhztd4mUEV9Y25rfkXDwzL9QI9.jpg",
      "popularity": 20.38,
      "adult": false,
      "known_for_department": "Acting"
    },
    {
      "id": 1948457,
      "name": "Charles Lin",
      "profile_path": "/2VcLGKie7s2hvcSw2J66aRUEJj0.jpg",
      "popularity": 20.378,
      "adult": false,
      "known_for_department": "Acting"
    },
    {
      "id": 1672504,
      "name": "Erin Kellyman",
      "profile_path": "/f7XXomAaSRxE3h5NT0sAlcQTjPL.jpg",
      "popularity": 20.374,
      "adult": false,
      "known_for_department": "Acting"
    },
    {
      "id": 24695,
      "name": "Olivia Hussey",
      "profile_path": "/n5j2kzrktNoTzyn3TiHvrHgW0g3.jpg",
      "popularity": 20.371,
      "adult": false,
      "known_for_department": "Acting"
    },
    {
      "id": 204468,
      "name": "Fiona Dourif",
      "profile_path": "/owqTDaSwInm74iB0FOCSDzpSwNC.jpg",
      "popularity": 20.356,
      "adult": false,
      "known_for_department": "Acting"
    },
    {
      "id": 1937,
      "name": "Mickey Rooney",
      "profile_path": "/eYuayEC3xhXQf3Z1Cy6AVMEcgZb.jpg",
      "popularity": 20.354,
      "adult": false,
      "known_for_department": "Acting"
    },
    {
      "id": 108,
      "name": "Peter Jackson",
      "profile_path": "/4hh7hips4xc6kgpNDQKQH3goRvJ.jpg",
      "popularity": 20.35,
      "adult": false,
      "known_for_department": "Directing"
    },
    {
      "id": 122888,
      "name": "Ashley Williams",
      "profile_path": "/kaZQMxVAX2Z0M0BKphkg7rT54pi.jpg",
      "popularity": 20.347,
      "adult": false,
      "known_for_department": "Acting"
    },
    {
      "id": 68557,
      "name": "Joey Wong",
      "profile_path": "/czi7jy9VnrEmrJTE9oVUJRgDsY.jpg",
      "popularity": 20.345,
      "adult": false,
      "known_for_department": "Acting"
    },
    {
      "id": 1633001,
      "name": "Kristine Froseth",
      "profile_path": "/plgE7OleHgqZrdazFzbkv18UsRN.jpg",
      "popularity": 20.334,
      "adult": false,
      "known_for_department": "Acting"
    },
    {
      "id": 11850,
      "name": "Candice Bergen",
      "profile_path": "/yDthvXPRkcwSVcPj9QZz3Z7ZH5B.jpg",
      "popularity": 20.334,
      "adult": false,
      "known_for_department": "Acting"
    },
    {
      "id": 936,
      "name": "Oliver Reed",
      "profile_path": "/lEApzXRzw7PJFzYNEjpXnWQtSYZ.jpg",
      "popularity": 20.334,
      "adult": false,
      "known_for_department": "Acting"
    },
    {
      "id": 27773,
      "name": "Jonathan Brandis",
      "profile_path": "/fjUTC2SoSImb7qkJ5JUl0aQZDiK.jpg",
      "popularity": 20.332,
      "adult": false,
      "known_for_department": "Acting"
    }
  ]
}