{
  "page": 300,
  "total_results": 10000,
  "total_pages": 500,
  "results": [
    {
      "id": 1042729,
      "name": "Alba Ribas",
      "profile_path": "/xUPruCzTIunbZuAE4Kit1ujs2dX.jpg",
      "popularity": 9.176,
      "adult": false,
      "known_for_department": "Acting"
    },
    {
      "id": 29234,
      "name": "Joe Anderson",
      "profile_path": "/x0Fz2mIMU4Prk7I43pn87Fyno40.jpg",
      "popularity": 9.176,
      "adult": false,
      "known_for_department": "Acting"
    },
    {
      "id": 1709047,
      "name": "Cailey Fleming",
      "profile_path": "/yLxcuUA1Fc1AByNQY0cZ5wrxT1S.jpg",
      "popularity": 9.175,
      "adult": false,
      "known_for_department": "Acting"
    },
    {
      "id": 27103,
      "name": "Graham Phillips",
      "profile_path": "/kNlBbaRqCFKQ8SAba8sl2R2jVAW.jpg",
      "popularity": 9.175,
      "adult": false,
      "known_for_department": "Acting"
    },
    {
      "id": 15310,
      "name": "Anthony Kiedis",
      "profile_path": "/xkSV6hDKjDdF5ZYv8lQPBhPncWi.jpg",
      "popularity": 9.175,
      "adult": false,
      "known_for_department": "Acting"
    },
    {
      "id": 11045,
      "name": "Ola Rapace",
      "profile_path": "/kIzSsc3txeo2xfKGbAxQ9ZZIX8J.jpg",
      "popularity": 9.175,
      "adult": false,
      "known_for_department": "Acting"
    },
    {
      "id": 1094134,
      "name": "Kolton Stewart",
      "profile_path": "/7Q5zboTy8OozcJdYFwWbDrKCR1.jpg",
      "popularity": 9.174,
      "adult": false,
      "known_for_department": "Acting"
    },
    {
      "id": 111467,
      "name": "April Stewart",
      "profile_path": "/qmPAms01P6ZHp5wjQW2XkymwjCx.jpg",
      "popularity": 9.174,
      "adult": false,
      "known_for_department": "Acting"
    },
    {
      "id": 1164931,
      "name": "Megumi Han",
      "profile_path": "/52XQZeQRl8GkNZtqUHl17zWuZpD.jpg",
      "popularity": 9.173,
      "adult": false,
      "known_for_department": "Acting"
    },
    {
      "id": 1096458,
      "name": "Koo Kyo-hwan",
      "profile_path": "/oPPEPO8SL4hf9a0WzY844CoRki.jpg",
      "popularity": 9.173,
      "adult": false,
      "known_for_department": "Acting"
    },
    {
      "id": 57353,
      "name": "David Graf",
      "profile_path": "/oAVx2Ea0qrND2wn78m2wQtGGlz1.jpg",
      "popularity": 9.173,
      "adult": false,
      "known_for_department": "Acting"
    },
    {
      "id": 36322,
      "name": "Valentina Lodovini",
      "profile_path": "/3l2jLSzpHud4mvuTCdHW047exvR.jpg",
      "popularity": 9.173,
      "adult": false,
      "known_for_department": "Acting"
    },
    {
      "id": 112917,
      "name": "Stepfanie Kramer",
      "profile_path": "/1FvhYlcBt8aCmkoiAF3dVKy0U1a.jpg",
      "popularity": 9.172,
      "adult": false,
      "known_for_department": "Acting"
    },
    {
      "id": 20814,
      "name": "Gregory Smith",
      "profile_path": "/5qwhNXC5SZf3D7e1i6iNFvcp91P.jpg",
      "popularity": 9.172,
      "adult": false,
      "known_for_department": "Acting"
    },
    {
      "id": 84046,
      "name": "Riko Narumi",
      "profile_path": "/ui95qu4LvvUgvM05cleNE1tsEvf.jpg",
      "popularity": 9.171,
      "adult": false,
      "known_for_department": "Acting"
    },
    {
      "id": 26852,
      "name": "Joshua Leonard",
      "profile_path": "/xj843B3svTFzg3jNX5od3B7FXCm.jpg",
      "popularity": 9.17,
      "adult": false,
      "known_for_department": "Acting"
    },
    {
      "id": 40325,
      "name": "Megumi Hayashibara",
      "profile_path": "/cZcdY6N7QbkIyEl3mN5fwtRxSxJ.jpg",
      "popularity": 9.169,
      "adult": false,
      "known_for_department": "Acting"
    },
    {
      "id": 357551,
      "name": "Amy Landecker",
      "profile_path": "/3woCLCbumhHOxrkeVOT7ylWi7Lg.jpg",
      "popularity": 9.168,
      "adult": false,
      "known_for_department": "Acting"
    },
    {
      "id": 1532331,
      "name": "Nafessa Williams",
      "profile_path": "/pqS4vTGuziuTTWFVVo174RtbN9z.jpg",
      "popularity": 9.167,
      "adult": false,
      "known_for_department": "Acting"
    },
    {
      "id": 68495,
      "name": "Perrey Reeves",
      "profile_path": "/xgsCxH6GbrAj4JGrVk89hH7aOdW.jpg",
      "popularity": 9.164,
      "adult": false,
      "known_for_department": "Acting"
    }
  ]
}