{
  "page": 99,
  "total_results": 10000,
  "total_pages": 500,
  "results": [
    {
      "id": 42276,
      "name": "Rupert Penry-Jones",
      "profile_path": "/4qRzWtQtxjbSZKOrV68hDQWGZgE.jpg",
      "popularity": 16.735,
      "adult": false,
      "known_for_department": "Acting"
    },
    {
      "id": 21711,
      "name": "Erika Christensen",
      "profile_path": "/2QQJgrGVe3Fr8x7y50dBpN2g9lS.jpg",
      "popularity": 16.73,
      "adult": false,
      "known_for_department": "Acting"
    },
    {
      "id": 1365769,
      "name": "Rachel Keller",
      "profile_path": "/t7De3b0UpGbjjS0H85TWlShJJ3D.jpg",
      "popularity": 16.727,
      "adult": false,
      "known_for_department": "Acting"
    },
    {
      "id": 7036,
      "name": "Eric Stoltz",
      "profile_path": "/p9ZBOGVpIFgtywjgHqRkJsZEG18.jpg",
      "popularity": 16.718,
      "adult": false,
      "known_for_department": "Acting"
    },
    {
      "id": 21027,
      "name": "Mika Boorem",
      "profile_path": "/gTnVjjDpyS2ZVPyDFaDipOUkDY8.jpg",
      "popularity": 16.716,
      "adult": false,
      "known_for_department": "Acting"
    },
    {
      "id": 1246,
      "name": "Emily Mortimer",
      "profile_path": "/eh0AebcU5ag535e3KLb6ydWR09d.jpg",
      "popularity": 16.707,
      "adult": false,
      "known_for_department": "Acting"
    },
    {
      "id": 41229,
      "name": "Meg Foster",
      "profile_path": "/fGIeR5uPwPf9CF7uQPj9ReVD2IV.jpg",
      "popularity": 16.705,
      "adult": false,
      "known_for_department": "Acting"
    },
    {
      "id": 7497,
      "name": "Holt McCallany",
      "profile_path": "/a5ax2ICLrV6l0T74OSFvzssCQyQ.jpg",
      "popularity": 16.704,
      "adult": false,
      "known_for_department": "Acting"
    },
    {
      "id": 454,
      "name": "Michael Peña",
      "profile_path": "/tu5CtDtVP4oZBVQgi0s4vgZErIg.jpg",
      "popularity": 16.699,
      "adult": false,
      "known_for_department": "Acting"
    },
    {
      "id": 1834243,
      "name": "Park Se-wan",
      "profile_path": "/yRaB00ZVVQ6DMjJmictDEaNf6t8.jpg",
      "popularity": 16.693,
      "adult": false,
      "known_for_department": "Acting"
    },
    {
      "id": 208099,
      "name": "Kunal Nayyar",
      "profile_path": "/8W16ABvzYBvMp9xMUV5FvM3QV8e.jpg",
      "popularity": 16.688,
      "adult": false,
      "known_for_department": "Acting"
    },
    {
      "id": 1202534,
      "name": "Sadie Sandler",
      "profile_path": "/nGHtlLj4m2TZcRCOyuRlrtITUTY.jpg",
      "popularity": 16.685,
      "adult": false,
      "known_for_department": "Acting"
    },
    {
      "id": 558900,
      "name": "Stephen Huszar",
      "profile_path": "/8tAp0omX7S5qfFCeodIg0IZuMwC.jpg",
      "popularity": 16.683,
      "adult": false,
      "known_for_department": "Acting"
    },
    {
      "id": 496470,
      "name": "Jake Lacy",
      "profile_path": "/sAF2ISBdNFMtbanjPyPwqriq3XM.jpg",
      "popularity": 16.68,
      "adult": false,
      "known_for_department": "Acting"
    },
    {
      "id": 7676,
      "name": "William Atherton",
      "profile_path": "/cYGr02PJqEh96DOWVm3kKHRRZzT.jpg",
      "popularity": 16.679,
      "adult": false,
      "known_for_department": "Acting"
    },
    {
      "id": 1768319,
      "name": "Madeline Wise",
      "profile_path": "/8au11zMSOm2dRPUi6akSf3FpSdz.jpg",
      "popularity": 16.676,
      "adult": false,
      "known_for_department": "Acting"
    },
    {
      "id": 68276,
      "name": "Jolene Blalock",
      "profile_path": "/yiinZvN39DQU0SyfrOadbEXogAi.jpg",
      "popularity": 16.67,
      "adult": false,
      "known_for_department": "Acting"
    },
    {
      "id": 62765,
      "name": "Rhea Seehorn",
      "profile_path": "/59pHXuk5siBXX17fEoIxEg2CEZL.jpg",
      "popularity": 16.665,
      "adult": false,
      "known_for_department": "Acting"
    },
    {
      "id": 1583307,
      "name": "Natasha Liu Bordizzo",
      "profile_path": "/tROyGLEDMe8zpFQq09Fdbn42pGl.jpg",
      "popularity": 16.664,
      "adult": false,
      "known_for_department": "Acting"
    },
    {
      "id": 94098,
      "name": "Gillian Jacobs",
      "profile_path": "/sdhAxrVgmoVpglDsKn2B2yZmdj5.jpg",
      "popularity": 16.657,
      "adult": false,
      "known_for_department": "Acting"
    }
  ]
}