{
  "page": 361,
  "total_results": 10000,
  "total_pages": 500,
  "results": [
    {
      "id": 591998,
      "name": "Kathryn Bernardo",
      "profile_path": "/b2smlh77GUeJBogZ7BZsRQNgzsX.jpg",
      "popularity": 8.361,
      "adult": false,
      "known_for_department": "Acting"
    },
    {
      "id": 3382,
      "name": "Hope Lange",
      "profile_path": "/6G38YvZ3JqlVfw0H6irEtGqqhgj.jpg",
      "popularity": 8.359,
      "adult": false,
      "known_for_department": "Acting"
    },
    {
      "id": 1206322,
      "name": "Princess O'Mahoney",
      "profile_path": "/vDAXE5MARyd8qTm5oq4HYDy7ND1.jpg",
      "popularity": 8.358,
      "adult": false,
      "known_for_department": "Directing"
    },
    {
      "id": 200632,
      "name": "Felicity Kendal",
      "profile_path": "/8TuwT4vka66qLlnoP08pbguepPV.jpg",
      "popularity": 8.358,
      "adult": false,
      "known_for_department": "Acting"
    },
    {
      "id": 28864,
      "name": "Landry Allbright",
      "profile_path": "/vTjroX0wuJlOtgSjev1mzAjSpGv.jpg",
      "popularity": 8.358,
      "adult": false,
      "known_for_department": "Acting"
    },
    {
      "id": 9872,
      "name": "Joseph Wiseman",
      "profile_path": "/2iJ36Jn0KloFIWoz4Ft7SL4Z1Uw.jpg",
      "popularity": 8.358,
      "adult": false,
      "known_for_department": "Acting"
    },
    {
      "id": 2858603,
      "name": "Choi Byung-chan",
      "profile_path": "/uePeUDNXQaBfUpLEhZ9hyNUK0ST.jpg",
      "popularity": 8.357,
      "adult": false,
      "known_for_department": "Acting"
    },
    {
      "id": 131563,
      "name": "Jun Fukuyama",
      "profile_path": "/eT9eloyIaIkTvTqMmpcsAleP2hM.jpg",
      "popularity": 8.357,
      "adult": false,
      "known_for_department": "Acting"
    },
    {
      "id": 42565,
      "name": "Lorcan Cranitch",
      "profile_path": "/voQReF44XJqSJbOD382RtwFJaTx.jpg",
      "popularity": 8.357,
      "adult": false,
      "known_for_department": "Acting"
    },
    {
      "id": 61555,
      "name": "Haley Ramm",
      "profile_path": "/AoDl46HMkMWhu8hsUmxu5jU2caN.jpg",
      "popularity": 8.356,
      "adult": false,
      "known_for_department": "Acting"
    },
    {
      "id": 1985557,
      "name": "Lee You-mi",
      "profile_path": "/jZgjJqr6pGEegyziY10b4SklqbD.jpg",
      "popularity": 8.355,
      "adult": false,
      "known_for_department": "Acting"
    },
    {
      "id": 52761,
      "name": "Igor Jijikine",
      "profile_path": "/o0NBkPe5maLsQYCkU0zYedEXIoe.jpg",
      "popularity": 8.354,
      "adult": false,
      "known_for_department": "Acting"
    },
    {
      "id": 3212104,
      "name": "Park Seo-ham",
      "profile_path": "/uUFxDA9iRHVziPx8S4KGiDcXuYx.jpg",
      "popularity": 8.352,
      "adult": false,
      "known_for_department": "Acting"
    },
    {
      "id": 1700415,
      "name": "RJ Fetherstonhaugh",
      "profile_path": "/9wq0Z7pHlTkujX0eJ1WMqkAqshX.jpg",
      "popularity": 8.352,
      "adult": false,
      "known_for_department": "Acting"
    },
    {
      "id": 1600543,
      "name": "Callum Wharry",
      "profile_path": "/sQzCLoiWniQPYyseG0wvGEf3flo.jpg",
      "popularity": 8.352,
      "adult": false,
      "known_for_department": "Acting"
    },
    {
      "id": 1233560,
      "name": "Trevor Donovan",
      "profile_path": "/z3uSJrYfYZuCFYZsCz8OKa4JWmR.jpg",
      "popularity": 8.352,
      "adult": false,
      "known_for_department": "Acting"
    },
    {
      "id": 141956,
      "name": "Marc Evan Jackson",
      "profile_path": "/4TWP0nlhkxkZ5XzzZuz3RCoZjFX.jpg",
      "popularity": 8.352,
      "adult": false,
      "known_for_department": "Acting"
    },
    {
      "id": 19271,
      "name": "Anthony Russo",
      "profile_path": "/xbINBnWn28YygYWUJ1aSAw0xPRv.jpg",
      "popularity": 8.352,
      "adult": false,
      "known_for_department": "Directing"
    },
    {
      "id": 1750,
      "name": "DeForest Kelley",
      "profile_path": "/q6NJxoCo63aFkz4KDi5s38xX0uN.jpg",
      "popularity": 8.352,
      "adult": false,
      "known_for_department": "Acting"
    },
    {
      "id": 1930511,
      "name": "Kubilay Aka",
      "profile_path": "/xGNSyU6zJKcVAGsx0hFXkMcZqkJ.jpg",
      "popularity": 8.351,
      "adult": false,
      "known_for_department": "Acting"
    }
  ]
}