{
  "page": 408,
  "total_results": 10000,
  "total_pages": 500,
  "results": [
    {
      "id": 14782,
      "name": "Andrew Robinson",
      "profile_path": "/9Q3ceej6iKSSL6h4nJHGbvuRUM0.jpg",
      "popularity": 7.673,
      "adult": false,
      "known_for_department": "Acting"
    },
    {
      "id": 124618,
      "name": "Nicole Grimaudo",
      "profile_path": "/1TF2tDGsN8GT0MlhnTdhuB4jo2S.jpg",
      "popularity": 6.073,
      "adult": false,
      "known_for_department": "Acting"
    },
    {
      "id": 1010877,
      "name": "Han Ji-min",
      "profile_path": "/2gty4WHWGSc6UbUKlROGkVMMSvb.jpg",
      "popularity": 8.872,
      "adult": false,
      "known_for_department": "Acting"
    },
    {
      "id": 223331,
      "name": "Sky Ferreira",
      "profile_path": "/8bQmDJt0cRNDWA3x79cQUG9cXSC.jpg",
      "popularity": 9.672,
      "adult": false,
      "known_for_department": "Acting"
    },
    {
      "id": 87120,
      "name": "Deborah Raffin",
      "profile_path": "/cOjEYw2ED1NIZzH8jWQczbHQkTy.jpg",
      "popularity": 6.872,
      "adult": false,
      "known_for_department": "Acting"
    },
    {
      "id": 1875842,
      "name": "Rosé",
      "profile_path": "/d3EdgHVIDuxN07k6ltDuL1IIPqx.jpg",
      "popularity": 8.472,
      "adult": false,
      "known_for_department": "Acting"
    },
    {
      "id": 111685,
      "name": "Kim Shaw",
      "profile_path": "/6btY7SQuDKD2xXSBZRJolPErdeL.jpg",
      "popularity": 6.471,
      "adult": false,
      "known_for_department": "Acting"
    },
    {
      "id": 1134253,
      "name": "Isabelle Ottmann",
      "profile_path": "/3k1PEMnC0mU4THgyXQzFbUn8ygl.jpg",
      "popularity": 12.471,
      "adult": false,
      "known_for_department": "Acting"
    },
    {
      "id": 1088673,
      "name": "Sophie Ngan",
      "profile_path": "/9nusuXMcK7AKVB4D2RRaBSVfqUi.jpg",
      "popularity": 6.471,
      "adult": false,
      "known_for_department": "Acting"
    },
    {
      "id": 29384,
      "name": "Sheila McCarthy",
      "profile_path": "/wIe1srcx1lllkE66Jx5j9mV2BEc.jpg",
      "popularity": 11.671,
      "adult": false,
      "known_for_department": "Acting"
    },
    {
      "id": 2141531,
      "name": "Ahn Ji-ho",
      "profile_path": "/9fWhH0j84Ou72CSEdOpNB79X7QG.jpg",
      "popularity": 13.397,
      "adult": false,
      "known_for_department": "Acting"
    },
    {
      "id": 78320,
      "name": "Bryan Callen",
      "profile_path": "/dYlYyeKLC6jXl6twAIsqYQCnFlp.jpg",
      "popularity": 9.671,
      "adult": false,
      "known_for_department": "Acting"
    },
    {
      "id": 7270,
      "name": "Adrian Lyne",
      "profile_path": "/tj5o1Iirc20JjP9bKNiEm1c4mlq.jpg",
      "popularity": 8.071,
      "adult": false,
      "known_for_department": "Directing"
    },
    {
      "id": 118043,
      "name": "Francie Swift",
      "profile_path": "/iEP2BCMely2ulBhxWeIYV1xIgqz.jpg",
      "popularity": 10.07,
      "adult": false,
      "known_for_department": "Acting"
    },
    {
      "id": 50020,
      "name": "Scott Patterson",
      "profile_path": "/qTm0LFuV8DktunzKa5T3UZoq1tC.jpg",
      "popularity": 11.27,
      "adult": false,
      "known_for_department": "Acting"
    },
    {
      "id": 20882,
      "name": "Lea Massari",
      "profile_path": "/gYsQxjnNQmZmAs3Z6a1xbsTizgJ.jpg",
      "popularity": 9.27,
      "adult": false,
      "known_for_department": "Acting"
    },
    {
      "id": 10988,
      "name": "Geraldine Somerville",
      "profile_path": "/a6vpqbxAhWXk6xE3F5ShtXzJ5ss.jpg",
      "popularity": 11.27,
      "adult": false,
      "known_for_department": "Acting"
    },
    {
      "id": 3005486,
      "name": "Ishikawa Plowden",
      "profile_path": "/l45u20KzbStNaH66tT5yFaXC2W9.jpg",
      "popularity": 6.47,
      "adult": false,
      "known_for_department": "Acting"
    },
    {
      "id": 1838089,
      "name": "Clara Alvarado",
      "profile_path": "/9CiG2Hj1vwHw31YO1CkF2a2L0M5.jpg",
      "popularity": 5.74,
      "adult": false,
      "known_for_department": "Acting"
    },
    {
      "id": 1287909,
      "name": "Kim Hong-pa",
      "profile_path": "/bJWuPqJFfN1oDIf2q4x7FsmyO09.jpg",
      "popularity": 6.47,
      "adult": false,
      "known_for_department": "Acting"
    }
  ]
}