{
  "page": 98,
  "total_results": 10000,
  "total_pages": 500,
  "results": [
    {
      "id": 1253449,
      "name": "Yang Mi-kyung",
      "profile_path": "/3vmMmJw9dYHa9VZRsVaG6WEqQbF.jpg",
      "popularity": 16.376,
      "adult": false,
      "known_for_department": "Acting"
    },
    {
      "id": 17402,
      "name": "Ron Livingston",
      "profile_path": "/pr5CjWnkaf5WKTIYh8wtNufjmyb.jpg",
      "popularity": 16.37,
      "adult": false,
      "known_for_department": "Acting"
    },
    {
      "id": 3029776,
      "name": "Thanayut Thakoonauttaya",
      "profile_path": "/3LwwPRtanVnVDje9jHcSBiY3iJK.jpg",
      "popularity": 16.366,
      "adult": false,
      "known_for_department": "Acting"
    },
    {
      "id": 1381186,
      "name": "Stephanie Hsu",
      "profile_path": "/8gb3lfIHKQAGOQyeC4ynQPsCiHr.jpg",
      "popularity": 16.363,
      "adult": false,
      "known_for_department": "Acting"
    },
    {
      "id": 141450,
      "name": "Mel Smith",
      "profile_path": "/vynnJ4jWZvGRClXTN4kFQqTEIdn.jpg",
      "popularity": 16.36,
      "adult": false,
      "known_for_department": "Acting"
    },
    {
      "id": 13473,
      "name": "Barry Bostwick",
      "profile_path": "/z2jlL5g5PMxelSHMXFF03fTSsLl.jpg",
      "popularity": 16.359,
      "adult": false,
      "known_for_department": "Acting"
    },
    {
      "id": 21045,
      "name": "Maggie Q",
      "profile_path": "/1Z0A8axunWqZrskGkfANv6W5qCl.jpg",
      "popularity": 16.358,
      "adult": false,
      "known_for_department": "Acting"
    },
    {
      "id": 56730,
      "name": "Cole Sprouse",
      "profile_path": "/mQAXL0rUGwX316d1FBBQmloZzHu.jpg",
      "popularity": 16.356,
      "adult": false,
      "known_for_department": "Acting"
    },
    {
      "id": 1294,
      "name": "Missi Pyle",
      "profile_path": "/aGRSmafxwPmpRCLRGEJN1ygeh8D.jpg",
      "popularity": 16.351,
      "adult": false,
      "known_for_department": "Acting"
    },
    {
      "id": 6383,
      "name": "Aaron Eckhart",
      "profile_path": "/5EFQvRHlpP1Iaw2e6vjOaBny6DV.jpg",
      "popularity": 16.35,
      "adult": false,
      "known_for_department": "Acting"
    },
    {
      "id": 56881,
      "name": "Shelley Long",
      "profile_path": "/2ZFc2WqVQC6J1JasI1qMK444EnE.jpg",
      "popularity": 16.346,
      "adult": false,
      "known_for_department": "Acting"
    },
    {
      "id": 527393,
      "name": "Dylan O'Brien",
      "profile_path": "/cOP4CLCPUp8Nkjvwqv7DW6wvG5i.jpg",
      "popularity": 16.341,
      "adult": false,
      "known_for_department": "Acting"
    },
    {
      "id": 2115785,
      "name": "Kim Si-a",
      "profile_path": "/A5ddVN1YNInW6WxcLOwBBjeMARc.jpg",
      "popularity": 16.335,
      "adult": false,
      "known_for_department": "Acting"
    },
    {
      "id": 212154,
      "name": "Deborah Ann Woll",
      "profile_path": "/btTnyvRLXOH0pz2SLBwyKbmnFhX.jpg",
      "popularity": 16.327,
      "adult": false,
      "known_for_department": "Acting"
    },
    {
      "id": 70696,
      "name": "Kimberly Williams-Paisley",
      "profile_path": "/qJ4kWr4mDeKWenPeMOff8VtuAIq.jpg",
      "popularity": 16.325,
      "adult": false,
      "known_for_department": "Acting"
    },
    {
      "id": 59175,
      "name": "Blake Lively",
      "profile_path": "/rkGVjd6wImtgjOCi0IpeffdEWtb.jpg",
      "popularity": 16.324,
      "adult": false,
      "known_for_department": "Acting"
    },
    {
      "id": 59216,
      "name": "Tom Cavanagh",
      "profile_path": "/iFkViDKW65daGl74VYK3FOvCLfZ.jpg",
      "popularity": 16.318,
      "adult": false,
      "known_for_department": "Acting"
    },
    {
      "id": 15417,
      "name": "Donald Moffat",
      "profile_path": "/8kZ2Ow3cPtTmDwTxL7jFEsQi4ia.jpg",
      "popularity": 16.318,
      "adult": false,
      "known_for_department": "Acting"
    },
    {
      "id": 4483,
      "name": "Dustin Hoffman",
      "profile_path": "/yFjTzJHE6AFbwQifOlnNDzmiwlq.jpg",
      "popularity": 16.311,
      "adult": false,
      "known_for_department": "Acting"
    },
    {
      "id": 10985,
      "name": "Ian Hart",
      "profile_path": "/mP4g3ipzMZtaUCXQMWud1Ar36mB.jpg",
      "popularity": 16.309,
      "adult": false,
      "known_for_department": "Acting"
    }
  ]
}