{
  "page": 144,
  "total_results": 10000,
  "total_pages": 500,
  "results": [
    {
      "id": 12931,
      "name": "Rita Wilson",
      "profile_path": "/3c22ZCpoXjLbxA6NZerxIbQXDpu.jpg",
      "popularity": 13.583,
      "adult": false,
      "known_for_department": "Acting"
    },
    {
      "id": 81287,
      "name": "Shannon Whirry",
      "profile_path": "/a8oYQTamvnpikgEwVqcSeGvtmem.jpg",
      "popularity": 13.58,
      "adult": false,
      "known_for_department": "Acting"
    },
    {
      "id": 539,
      "name": "Thomas Lennon",
      "profile_path": "/s8pw7BfuMxN7P0p5XJ9POfod7zW.jpg",
      "popularity": 13.579,
      "adult": false,
      "known_for_department": "Acting"
    },
    {
      "id": 560190,
      "name": "Tang Guoqiang",
      "profile_path": "/vhLbRHpHQ3xVbwmmldQ87ZTACl4.jpg",
      "popularity": 13.577,
      "adult": false,
      "known_for_department": "Acting"
    },
    {
      "id": 131934,
      "name": "Bre Blair",
      "profile_path": "/nDrqKb2I800qJ3UmME6FJEVOq0P.jpg",
      "popularity": 13.574,
      "adult": false,
      "known_for_department": "Acting"
    },
    {
      "id": 74949,
      "name": "Joel McHale",
      "profile_path": "/jFtqHLCrmGSIJtwdxloO3KM98iC.jpg",
      "popularity": 13.574,
      "adult": false,
      "known_for_department": "Acting"
    },
    {
      "id": 57599,
      "name": "Seann William Scott",
      "profile_path": "/mKc2YXdh8d4U2jYDwpLWaOY6Jwg.jpg",
      "popularity": 13.573,
      "adult": false,
      "known_for_department": "Acting"
    },
    {
      "id": 26086,
      "name": "Michael Shanks",
      "profile_path": "/4YkOrSUmfKljqTMwGIo50oviKe1.jpg",
      "popularity": 13.573,
      "adult": false,
      "known_for_department": "Acting"
    },
    {
      "id": 22122,
      "name": "Meagan Good",
      "profile_path": "/iwSNBQKKDhEbtNe8I4ROYoYmWqE.jpg",
      "popularity": 13.572,
      "adult": false,
      "known_for_department": "Acting"
    },
    {
      "id": 6449,
      "name": "Warren Beatty",
      "profile_path": "/pNhzqsu5mdOxT2Z8CTWYs56yLgx.jpg",
      "popularity": 13.57,
      "adult": false,
      "known_for_department": "Acting"
    },
    {
      "id": 16850,
      "name": "Rose McGowan",
      "profile_path": "/38zwwYnEWfATlVTSZ2tOSHtCd3k.jpg",
      "popularity": 13.569,
      "adult": false,
      "known_for_department": "Acting"
    },
    {
      "id": 1896,
      "name": "Don Cheadle",
      "profile_path": "/lZpvHaRDSNqAEYUgaJed9Vxrx5p.jpg",
      "popularity": 13.569,
      "adult": false,
      "known_for_department": "Acting"
    },
    {
      "id": 1552847,
      "name": "Albert Rudbeck Lindhardt",
      "profile_path": "/iEvh3kr3ZTfxjUdWvXCLPUUsx.jpg",
      "popularity": 13.568,
      "adult": false,
      "known_for_department": "Acting"
    },
    {
      "id": 290,
      "name": "Christopher Plummer",
      "profile_path": "/iZh3s9Vy9vYD4DYnAda6C1kdeco.jpg",
      "popularity": 13.563,
      "adult": false,
      "known_for_department": "Acting"
    },
    {
      "id": 3197,
      "name": "Tom Sizemore",
      "profile_path": "/soINOuacuiThRb2LyPD4tTWve7C.jpg",
      "popularity": 13.557,
      "adult": false,
      "known_for_department": "Acting"
    },
    {
      "id": 62414,
      "name": "Yuen Biao",
      "profile_path": "/pgO9Im1QKPjLozvsWODLtZDTjw7.jpg",
      "popularity": 13.554,
      "adult": false,
      "known_for_department": "Acting"
    },
    {
      "id": 10839,
      "name": "Leonor Varela",
      "profile_path": "/ooZQvMganzssNGoTKaIgFXM38U7.jpg",
      "popularity": 13.546,
      "adult": false,
      "known_for_department": "Acting"
    },
    {
      "id": 1436018,
      "name": "Chanyeol",
      "profile_path": "/cJ3alHWch5LYojdq1m0A87zcKfk.jpg",
      "popularity": 13.544,
      "adult": false,
      "known_for_department": "Acting"
    },
    {
      "id": 232499,
      "name": "Harry Shum Jr.",
      "profile_path": "/xFQsThmdyuOk9jt3zgZL08ixf2b.jpg",
      "popularity": 13.543,
      "adult": false,
      "known_for_department": "Acting"
    },
    {
      "id": 42307,
      "name": "Peta Wilson",
      "profile_path": "/eFmvcjqjPiaF4YzwBkI5WIwwE1h.jpg",
      "popularity": 13.538,
      "adult": false,
      "known_for_department": "Acting"
    }
  ]
}