{
  "page": 58,
  "total_results": 10000,
  "total_pages": 500,
  "results": [
    {
      "id": 2876,
      "name": "Matt Dillon",
      "profile_path": "/wVoSUexYH79igPgxIXKWRlV2uBk.jpg",
      "popularity": 21.754,
      "adult": false,
      "known_for_department": "Acting"
    },
    {
      "id": 55936,
      "name": "Jemaine Clement",
      "profile_path": "/6eiNbeurpHb2fxIeT0RrJ0wRI25.jpg",
      "popularity": 21.746,
      "adult": false,
      "known_for_department": "Acting"
    },
    {
      "id": 15286,
      "name": "Christine Taylor",
      "profile_path": "/6t1WZUPoIWjBDrH1JPCUM8b58cG.jpg",
      "popularity": 21.746,
      "adult": false,
      "known_for_department": "Acting"
    },
    {
      "id": 17178,
      "name": "Patrick Wilson",
      "profile_path": "/tc1ezEfIY8BhCy85svOUDtpBFPt.jpg",
      "popularity": 21.739,
      "adult": false,
      "known_for_department": "Acting"
    },
    {
      "id": 8930,
      "name": "John Cleese",
      "profile_path": "/nQpBf77cStmR35V0XOinm2zZMWG.jpg",
      "popularity": 21.739,
      "adult": false,
      "known_for_department": "Acting"
    },
    {
      "id": 51037,
      "name": "Athena Karkanis",
      "profile_path": "/bxKJJWXfnTfWVpsD5Y5H8g4vFUq.jpg",
      "popularity": 21.734,
      "adult": false,
      "known_for_department": "Acting"
    },
    {
      "id": 61114,
      "name": "Kate Walsh",
      "profile_path": "/z2o4tml3ClbrcJ2ZYtqdtYJcsEY.jpg",
      "popularity": 21.728,
      "adult": false,
      "known_for_department": "Acting"
    },
    {
      "id": 25129,
      "name": "Don Johnson",
      "profile_path": "/6s6oav541p7xspCG6PvXut7knkP.jpg",
      "popularity": 21.713,
      "adult": false,
      "known_for_department": "Acting"
    },
    {
      "id": 205,
      "name": "Kirsten Dunst",
      "profile_path": "/sFYHUU1gWd57pttD8732tkBsXV5.jpg",
      "popularity": 21.711,
      "adult": false,
      "known_for_department": "Acting"
    },
    {
      "id": 2233,
      "name": "Bridget Fonda",
      "profile_path": "/k8ct3vqrs0TOATaDCe0gcu5K0Dz.jpg",
      "popularity": 21.699,
      "adult": false,
      "known_for_department": "Acting"
    },
    {
      "id": 1878952,
      "name": "Song Kang",
      "profile_path": "/dMUXkMfkTEw3qrJisk0mQCQxmBI.jpg",
      "popularity": 21.697,
      "adult": false,
      "known_for_department": "Acting"
    },
    {
      "id": 21163,
      "name": "Gary Cole",
      "profile_path": "/gPxHlVK9vNQSa5DkTFKYvLMASdE.jpg",
      "popularity": 21.693,
      "adult": false,
      "known_for_department": "Acting"
    },
    {
      "id": 16757,
      "name": "Sophia Loren",
      "profile_path": "/1bBtumefzTEmhmglAICkfizUgwy.jpg",
      "popularity": 21.666,
      "adult": false,
      "known_for_department": "Acting"
    },
    {
      "id": 17141,
      "name": "Greg Kinnear",
      "profile_path": "/uwMo3ek4UQu2DL3JYpnHkd77ONk.jpg",
      "popularity": 21.663,
      "adult": false,
      "known_for_department": "Acting"
    },
    {
      "id": 193734,
      "name": "Lisa Loring",
      "profile_path": "/d9muuK0aWF1DGh4COWwTKdqhXca.jpg",
      "popularity": 21.656,
      "adult": false,
      "known_for_department": "Acting"
    },
    {
      "id": 111924,
      "name": "Ryan Grantham",
      "profile_path": "/wlWeQOjIcwColETLJmaaqm7eRuo.jpg",
      "popularity": 21.644,
      "adult": false,
      "known_for_department": "Acting"
    },
    {
      "id": 41420,
      "name": "Lisa Edelstein",
      "profile_path": "/dzopHIOFvXENVjbvMYBf81c5JZU.jpg",
      "popularity": 21.636,
      "adult": false,
      "known_for_department": "Acting"
    },
    {
      "id": 18248,
      "name": "Mary-Louise Parker",
      "profile_path": "/ljaNmBF31BbOvrrawms7vCsIqBP.jpg",
      "popularity": 21.629,
      "adult": false,
      "known_for_department": "Acting"
    },
    {
      "id": 27260,
      "name": "Laila Robins",
      "profile_path": "/6ihD0IVKKKBqPO3gG3fXSiP8GMy.jpg",
      "popularity": 21.619,
      "adult": false,
      "known_for_department": "Acting"
    },
    {
      "id": 16478,
      "name": "Johnny Galecki",
      "profile_path": "/kwMOVJvWDkiXEuKiyNJMaoFnhkj.jpg",
      "popularity": 21.612,
      "adult": false,
      "known_for_department": "Acting"
    }
  ]
}