{
  "page": 331,
  "total_results": 10000,
  "total_pages": 500,
  "results": [
    {
      "id": 29909,
      "name": "Nigel Green",
      "profile_path": "/aBiU6YMvmzlpw97IhGlm0q7B8y.jpg",
      "popularity": 9.042,
      "adult": false,
      "known_for_department": "Acting"
    },
    {
      "id": 1729377,
      "name": "Furkan Palalı",
      "profile_path": "/zSCwAGJrn5LwaPDy8OAJ1q0IDo5.jpg",
      "popularity": 9.041,
      "adult": false,
      "known_for_department": "Acting"
    },
    {
      "id": 136761,
      "name": "Nathalie Baye",
      "profile_path": "/9WZnFcyqdixlOfqHKBXq0l0Rc4L.jpg",
      "popularity": 9.041,
      "adult": false,
      "known_for_department": "Acting"
    },
    {
      "id": 78431,
      "name": "Ben Feldman",
      "profile_path": "/neArGlsh50NtcGzUM99Puz6TrFX.jpg",
      "popularity": 9.041,
      "adult": false,
      "known_for_department": "Acting"
    },
    {
      "id": 63978,
      "name": "Jodi Benson",
      "profile_path": "/2qX8QKHCaFWnCcIhb3VgZeX9HPz.jpg",
      "popularity": 9.041,
      "adult": false,
      "known_for_department": "Acting"
    },
    {
      "id": 1273684,
      "name": "Olga Kent",
      "profile_path": "/66cTjnO606hAygeCZWOuwFM6jaE.jpg",
      "popularity": 9.04,
      "adult": false,
      "known_for_department": "Acting"
    },
    {
      "id": 123148,
      "name": "Brandon Quinn",
      "profile_path": "/zM9OI7oIyEPVuIdK1EcUrkJK8QC.jpg",
      "popularity": 9.04,
      "adult": false,
      "known_for_department": "Acting"
    },
    {
      "id": 19975,
      "name": "Michael Rosenbaum",
      "profile_path": "/9a1wACjRIAg1cbTEsL5WrzPwnFi.jpg",
      "popularity": 9.04,
      "adult": false,
      "known_for_department": "Acting"
    },
    {
      "id": 15310,
      "name": "Anthony Kiedis",
      "profile_path": "/xkSV6hDKjDdF5ZYv8lQPBhPncWi.jpg",
      "popularity": 9.04,
      "adult": false,
      "known_for_department": "Acting"
    },
    {
      "id": 4774,
      "name": "Jim Brown",
      "profile_path": "/wfp06VC5yr9mdzdZ5JcbzqD5YEG.jpg",
      "popularity": 9.039,
      "adult": false,
      "known_for_department": "Acting"
    },
    {
      "id": 1742631,
      "name": "Siobhán McSweeney",
      "profile_path": "/aKcahJktgrrdQ6lJCMFAstEHQuF.jpg",
      "popularity": 9.038,
      "adult": false,
      "known_for_department": "Acting"
    },
    {
      "id": 114406,
      "name": "Eric Garcia",
      "profile_path": "",
      "popularity": 9.037,
      "adult": false,
      "known_for_department": "Writing"
    },
    {
      "id": 81125,
      "name": "Denis Ménochet",
      "profile_path": "/uslRryP2crSUTSvg7nB2cSKdc3L.jpg",
      "popularity": 9.037,
      "adult": false,
      "known_for_department": "Acting"
    },
    {
      "id": 80116,
      "name": "Julie Strain",
      "profile_path": "/mOk6BkBbKoljJxKWxtcXLFmLokX.jpg",
      "popularity": 9.037,
      "adult": false,
      "known_for_department": "Acting"
    },
    {
      "id": 1717627,
      "name": "Dasha Nekrasova",
      "profile_path": "/iEWg6G96sOtzRphRlJCVjw7TQOt.jpg",
      "popularity": 9.036,
      "adult": false,
      "known_for_department": "Acting"
    },
    {
      "id": 1310760,
      "name": "Ki Hong Lee",
      "profile_path": "/96zkB3e07LB1hw2segekZS1PlQb.jpg",
      "popularity": 9.036,
      "adult": false,
      "known_for_department": "Acting"
    },
    {
      "id": 1421422,
      "name": "Caitlin Carver",
      "profile_path": "/a4SaUdZnyI7B5z29yG9NMFEAN8E.jpg",
      "popularity": 9.034,
      "adult": false,
      "known_for_department": "Acting"
    },
    {
      "id": 11390,
      "name": "Peter O'Toole",
      "profile_path": "/2F15qrkiDp4qhYJnXuFqINIBsHp.jpg",
      "popularity": 9.034,
      "adult": false,
      "known_for_department": "Acting"
    },
    {
      "id": 1065297,
      "name": "Kensho Ono",
      "profile_path": "/wUYJ3HIeygHfh4rAqupE4RPoG3W.jpg",
      "popularity": 9.033,
      "adult": false,
      "known_for_department": "Acting"
    },
    {
      "id": 20623,
      "name": "Wendy Makkena",
      "profile_path": "/lf5N6a6yo3Ui75dwnxJuZZrUNDi.jpg",
      "popularity": 9.032,
      "adult": false,
      "known_for_department": "Acting"
    }
  ]
}