{
  "page": 132,
  "total_results": 10000,
  "total_pages": 500,
  "results": [
    {
      "id": 11074,
      "name": "Kathy Najimy",
      "profile_path": "/nqbZF7Igr0SC8Xq8y0jwmx0mLDN.jpg",
      "popularity": 13.788,
      "adult": false,
      "known_for_department": "Acting"
    },
    {
      "id": 2090,
      "name": "Kirk Douglas",
      "profile_path": "/yvunzQgnILw6uNBFMyld5nhkBCX.jpg",
      "popularity": 13.783,
      "adult": false,
      "known_for_department": "Acting"
    },
    {
      "id": 32278,
      "name": "Matt Reeves",
      "profile_path": "/5rA459xpMt6IeJG7ZqvhLbSozEH.jpg",
      "popularity": 13.782,
      "adult": false,
      "known_for_department": "Directing"
    },
    {
      "id": 543204,
      "name": "Susan Sullivan",
      "profile_path": "/cafgP4eWAKCwPP76qO7xSkbrSUz.jpg",
      "popularity": 13.779,
      "adult": false,
      "known_for_department": "Acting"
    },
    {
      "id": 34248,
      "name": "Rena Sofer",
      "profile_path": "/k9KztxV6396WMKZxPk1X74P6z9G.jpg",
      "popularity": 13.779,
      "adult": false,
      "known_for_department": "Acting"
    },
    {
      "id": 17341,
      "name": "Amaury Nolasco",
      "profile_path": "/v6iUsKTv9KPK2iBbrcWhzhO7Rht.jpg",
      "popularity": 13.779,
      "adult": false,
      "known_for_department": "Acting"
    },
    {
      "id": 570784,
      "name": "Aliette Opheim",
      "profile_path": "/mAmTygwd20C3bHEZbusLfPOFmmi.jpg",
      "popularity": 13.778,
      "adult": false,
      "known_for_department": "Acting"
    },
    {
      "id": 3460,
      "name": "Gene Wilder",
      "profile_path": "/mwwOSWS2m8ArpiUKnoxVVyT8fND.jpg",
      "popularity": 13.775,
      "adult": false,
      "known_for_department": "Acting"
    },
    {
      "id": 1549900,
      "name": "Park Cho-hyeon",
      "profile_path": "/7LPSEcKA4SlrEmVvQFc4xizNoXF.jpg",
      "popularity": 13.769,
      "adult": false,
      "known_for_department": "Acting"
    },
    {
      "id": 1871464,
      "name": "Benjamin Voisin",
      "profile_path": "/gn7NsqkZ3kAZxDnE18ZMjJzTCIQ.jpg",
      "popularity": 13.766,
      "adult": false,
      "known_for_department": "Acting"
    },
    {
      "id": 1604540,
      "name": "Cory Gruter-Andrew",
      "profile_path": "/ue6roHiaRgs5AVz1kbXw5LGL67G.jpg",
      "popularity": 13.762,
      "adult": false,
      "known_for_department": "Acting"
    },
    {
      "id": 1192761,
      "name": "Dominic Sherwood",
      "profile_path": "/1ZxJDocd5JGwjKxEJ1gjORj1prQ.jpg",
      "popularity": 13.76,
      "adult": false,
      "known_for_department": "Acting"
    },
    {
      "id": 997887,
      "name": "Ronda Rousey",
      "profile_path": "/5eGHTV1bLOdajC4Z3pnIdSiptSG.jpg",
      "popularity": 13.76,
      "adult": false,
      "known_for_department": "Acting"
    },
    {
      "id": 4090,
      "name": "Shirley MacLaine",
      "profile_path": "/mpW9c34IAFPW0ODuKR8J0FAqN5i.jpg",
      "popularity": 13.759,
      "adult": false,
      "known_for_department": "Acting"
    },
    {
      "id": 82702,
      "name": "Michael Jackson",
      "profile_path": "/oc5FWwO5VYBjkKkIHTxoCtFXJ1G.jpg",
      "popularity": 13.758,
      "adult": false,
      "known_for_department": "Acting"
    },
    {
      "id": 1477963,
      "name": "Abigail Winter",
      "profile_path": "/t8QjJCFdlcKpZRpiS6RUjzs3LYb.jpg",
      "popularity": 13.755,
      "adult": false,
      "known_for_department": "Acting"
    },
    {
      "id": 303020,
      "name": "Meaghan Rath",
      "profile_path": "/yzt9DdfikLxVfn2tKdUYRZiQDtW.jpg",
      "popularity": 13.755,
      "adult": false,
      "known_for_department": "Acting"
    },
    {
      "id": 23789,
      "name": "Sebastian Roché",
      "profile_path": "/cP3RxXiMeMyhhNpacoXZskbcNKa.jpg",
      "popularity": 13.752,
      "adult": false,
      "known_for_department": "Acting"
    },
    {
      "id": 4201,
      "name": "Wayne Knight",
      "profile_path": "/xlGqbZjn48xAUa7eqTybZP360w0.jpg",
      "popularity": 13.751,
      "adult": false,
      "known_for_department": "Acting"
    },
    {
      "id": 13524,
      "name": "Christopher Guest",
      "profile_path": "/blRS1tkcgZROLC7ObGigFEzvp2r.jpg",
      "popularity": 13.75,
      "adult": false,
      "known_for_department": "Acting"
    }
  ]
}