{
  "page": 71,
  "total_results": 10000,
  "total_pages": 500,
  "results": [
    {
      "id": 1327,
      "name": "Ian McKellen",
      "profile_path": "/5cnnnpnJG6TiYUSS7qgJheUZgnv.jpg",
      "popularity": 19.503,
      "adult": false,
      "known_for_department": "Acting"
    },
    {
      "id": 1888322,
      "name": "Devrim Lingnau",
      "profile_path": "/vRKhVZFPhtpPv6VbXRGXTdbucZZ.jpg",
      "popularity": 19.489,
      "adult": false,
      "known_for_department": "Acting"
    },
    {
      "id": 1911491,
      "name": "Kenzie Phillips",
      "profile_path": "/zQ3YsyyeAOgtEUaUuMD1tXusSdT.jpg",
      "popularity": 19.482,
      "adult": false,
      "known_for_department": "Acting"
    },
    {
      "id": 43202,
      "name": "Antje Traue",
      "profile_path": "/oDp1CxuY5hF2yXXoz599Ikc04kU.jpg",
      "popularity": 19.478,
      "adult": false,
      "known_for_department": "Acting"
    },
    {
      "id": 1168097,
      "name": "Manuel Garcia-Rulfo",
      "profile_path": "/54Rk1hKfNdNKGHQMnONDGmNtUv3.jpg",
      "popularity": 19.468,
      "adult": false,
      "known_for_department": "Acting"
    },
    {
      "id": 142855,
      "name": "Tuba Büyüküstün",
      "profile_path": "/dn2LVuo9rF8R9EkDIZ43sZ4f20W.jpg",
      "popularity": 19.462,
      "adult": false,
      "known_for_department": "Acting"
    },
    {
      "id": 1355967,
      "name": "Simona Tabasco",
      "profile_path": "/vCXL4zsEh451MS0lTAN2PaPiUG9.jpg",
      "popularity": 19.455,
      "adult": false,
      "known_for_department": "Acting"
    },
    {
      "id": 21625,
      "name": "Molly Ringwald",
      "profile_path": "/eXRphPiX18t8C3nCoOuxQFNegqP.jpg",
      "popularity": 19.435,
      "adult": false,
      "known_for_department": "Acting"
    },
    {
      "id": 11478,
      "name": "Lorraine Bracco",
      "profile_path": "/cmVcc09jfmoOqGLY595aBQu3IsP.jpg",
      "popularity": 19.435,
      "adult": false,
      "known_for_department": "Acting"
    },
    {
      "id": 54447,
      "name": "Samuel West",
      "profile_path": "/yIDXDpgXxPbl5qWu8KHV7fGzVNr.jpg",
      "popularity": 19.42,
      "adult": false,
      "known_for_department": "Acting"
    },
    {
      "id": 13567,
      "name": "Ann-Margret",
      "profile_path": "/7cq76gMW4Mal5cctMLCK8wilJ6.jpg",
      "popularity": 19.419,
      "adult": false,
      "known_for_department": "Acting"
    },
    {
      "id": 54415,
      "name": "Josh Gad",
      "profile_path": "/17iKlfWZBDTAucqjkhRKHr9xjIz.jpg",
      "popularity": 19.417,
      "adult": false,
      "known_for_department": "Acting"
    },
    {
      "id": 67599,
      "name": "Vanessa Hudgens",
      "profile_path": "/8S8Nn5m5qkiIrEJ3dzPRjltzrkx.jpg",
      "popularity": 19.412,
      "adult": false,
      "known_for_department": "Acting"
    },
    {
      "id": 30290,
      "name": "Victor Mature",
      "profile_path": "/trTvjfUNOFxYL0Se70ZJMYKUsqS.jpg",
      "popularity": 19.404,
      "adult": false,
      "known_for_department": "Acting"
    },
    {
      "id": 1016071,
      "name": "Déborah Révy",
      "profile_path": "/a3EmfvlSIcRhIwFm6nFLWCnIuFi.jpg",
      "popularity": 19.4,
      "adult": false,
      "known_for_department": "Acting"
    },
    {
      "id": 25654,
      "name": "Julianna Margulies",
      "profile_path": "/yuYF7jf9FRzphMTsmp1l1MkGpNK.jpg",
      "popularity": 19.395,
      "adult": false,
      "known_for_department": "Acting"
    },
    {
      "id": 2188232,
      "name": "Lisann Valentin",
      "profile_path": "/518LRQA9xYpobWNsR5A1Ea13EUU.jpg",
      "popularity": 19.393,
      "adult": false,
      "known_for_department": "Acting"
    },
    {
      "id": 19109,
      "name": "Carolyn Jones",
      "profile_path": "/ylA0xqACyD6mXS2e9d5cuI9wKut.jpg",
      "popularity": 19.392,
      "adult": false,
      "known_for_department": "Acting"
    },
    {
      "id": 42191,
      "name": "Kenny Johnson",
      "profile_path": "/AvokUhBWsqAdnRO3xAzWluf8vdx.jpg",
      "popularity": 19.39,
      "adult": false,
      "known_for_department": "Acting"
    },
    {
      "id": 1278500,
      "name": "Courtney Eaton",
      "profile_path": "/jmDszxVsDdNf2ZUCqRkWPu5ltv3.jpg",
      "popularity": 19.389,
      "adult": false,
      "known_for_department": "Acting"
    }
  ]
}