{
  "page": 43,
  "total_results": 10000,
  "total_pages": 500,
  "results": [
    {
      "id": 1639,
      "name": "Emily Watson",
      "profile_path": "/bd0qiJXHoLNpkCqABsh67AKRtjC.jpg",
      "popularity": 23.517,
      "adult": false,
      "known_for_department": "Acting"
    },
    {
      "id": 13312,
      "name": "Rae Dawn Chong",
      "profile_path": "/aj9fFFKH3QZX2FSJsj81I4y12M7.jpg",
      "popularity": 23.514,
      "adult": false,
      "known_for_department": "Acting"
    },
    {
      "id": 4587,
      "name": "Halle Berry",
      "profile_path": "/iwFIGOO9jSwymlJdYhTOdmJqciz.jpg",
      "popularity": 23.511,
      "adult": false,
      "known_for_department": "Acting"
    },
    {
      "id": 2127,
      "name": "James Wan",
      "profile_path": "/bNJccMIKzCtYnndcOKniSKCzo5Y.jpg",
      "popularity": 23.502,
      "adult": false,
      "known_for_department": "Production"
    },
    {
      "id": 49,
      "name": "Maria Bello",
      "profile_path": "/it1f5mxiGIWO0DzTBfwtLTjphZb.jpg",
      "popularity": 23.492,
      "adult": false,
      "known_for_department": "Acting"
    },
    {
      "id": 98285,
      "name": "Bella Thorne",
      "profile_path": "/mdsbU2sEZ0Z2CZ2YGnurrYf70AN.jpg",
      "popularity": 23.483,
      "adult": false,
      "known_for_department": "Acting"
    },
    {
      "id": 9575,
      "name": "Jada Pinkett Smith",
      "profile_path": "/vt1Z1Fsu7gjp4L0OHey9Aa79lWj.jpg",
      "popularity": 23.475,
      "adult": false,
      "known_for_department": "Acting"
    },
    {
      "id": 1501573,
      "name": "Park Sun-ho",
      "profile_path": "/c6mlezwClOIxNmqe58Z4PckLTWv.jpg",
      "popularity": 23.467,
      "adult": false,
      "known_for_department": "Acting"
    },
    {
      "id": 109,
      "name": "Elijah Wood",
      "profile_path": "/7UKRbJBNG7mxBl2QQc5XsAh6F8B.jpg",
      "popularity": 23.462,
      "adult": false,
      "known_for_department": "Acting"
    },
    {
      "id": 1893,
      "name": "Casey Affleck",
      "profile_path": "/vD5MtCjHPHpmU9XNn74EPGMHT7o.jpg",
      "popularity": 23.442,
      "adult": false,
      "known_for_department": "Acting"
    },
    {
      "id": 7060,
      "name": "Martin Freeman",
      "profile_path": "/pLG7mmxBXXTVAgzXvQl0ap3qlJU.jpg",
      "popularity": 23.44,
      "adult": false,
      "known_for_department": "Acting"
    },
    {
      "id": 74423,
      "name": "Tricia Helfer",
      "profile_path": "/cXwa8yT2Qv7EmCI8yjs5ldvMHmw.jpg",
      "popularity": 23.421,
      "adult": false,
      "known_for_department": "Acting"
    },
    {
      "id": 556435,
      "name": "Cho Yeo-jeong",
      "profile_path": "/n7YWOoquBL9g3qEwQ2zvrQSW96L.jpg",
      "popularity": 23.412,
      "adult": false,
      "known_for_department": "Acting"
    },
    {
      "id": 24,
      "name": "Robert Zemeckis",
      "profile_path": "/lPYDQ5LYNJ12rJZENtyASmVZ1Ql.jpg",
      "popularity": 23.407,
      "adult": false,
      "known_for_department": "Directing"
    },
    {
      "id": 70456,
      "name": "Emily Browning",
      "profile_path": "/silK3Pdugbf1YOtIdXev1eZxzvF.jpg",
      "popularity": 23.387,
      "adult": false,
      "known_for_department": "Acting"
    },
    {
      "id": 2314,
      "name": "Peter Falk",
      "profile_path": "/5HhzU8ErKK5tUSRMUAE8P4n26C0.jpg",
      "popularity": 23.38,
      "adult": false,
      "known_for_department": "Acting"
    },
    {
      "id": 53862,
      "name": "Kaley Cuoco",
      "profile_path": "/c01Ma8Jrr2OJ6uoikPwDK34Y8eK.jpg",
      "popularity": 23.371,
      "adult": false,
      "known_for_department": "Acting"
    },
    {
      "id": 27811,
      "name": "Peter Weller",
      "profile_path": "/mVRJX38zabRadVPJe0XOTObVzhp.jpg",
      "popularity": 23.362,
      "adult": false,
      "known_for_department": "Acting"
    },
    {
      "id": 21041,
      "name": "Shohreh Aghdashloo",
      "profile_path": "/vuE7zU05kmnalORwIzVTi8uIMRA.jpg",
      "popularity": 23.3,
      "adult": false,
      "known_for_department": "Acting"
    },
    {
      "id": 12850,
      "name": "Dabney Coleman",
      "profile_path": "/3CzM56fVawKlm5jaAHHqkc2CACm.jpg",
      "popularity": 23.297,
      "adult": false,
      "known_for_department": "Acting"
    }
  ]
}