{
  "page": 311,
  "total_results": 10000,
  "total_pages": 500,
  "results": [
    {
      "id": 2391518,
      "name": "Yuri Vasilyev",
      "profile_path": "",
      "popularity": 9.276,
      "adult": false,
      "known_for_department": "Writing"
    },
    {
      "id": 8186,
      "name": "Miko Hughes",
      "profile_path": "/apmHxkgtWe5bucTOrw92caoJftz.jpg",
      "popularity": 9.274,
      "adult": false,
      "known_for_department": "Acting"
    },
    {
      "id": 42141,
      "name": "Casey Sander",
      "profile_path": "/xHVyamqUbJK2dmFCw7LOQzYREJF.jpg",
      "popularity": 9.273,
      "adult": false,
      "known_for_department": "Acting"
    },
    {
      "id": 25655,
      "name": "Zoe Telford",
      "profile_path": "/3oFNtRDlyUURPukWLSgkyc5rFk6.jpg",
      "popularity": 9.272,
      "adult": false,
      "known_for_department": "Acting"
    },
    {
      "id": 1090816,
      "name": "Alyona Khmelnitskaya",
      "profile_path": "/wu8o1TMZN81zvMkcC8fHag1EjDh.jpg",
      "popularity": 9.271,
      "adult": false,
      "known_for_department": "Acting"
    },
    {
      "id": 52474,
      "name": "Jason London",
      "profile_path": "/bFkC2ZRcurTQzbjBuuMljFCKfEv.jpg",
      "popularity": 9.271,
      "adult": false,
      "known_for_department": "Acting"
    },
    {
      "id": 155625,
      "name": "Sonya Eddy",
      "profile_path": "/u4yQNLmXkijZoXxMYC2Hs3DtA4P.jpg",
      "popularity": 9.269,
      "adult": false,
      "known_for_department": "Acting"
    },
    {
      "id": 109301,
      "name": "Carrie Ng",
      "profile_path": "/qLyGOZWhRCntGJDNYH9YErfPqec.jpg",
      "popularity": 9.269,
      "adult": false,
      "known_for_department": "Acting"
    },
    {
      "id": 54291,
      "name": "Gilles Lellouche",
      "profile_path": "/mrd6gOwofUe3AO1hUmr2KSnVV6y.jpg",
      "popularity": 9.269,
      "adult": false,
      "known_for_department": "Acting"
    },
    {
      "id": 21710,
      "name": "Michael O'Neill",
      "profile_path": "/u9Ejl9iS4ZJ36Y653UCe8huLaOn.jpg",
      "popularity": 9.269,
      "adult": false,
      "known_for_department": "Acting"
    },
    {
      "id": 2962,
      "name": "Robert Foxworth",
      "profile_path": "/bBg01x7PFToWlMVhZBjfEbP9pOD.jpg",
      "popularity": 9.268,
      "adult": false,
      "known_for_department": "Acting"
    },
    {
      "id": 1836114,
      "name": "Malachi Barton",
      "profile_path": "/3qR4YL4gGOpXsHkAQirrtEBGXrg.jpg",
      "popularity": 9.267,
      "adult": false,
      "known_for_department": "Acting"
    },
    {
      "id": 98234,
      "name": "Barbara Bain",
      "profile_path": "/jLUoYMqpxaIR2Vc4YmFCjdM0H6s.jpg",
      "popularity": 9.265,
      "adult": false,
      "known_for_department": "Acting"
    },
    {
      "id": 1160576,
      "name": "Noel Chik King-Man",
      "profile_path": "/jSrDLjCuoXch3BhWmXCimppczIR.jpg",
      "popularity": 9.264,
      "adult": false,
      "known_for_department": "Acting"
    },
    {
      "id": 240082,
      "name": "Jeong In-gi",
      "profile_path": "/eOsxLjCfPx3jaUGKwXBg9UGkSxB.jpg",
      "popularity": 9.264,
      "adult": false,
      "known_for_department": "Acting"
    },
    {
      "id": 62054,
      "name": "Faith Ford",
      "profile_path": "/8FMAHz9LD7xCnmeX8rkkNknXqhy.jpg",
      "popularity": 9.264,
      "adult": false,
      "known_for_department": "Acting"
    },
    {
      "id": 1392937,
      "name": "Carmel Amit",
      "profile_path": "/qIBZ3SOsIQOo1CD2ker5YPnnuiY.jpg",
      "popularity": 9.263,
      "adult": false,
      "known_for_department": "Acting"
    },
    {
      "id": 1180941,
      "name": "Kerry Knuppe",
      "profile_path": "/fJGFRIcMiVyyxoSXs3zfBDjcjht.jpg",
      "popularity": 9.263,
      "adult": false,
      "known_for_department": "Acting"
    },
    {
      "id": 1481836,
      "name": "Ilayda Akdoğan",
      "profile_path": "/qhIKaKW4O9LhRqNL3KX3cvDmCWa.jpg",
      "popularity": 9.262,
      "adult": false,
      "known_for_department": "Acting"
    },
    {
      "id": 8496,
      "name": "Paul Fix",
      "profile_path": "/6UxeK9SOSfdvDSedLBxD3kUcCrq.jpg",
      "popularity": 9.262,
      "adult": false,
      "known_for_department": "Acting"
    }
  ]
}