{
  "page": 62,
  "total_results": 10000,
  "total_pages": 500,
  "results": [
    {
      "id": 2525697,
      "name": "Buçe Buse Kahraman",
      "profile_path": "/hSXhmslCL6KRfGCj1T0W7LH0DHS.jpg",
      "popularity": 21.32,
      "adult": false,
      "known_for_department": "Acting"
    },
    {
      "id": 42687,
      "name": "Athena Massey",
      "profile_path": "/41yqNbjhnjEW8mSUaZws0XaRW3M.jpg",
      "popularity": 21.318,
      "adult": false,
      "known_for_department": "Acting"
    },
    {
      "id": 2879,
      "name": "Rob Lowe",
      "profile_path": "/77decDyKXB34i9A1FnMM1suI5cA.jpg",
      "popularity": 21.318,
      "adult": false,
      "known_for_department": "Acting"
    },
    {
      "id": 58369,
      "name": "Alexandra Breckenridge",
      "profile_path": "/tyR52cqImLCFwT8otR15Edvih9b.jpg",
      "popularity": 21.313,
      "adult": false,
      "known_for_department": "Acting"
    },
    {
      "id": 1282054,
      "name": "Sophie Cookson",
      "profile_path": "/3HrHnpDFjHIdHNeEyhEdzh6L6jd.jpg",
      "popularity": 21.294,
      "adult": false,
      "known_for_department": "Acting"
    },
    {
      "id": 77948,
      "name": "Selena Gomez",
      "profile_path": "/ojeD1fbRyfQPWgjWOmSEeNLynsP.jpg",
      "popularity": 21.292,
      "adult": false,
      "known_for_department": "Acting"
    },
    {
      "id": 50463,
      "name": "Malin Åkerman",
      "profile_path": "/u38qRcCAiO3SZdFKJKx3fncDyef.jpg",
      "popularity": 21.288,
      "adult": false,
      "known_for_department": "Acting"
    },
    {
      "id": 884,
      "name": "Steve Buscemi",
      "profile_path": "/lQKdHMxfYcCBOvwRKBAxPZVNtkg.jpg",
      "popularity": 21.282,
      "adult": false,
      "known_for_department": "Acting"
    },
    {
      "id": 34408,
      "name": "Stana Katic",
      "profile_path": "/4Kw0xJTzRc4VPfOVlaMr7OTfvN2.jpg",
      "popularity": 21.273,
      "adult": false,
      "known_for_department": "Acting"
    },
    {
      "id": 17882,
      "name": "Isabelle Huppert",
      "profile_path": "/3YQwWkpNKQeV5NUmdCH76Ne1gDP.jpg",
      "popularity": 21.27,
      "adult": false,
      "known_for_department": "Acting"
    },
    {
      "id": 132354,
      "name": "Kate Micucci",
      "profile_path": "/10FRMebTRHAgkxqhJ3Egq1liICF.jpg",
      "popularity": 21.234,
      "adult": false,
      "known_for_department": "Acting"
    },
    {
      "id": 56890,
      "name": "Malcolm McDowell",
      "profile_path": "/hL8ep4Hqj6izX7IlzE7Bbcfq62w.jpg",
      "popularity": 21.232,
      "adult": false,
      "known_for_department": "Acting"
    },
    {
      "id": 85143,
      "name": "Angela Sarafyan",
      "profile_path": "/tR148JalXjmLC845G4T2pOzfD5X.jpg",
      "popularity": 21.231,
      "adult": false,
      "known_for_department": "Acting"
    },
    {
      "id": 225810,
      "name": "Kim S. Falck-Jørgensen",
      "profile_path": "/pMwD3F5ANWQNF9UU3KivLt2EgFa.jpg",
      "popularity": 21.23,
      "adult": false,
      "known_for_department": "Acting"
    },
    {
      "id": 18975,
      "name": "Wilmer Valderrama",
      "profile_path": "/ApA03vxxobrGauXmQ3LpGM5EKjD.jpg",
      "popularity": 21.229,
      "adult": false,
      "known_for_department": "Acting"
    },
    {
      "id": 129101,
      "name": "Lance Reddick",
      "profile_path": "/7itmzy8XrhWrBOTpNWqXc3l61ly.jpg",
      "popularity": 21.221,
      "adult": false,
      "known_for_department": "Acting"
    },
    {
      "id": 2954,
      "name": "Jeffrey Wright",
      "profile_path": "/yGcuHGW4glqRpOPxgiCvjcren7F.jpg",
      "popularity": 21.208,
      "adult": false,
      "known_for_department": "Acting"
    },
    {
      "id": 5528,
      "name": "William Moseley",
      "profile_path": "/7a55ifGzqKIw9TbEYQUc0bnHfnq.jpg",
      "popularity": 21.207,
      "adult": false,
      "known_for_department": "Acting"
    },
    {
      "id": 1212,
      "name": "Laura San Giacomo",
      "profile_path": "/3ssTmPfsir5DNzyKRO4ZJS6XGFW.jpg",
      "popularity": 21.203,
      "adult": false,
      "known_for_department": "Acting"
    },
    {
      "id": 3872,
      "name": "Daniel Brühl",
      "profile_path": "/3YlmTfiy5qZXkrdKGjaM1uMjGKP.jpg",
      "popularity": 21.181,
      "adult": false,
      "known_for_department": "Acting"
    }
  ]
}