{
  "page": 302,
  "total_results": 10000,
  "total_pages": 500,
  "results": [
    {
      "id": 221843,
      "name": "Shannon Chan-Kent",
      "profile_path": "/pt8rq0yQXPHxXBDi1xbeVBjfqiD.jpg",
      "popularity": 9.475,
      "adult": false,
      "known_for_department": "Acting"
    },
    {
      "id": 98661,
      "name": "Bradley Stryker",
      "profile_path": "/3h0F6HRz4He5ESx9mIIIGV90MF2.jpg",
      "popularity": 9.473,
      "adult": false,
      "known_for_department": "Acting"
    },
    {
      "id": 1299244,
      "name": "Lee Re",
      "profile_path": "/i1A5E4v5xRFammipC3H4jeOwczv.jpg",
      "popularity": 9.472,
      "adult": false,
      "known_for_department": "Acting"
    },
    {
      "id": 1282320,
      "name": "Çağlar Ertuğrul",
      "profile_path": "/eGBlZyLaEzDgYdcVeXBNkbTcOES.jpg",
      "popularity": 9.469,
      "adult": false,
      "known_for_department": "Acting"
    },
    {
      "id": 204131,
      "name": "Jeremy Shada",
      "profile_path": "/qTV1zef7qpQsNhjGh1QcKO00ZxZ.jpg",
      "popularity": 9.469,
      "adult": false,
      "known_for_department": "Acting"
    },
    {
      "id": 1282044,
      "name": "Altan Gördüm",
      "profile_path": "/abnCpvfYuoRnSoOyNwuYNgsrJnn.jpg",
      "popularity": 9.468,
      "adult": false,
      "known_for_department": "Acting"
    },
    {
      "id": 140253,
      "name": "Talia Balsam",
      "profile_path": "/qaElqZwNktWxhOxeF8Up0ibdBjc.jpg",
      "popularity": 9.467,
      "adult": false,
      "known_for_department": "Acting"
    },
    {
      "id": 987035,
      "name": "Charlie Barnett",
      "profile_path": "/sXsBKckWtNEBI3A4NV0rCFVVR4Y.jpg",
      "popularity": 9.466,
      "adult": false,
      "known_for_department": "Acting"
    },
    {
      "id": 69395,
      "name": "Bug Hall",
      "profile_path": "/axuZx8nn7R7ohlkfnxO9k3TIGiq.jpg",
      "popularity": 9.465,
      "adult": false,
      "known_for_department": "Acting"
    },
    {
      "id": 101908,
      "name": "Maxwell Caulfield",
      "profile_path": "/90277SzouzHOAT4ZU3euYh6Sl0x.jpg",
      "popularity": 9.463,
      "adult": false,
      "known_for_department": "Acting"
    },
    {
      "id": 58477,
      "name": "Jonathan Loughran",
      "profile_path": "/jNXgI1GRWJ1qquFkloj484rujAJ.jpg",
      "popularity": 9.463,
      "adult": false,
      "known_for_department": "Acting"
    },
    {
      "id": 41903,
      "name": "Jakob Cedergren",
      "profile_path": "/vLpbFAPhNfbQPpgkMVAJDd3uXCB.jpg",
      "popularity": 9.463,
      "adult": false,
      "known_for_department": "Acting"
    },
    {
      "id": 529003,
      "name": "Connor Jessup",
      "profile_path": "/j0ZqG2UJA5oMRKhOY7JDpgNE52S.jpg",
      "popularity": 9.462,
      "adult": false,
      "known_for_department": "Acting"
    },
    {
      "id": 95102,
      "name": "Kaitlin Olson",
      "profile_path": "/z84SKRCVl9zPhP9AINVS8Bx8dRO.jpg",
      "popularity": 9.461,
      "adult": false,
      "known_for_department": "Acting"
    },
    {
      "id": 1628687,
      "name": "Regé-Jean Page",
      "profile_path": "/2NYvHjBlfVeY0gDJLaQXnw4Lfxm.jpg",
      "popularity": 9.457,
      "adult": false,
      "known_for_department": "Acting"
    },
    {
      "id": 60716,
      "name": "Bob Sapp",
      "profile_path": "/8lmzp41I6Wlh8KvF39msaGQMly3.jpg",
      "popularity": 9.457,
      "adult": false,
      "known_for_department": "Acting"
    },
    {
      "id": 1522761,
      "name": "Jessica Madsen",
      "profile_path": "/6dVwWe0bDFvmsBGOdPQwTf6qqTz.jpg",
      "popularity": 9.456,
      "adult": false,
      "known_for_department": "Acting"
    },
    {
      "id": 78050,
      "name": "Elyes Gabel",
      "profile_path": "/z9IqYTYxhVR9ADxaksbPQwiYQns.jpg",
      "popularity": 9.456,
      "adult": false,
      "known_for_department": "Acting"
    },
    {
      "id": 5077,
      "name": "Valeria Bruni Tedeschi",
      "profile_path": "/aUOCl9ejkoenABuTjcDpDtkbvD7.jpg",
      "popularity": 9.456,
      "adult": false,
      "known_for_department": "Acting"
    },
    {
      "id": 8499,
      "name": "William Windom",
      "profile_path": "/jLKGf2gQR4cBDnUWFOsXY2y5Pui.jpg",
      "popularity": 9.453,
      "adult": false,
      "known_for_department": "Acting"
    }
  ]
}