{
  "page": 375,
  "total_results": 10000,
  "total_pages": 500,
  "results": [
    {
      "id": 87305,
      "name": "Ahsaas Channa",
      "profile_path": "/kuKH1dG8XpqguFvdggukTpnyN33.jpg",
      "popularity": 9.285,
      "adult": false,
      "known_for_department": "Acting"
    },
    {
      "id": 12515,
      "name": "José Ferrer",
      "profile_path": "/1sNJx2gmiZsSDSA8gc0qpkgULsn.jpg",
      "popularity": 9.285,
      "adult": false,
      "known_for_department": "Acting"
    },
    {
      "id": 8175,
      "name": "Thom Barry",
      "profile_path": "/9XhXqoqKqfQHZ5kGtuSkldcKYSF.jpg",
      "popularity": 9.284,
      "adult": false,
      "known_for_department": "Acting"
    },
    {
      "id": 62870,
      "name": "Chris Eastman",
      "profile_path": "/9ZZXhy4pzyJvZLrmINpugJzZNAg.jpg",
      "popularity": 9.283,
      "adult": false,
      "known_for_department": "Acting"
    },
    {
      "id": 383,
      "name": "Michael Palin",
      "profile_path": "/7qCp6M2NxMWpUmO2t6IqHGNlBjz.jpg",
      "popularity": 9.283,
      "adult": false,
      "known_for_department": "Acting"
    },
    {
      "id": 36055,
      "name": "Costas Mandylor",
      "profile_path": "/2A4RYVm07NZCzOUKx6FaRisRfen.jpg",
      "popularity": 9.282,
      "adult": false,
      "known_for_department": "Acting"
    },
    {
      "id": 15099,
      "name": "Paul Willson",
      "profile_path": "/w6tzfcU1YPSx9JpWgiCqZ2V88VQ.jpg",
      "popularity": 9.282,
      "adult": false,
      "known_for_department": "Acting"
    },
    {
      "id": 119151,
      "name": "Reilly Dolman",
      "profile_path": "/3vEHVvL7hRiQAnvkUVkablLLIdX.jpg",
      "popularity": 9.28,
      "adult": false,
      "known_for_department": "Acting"
    },
    {
      "id": 94864,
      "name": "Max Martini",
      "profile_path": "/3J9qjWkft7LsmHuQ0GHPnPIToOF.jpg",
      "popularity": 9.278,
      "adult": false,
      "known_for_department": "Acting"
    },
    {
      "id": 55547,
      "name": "Matt Czuchry",
      "profile_path": "/cGCDS57LYFi3z2taneq0w4qAscp.jpg",
      "popularity": 9.278,
      "adult": false,
      "known_for_department": "Acting"
    },
    {
      "id": 9192,
      "name": "Togo Igawa",
      "profile_path": "/ceEgj3Ezbf07xWvb8CWh0MEhpTg.jpg",
      "popularity": 9.278,
      "adult": false,
      "known_for_department": "Acting"
    },
    {
      "id": 83854,
      "name": "David Dastmalchian",
      "profile_path": "/sF7yHISn8kuBy7T39gB5dMpObpk.jpg",
      "popularity": 9.276,
      "adult": false,
      "known_for_department": "Acting"
    },
    {
      "id": 1850355,
      "name": "Jack Fisher",
      "profile_path": "/9WLKUtNDV4V8hu77Ta2YPVBWqv3.jpg",
      "popularity": 9.275,
      "adult": false,
      "known_for_department": "Acting"
    },
    {
      "id": 1648346,
      "name": "Robert Aramayo",
      "profile_path": "/5CNx6hV7buItL1Icsc2AorP9AqE.jpg",
      "popularity": 9.275,
      "adult": false,
      "known_for_department": "Acting"
    },
    {
      "id": 1485114,
      "name": "Madalyn Horcher",
      "profile_path": "/tgbI87CaMhNUFPdnqw9fpvh1hBW.jpg",
      "popularity": 9.274,
      "adult": false,
      "known_for_department": "Acting"
    },
    {
      "id": 11866,
      "name": "Joshua Jackson",
      "profile_path": "/mH2a5YFd8J7upjjWwEzM75vitA2.jpg",
      "popularity": 9.274,
      "adult": false,
      "known_for_department": "Acting"
    },
    {
      "id": 1241611,
      "name": "Satomi Sato",
      "profile_path": "/o0Aueg2zc3E8ojbguo8Tbd1oAyB.jpg",
      "popularity": 9.273,
      "adult": false,
      "known_for_department": "Acting"
    },
    {
      "id": 102,
      "name": "Debbie Harry",
      "profile_path": "/9dw709YXEC9Ctk3HgM4uSTXURpK.jpg",
      "popularity": 9.273,
      "adult": false,
      "known_for_department": "Acting"
    },
    {
      "id": 1752056,
      "name": "Rashmika Mandanna",
      "profile_path": "/oNdQeuoJk7kNjAHZd4vEcedC7yY.jpg",
      "popularity": 9.272,
      "adult": false,
      "known_for_department": "Acting"
    },
    {
      "id": 1682535,
      "name": "Kim Adis",
      "profile_path": "/1tT9HYwy0lTw4UWtTJC0RexcKgo.jpg",
      "popularity": 9.272,
      "adult": false,
      "known_for_department": "Acting"
    }
  ]
}