{
  "page": 95,
  "total_results": 10000,
  "total_pages": 500,
  "results": [
    {
      "id": 1948457,
      "name": "Charles Lin",
      "profile_path": "/2VcLGKie7s2hvcSw2J66aRUEJj0.jpg",
      "popularity": 16.794,
      "adult": false,
      "known_for_department": "Acting"
    },
    {
      "id": 221116,
      "name": "India Eisley",
      "profile_path": "/7dmchBMMzEvUG7pkEGYdyQ35Y3F.jpg",
      "popularity": 16.794,
      "adult": false,
      "known_for_department": "Acting"
    },
    {
      "id": 2769,
      "name": "Natalie Wood",
      "profile_path": "/bl86pdMJLPZ6iQ2gOfghZQqsKwE.jpg",
      "popularity": 16.791,
      "adult": false,
      "known_for_department": "Acting"
    },
    {
      "id": 70767,
      "name": "Drea de Matteo",
      "profile_path": "/kRr4XnvKGBYW0aVejQzpZiosOmo.jpg",
      "popularity": 16.789,
      "adult": false,
      "known_for_department": "Acting"
    },
    {
      "id": 1117313,
      "name": "John David Washington",
      "profile_path": "/qoOp8XvZ4v7B0C9ZmtoRCl9CDSO.jpg",
      "popularity": 16.788,
      "adult": false,
      "known_for_department": "Acting"
    },
    {
      "id": 28410,
      "name": "Jake Busey",
      "profile_path": "/3WknfRePAvwFJfrbYVvfYXTQCh9.jpg",
      "popularity": 16.788,
      "adult": false,
      "known_for_department": "Acting"
    },
    {
      "id": 53820,
      "name": "Michael C. Hall",
      "profile_path": "/7zUMGoujuev5PUwwv4Gl6ikB50k.jpg",
      "popularity": 16.773,
      "adult": false,
      "known_for_department": "Acting"
    },
    {
      "id": 222088,
      "name": "Shay Mitchell",
      "profile_path": "/x6BXTJYIVsNEbzHNV1hLC3EzvpA.jpg",
      "popularity": 16.77,
      "adult": false,
      "known_for_department": "Acting"
    },
    {
      "id": 7467,
      "name": "David Fincher",
      "profile_path": "/tpEczFclQZeKAiCeKZZ0adRvtfz.jpg",
      "popularity": 16.77,
      "adult": false,
      "known_for_department": "Directing"
    },
    {
      "id": 7404,
      "name": "Sarah Silverman",
      "profile_path": "/vgNBorEu5VDpjy9WmxWeH0Yoo37.jpg",
      "popularity": 16.767,
      "adult": false,
      "known_for_department": "Acting"
    },
    {
      "id": 29092,
      "name": "Bryan Brown",
      "profile_path": "/x0NqVqpJSET0oVdJxbbwwd7hrFA.jpg",
      "popularity": 16.763,
      "adult": false,
      "known_for_department": "Acting"
    },
    {
      "id": 47533,
      "name": "Paula Malcomson",
      "profile_path": "/9lJy6ze86ZfVcBcyBK9UZq8FJiC.jpg",
      "popularity": 16.758,
      "adult": false,
      "known_for_department": "Acting"
    },
    {
      "id": 452,
      "name": "Margo Martindale",
      "profile_path": "/6ANuYnZZJTuQLL4bbt8vH1qDYje.jpg",
      "popularity": 16.757,
      "adult": false,
      "known_for_department": "Acting"
    },
    {
      "id": 26495,
      "name": "Jean Louisa Kelly",
      "profile_path": "/hUaXI2x27HNIKc4WXcnvNkl4wF9.jpg",
      "popularity": 16.751,
      "adult": false,
      "known_for_department": "Acting"
    },
    {
      "id": 1023483,
      "name": "Phoebe Waller-Bridge",
      "profile_path": "/lKMjGRKF4JqbQAoJ5aNs8cNUBFQ.jpg",
      "popularity": 16.734,
      "adult": false,
      "known_for_department": "Acting"
    },
    {
      "id": 1109976,
      "name": "Izabela Vidovic",
      "profile_path": "/q8lxW2OaUmP5OF8SkntIp2vPcDX.jpg",
      "popularity": 16.731,
      "adult": false,
      "known_for_department": "Acting"
    },
    {
      "id": 21818,
      "name": "Lesley Ann Warren",
      "profile_path": "/lNzHL38hPCAC4ZqI0mVFVgXrLsM.jpg",
      "popularity": 16.729,
      "adult": false,
      "known_for_department": "Acting"
    },
    {
      "id": 2390,
      "name": "LeVar Burton",
      "profile_path": "/tC74tISKpFGmJkrw24MMLix5nNa.jpg",
      "popularity": 16.724,
      "adult": false,
      "known_for_department": "Acting"
    },
    {
      "id": 9629,
      "name": "Jon Gries",
      "profile_path": "/nX69eyOvpmJ0YEpm2Qz2ZISngqw.jpg",
      "popularity": 16.723,
      "adult": false,
      "known_for_department": "Acting"
    },
    {
      "id": 6240,
      "name": "Mariska Hargitay",
      "profile_path": "/dQTXg59BAmEH6iUHQ3XUjg7drtd.jpg",
      "popularity": 16.721,
      "adult": false,
      "known_for_department": "Acting"
    }
  ]
}