{
  "page": 206,
  "total_results": 10000,
  "total_pages": 500,
  "results": [
    {
      "id": 1803286,
      "name": "Gideon Adlon",
      "profile_path": "/l8BSlg87Mn75n28P2aXzot6G0pi.jpg",
      "popularity": 12.622,
      "adult": false,
      "known_for_department": "Acting"
    },
    {
      "id": 89963,
      "name": "Masashi Kishimoto",
      "profile_path": "/8hoQQiQEak3HxCDhEIDcAZ8QI41.jpg",
      "popularity": 12.622,
      "adult": false,
      "known_for_department": "Writing"
    },
    {
      "id": 4940,
      "name": "Trevor Morgan",
      "profile_path": "/txZ59fUmdyyv5cowmFDu85HiBeF.jpg",
      "popularity": 12.621,
      "adult": false,
      "known_for_department": "Acting"
    },
    {
      "id": 1291041,
      "name": "Shin Yu-ju",
      "profile_path": "/ez3GVJXwLQ9PJxG1TbsrhMetqiM.jpg",
      "popularity": 12.62,
      "adult": false,
      "known_for_department": "Acting"
    },
    {
      "id": 54728,
      "name": "Brian Huskey",
      "profile_path": "/te38JswcD9frbyLuxQPIsBB24yz.jpg",
      "popularity": 12.619,
      "adult": false,
      "known_for_department": "Acting"
    },
    {
      "id": 11663,
      "name": "Patrick Fugit",
      "profile_path": "/bsONcodcqRKV97p1Oo1jcPkEnDA.jpg",
      "popularity": 12.619,
      "adult": false,
      "known_for_department": "Acting"
    },
    {
      "id": 51663,
      "name": "Sean Gunn",
      "profile_path": "/jXCNsh2c7vKWhWgpSGEdgFSLjxm.jpg",
      "popularity": 12.618,
      "adult": false,
      "known_for_department": "Acting"
    },
    {
      "id": 2873789,
      "name": "Justin Pierre Edmund",
      "profile_path": "/6OJlSGY9PKXOEU0Pv0CkD2xdZTc.jpg",
      "popularity": 12.617,
      "adult": false,
      "known_for_department": "Acting"
    },
    {
      "id": 10582,
      "name": "Daniel Sunjata",
      "profile_path": "/w3Wa0d7j2auA2R8FQvjrgfB3ozo.jpg",
      "popularity": 12.615,
      "adult": false,
      "known_for_department": "Acting"
    },
    {
      "id": 15268,
      "name": "Branka Katić",
      "profile_path": "/wRautmsBw9RBuSRRizI1gPCeNJ8.jpg",
      "popularity": 12.611,
      "adult": false,
      "known_for_department": "Acting"
    },
    {
      "id": 86268,
      "name": "Serinda Swan",
      "profile_path": "/mA4qtNZnn0A2oT1s4IIHseO8oiu.jpg",
      "popularity": 12.608,
      "adult": false,
      "known_for_department": "Acting"
    },
    {
      "id": 24271,
      "name": "Ken Campbell",
      "profile_path": "/vnDf7qSyuZ5EsVPKNNeocvnA0Qo.jpg",
      "popularity": 12.606,
      "adult": false,
      "known_for_department": "Acting"
    },
    {
      "id": 16847,
      "name": "Eli Roth",
      "profile_path": "/qQTkpxzh1FlBGL1HD5hzdUMxv49.jpg",
      "popularity": 12.605,
      "adult": false,
      "known_for_department": "Acting"
    },
    {
      "id": 992630,
      "name": "Jung Suk-won",
      "profile_path": "/s7jAL3X6wF3ciq5FpKa8QXHUlqd.jpg",
      "popularity": 12.601,
      "adult": false,
      "known_for_department": "Acting"
    },
    {
      "id": 1962619,
      "name": "Milena Radulović",
      "profile_path": "/36p6fWs1pMVSUA0KUrvcZeMspvG.jpg",
      "popularity": 12.6,
      "adult": false,
      "known_for_department": "Acting"
    },
    {
      "id": 21354,
      "name": "Russell Wong",
      "profile_path": "/5S4ITB3tELBnfi0PFr9CWo9rmuZ.jpg",
      "popularity": 12.599,
      "adult": false,
      "known_for_department": "Acting"
    },
    {
      "id": 16016,
      "name": "David Brian",
      "profile_path": "/6HV6QjFntfyCmPuQ8L6ikH0eSHX.jpg",
      "popularity": 12.597,
      "adult": false,
      "known_for_department": "Acting"
    },
    {
      "id": 1295461,
      "name": "Park Jin-joo",
      "profile_path": "/fMYi2wypK1pbOP4F7MuWpJyqdR7.jpg",
      "popularity": 12.596,
      "adult": false,
      "known_for_department": "Acting"
    },
    {
      "id": 1328338,
      "name": "Chihiro Yamamoto",
      "profile_path": "/rdrIuK5bxqJIPdolAhsAlMqn4pM.jpg",
      "popularity": 12.594,
      "adult": false,
      "known_for_department": "Acting"
    },
    {
      "id": 1223134,
      "name": "Kim Jae-wook",
      "profile_path": "/kCq8iKzKa2MxF9kxX7QfhRf6uin.jpg",
      "popularity": 12.594,
      "adult": false,
      "known_for_department": "Acting"
    }
  ]
}