{
  "page": 102,
  "total_results": 10000,
  "total_pages": 500,
  "results": [
    {
      "id": 1212960,
      "name": "Charlotte Sullivan",
      "profile_path": "/4CDEOQiGffGCv5IQs5yaY1BfuD9.jpg",
      "popularity": 16.726,
      "adult": false,
      "known_for_department": "Acting"
    },
    {
      "id": 4764,
      "name": "John C. Reilly",
      "profile_path": "/iDQ8w4qcxU3le5ZWoCKpHs1QNok.jpg",
      "popularity": 16.726,
      "adult": false,
      "known_for_department": "Acting"
    },
    {
      "id": 1683742,
      "name": "Cara Gonzales",
      "profile_path": "/6qhDrAqOWLf7UreV8yqwulDwxYE.jpg",
      "popularity": 16.723,
      "adult": false,
      "known_for_department": "Acting"
    },
    {
      "id": 3030323,
      "name": "Nakhun Screaigh",
      "profile_path": "/cpl7vJNyceJssIw92fVED6Jgzdz.jpg",
      "popularity": 16.719,
      "adult": false,
      "known_for_department": "Acting"
    },
    {
      "id": 2628,
      "name": "Kiefer Sutherland",
      "profile_path": "/xOiK8Sdl4TPprEIyzTWZ8hoVmOe.jpg",
      "popularity": 16.719,
      "adult": false,
      "known_for_department": "Acting"
    },
    {
      "id": 587634,
      "name": "Park Bo-gum",
      "profile_path": "/lITY3WsJOFjlHkP1bJ3PwYhuNnD.jpg",
      "popularity": 16.717,
      "adult": false,
      "known_for_department": "Acting"
    },
    {
      "id": 85203,
      "name": "Damian Lee",
      "profile_path": "/bgjPuHM7NbQighCrvXoq7qekIhz.jpg",
      "popularity": 16.715,
      "adult": false,
      "known_for_department": "Directing"
    },
    {
      "id": 1393177,
      "name": "Noah Schnapp",
      "profile_path": "/tYtxIVUrtfNkrmMridULC7Yu93J.jpg",
      "popularity": 16.709,
      "adult": false,
      "known_for_department": "Acting"
    },
    {
      "id": 54697,
      "name": "Dave Franco",
      "profile_path": "/lgzjs56hk0ucf2rwQnSG5U3Q49i.jpg",
      "popularity": 16.704,
      "adult": false,
      "known_for_department": "Acting"
    },
    {
      "id": 52852,
      "name": "Kat Dennings",
      "profile_path": "/rrfyo9z1wW5nY9ZsFlj1Ozfj9g2.jpg",
      "popularity": 16.7,
      "adult": false,
      "known_for_department": "Acting"
    },
    {
      "id": 11148,
      "name": "Joan Allen",
      "profile_path": "/2w40UhN3WoW9G9EkLzhDcfF3t9W.jpg",
      "popularity": 16.697,
      "adult": false,
      "known_for_department": "Acting"
    },
    {
      "id": 1344344,
      "name": "Storm Reid",
      "profile_path": "/wA8cntFil1AuwusEZXLH9o898m1.jpg",
      "popularity": 16.695,
      "adult": false,
      "known_for_department": "Acting"
    },
    {
      "id": 1597855,
      "name": "Madison Iseman",
      "profile_path": "/5JVhacnNhqLcWpGPH1fqL7Ovq7g.jpg",
      "popularity": 16.689,
      "adult": false,
      "known_for_department": "Acting"
    },
    {
      "id": 61697,
      "name": "Sung Kang",
      "profile_path": "/jCrjAt7L1SO4TOC0O6Nr7ZZU8vS.jpg",
      "popularity": 16.685,
      "adult": false,
      "known_for_department": "Acting"
    },
    {
      "id": 239019,
      "name": "Kit Harington",
      "profile_path": "/noInYh5IKASiecR5lHJSjXIDmkm.jpg",
      "popularity": 16.684,
      "adult": false,
      "known_for_department": "Acting"
    },
    {
      "id": 589722,
      "name": "Teresa Ruiz",
      "profile_path": "/bu0bGNDzIpaVfrOBBb1PERirBB9.jpg",
      "popularity": 16.677,
      "adult": false,
      "known_for_department": "Acting"
    },
    {
      "id": 2065258,
      "name": "Cemre Baysel",
      "profile_path": "/boFPytgGcEop9vbJcltNgjEEfPi.jpg",
      "popularity": 16.662,
      "adult": false,
      "known_for_department": "Acting"
    },
    {
      "id": 29512,
      "name": "Gerald McRaney",
      "profile_path": "/wT7WK9T3ZS3tQTbzPzH9RR1m6NR.jpg",
      "popularity": 16.662,
      "adult": false,
      "known_for_department": "Acting"
    },
    {
      "id": 51382,
      "name": "Chris Parnell",
      "profile_path": "/aGzA5l9S89qLkhpSdjmkerFdZt0.jpg",
      "popularity": 16.658,
      "adult": false,
      "known_for_department": "Acting"
    },
    {
      "id": 5694,
      "name": "Robert Forster",
      "profile_path": "/vGDifxN2PnO69rnpg6FoWkocFCD.jpg",
      "popularity": 16.656,
      "adult": false,
      "known_for_department": "Acting"
    }
  ]
}