{
  "page": 337,
  "total_results": 10000,
  "total_pages": 500,
  "results": [
    {
      "id": 58264,
      "name": "Dirk Benedict",
      "profile_path": "/lQG0YpiHdhQgs5DKS0185JA60mr.jpg",
      "popularity": 9.192,
      "adult": false,
      "known_for_department": "Acting"
    },
    {
      "id": 84423,
      "name": "Conleth Hill",
      "profile_path": "/zRc8eGN3aFjDapoAKpzWBYBFxCr.jpg",
      "popularity": 9.19,
      "adult": false,
      "known_for_department": "Acting"
    },
    {
      "id": 1988291,
      "name": "Ong Seong-wu",
      "profile_path": "/4g1G3l9AmQlntojYnebc7MUOaQe.jpg",
      "popularity": 9.189,
      "adult": false,
      "known_for_department": "Acting"
    },
    {
      "id": 84620,
      "name": "Erika Toda",
      "profile_path": "/7Kw2cJBTxobx4pqokxGivfsxcPo.jpg",
      "popularity": 9.189,
      "adult": false,
      "known_for_department": "Acting"
    },
    {
      "id": 16119,
      "name": "Charles Napier",
      "profile_path": "/w16LEJlHDtqGWeFCk5a7a2GDeBK.jpg",
      "popularity": 9.189,
      "adult": false,
      "known_for_department": "Acting"
    },
    {
      "id": 33709,
      "name": "Uschi Glas",
      "profile_path": "/mKDi0fWioc8N5TPwh3rOEEMtFQ3.jpg",
      "popularity": 9.188,
      "adult": false,
      "known_for_department": "Acting"
    },
    {
      "id": 164208,
      "name": "Hemky Madera",
      "profile_path": "/net1kEEpSrr9QC9be6YRhLGuM0k.jpg",
      "popularity": 9.187,
      "adult": false,
      "known_for_department": "Acting"
    },
    {
      "id": 98591,
      "name": "Belinda Gavin",
      "profile_path": "/mKaV0ClUBBl6oJtPPEGW5BK48ej.jpg",
      "popularity": 9.187,
      "adult": false,
      "known_for_department": "Acting"
    },
    {
      "id": 12890,
      "name": "Pete Docter",
      "profile_path": "/rrAW10FlcOjqMllSwNBrFjfUT4k.jpg",
      "popularity": 9.187,
      "adult": false,
      "known_for_department": "Writing"
    },
    {
      "id": 6751,
      "name": "Siobhan Fallon Hogan",
      "profile_path": "/7rwlp39q1o3OpY44FcHOcIHLTcK.jpg",
      "popularity": 9.186,
      "adult": false,
      "known_for_department": "Acting"
    },
    {
      "id": 2214888,
      "name": "Kim Hye-yoon",
      "profile_path": "/7WFkvDHqxS6xTpKBYpJyjd22e44.jpg",
      "popularity": 9.185,
      "adult": false,
      "known_for_department": "Acting"
    },
    {
      "id": 1324468,
      "name": "Ryota Osaka",
      "profile_path": "/d2TGy8Qkxe90tGDr9MCXFGkhbPl.jpg",
      "popularity": 9.185,
      "adult": false,
      "known_for_department": "Acting"
    },
    {
      "id": 3006,
      "name": "Toni Kalem",
      "profile_path": "/m5PpCV3QTpTNR9KdKsnQnZo2Iof.jpg",
      "popularity": 9.185,
      "adult": false,
      "known_for_department": "Acting"
    },
    {
      "id": 156689,
      "name": "Jessica Tuck",
      "profile_path": "/jxBUK4AO2CAJs1WmVERHUnP8gE1.jpg",
      "popularity": 9.183,
      "adult": false,
      "known_for_department": "Acting"
    },
    {
      "id": 1611607,
      "name": "Ivan Yankovsky",
      "profile_path": "/87HaU0t1EUA1sxMHenUFvsYrrnj.jpg",
      "popularity": 9.18,
      "adult": false,
      "known_for_department": "Acting"
    },
    {
      "id": 150125,
      "name": "Ju Ji-hoon",
      "profile_path": "/7PYfUrBBXhYv5PIsTalJhjbRteg.jpg",
      "popularity": 9.18,
      "adult": false,
      "known_for_department": "Acting"
    },
    {
      "id": 9998,
      "name": "Joey Slotnick",
      "profile_path": "/AbQMBdomzhuqKC27LVWkurWfIms.jpg",
      "popularity": 9.18,
      "adult": false,
      "known_for_department": "Acting"
    },
    {
      "id": 35236,
      "name": "Hunter Parrish",
      "profile_path": "/6wLY0152iu5EHZLEjuLfBQ6ArBg.jpg",
      "popularity": 9.178,
      "adult": false,
      "known_for_department": "Acting"
    },
    {
      "id": 1437417,
      "name": "Natalie Madueño",
      "profile_path": "/gdl4TUomjJiWBiHz6DbWeXGubQZ.jpg",
      "popularity": 9.176,
      "adult": false,
      "known_for_department": "Acting"
    },
    {
      "id": 355391,
      "name": "Alla Kliouka",
      "profile_path": "/nXVEDFXQRCoGaXn4KHYf60j1IoK.jpg",
      "popularity": 9.176,
      "adult": false,
      "known_for_department": "Acting"
    }
  ]
}