{
  "page": 184,
  "total_results": 10000,
  "total_pages": 500,
  "results": [
    {
      "id": 58264,
      "name": "Dirk Benedict",
      "profile_path": "/lQG0YpiHdhQgs5DKS0185JA60mr.jpg",
      "popularity": 15.122,
      "adult": false,
      "known_for_department": "Acting"
    },
    {
      "id": 3126573,
      "name": "Choi Hyun-wook",
      "profile_path": "/5ArVtQfsYdVBnUBGAJMfup0vgLR.jpg",
      "popularity": 15.118,
      "adult": false,
      "known_for_department": "Acting"
    },
    {
      "id": 1033632,
      "name": "Victoria Guerra",
      "profile_path": "/2baLSCRfyT4b9z9DcBqwVvHI1XF.jpg",
      "popularity": 15.117,
      "adult": false,
      "known_for_department": "Acting"
    },
    {
      "id": 113861,
      "name": "Luisa d'Oliveira",
      "profile_path": "/AqqrE7zKHBxtxeEvYHcwSzIgWlc.jpg",
      "popularity": 15.116,
      "adult": false,
      "known_for_department": "Acting"
    },
    {
      "id": 80998,
      "name": "Yuliya Snigir",
      "profile_path": "/8yOAGFm6X4Xw5DrWPRZRXM49Eix.jpg",
      "popularity": 15.116,
      "adult": false,
      "known_for_department": "Acting"
    },
    {
      "id": 971388,
      "name": "Nick Bateman",
      "profile_path": "/cWNithlEJh7WmF4WixIIF1IUPmz.jpg",
      "popularity": 15.114,
      "adult": false,
      "known_for_department": "Acting"
    },
    {
      "id": 26469,
      "name": "Holly Marie Combs",
      "profile_path": "/smZy91UWhB8bZib6A28kTQ8w9sT.jpg",
      "popularity": 15.114,
      "adult": false,
      "known_for_department": "Acting"
    },
    {
      "id": 1391420,
      "name": "MIYAVI",
      "profile_path": "/vQYBdyFdjaBmKUnYp10NgIqmxAN.jpg",
      "popularity": 15.113,
      "adult": false,
      "known_for_department": "Acting"
    },
    {
      "id": 1482876,
      "name": "Lee Sung-kyoung",
      "profile_path": "/l0gUEjmdPuM2HYpHecGCCz4s6mI.jpg",
      "popularity": 15.11,
      "adult": false,
      "known_for_department": "Acting"
    },
    {
      "id": 126,
      "name": "Fran Walsh",
      "profile_path": "/roXPta5fAmGzqdOIvUQbDavZy8Y.jpg",
      "popularity": 15.11,
      "adult": false,
      "known_for_department": "Writing"
    },
    {
      "id": 1258599,
      "name": "Cengiz Coşkun",
      "profile_path": "/w37Hn8nL7UhtZvNrwYuv2J5FEko.jpg",
      "popularity": 15.107,
      "adult": false,
      "known_for_department": "Acting"
    },
    {
      "id": 232006,
      "name": "Nat Wolff",
      "profile_path": "/elgszZQCo9ZyU8CBpROuI0lfN5o.jpg",
      "popularity": 15.106,
      "adult": false,
      "known_for_department": "Acting"
    },
    {
      "id": 112645,
      "name": "Marci T. House",
      "profile_path": "/axLQS0wYYPMjJmaL268aUcaW505.jpg",
      "popularity": 15.105,
      "adult": false,
      "known_for_department": "Acting"
    },
    {
      "id": 1152,
      "name": "Oliver Stone",
      "profile_path": "/nPFtjueZHmU56boVKXEvAoQOTWf.jpg",
      "popularity": 15.103,
      "adult": false,
      "known_for_department": "Directing"
    },
    {
      "id": 1367234,
      "name": "Mo Brings Plenty",
      "profile_path": "/2CxofuWPRZf3G0kYJytblYiHXIy.jpg",
      "popularity": 15.102,
      "adult": false,
      "known_for_department": "Acting"
    },
    {
      "id": 5953,
      "name": "Spike Jonze",
      "profile_path": "/x2QeqEXvi3QjgTybvZ4mmqUf4qO.jpg",
      "popularity": 15.099,
      "adult": false,
      "known_for_department": "Directing"
    },
    {
      "id": 3627,
      "name": "Paz Vega",
      "profile_path": "/fNLlJysFd5f0Q8Lj20EZpU8BiRN.jpg",
      "popularity": 15.098,
      "adult": false,
      "known_for_department": "Acting"
    },
    {
      "id": 1294914,
      "name": "Yoon Yoo-sun",
      "profile_path": "/u9MlMnqGYyPmYoF4sLPjX8HBCDk.jpg",
      "popularity": 15.092,
      "adult": false,
      "known_for_department": "Acting"
    },
    {
      "id": 206405,
      "name": "Greyston Holt",
      "profile_path": "/OefIUfHekZLHwGVjyZmFauUI5W.jpg",
      "popularity": 15.089,
      "adult": false,
      "known_for_department": "Acting"
    },
    {
      "id": 119759,
      "name": "Brandy Ledford",
      "profile_path": "/1PE7olSfYiXHFKXyNhgB8NmNcyP.jpg",
      "popularity": 15.089,
      "adult": false,
      "known_for_department": "Acting"
    }
  ]
}