{
  "page": 303,
  "total_results": 10000,
  "total_pages": 500,
  "results": [
    {
      "id": 2717,
      "name": "Rick Rossovich",
      "profile_path": "/uShNdPWbDHMejpMxuoNsqaaDbuc.jpg",
      "popularity": 9.982,
      "adult": false,
      "known_for_department": "Acting"
    },
    {
      "id": 129168,
      "name": "Alice Pol",
      "profile_path": "/68S5LG4kud4egwNQZMtraSUGCSV.jpg",
      "popularity": 9.98,
      "adult": false,
      "known_for_department": "Acting"
    },
    {
      "id": 1366025,
      "name": "Zofia Wichłacz",
      "profile_path": "/lQiwvVcQ8fiv3CBZHL0x6tcmoLr.jpg",
      "popularity": 9.979,
      "adult": false,
      "known_for_department": "Acting"
    },
    {
      "id": 54414,
      "name": "Jacob Pitts",
      "profile_path": "/hSgGV6HNDk9GHObRkOGyFue0WUu.jpg",
      "popularity": 9.979,
      "adult": false,
      "known_for_department": "Acting"
    },
    {
      "id": 1736257,
      "name": "Li Yitong",
      "profile_path": "/gVB17aDOgt1IpUWtYxIjkJnhKea.jpg",
      "popularity": 9.977,
      "adult": false,
      "known_for_department": "Acting"
    },
    {
      "id": 1037844,
      "name": "Laci J Mailey",
      "profile_path": "/bK2nRgGeC0l8E6Ug3LTFy2ijqyF.jpg",
      "popularity": 9.977,
      "adult": false,
      "known_for_department": "Acting"
    },
    {
      "id": 188013,
      "name": "Taylor Spreitler",
      "profile_path": "/5sAmpcNJiNeRV77CXJ2SWPsStkP.jpg",
      "popularity": 9.976,
      "adult": false,
      "known_for_department": "Acting"
    },
    {
      "id": 21944,
      "name": "Burt Kwouk",
      "profile_path": "/30lVKb2Sg4Lwexy8UjpVmU94Ccf.jpg",
      "popularity": 9.976,
      "adult": false,
      "known_for_department": "Acting"
    },
    {
      "id": 105335,
      "name": "Adrienne La Russa",
      "profile_path": "/fEOnzlXd0hMpGxlSmt9Dwl7Xwqb.jpg",
      "popularity": 9.974,
      "adult": false,
      "known_for_department": "Acting"
    },
    {
      "id": 66221,
      "name": "Tyne Daly",
      "profile_path": "/uR0nx2bniih1Kdhst5R3LH59smk.jpg",
      "popularity": 9.974,
      "adult": false,
      "known_for_department": "Acting"
    },
    {
      "id": 9777,
      "name": "Cuba Gooding Jr.",
      "profile_path": "/j4gPj92SP3Rj5xxSUe1CIkFCXhB.jpg",
      "popularity": 9.974,
      "adult": false,
      "known_for_department": "Acting"
    },
    {
      "id": 1776040,
      "name": "Asia Kate Dillon",
      "profile_path": "/jJutYe9XAaCrHyKGi3nIpCOwwkR.jpg",
      "popularity": 9.973,
      "adult": false,
      "known_for_department": "Acting"
    },
    {
      "id": 95703,
      "name": "Kyrre Hellum",
      "profile_path": "/pFhPPKfngoI6D08aUm5c8dKgV7h.jpg",
      "popularity": 9.973,
      "adult": false,
      "known_for_department": "Acting"
    },
    {
      "id": 60060,
      "name": "Mackenzie Astin",
      "profile_path": "/2cE08v6N7OyWH8OqenYelQ2dEWy.jpg",
      "popularity": 9.973,
      "adult": false,
      "known_for_department": "Acting"
    },
    {
      "id": 90569,
      "name": "Yuko Minaguchi",
      "profile_path": "/bEv0ho89VNgWkCCmT2GdNjMAuvZ.jpg",
      "popularity": 9.972,
      "adult": false,
      "known_for_department": "Acting"
    },
    {
      "id": 41043,
      "name": "Tim McInnerny",
      "profile_path": "/nOLjLixEDo1xFhBmAfRLMKwB9Fv.jpg",
      "popularity": 9.971,
      "adult": false,
      "known_for_department": "Acting"
    },
    {
      "id": 26258,
      "name": "Kenneth Cranham",
      "profile_path": "/9lzTbNgaoArlxpEkYtWQfOyiYwu.jpg",
      "popularity": 9.968,
      "adult": false,
      "known_for_department": "Acting"
    },
    {
      "id": 25074,
      "name": "Stanley Townsend",
      "profile_path": "/ry1kek817WYHOh1npa3ojxmGJcI.jpg",
      "popularity": 9.968,
      "adult": false,
      "known_for_department": "Acting"
    },
    {
      "id": 19910,
      "name": "Nora Tschirner",
      "profile_path": "/wokKXj6ENlTirwP3u57uVbFMw8y.jpg",
      "popularity": 9.967,
      "adult": false,
      "known_for_department": "Acting"
    },
    {
      "id": 234923,
      "name": "Alfred Enoch",
      "profile_path": "/eEVvPHmxRBcEGqtoTujncmwNDhR.jpg",
      "popularity": 9.966,
      "adult": false,
      "known_for_department": "Acting"
    }
  ]
}