{
  "page": 8,
  "total_results": 10000,
  "total_pages": 500,
  "results": [
    {
      "id": 883,
      "name": "Will Patton",
      "profile_path": "/2vr8aJacajXz7m4lMc2WdVniCRZ.jpg",
      "popularity": 46.303,
      "adult": false,
      "known_for_department": "Acting"
    },
    {
      "id": 55089,
      "name": "Evan Peters",
      "profile_path": "/zqbdd5pLDD8DJ4TXr3HDNmFXrYn.jpg",
      "popularity": 46.212,
      "adult": false,
      "known_for_department": "Acting"
    },
    {
      "id": 117642,
      "name": "Jason Momoa",
      "profile_path": "/6dEFBpZH8C8OijsynkSajQT99Pb.jpg",
      "popularity": 46.176,
      "adult": false,
      "known_for_department": "Acting"
    },
    {
      "id": 18277,
      "name": "Sandra Bullock",
      "profile_path": "/u2tnZ0L2dwrzFKevVANYT5Pb1nE.jpg",
      "popularity": 46.028,
      "adult": false,
      "known_for_department": "Acting"
    },
    {
      "id": 205976,
      "name": "Kelsey Asbille",
      "profile_path": "/8mXqxKaPc6FpAnLeZlPaaUaJHdC.jpg",
      "popularity": 45.695,
      "adult": false,
      "known_for_department": "Acting"
    },
    {
      "id": 2372,
      "name": "Ron Perlman",
      "profile_path": "/nfky6J9ueey1gMdWMNU9k9YdfGP.jpg",
      "popularity": 45.686,
      "adult": false,
      "known_for_department": "Acting"
    },
    {
      "id": 37014,
      "name": "Lauren German",
      "profile_path": "/wlfew4J9O6fOhizjjQtqUeT36Jb.jpg",
      "popularity": 45.62,
      "adult": false,
      "known_for_department": "Acting"
    },
    {
      "id": 54693,
      "name": "Emma Stone",
      "profile_path": "/cZ8a3QvAnj2cgcgVL6g4XaqPzpL.jpg",
      "popularity": 45.382,
      "adult": false,
      "known_for_department": "Acting"
    },
    {
      "id": 11006,
      "name": "James Marsden",
      "profile_path": "/mk142GG0saiSXALY6V4wWcmPROW.jpg",
      "popularity": 45.372,
      "adult": false,
      "known_for_department": "Acting"
    },
    {
      "id": 70851,
      "name": "Jack Black",
      "profile_path": "/rtCx0fiYxJVhzXXdwZE2XRTfIKE.jpg",
      "popularity": 45.254,
      "adult": false,
      "known_for_department": "Acting"
    },
    {
      "id": 12835,
      "name": "Vin Diesel",
      "profile_path": "/9uxTwqB8anAiPomB6Kqm6A73VTV.jpg",
      "popularity": 45.218,
      "adult": false,
      "known_for_department": "Acting"
    },
    {
      "id": 5576,
      "name": "Val Kilmer",
      "profile_path": "/szMi36EOoCuMYeYO9eYqRefEnKo.jpg",
      "popularity": 44.776,
      "adult": false,
      "known_for_department": "Acting"
    },
    {
      "id": 17419,
      "name": "Bryan Cranston",
      "profile_path": "/7Jahy5LZX2Fo8fGJltMreAI49hC.jpg",
      "popularity": 44.728,
      "adult": false,
      "known_for_department": "Acting"
    },
    {
      "id": 131,
      "name": "Jake Gyllenhaal",
      "profile_path": "/rJdYHYNhlcOBwbPvDZVvt1xw7bi.jpg",
      "popularity": 44.696,
      "adult": false,
      "known_for_department": "Acting"
    },
    {
      "id": 4174,
      "name": "Claire Forlani",
      "profile_path": "/rThJr0KCFeBg0SjQPdJ11p6LfUC.jpg",
      "popularity": 44.678,
      "adult": false,
      "known_for_department": "Acting"
    },
    {
      "id": 1134734,
      "name": "Pauline Chan",
      "profile_path": "/lwEjTPAOCWJCftIQ3H1kvt1d5cd.jpg",
      "popularity": 44.614,
      "adult": false,
      "known_for_department": "Acting"
    },
    {
      "id": 2039,
      "name": "Brendan Gleeson",
      "profile_path": "/379TXtBPRrkBDrEBWPQ5v3up7kT.jpg",
      "popularity": 44.374,
      "adult": false,
      "known_for_department": "Acting"
    },
    {
      "id": 71070,
      "name": "Amanda Seyfried",
      "profile_path": "/gtBUIpZ3dvLpOMIVORxE6sHSyZj.jpg",
      "popularity": 44.341,
      "adult": false,
      "known_for_department": "Acting"
    },
    {
      "id": 4960,
      "name": "Charles Bronson",
      "profile_path": "/w0C2Xa6PCQX83Iu2TxPjOCv8ufm.jpg",
      "popularity": 44.233,
      "adult": false,
      "known_for_department": "Acting"
    },
    {
      "id": 1371263,
      "name": "Devan Long",
      "profile_path": "/qPZeVZqH1z7n5LVKVdzwXbAHe6s.jpg",
      "popularity": 44.187,
      "adult": false,
      "known_for_department": "Acting"
    }
  ]
}