{
  "page": 465,
  "total_results": 10000,
  "total_pages": 500,
  "results": [
    {
      "id": 59206,
      "name": "Becky Ann Baker",
      "profile_path": "/84fEZMqVMlcl9EaBeCLbrYhHn0x.jpg",
      "popularity": 7.336,
      "adult": false,
      "known_for_department": "Acting"
    },
    {
      "id": 5346,
      "name": "Dan Futterman",
      "profile_path": "/dgmPcQe3tf616zB5hDpDStFunxO.jpg",
      "popularity": 7.336,
      "adult": false,
      "known_for_department": "Acting"
    },
    {
      "id": 205204,
      "name": "Jean-Luc Bilodeau",
      "profile_path": "/9UxaoDQZI0d3f7xLEnQpDTigPnJ.jpg",
      "popularity": 7.335,
      "adult": false,
      "known_for_department": "Acting"
    },
    {
      "id": 23964,
      "name": "Gary Ross",
      "profile_path": "/fEZbjmP02SIaXf1PLYhBE7uzWGn.jpg",
      "popularity": 7.335,
      "adult": false,
      "known_for_department": "Writing"
    },
    {
      "id": 2473962,
      "name": "Jo Tae-ho",
      "profile_path": "",
      "popularity": 7.334,
      "adult": false,
      "known_for_department": "Directing"
    },
    {
      "id": 545756,
      "name": "Lee Mi-yeon",
      "profile_path": "/wRIIVxM4QRvEoDCZn9HpLBIIshO.jpg",
      "popularity": 7.334,
      "adult": false,
      "known_for_department": "Acting"
    },
    {
      "id": 84667,
      "name": "Martina Gusman",
      "profile_path": "/15My37mfaK8IV7CM5SsqfIxe2Zq.jpg",
      "popularity": 7.334,
      "adult": false,
      "known_for_department": "Acting"
    },
    {
      "id": 129952,
      "name": "Sean McNamara",
      "profile_path": "/iJLRIBB2P3LXsPBvzdYhf06Lful.jpg",
      "popularity": 7.331,
      "adult": false,
      "known_for_department": "Directing"
    },
    {
      "id": 45453,
      "name": "Eleanor Bron",
      "profile_path": "/jQbsHbeh9AdMyeLf8sS3UkGGHl.jpg",
      "popularity": 7.331,
      "adult": false,
      "known_for_department": "Acting"
    },
    {
      "id": 21216,
      "name": "Kim Delaney",
      "profile_path": "/3ZFuBZFljUkmeXftNAIG3a7WS7Q.jpg",
      "popularity": 7.331,
      "adult": false,
      "known_for_department": "Acting"
    },
    {
      "id": 76667,
      "name": "Wesley Jonathan",
      "profile_path": "/aUWV6HxLh9isqlcKeGwm3xYcLEg.jpg",
      "popularity": 7.33,
      "adult": false,
      "known_for_department": "Acting"
    },
    {
      "id": 61241,
      "name": "Tony Lip",
      "profile_path": "/6xz6XmjgiCCOm067OzWYziD4Mxa.jpg",
      "popularity": 7.33,
      "adult": false,
      "known_for_department": "Acting"
    },
    {
      "id": 154529,
      "name": "Lisa Robin Kelly",
      "profile_path": "/yh7N55m2NCt3lr4urBC1wBCSdd.jpg",
      "popularity": 7.329,
      "adult": false,
      "known_for_department": "Acting"
    },
    {
      "id": 75312,
      "name": "Sasha Mitchell",
      "profile_path": "/aQY4UL2amuqigxoILTd4MdtXDpW.jpg",
      "popularity": 7.329,
      "adult": false,
      "known_for_department": "Acting"
    },
    {
      "id": 72985,
      "name": "Ramón Rodríguez",
      "profile_path": "/1gobmVevxCWVhV7s6J2B0oWPDZj.jpg",
      "popularity": 7.329,
      "adult": false,
      "known_for_department": "Acting"
    },
    {
      "id": 544666,
      "name": "Roxane Duran",
      "profile_path": "/2FbKGEBnFkbD5vQoIaxahxBLIKD.jpg",
      "popularity": 7.328,
      "adult": false,
      "known_for_department": "Acting"
    },
    {
      "id": 69310,
      "name": "Ricardo Darín",
      "profile_path": "/v5QjMW1Pc6ham06EejNzIkaJsb9.jpg",
      "popularity": 7.328,
      "adult": false,
      "known_for_department": "Acting"
    },
    {
      "id": 1565358,
      "name": "Yumiri Hanamori",
      "profile_path": "/AnrnfnxLllwqCYfkI9mEPBlkjG1.jpg",
      "popularity": 7.327,
      "adult": false,
      "known_for_department": "Acting"
    },
    {
      "id": 169024,
      "name": "Melinda Page Hamilton",
      "profile_path": "/etm8wKAz8ORm4oHtkTMFPCu8KR3.jpg",
      "popularity": 7.327,
      "adult": false,
      "known_for_department": "Acting"
    },
    {
      "id": 57082,
      "name": "John Stockwell",
      "profile_path": "/6m4x7tzIwg38K8h3czfPmepi3O3.jpg",
      "popularity": 7.327,
      "adult": false,
      "known_for_department": "Acting"
    }
  ]
}