{
  "page": 204,
  "total_results": 10000,
  "total_pages": 500,
  "results": [
    {
      "id": 1566805,
      "name": "Mackenyu",
      "profile_path": "/amnbjSvI19ZfxkZNj8WOa9tr7yu.jpg",
      "popularity": 12.477,
      "adult": false,
      "known_for_department": "Acting"
    },
    {
      "id": 22970,
      "name": "Peter Dinklage",
      "profile_path": "/lRsRgnksAhBRXwAB68MFjmTtLrk.jpg",
      "popularity": 12.476,
      "adult": false,
      "known_for_department": "Acting"
    },
    {
      "id": 8335,
      "name": "Kim Coates",
      "profile_path": "/brhVd2vTTBJNpM2ZrOFc6SnXCAd.jpg",
      "popularity": 12.476,
      "adult": false,
      "known_for_department": "Acting"
    },
    {
      "id": 54826,
      "name": "Traylor Howard",
      "profile_path": "/ymB8T4c0ech3oL1G0EhdlEWWg3m.jpg",
      "popularity": 12.475,
      "adult": false,
      "known_for_department": "Acting"
    },
    {
      "id": 54649,
      "name": "Louis Mandylor",
      "profile_path": "/tnNxkjimfJQ6rY87Ryr5R72KMRH.jpg",
      "popularity": 12.475,
      "adult": false,
      "known_for_department": "Acting"
    },
    {
      "id": 1775383,
      "name": "Sophia Brown",
      "profile_path": "/aVxef69hjabyNZ1i7Ym7Sxh6Jm7.jpg",
      "popularity": 12.474,
      "adult": false,
      "known_for_department": "Acting"
    },
    {
      "id": 2639,
      "name": "Eva Marie Saint",
      "profile_path": "/lGs8DBQymgzoukXpdfQTKDCFaCp.jpg",
      "popularity": 12.474,
      "adult": false,
      "known_for_department": "Acting"
    },
    {
      "id": 65829,
      "name": "Wood Harris",
      "profile_path": "/9gvwUEu1fZTSTkykaCx2fSdSDWK.jpg",
      "popularity": 12.473,
      "adult": false,
      "known_for_department": "Acting"
    },
    {
      "id": 49818,
      "name": "Jacqueline Obradors",
      "profile_path": "/weJqLT6j8AYiZ9hBvFYjr3WG8DV.jpg",
      "popularity": 12.473,
      "adult": false,
      "known_for_department": "Acting"
    },
    {
      "id": 103351,
      "name": "Luke Treadaway",
      "profile_path": "/kAIfKIuyucJsiMHeEAkavxTnMpi.jpg",
      "popularity": 12.471,
      "adult": false,
      "known_for_department": "Acting"
    },
    {
      "id": 20387,
      "name": "Clea DuVall",
      "profile_path": "/yueygn1Lmmni7EaMQD9LslexDlu.jpg",
      "popularity": 12.469,
      "adult": false,
      "known_for_department": "Acting"
    },
    {
      "id": 1732426,
      "name": "Spencer House",
      "profile_path": "/h7MvmWQgQsaYicZ0gdTzbgnvblO.jpg",
      "popularity": 12.468,
      "adult": false,
      "known_for_department": "Acting"
    },
    {
      "id": 65552,
      "name": "Margaret Blye",
      "profile_path": "/3InDL2XV7xcnfw9MIbxMXj2mAXx.jpg",
      "popularity": 12.467,
      "adult": false,
      "known_for_department": "Acting"
    },
    {
      "id": 116579,
      "name": "Max Gail",
      "profile_path": "/8XMay170vZdh59rJGiHcoOkgbZB.jpg",
      "popularity": 12.465,
      "adult": false,
      "known_for_department": "Acting"
    },
    {
      "id": 1418580,
      "name": "Lee Dong-hwi",
      "profile_path": "/1cZ40lS8BomxgOl2obltRsiefZ7.jpg",
      "popularity": 12.461,
      "adult": false,
      "known_for_department": "Acting"
    },
    {
      "id": 63295,
      "name": "Peter O'Brien",
      "profile_path": "/8rd32IyQUpNQs4PZiCx1CzBK0q4.jpg",
      "popularity": 12.457,
      "adult": false,
      "known_for_department": "Acting"
    },
    {
      "id": 7166,
      "name": "Kevin Pollak",
      "profile_path": "/jWhKIVtmc3vIoS2l1VsdNwMAMJB.jpg",
      "popularity": 12.457,
      "adult": false,
      "known_for_department": "Acting"
    },
    {
      "id": 2693053,
      "name": "Nicholas Ralph",
      "profile_path": "/bGT39QpwMEbEoeBCPoVJYsfauvj.jpg",
      "popularity": 12.456,
      "adult": false,
      "known_for_department": "Acting"
    },
    {
      "id": 1465043,
      "name": "Ciara Renée",
      "profile_path": "/jLL7Tpq7wespuebxro8YeEbe0nT.jpg",
      "popularity": 12.456,
      "adult": false,
      "known_for_department": "Acting"
    },
    {
      "id": 67274,
      "name": "Dolly Parton",
      "profile_path": "/uLFZgrfSqAxLj3UM7dkTPdlCKkc.jpg",
      "popularity": 12.453,
      "adult": false,
      "known_for_department": "Acting"
    }
  ]
}