{
  "page": 221,
  "total_results": 10000,
  "total_pages": 500,
  "results": [
    {
      "id": 1564175,
      "name": "Jin Ki-joo",
      "profile_path": "/5BcEPPxmqf63auxrzxyOfjkmn6M.jpg",
      "popularity": 12.519,
      "adult": false,
      "known_for_department": "Acting"
    },
    {
      "id": 1464276,
      "name": "Brooke Wexler",
      "profile_path": "/hlE5vaSXA1qfAdW6MGFEVa4jrsh.jpg",
      "popularity": 12.519,
      "adult": false,
      "known_for_department": "Acting"
    },
    {
      "id": 17840,
      "name": "Charlie Murphy",
      "profile_path": "/bTbrT3OoWHVkuWxXW2VchtHGRgk.jpg",
      "popularity": 12.519,
      "adult": false,
      "known_for_department": "Acting"
    },
    {
      "id": 89885,
      "name": "Quinn Lord",
      "profile_path": "/bDPoGWxTx4THBjNYoJCnRtTK2RJ.jpg",
      "popularity": 12.512,
      "adult": false,
      "known_for_department": "Acting"
    },
    {
      "id": 1331456,
      "name": "Sarah Jeffery",
      "profile_path": "/i7twvEdyPCVdgVqMlxbyQ3twJ18.jpg",
      "popularity": 12.509,
      "adult": false,
      "known_for_department": "Acting"
    },
    {
      "id": 40039,
      "name": "Josh Stewart",
      "profile_path": "/gdA3hddSlk6caULKjlFsrZ1ZbQp.jpg",
      "popularity": 12.508,
      "adult": false,
      "known_for_department": "Acting"
    },
    {
      "id": 93252,
      "name": "Kim Hae-sook",
      "profile_path": "/gbWb5gXuhGCnTSogCrmMPD65F8w.jpg",
      "popularity": 12.507,
      "adult": false,
      "known_for_department": "Acting"
    },
    {
      "id": 1175759,
      "name": "Jennifer Birmingham Lee",
      "profile_path": "/5jv9AsM2LstosQgIPfyvnb7i4zr.jpg",
      "popularity": 12.506,
      "adult": false,
      "known_for_department": "Acting"
    },
    {
      "id": 11343,
      "name": "David Yates",
      "profile_path": "/hAHOxR0NK4cZDumqNIpDoEdGVAh.jpg",
      "popularity": 12.506,
      "adult": false,
      "known_for_department": "Directing"
    },
    {
      "id": 1325962,
      "name": "Daiki Yamashita",
      "profile_path": "/rQNdJdZewk7VGP16ZNbpfJ9ZeMd.jpg",
      "popularity": 12.505,
      "adult": false,
      "known_for_department": "Acting"
    },
    {
      "id": 1733923,
      "name": "Beren Gökyıldız",
      "profile_path": "/3FoMB5P8zlP6VZ5P7eI33z91qHo.jpg",
      "popularity": 12.503,
      "adult": false,
      "known_for_department": "Acting"
    },
    {
      "id": 1791945,
      "name": "Bek Hyun-jin",
      "profile_path": "/alli4mgPgBUlQc3eXozFVIlUR2I.jpg",
      "popularity": 12.502,
      "adult": false,
      "known_for_department": "Acting"
    },
    {
      "id": 20811,
      "name": "Lisa Brenner",
      "profile_path": "/2tc86AD6LOemR6UP2B0LsRWJB8u.jpg",
      "popularity": 12.492,
      "adult": false,
      "known_for_department": "Acting"
    },
    {
      "id": 27103,
      "name": "Graham Phillips",
      "profile_path": "/kNlBbaRqCFKQ8SAba8sl2R2jVAW.jpg",
      "popularity": 12.491,
      "adult": false,
      "known_for_department": "Acting"
    },
    {
      "id": 1399228,
      "name": "Sabrina Qiu",
      "profile_path": "/cXuhzwtSqPpWPCUW3tJW9J6oHGP.jpg",
      "popularity": 12.488,
      "adult": false,
      "known_for_department": "Acting"
    },
    {
      "id": 659,
      "name": "Wolf Kahler",
      "profile_path": "/gQ0YrheFHs9ANmADCvr7ioyM9yR.jpg",
      "popularity": 12.487,
      "adult": false,
      "known_for_department": "Acting"
    },
    {
      "id": 31383,
      "name": "Caroline Dhavernas",
      "profile_path": "/ehBQ6EaViBg2Zc5nngoViQHbua9.jpg",
      "popularity": 12.484,
      "adult": false,
      "known_for_department": "Acting"
    },
    {
      "id": 26044,
      "name": "Bill Erwin",
      "profile_path": "/b5QFi1pQOpHmz4oWCJ9ltcHeH2v.jpg",
      "popularity": 12.484,
      "adult": false,
      "known_for_department": "Acting"
    },
    {
      "id": 1343544,
      "name": "Keith Silverstein",
      "profile_path": "/eVdUcExD9N57knSIa8kmoSnVibd.jpg",
      "popularity": 12.482,
      "adult": false,
      "known_for_department": "Acting"
    },
    {
      "id": 108209,
      "name": "Sarah Rowland Doroff",
      "profile_path": "/g6WsSKpB8FhaiCeaY9GmN5e2aom.jpg",
      "popularity": 12.482,
      "adult": false,
      "known_for_department": "Acting"
    }
  ]
}