{
  "page": 178,
  "total_results": 10000,
  "total_pages": 500,
  "results": [
    {
      "id": 79793,
      "name": "Margo Harshman",
      "profile_path": "/2nZT1PonBTbegBalyH4swcsesJI.jpg",
      "popularity": 12.392,
      "adult": false,
      "known_for_department": "Acting"
    },
    {
      "id": 2014560,
      "name": "Fuju Kamio",
      "profile_path": "/rrc33XH7CDXMqTPJ4ORn9o1TMIb.jpg",
      "popularity": 12.39,
      "adult": false,
      "known_for_department": "Acting"
    },
    {
      "id": 971726,
      "name": "Ana Ularu",
      "profile_path": "/oWMWDIZbiQWkIlxkhEM3RVzZclc.jpg",
      "popularity": 12.39,
      "adult": false,
      "known_for_department": "Acting"
    },
    {
      "id": 1413434,
      "name": "Jenny Boyd",
      "profile_path": "/pcU0SM9LPMFi5BkYOMwVosmNeut.jpg",
      "popularity": 12.389,
      "adult": false,
      "known_for_department": "Acting"
    },
    {
      "id": 6167,
      "name": "Judd Hirsch",
      "profile_path": "/7rJ0TZfMoPLTcO203tHhE6tcPKP.jpg",
      "popularity": 12.388,
      "adult": false,
      "known_for_department": "Acting"
    },
    {
      "id": 21430,
      "name": "Natassia Malthe",
      "profile_path": "/9Nr5wmzQyxhexT16Bm3kxnQdEcG.jpg",
      "popularity": 12.386,
      "adult": false,
      "known_for_department": "Acting"
    },
    {
      "id": 27775,
      "name": "Chelan Simmons",
      "profile_path": "/fFExrhQ4tnJmjsb54mFiURgAMQz.jpg",
      "popularity": 12.382,
      "adult": false,
      "known_for_department": "Acting"
    },
    {
      "id": 3596934,
      "name": "Andrea Garcia",
      "profile_path": "",
      "popularity": 12.381,
      "adult": false,
      "known_for_department": "Acting"
    },
    {
      "id": 15276,
      "name": "Angela Featherstone",
      "profile_path": "/dQnJ3Hv1ENvroNbBJm0wppyghzN.jpg",
      "popularity": 12.379,
      "adult": false,
      "known_for_department": "Acting"
    },
    {
      "id": 1185787,
      "name": "Liu Yan",
      "profile_path": "/iTimJWpWDGmnnPs13v7Fgy2mIpL.jpg",
      "popularity": 12.377,
      "adult": false,
      "known_for_department": "Acting"
    },
    {
      "id": 19740,
      "name": "Kate Vernon",
      "profile_path": "/zFg9qFTWui0l72b7MUIdDO1k817.jpg",
      "popularity": 12.377,
      "adult": false,
      "known_for_department": "Acting"
    },
    {
      "id": 1772357,
      "name": "Jacky Lai",
      "profile_path": "/os2Mpyuku25ylGrZtXea3QzQbsN.jpg",
      "popularity": 12.376,
      "adult": false,
      "known_for_department": "Acting"
    },
    {
      "id": 57675,
      "name": "Daryl Sabara",
      "profile_path": "/q4TZWwSVoBE2Vau1YVrH7HFQB7N.jpg",
      "popularity": 12.375,
      "adult": false,
      "known_for_department": "Acting"
    },
    {
      "id": 2144,
      "name": "Tobin Bell",
      "profile_path": "/wyyfG5Pml4G1Y3Aw873LIe32wsl.jpg",
      "popularity": 12.375,
      "adult": false,
      "known_for_department": "Acting"
    },
    {
      "id": 47644,
      "name": "Frances Barber",
      "profile_path": "/j4vvOB1GPVDqFJYEp56v23CF0CW.jpg",
      "popularity": 12.372,
      "adult": false,
      "known_for_department": "Acting"
    },
    {
      "id": 14541,
      "name": "Chris Sarandon",
      "profile_path": "/jP92Lq3JHl8mbdxzcZ6PyCQDwa5.jpg",
      "popularity": 12.372,
      "adult": false,
      "known_for_department": "Acting"
    },
    {
      "id": 55936,
      "name": "Jemaine Clement",
      "profile_path": "/6eiNbeurpHb2fxIeT0RrJ0wRI25.jpg",
      "popularity": 12.37,
      "adult": false,
      "known_for_department": "Acting"
    },
    {
      "id": 1845057,
      "name": "Woo Do-hwan",
      "profile_path": "/4LVJDTCwoD3IMDRCxD3KYEWnIN7.jpg",
      "popularity": 12.369,
      "adult": false,
      "known_for_department": "Acting"
    },
    {
      "id": 2691047,
      "name": "Melisa Döngel",
      "profile_path": "/qzA0I0gR7DwCG0dK9pde2iTizeM.jpg",
      "popularity": 12.368,
      "adult": false,
      "known_for_department": "Acting"
    },
    {
      "id": 1853909,
      "name": "Danielle Deadwyler",
      "profile_path": "/ifQcCBM5B4dIJdz4B0laO4yQuzU.jpg",
      "popularity": 12.365,
      "adult": false,
      "known_for_department": "Acting"
    }
  ]
}