{
  "page": 249,
  "total_results": 10000,
  "total_pages": 500,
  "results": [
    {
      "id": 66645,
      "name": "Cary Guffey",
      "profile_path": "/eJ5GvLjZ3k5WJfWMnK6zRoBIBw9.jpg",
      "popularity": 10.967,
      "adult": false,
      "known_for_department": "Acting"
    },
    {
      "id": 1216004,
      "name": "Jordan Calloway",
      "profile_path": "/tRqqOTzfAAftvtWgNIdjyo5WDfm.jpg",
      "popularity": 10.966,
      "adult": false,
      "known_for_department": "Acting"
    },
    {
      "id": 139900,
      "name": "Florence Kasumba",
      "profile_path": "/vivJLQhtwca5hupqoRRgL8BRs6o.jpg",
      "popularity": 10.966,
      "adult": false,
      "known_for_department": "Acting"
    },
    {
      "id": 1481440,
      "name": "Daniel Stisen",
      "profile_path": "/jhyIFfBnM5nLhHdpFiGIW6qk9x5.jpg",
      "popularity": 10.965,
      "adult": false,
      "known_for_department": "Acting"
    },
    {
      "id": 1083177,
      "name": "Charlie Rawes",
      "profile_path": "/zsARROMEHNANOAI8wntYcn3BpOM.jpg",
      "popularity": 10.964,
      "adult": false,
      "known_for_department": "Acting"
    },
    {
      "id": 65309,
      "name": "Omri Katz",
      "profile_path": "/wY3NxTyXhzJ8BkmBZcQuSE7WtoC.jpg",
      "popularity": 10.964,
      "adult": false,
      "known_for_department": "Acting"
    },
    {
      "id": 35516,
      "name": "Howard Hesseman",
      "profile_path": "/ueVZDpdhHip3NDa16JD1cr9Jlg3.jpg",
      "popularity": 10.963,
      "adult": false,
      "known_for_department": "Acting"
    },
    {
      "id": 8687,
      "name": "Chi McBride",
      "profile_path": "/cesCeJZ5gSywA9lTYReB5uhkfek.jpg",
      "popularity": 10.962,
      "adult": false,
      "known_for_department": "Acting"
    },
    {
      "id": 1243142,
      "name": "Colton Dunn",
      "profile_path": "/mekAGBmbVULfSR8dMwC3TXRbdfl.jpg",
      "popularity": 10.959,
      "adult": false,
      "known_for_department": "Acting"
    },
    {
      "id": 18841,
      "name": "Bud Spencer",
      "profile_path": "/cVbBoKxRDFOdDKwdpRmxVazDWlE.jpg",
      "popularity": 10.958,
      "adult": false,
      "known_for_department": "Acting"
    },
    {
      "id": 9464,
      "name": "Harry Lennix",
      "profile_path": "/kNGiizWpetf4pyAkINkjkWacmCL.jpg",
      "popularity": 10.957,
      "adult": false,
      "known_for_department": "Acting"
    },
    {
      "id": 6168,
      "name": "Austin Pendleton",
      "profile_path": "/nrXfqtXDDYzSFNLPQnfLkus4I7s.jpg",
      "popularity": 10.957,
      "adult": false,
      "known_for_department": "Acting"
    },
    {
      "id": 1639848,
      "name": "Mamoudou Athie",
      "profile_path": "/iPx1s7EuBEmty7MXdKSBpEBsGYT.jpg",
      "popularity": 10.955,
      "adult": false,
      "known_for_department": "Acting"
    },
    {
      "id": 10447,
      "name": "Mariel Hemingway",
      "profile_path": "/vKALX9Ib1fQFpTE2c0iEsxaRcfM.jpg",
      "popularity": 10.955,
      "adult": false,
      "known_for_department": "Acting"
    },
    {
      "id": 7002,
      "name": "Luke Kirby",
      "profile_path": "/jyR24wKg77yJg2O2RTzyRdcNAYq.jpg",
      "popularity": 10.955,
      "adult": false,
      "known_for_department": "Acting"
    },
    {
      "id": 2098560,
      "name": "Katsamonnat Namwirote",
      "profile_path": "/19agT0l3D0KaHuehYlSlq9nIk9P.jpg",
      "popularity": 10.951,
      "adult": false,
      "known_for_department": "Acting"
    },
    {
      "id": 1464589,
      "name": "Matilda Anna Ingrid Lutz",
      "profile_path": "/js1PbvyTEFXQeSV2TTmmklB5XPT.jpg",
      "popularity": 10.95,
      "adult": false,
      "known_for_department": "Acting"
    },
    {
      "id": 1422264,
      "name": "Olwen Catherine Kelly",
      "profile_path": "/td6xafDcxBppn2htmPm7C2TekYW.jpg",
      "popularity": 10.95,
      "adult": false,
      "known_for_department": "Acting"
    },
    {
      "id": 1399747,
      "name": "Mandeep Dhillon",
      "profile_path": "/rVlSWINjaCMFWqkHpkjYy3zECka.jpg",
      "popularity": 10.949,
      "adult": false,
      "known_for_department": "Acting"
    },
    {
      "id": 207401,
      "name": "Leven Rambin",
      "profile_path": "/91uzRkoDXsvGl22HNerdSe6NhU.jpg",
      "popularity": 10.947,
      "adult": false,
      "known_for_department": "Acting"
    }
  ]
}