{
  "page": 177,
  "total_results": 10000,
  "total_pages": 500,
  "results": [
    {
      "id": 102860,
      "name": "Darleen Carr",
      "profile_path": "/1QuAfAxCrcvUcVoyyeS5z39rSDM.jpg",
      "popularity": 11.921,
      "adult": false,
      "known_for_department": "Acting"
    },
    {
      "id": 1526594,
      "name": "Lorenzo Zurzolo",
      "profile_path": "/aZCIOFckGuxHXbYSQAlgavwOxPU.jpg",
      "popularity": 11.918,
      "adult": false,
      "known_for_department": "Acting"
    },
    {
      "id": 108889,
      "name": "Jay Harrington",
      "profile_path": "/aLIVOcm0ylX4DMGVvzebNyiLmeW.jpg",
      "popularity": 11.917,
      "adult": false,
      "known_for_department": "Acting"
    },
    {
      "id": 503,
      "name": "Justin Chatwin",
      "profile_path": "/nEHYlooGSwRzkhze1rQ7DOpJXLD.jpg",
      "popularity": 11.916,
      "adult": false,
      "known_for_department": "Acting"
    },
    {
      "id": 20491,
      "name": "Vanessa Ferlito",
      "profile_path": "/i128WKjZ3JkoJBOLw48hF4Uwu5V.jpg",
      "popularity": 11.914,
      "adult": false,
      "known_for_department": "Acting"
    },
    {
      "id": 1847886,
      "name": "Ryota Katayose",
      "profile_path": "/8hkknybkZItPIR2CsMamg3ENAib.jpg",
      "popularity": 11.913,
      "adult": false,
      "known_for_department": "Acting"
    },
    {
      "id": 74354,
      "name": "Miguel A. Núñez, Jr.",
      "profile_path": "/96N3fiIDGfu4yDArkVGfT7rLRvH.jpg",
      "popularity": 11.912,
      "adult": false,
      "known_for_department": "Acting"
    },
    {
      "id": 10739,
      "name": "Bebe Neuwirth",
      "profile_path": "/yFOdER8Fc07DU6U3kq2PRcbvDR.jpg",
      "popularity": 11.907,
      "adult": false,
      "known_for_department": "Acting"
    },
    {
      "id": 1998163,
      "name": "Jeon Hye-won",
      "profile_path": "/bIqO91hdUa2DBpo3Lzx9WiQW1ik.jpg",
      "popularity": 11.905,
      "adult": false,
      "known_for_department": "Acting"
    },
    {
      "id": 33656,
      "name": "Heather Matarazzo",
      "profile_path": "/afZhMKmsAHZA9jHq7F9tNUFZci6.jpg",
      "popularity": 11.904,
      "adult": false,
      "known_for_department": "Acting"
    },
    {
      "id": 96624,
      "name": "Rachel Boston",
      "profile_path": "/lXsexhIX8oMhPnO85M0ocL0GhC2.jpg",
      "popularity": 11.898,
      "adult": false,
      "known_for_department": "Acting"
    },
    {
      "id": 14721,
      "name": "Kevin Dunn",
      "profile_path": "/7dqLQjMNCQnuxQJQwQ5Ozz16LBq.jpg",
      "popularity": 11.898,
      "adult": false,
      "known_for_department": "Acting"
    },
    {
      "id": 27563,
      "name": "Amy Irving",
      "profile_path": "/dGPkygyZ8F5lKJyiuqBLs3WveeF.jpg",
      "popularity": 11.897,
      "adult": false,
      "known_for_department": "Acting"
    },
    {
      "id": 20805,
      "name": "Louise Lombard",
      "profile_path": "/6znYbOI2Z8PfzZ6p9jHG5QdAeb2.jpg",
      "popularity": 11.896,
      "adult": false,
      "known_for_department": "Acting"
    },
    {
      "id": 10881,
      "name": "Toby Stephens",
      "profile_path": "/7hZVlhxd4FkhEQxaF4lTgwj3SYc.jpg",
      "popularity": 11.892,
      "adult": false,
      "known_for_department": "Acting"
    },
    {
      "id": 567269,
      "name": "Jessica Brown Findlay",
      "profile_path": "/xrvuOGSkS0ufxQohk2DhUV57QmE.jpg",
      "popularity": 11.89,
      "adult": false,
      "known_for_department": "Acting"
    },
    {
      "id": 93663,
      "name": "Kellie Martin",
      "profile_path": "/l2SMcBisNoQjpSTq41VI8PoUSj2.jpg",
      "popularity": 11.89,
      "adult": false,
      "known_for_department": "Acting"
    },
    {
      "id": 14101,
      "name": "John Larroquette",
      "profile_path": "/rWXMelYm34YIBOzJJaQrBI50NEp.jpg",
      "popularity": 11.89,
      "adult": false,
      "known_for_department": "Acting"
    },
    {
      "id": 343,
      "name": "Taryn Manning",
      "profile_path": "/obE0w8SVx7Hq773KY2DCxK1j2GF.jpg",
      "popularity": 11.89,
      "adult": false,
      "known_for_department": "Acting"
    },
    {
      "id": 49915,
      "name": "Jesse McCartney",
      "profile_path": "/95f7jVXUwkHUUfj3AjvTJYx3pei.jpg",
      "popularity": 11.887,
      "adult": false,
      "known_for_department": "Acting"
    }
  ]
}