{
  "page": 404,
  "total_results": 10000,
  "total_pages": 500,
  "results": [
    {
      "id": 2685352,
      "name": "Mustafa Açılan",
      "profile_path": "/yVQyo9vcRBinzFmQr46qhCIm1Rl.jpg",
      "popularity": 8.663,
      "adult": false,
      "known_for_department": "Acting"
    },
    {
      "id": 1952048,
      "name": "Renata Toscano Bruzón",
      "profile_path": "/pTufjnXpgn904l1bWeuOrNpvRX3.jpg",
      "popularity": 8.663,
      "adult": false,
      "known_for_department": "Acting"
    },
    {
      "id": 1646611,
      "name": "Dennis Andres",
      "profile_path": "/wkJ9wVeAxgkNf3PoDmaNYTdlspd.jpg",
      "popularity": 8.663,
      "adult": false,
      "known_for_department": "Acting"
    },
    {
      "id": 119447,
      "name": "Shing Fui-On",
      "profile_path": "/iLGQZ8OjGdZW3imJlgiUNv9ER8y.jpg",
      "popularity": 8.663,
      "adult": false,
      "known_for_department": "Acting"
    },
    {
      "id": 36058,
      "name": "Bruce Weitz",
      "profile_path": "/gUERDPFoWOD0GmnjJyQe1tA7hau.jpg",
      "popularity": 8.663,
      "adult": false,
      "known_for_department": "Acting"
    },
    {
      "id": 1093765,
      "name": "Minami Matsuzaka",
      "profile_path": "/eXxIKSwx6ykK5XbRjq1eXzYeiiv.jpg",
      "popularity": 8.661,
      "adult": false,
      "known_for_department": "Acting"
    },
    {
      "id": 109319,
      "name": "Nikki Amuka-Bird",
      "profile_path": "/tRXvwTrX4ueKXkk5jxBoHoiUSxC.jpg",
      "popularity": 8.661,
      "adult": false,
      "known_for_department": "Acting"
    },
    {
      "id": 550549,
      "name": "John Macmillan",
      "profile_path": "/o9Jtr3vLCF3ZNPaQ7oMM4oLtmLh.jpg",
      "popularity": 8.66,
      "adult": false,
      "known_for_department": "Acting"
    },
    {
      "id": 116180,
      "name": "Byun Hee-bong",
      "profile_path": "/fV8BtRziGqUsBozd1G6lEwmW2b5.jpg",
      "popularity": 8.66,
      "adult": false,
      "known_for_department": "Acting"
    },
    {
      "id": 1965219,
      "name": "Yeliz Kuvancı",
      "profile_path": "/1wfMmKTpnQyesQ8U7QmULZKoqD8.jpg",
      "popularity": 8.659,
      "adult": false,
      "known_for_department": "Acting"
    },
    {
      "id": 70209,
      "name": "Yûsuke Iseya",
      "profile_path": "/Api6CNgxMxoR4BBmvwptZeDfoeQ.jpg",
      "popularity": 8.659,
      "adult": false,
      "known_for_department": "Acting"
    },
    {
      "id": 47562,
      "name": "Agatha Christie",
      "profile_path": "/1L4su640toYra8iuG3r8WP2pPth.jpg",
      "popularity": 8.659,
      "adult": false,
      "known_for_department": "Writing"
    },
    {
      "id": 15488,
      "name": "Ken Loach",
      "profile_path": "/vGtkrPgNeK3xkbbKTQ4vWD1VsEm.jpg",
      "popularity": 8.659,
      "adult": false,
      "known_for_department": "Directing"
    },
    {
      "id": 1470911,
      "name": "Jamie Demetriou",
      "profile_path": "/owXXYV1MNijRAVJV2Q47WEWT9Wv.jpg",
      "popularity": 8.658,
      "adult": false,
      "known_for_department": "Acting"
    },
    {
      "id": 43301,
      "name": "Sherry Miller",
      "profile_path": "/8loCxWNAAF7m3C3kFAREKqO7mBc.jpg",
      "popularity": 8.658,
      "adult": false,
      "known_for_department": "Acting"
    },
    {
      "id": 7125,
      "name": "Robert Cummings",
      "profile_path": "/opnAIsyGG8Tgnr0KyrmHJxkFSxX.jpg",
      "popularity": 8.658,
      "adult": false,
      "known_for_department": "Acting"
    },
    {
      "id": 6326,
      "name": "Pat Skipper",
      "profile_path": "/83kKXFGLe1GDXc1lau63gD5W9uF.jpg",
      "popularity": 8.658,
      "adult": false,
      "known_for_department": "Acting"
    },
    {
      "id": 20671,
      "name": "Assaad Bouab",
      "profile_path": "/zIqK5a0H3e6z2vFhRDdWQCMQIRT.jpg",
      "popularity": 8.656,
      "adult": false,
      "known_for_department": "Acting"
    },
    {
      "id": 1902689,
      "name": "Emily Bader",
      "profile_path": "/nFSNRNxt0WD3tvnuIiBGQAM9igA.jpg",
      "popularity": 8.655,
      "adult": false,
      "known_for_department": "Acting"
    },
    {
      "id": 74862,
      "name": "Masanobu Ando",
      "profile_path": "/8OkTaR4OkC3xmhhNcLSaE84aFFC.jpg",
      "popularity": 8.655,
      "adult": false,
      "known_for_department": "Acting"
    }
  ]
}