{
  "page": 171,
  "total_results": 10000,
  "total_pages": 500,
  "results": [
    {
      "id": 15827,
      "name": "Scott Weinger",
      "profile_path": "/wOIqHtaYQ2BwzAJsRcnVJCC0TGz.jpg",
      "popularity": 12.468,
      "adult": false,
      "known_for_department": "Acting"
    },
    {
      "id": 37995,
      "name": "Bo Derek",
      "profile_path": "/u5wjZ2SJ9Im6mtQz6xlCUbQBJ0D.jpg",
      "popularity": 12.466,
      "adult": false,
      "known_for_department": "Acting"
    },
    {
      "id": 117669,
      "name": "Portia Doubleday",
      "profile_path": "/aCbp5EX9vC7K1N426qOfUuIByOa.jpg",
      "popularity": 12.461,
      "adult": false,
      "known_for_department": "Acting"
    },
    {
      "id": 18325,
      "name": "Jeremy Northam",
      "profile_path": "/9H4gWJhgb6M6lqO3mMhJCGiPwWf.jpg",
      "popularity": 12.46,
      "adult": false,
      "known_for_department": "Acting"
    },
    {
      "id": 18197,
      "name": "Anna Karina",
      "profile_path": "/aKOamm8rUA4zWGud5CwM6szCHoo.jpg",
      "popularity": 12.46,
      "adult": false,
      "known_for_department": "Acting"
    },
    {
      "id": 1223726,
      "name": "Robbie Amell",
      "profile_path": "/qRDwwBVJmYk7yhlo8VwRMook4yd.jpg",
      "popularity": 12.459,
      "adult": false,
      "known_for_department": "Acting"
    },
    {
      "id": 79793,
      "name": "Margo Harshman",
      "profile_path": "/2nZT1PonBTbegBalyH4swcsesJI.jpg",
      "popularity": 12.457,
      "adult": false,
      "known_for_department": "Acting"
    },
    {
      "id": 12094,
      "name": "Jennifer Saunders",
      "profile_path": "/pTgxwHcz9L8SNVYvPJS0o0lgHya.jpg",
      "popularity": 12.456,
      "adult": false,
      "known_for_department": "Acting"
    },
    {
      "id": 11278,
      "name": "Rupert Graves",
      "profile_path": "/6tS8XMuTS04xXTfeWFjJED6SFBF.jpg",
      "popularity": 12.456,
      "adult": false,
      "known_for_department": "Acting"
    },
    {
      "id": 119834,
      "name": "Necar Zadegan",
      "profile_path": "/25cjlqMmnbfTCgh3kLijOH57URG.jpg",
      "popularity": 12.454,
      "adult": false,
      "known_for_department": "Acting"
    },
    {
      "id": 689,
      "name": "Kate Capshaw",
      "profile_path": "/5VgRB0Ob0V75siBHnSXwT7qc0jx.jpg",
      "popularity": 12.454,
      "adult": false,
      "known_for_department": "Acting"
    },
    {
      "id": 1435230,
      "name": "Adam Nagaitis",
      "profile_path": "/e05YxtScfLCI723ZFU6WOzLiJ6u.jpg",
      "popularity": 12.45,
      "adult": false,
      "known_for_department": "Acting"
    },
    {
      "id": 16183,
      "name": "Gedde Watanabe",
      "profile_path": "/4uI6QEicUA0cR5suA0B2bEM7JBt.jpg",
      "popularity": 12.45,
      "adult": false,
      "known_for_department": "Acting"
    },
    {
      "id": 35341,
      "name": "Geneviève Bujold",
      "profile_path": "/cOpXJeJ3xNuqF6bqxEjObuRWAE0.jpg",
      "popularity": 12.448,
      "adult": false,
      "known_for_department": "Acting"
    },
    {
      "id": 15336,
      "name": "Dougray Scott",
      "profile_path": "/zeZmtK4EKK9R2r6bp2nTxMs3ByS.jpg",
      "popularity": 12.448,
      "adult": false,
      "known_for_department": "Acting"
    },
    {
      "id": 1948457,
      "name": "Charles Lin",
      "profile_path": "/al9oVgaR17FYLwd8ge2ZM9l41Tq.jpg",
      "popularity": 12.447,
      "adult": false,
      "known_for_department": "Acting"
    },
    {
      "id": 76556,
      "name": "Pål Sverre Hagen",
      "profile_path": "/gGIChTUBuNnrN8pAx4ZRhr0DOJB.jpg",
      "popularity": 12.447,
      "adult": false,
      "known_for_department": "Acting"
    },
    {
      "id": 1989,
      "name": "Celia Weston",
      "profile_path": "/pQYygvqfmKnK4weuUCLUX45q5AJ.jpg",
      "popularity": 12.446,
      "adult": false,
      "known_for_department": "Acting"
    },
    {
      "id": 1029934,
      "name": "Justice Smith",
      "profile_path": "/3UoUT44XYWoWNsZaqHzN3w48gZL.jpg",
      "popularity": 12.445,
      "adult": false,
      "known_for_department": "Acting"
    },
    {
      "id": 26669,
      "name": "Vincent Riotta",
      "profile_path": "/emNPSoWXnj6K5o8jrJP0E8dTWa0.jpg",
      "popularity": 12.444,
      "adult": false,
      "known_for_department": "Acting"
    }
  ]
}