{
  "page": 376,
  "total_results": 10000,
  "total_pages": 500,
  "results": [
    {
      "id": 2458589,
      "name": "Cassandra Naud",
      "profile_path": "/Fw2FlUQGmFC0DGLGEBATXfswHh.jpg",
      "popularity": 8.841,
      "adult": false,
      "known_for_department": "Acting"
    },
    {
      "id": 79966,
      "name": "Claudia Karvan",
      "profile_path": "/zT4CSbrJwHAtqyyJtACOcosg3qZ.jpg",
      "popularity": 8.841,
      "adult": false,
      "known_for_department": "Acting"
    },
    {
      "id": 55258,
      "name": "Robinne Lee",
      "profile_path": "/h0cKk9LzfrpvOyGwmt9ruq5Nlkw.jpg",
      "popularity": 8.841,
      "adult": false,
      "known_for_department": "Acting"
    },
    {
      "id": 970769,
      "name": "Rachel Hilson",
      "profile_path": "/k0XVYmqjan0oqKzI4PJxYdxmqnC.jpg",
      "popularity": 8.84,
      "adult": false,
      "known_for_department": "Acting"
    },
    {
      "id": 142607,
      "name": "Josie Davis",
      "profile_path": "/h7nVTZY26p715FVRDxKsusdd9HW.jpg",
      "popularity": 8.84,
      "adult": false,
      "known_for_department": "Acting"
    },
    {
      "id": 45391,
      "name": "Beth Broderick",
      "profile_path": "/9vzc9HkvbAw0RDXrSEPcoazTb9.jpg",
      "popularity": 8.84,
      "adult": false,
      "known_for_department": "Acting"
    },
    {
      "id": 1586573,
      "name": "Eliot Sumner",
      "profile_path": "/uhBXuf4YFCd1Uxfqh8umbdoJMoq.jpg",
      "popularity": 8.837,
      "adult": false,
      "known_for_department": "Acting"
    },
    {
      "id": 1392542,
      "name": "Laya DeLeon Hayes",
      "profile_path": "/skkEDlSQDSBVtp2Lc4nfNgBTMu7.jpg",
      "popularity": 8.837,
      "adult": false,
      "known_for_department": "Acting"
    },
    {
      "id": 1238990,
      "name": "Lee Bo-young",
      "profile_path": "/xjKMiyzYCcR5MRvWMe4sQOzBoMB.jpg",
      "popularity": 8.837,
      "adult": false,
      "known_for_department": "Acting"
    },
    {
      "id": 62863,
      "name": "Jorma Taccone",
      "profile_path": "/x7x4NvDauuQ7HA6psLZYZ6m3zTd.jpg",
      "popularity": 8.837,
      "adult": false,
      "known_for_department": "Acting"
    },
    {
      "id": 1483496,
      "name": "Yuuichirou Umehara",
      "profile_path": "/v28IZwmQGqrtyljNdzcKELV5t9m.jpg",
      "popularity": 8.836,
      "adult": false,
      "known_for_department": "Acting"
    },
    {
      "id": 27737,
      "name": "Bill Moseley",
      "profile_path": "/jTeO0zcFj0hsOkEAnH3q7MgQQZj.jpg",
      "popularity": 8.835,
      "adult": false,
      "known_for_department": "Acting"
    },
    {
      "id": 1001536,
      "name": "Angelique Cabral",
      "profile_path": "/v2N5mPDiUxScgJnNVOgYLvjs39a.jpg",
      "popularity": 8.834,
      "adult": false,
      "known_for_department": "Acting"
    },
    {
      "id": 77920,
      "name": "Howie Mandel",
      "profile_path": "/lX5HyGJ6X6aVPwirx5Tt9CJcMzA.jpg",
      "popularity": 8.834,
      "adult": false,
      "known_for_department": "Acting"
    },
    {
      "id": 107727,
      "name": "Ekaterina Vilkova",
      "profile_path": "/1WAHeyFthIrTbAr43nVTDw8zNzi.jpg",
      "popularity": 8.833,
      "adult": false,
      "known_for_department": "Acting"
    },
    {
      "id": 20803,
      "name": "Zuleikha Robinson",
      "profile_path": "/838l1DBT6LqxI9Lw5qXrDpIqEzW.jpg",
      "popularity": 8.833,
      "adult": false,
      "known_for_department": "Acting"
    },
    {
      "id": 129228,
      "name": "Candace Kroslak",
      "profile_path": "/vd5qlcCxcqivJU9XPD0pwevJLcU.jpg",
      "popularity": 8.832,
      "adult": false,
      "known_for_department": "Acting"
    },
    {
      "id": 31136,
      "name": "Chris Brown",
      "profile_path": "/92NXoO1129xwDL65KEJUDvgG8iW.jpg",
      "popularity": 8.832,
      "adult": false,
      "known_for_department": "Acting"
    },
    {
      "id": 1248542,
      "name": "Arisa Mizuki",
      "profile_path": "/egYrDOmwf3EAzYHEAz4iKF6XSyx.jpg",
      "popularity": 8.831,
      "adult": false,
      "known_for_department": "Acting"
    },
    {
      "id": 6914,
      "name": "Scott Wilson",
      "profile_path": "/ynH2YOLn0A7iIlmMiiWAGtC76Hx.jpg",
      "popularity": 8.831,
      "adult": false,
      "known_for_department": "Acting"
    }
  ]
}