{
  "page": 482,
  "total_results": 10000,
  "total_pages": 500,
  "results": [
    {
      "id": 556829,
      "name": "Chrissie Chau",
      "profile_path": "/6xqULglqa6oxanRzfg4tmAr7SkB.jpg",
      "popularity": 7.032,
      "adult": false,
      "known_for_department": "Acting"
    },
    {
      "id": 544004,
      "name": "Susana Abaitua",
      "profile_path": "/v9BA3YRPkEBpfL3ogKkn2Phag6m.jpg",
      "popularity": 7.032,
      "adult": false,
      "known_for_department": "Acting"
    },
    {
      "id": 209630,
      "name": "Olivia Grant",
      "profile_path": "/s3iXUM6mXs3YqWhH1nfZeqJE8A9.jpg",
      "popularity": 7.032,
      "adult": false,
      "known_for_department": "Acting"
    },
    {
      "id": 4251,
      "name": "John Mahoney",
      "profile_path": "/paVSw7Brdp6MKa2j4UPukA0KHs3.jpg",
      "popularity": 7.032,
      "adult": false,
      "known_for_department": "Acting"
    },
    {
      "id": 208059,
      "name": "Amy Okuda",
      "profile_path": "/mkiG0v1iZV8YDGzlTPhB8SNB3IK.jpg",
      "popularity": 7.031,
      "adult": false,
      "known_for_department": "Acting"
    },
    {
      "id": 114725,
      "name": "Kanata Hongo",
      "profile_path": "/5BUmrqD3nbER1XV3ASSwFZitwwv.jpg",
      "popularity": 7.031,
      "adult": false,
      "known_for_department": "Acting"
    },
    {
      "id": 85757,
      "name": "Joe Jonas",
      "profile_path": "/wlzMYfBH3uBwOyU0LfDMK3XaFpr.jpg",
      "popularity": 7.031,
      "adult": false,
      "known_for_department": "Acting"
    },
    {
      "id": 45923,
      "name": "Kathleen Barr",
      "profile_path": "",
      "popularity": 7.031,
      "adult": false,
      "known_for_department": "Acting"
    },
    {
      "id": 1600085,
      "name": "Patsy Ferran",
      "profile_path": "/m2twb29so7T5cW5IVs611FhQkZl.jpg",
      "popularity": 7.03,
      "adult": false,
      "known_for_department": "Acting"
    },
    {
      "id": 120690,
      "name": "Kengo Kora",
      "profile_path": "/wb293WmYQ7yTAtf3opmhCoTJQfa.jpg",
      "popularity": 7.03,
      "adult": false,
      "known_for_department": "Acting"
    },
    {
      "id": 71240,
      "name": "Leigh Taylor-Young",
      "profile_path": "/9l8TSUQQsTGx8aQMGurIf9gdTPY.jpg",
      "popularity": 7.03,
      "adult": false,
      "known_for_department": "Acting"
    },
    {
      "id": 11076,
      "name": "David Hyde Pierce",
      "profile_path": "/zMK62Gtvmuz8I4DFIOUPDcaKCVu.jpg",
      "popularity": 7.03,
      "adult": false,
      "known_for_department": "Acting"
    },
    {
      "id": 1276777,
      "name": "Lamont Johnson",
      "profile_path": "/49CrcbKnC3hgNwlJfEjtwR4X9rd.jpg",
      "popularity": 7.029,
      "adult": false,
      "known_for_department": "Acting"
    },
    {
      "id": 1196536,
      "name": "Heather Lind",
      "profile_path": "/lRnlb0trdIotyaRlqnbwruHJyJm.jpg",
      "popularity": 7.028,
      "adult": false,
      "known_for_department": "Acting"
    },
    {
      "id": 17857,
      "name": "Shaun Toub",
      "profile_path": "/6fuJ9D50bYuMAhrlEgVqzgqF0LU.jpg",
      "popularity": 7.028,
      "adult": false,
      "known_for_department": "Acting"
    },
    {
      "id": 1988783,
      "name": "Mariya Shumakova",
      "profile_path": "/OYUqYP6UtTtJuwzye4xoiVWMEL.jpg",
      "popularity": 7.027,
      "adult": false,
      "known_for_department": "Acting"
    },
    {
      "id": 1761093,
      "name": "Donna Benedicto",
      "profile_path": "/muXNSartYyLpgZHQuoJ9NTzqoya.jpg",
      "popularity": 7.027,
      "adult": false,
      "known_for_department": "Acting"
    },
    {
      "id": 1170661,
      "name": "Geng Le",
      "profile_path": "/ozMjYdwMoXXJnbOeRdabDyy3nY7.jpg",
      "popularity": 7.027,
      "adult": false,
      "known_for_department": "Acting"
    },
    {
      "id": 227782,
      "name": "Leung Kar-yan",
      "profile_path": "/1c8lLgbS3EDJvEB3LpNrW1GPfdF.jpg",
      "popularity": 7.027,
      "adult": false,
      "known_for_department": "Acting"
    },
    {
      "id": 146358,
      "name": "Mehdi Dehbi",
      "profile_path": "/38VUxFJXs0W4hfxu99UKgAngTUn.jpg",
      "popularity": 7.027,
      "adult": false,
      "known_for_department": "Acting"
    }
  ]
}