{
  "page": 360,
  "total_results": 10000,
  "total_pages": 500,
  "results": [
    {
      "id": 1516524,
      "name": "Cao Xiyue",
      "profile_path": "/f96VcTwbjwYSJOgSI0dzqgyOamq.jpg",
      "popularity": 9.431,
      "adult": false,
      "known_for_department": "Acting"
    },
    {
      "id": 151808,
      "name": "Susannah Harker",
      "profile_path": "/sziHJAwXPuhG5Qaz87VymM4uEiH.jpg",
      "popularity": 9.431,
      "adult": false,
      "known_for_department": "Acting"
    },
    {
      "id": 31138,
      "name": "Valarie Pettiford",
      "profile_path": "/m4EmwtK3YROcmjAQSyHNa1BIg8d.jpg",
      "popularity": 9.431,
      "adult": false,
      "known_for_department": "Acting"
    },
    {
      "id": 1908005,
      "name": "Han Seol-hwa",
      "profile_path": "/zVKxCGk5RYxBa5lN39wt0VixlON.jpg",
      "popularity": 9.43,
      "adult": false,
      "known_for_department": "Acting"
    },
    {
      "id": 43202,
      "name": "Antje Traue",
      "profile_path": "/oDp1CxuY5hF2yXXoz599Ikc04kU.jpg",
      "popularity": 9.429,
      "adult": false,
      "known_for_department": "Acting"
    },
    {
      "id": 1488961,
      "name": "Lil Rel Howery",
      "profile_path": "/9MDi35Fy6ym7SYbO3B04vf1vBnm.jpg",
      "popularity": 9.428,
      "adult": false,
      "known_for_department": "Acting"
    },
    {
      "id": 137426,
      "name": "Gale Harold",
      "profile_path": "/hoStBR3n3kvg5I7AVV0ZcsyQsGU.jpg",
      "popularity": 9.428,
      "adult": false,
      "known_for_department": "Acting"
    },
    {
      "id": 9067,
      "name": "Frank Morgan",
      "profile_path": "/vSCvrwFacSTPxxUFf94s3vTH5kA.jpg",
      "popularity": 9.428,
      "adult": false,
      "known_for_department": "Acting"
    },
    {
      "id": 1478376,
      "name": "Joey Fisher",
      "profile_path": "/i8uHisSZtTXA6SmzVsyYDKMeexT.jpg",
      "popularity": 9.427,
      "adult": false,
      "known_for_department": "Acting"
    },
    {
      "id": 294813,
      "name": "Ali Afshar",
      "profile_path": "/9Z7OqjfsZtg6ifDhiA3AwMQlIXV.jpg",
      "popularity": 9.427,
      "adult": false,
      "known_for_department": "Acting"
    },
    {
      "id": 1523621,
      "name": "Valeriya Shkirando",
      "profile_path": "/zLA85tApgGLVCQeMaqEgezGvuPo.jpg",
      "popularity": 9.426,
      "adult": false,
      "known_for_department": "Acting"
    },
    {
      "id": 1352046,
      "name": "Louane Emera",
      "profile_path": "/fNzjWxLs9rpQlQAUGekmOLTCuGC.jpg",
      "popularity": 9.426,
      "adult": false,
      "known_for_department": "Acting"
    },
    {
      "id": 40202,
      "name": "Robert Preston",
      "profile_path": "/geEkOOrrqYXZ6NEj62drfAR8kM0.jpg",
      "popularity": 9.426,
      "adult": false,
      "known_for_department": "Acting"
    },
    {
      "id": 1102453,
      "name": "Ryan Cooper",
      "profile_path": "/mcwDwDirh8YzkMvWKZNZttMQ3fp.jpg",
      "popularity": 9.425,
      "adult": false,
      "known_for_department": "Acting"
    },
    {
      "id": 1370832,
      "name": "Shazad Latif",
      "profile_path": "/nwOYOs5yIBrM1zVN1nyUxbjcrEY.jpg",
      "popularity": 9.423,
      "adult": false,
      "known_for_department": "Acting"
    },
    {
      "id": 58710,
      "name": "Amy Steel",
      "profile_path": "/EzrRTc6vAX8Ls3kmJ1sbe1LQm.jpg",
      "popularity": 9.423,
      "adult": false,
      "known_for_department": "Acting"
    },
    {
      "id": 56749,
      "name": "Don Thompson",
      "profile_path": "/hu24nqSK9Y3gWV0gzpIcxaKvWTN.jpg",
      "popularity": 9.423,
      "adult": false,
      "known_for_department": "Acting"
    },
    {
      "id": 32019,
      "name": "Joachim Hansen",
      "profile_path": "/zZXhczOpPBYY2Igo7vsxDKh4kTQ.jpg",
      "popularity": 9.423,
      "adult": false,
      "known_for_department": "Acting"
    },
    {
      "id": 1605732,
      "name": "Petr Skvortsov",
      "profile_path": "/qiBPm2IzvKRWAW6duE62TBLy9zh.jpg",
      "popularity": 9.422,
      "adult": false,
      "known_for_department": "Acting"
    },
    {
      "id": 118489,
      "name": "Walt Dohrn",
      "profile_path": "/uTTMPDK4qYQll5atL2qEHACdiaC.jpg",
      "popularity": 9.422,
      "adult": false,
      "known_for_department": "Acting"
    }
  ]
}