{
  "page": 487,
  "total_results": 10000,
  "total_pages": 500,
  "results": [
    {
      "id": 1270111,
      "name": "Jonathan Howard",
      "profile_path": "/nVVGhwoMb2TV3mMj2LZOvJ6XV03.jpg",
      "popularity": 7.168,
      "adult": false,
      "known_for_department": "Acting"
    },
    {
      "id": 121750,
      "name": "Reika Kirishima",
      "profile_path": "/kRW2s6ZgKopON6xKy31ioC4TEWP.jpg",
      "popularity": 7.168,
      "adult": false,
      "known_for_department": "Acting"
    },
    {
      "id": 42841,
      "name": "John Meillon",
      "profile_path": "/k9x2VwKqiTxTKP1WIgOM1AtZf2G.jpg",
      "popularity": 7.168,
      "adult": false,
      "known_for_department": "Acting"
    },
    {
      "id": 10224,
      "name": "Clifton James",
      "profile_path": "/4XRoVhgoeQEZdg4BAKCWRkI1UfR.jpg",
      "popularity": 7.168,
      "adult": false,
      "known_for_department": "Acting"
    },
    {
      "id": 2522728,
      "name": "Yun QianQian",
      "profile_path": "/2ff1ocARlqCzjQR4Bxj2xighmeD.jpg",
      "popularity": 7.167,
      "adult": false,
      "known_for_department": "Acting"
    },
    {
      "id": 1916087,
      "name": "Kim Sung-cheol",
      "profile_path": "/hfu2D13Bt2oHPrVqkOpBtoTjbfH.jpg",
      "popularity": 7.167,
      "adult": false,
      "known_for_department": "Acting"
    },
    {
      "id": 1552969,
      "name": "Jeong Yeon-joo",
      "profile_path": "/vxj3DaBQPZTCmLLc7Fp0gD3rlJY.jpg",
      "popularity": 7.167,
      "adult": false,
      "known_for_department": "Acting"
    },
    {
      "id": 76519,
      "name": "Tab Hunter",
      "profile_path": "/Al7g54L0UWHB4l3eCmeaEnUqreC.jpg",
      "popularity": 7.167,
      "adult": false,
      "known_for_department": "Acting"
    },
    {
      "id": 2130697,
      "name": "Jakub Sasak",
      "profile_path": "/ulMU9ijoaqGRhFTyeQfTazN6G3s.jpg",
      "popularity": 7.166,
      "adult": false,
      "known_for_department": "Acting"
    },
    {
      "id": 58264,
      "name": "Dirk Benedict",
      "profile_path": "/lQG0YpiHdhQgs5DKS0185JA60mr.jpg",
      "popularity": 7.166,
      "adult": false,
      "known_for_department": "Acting"
    },
    {
      "id": 1461465,
      "name": "Amanda Arcuri",
      "profile_path": "/7CyJM2A7ptMnrnx8HQVXMJeEDnj.jpg",
      "popularity": 7.165,
      "adult": false,
      "known_for_department": "Acting"
    },
    {
      "id": 1921,
      "name": "George Nolfi",
      "profile_path": "",
      "popularity": 7.165,
      "adult": false,
      "known_for_department": "Writing"
    },
    {
      "id": 1107810,
      "name": "Nick Sagar",
      "profile_path": "/gGjr1vuxFeTMIRzXVwDCTWMbOrb.jpg",
      "popularity": 7.164,
      "adult": false,
      "known_for_department": "Acting"
    },
    {
      "id": 235262,
      "name": "Aki Toyosaki",
      "profile_path": "/zEqx8Nq0VvstKuRSElAA8X6V1gS.jpg",
      "popularity": 7.164,
      "adult": false,
      "known_for_department": "Acting"
    },
    {
      "id": 58799,
      "name": "Dana Kimmell",
      "profile_path": "/c71YzCrOk06t51yNNBIy34NBjNj.jpg",
      "popularity": 7.164,
      "adult": false,
      "known_for_department": "Acting"
    },
    {
      "id": 1732263,
      "name": "Andy Allo",
      "profile_path": "/6qIvEPbFLeKjYdyMb1DXylDEgWU.jpg",
      "popularity": 7.163,
      "adult": false,
      "known_for_department": "Acting"
    },
    {
      "id": 172833,
      "name": "Michael Karl Richards",
      "profile_path": "/pwINnTUgLABTm6veRrkFptPGj9n.jpg",
      "popularity": 7.163,
      "adult": false,
      "known_for_department": "Acting"
    },
    {
      "id": 60741,
      "name": "April Winchell",
      "profile_path": "/aRIUYseEeOSfI7a4EqPbKIyPR1o.jpg",
      "popularity": 7.163,
      "adult": false,
      "known_for_department": "Acting"
    },
    {
      "id": 2115306,
      "name": "Keisuke Watanabe",
      "profile_path": "/6S69gUTZKmiFlFNS5VwxNm1u65Z.jpg",
      "popularity": 7.162,
      "adult": false,
      "known_for_department": "Acting"
    },
    {
      "id": 1226789,
      "name": "Crystal Bernard",
      "profile_path": "/bsuipk2YLkS09Fjkw0zlvkznhg1.jpg",
      "popularity": 7.162,
      "adult": false,
      "known_for_department": "Acting"
    }
  ]
}