{
  "page": 330,
  "total_results": 10000,
  "total_pages": 500,
  "results": [
    {
      "id": 1226308,
      "name": "Michael Schur",
      "profile_path": "/uFqjvTHNCfThf9ahEIYWFkszm9c.jpg",
      "popularity": 11.392,
      "adult": false,
      "known_for_department": "Creator"
    },
    {
      "id": 18260,
      "name": "August Schellenberg",
      "profile_path": "/fSNg3WDMxgD7JlHs8QVhVf4dx2A.jpg",
      "popularity": 11.391,
      "adult": false,
      "known_for_department": "Acting"
    },
    {
      "id": 2390,
      "name": "LeVar Burton",
      "profile_path": "/tC74tISKpFGmJkrw24MMLix5nNa.jpg",
      "popularity": 11.389,
      "adult": false,
      "known_for_department": "Acting"
    },
    {
      "id": 1461608,
      "name": "Karen Fukuhara",
      "profile_path": "/39xZ0fJEfq9Ql2fILUUDJmcHT15.jpg",
      "popularity": 11.386,
      "adult": false,
      "known_for_department": "Acting"
    },
    {
      "id": 55710,
      "name": "Adam McKay",
      "profile_path": "/vOyZXNJq7Oo01LPtSD5AZHjctgH.jpg",
      "popularity": 11.385,
      "adult": false,
      "known_for_department": "Directing"
    },
    {
      "id": 32799,
      "name": "Angela Bettis",
      "profile_path": "/yckzGBCLr5cYaScOZrd4MR1aMqq.jpg",
      "popularity": 11.385,
      "adult": false,
      "known_for_department": "Acting"
    },
    {
      "id": 95257,
      "name": "Candi Milo",
      "profile_path": "/fCgxSGGGF6m8YhrIE7Irs1ueh3W.jpg",
      "popularity": 11.384,
      "adult": false,
      "known_for_department": "Acting"
    },
    {
      "id": 54594,
      "name": "Jason Earles",
      "profile_path": "/98kgD3jp4DmwwL1SmViN5cRE5NI.jpg",
      "popularity": 11.384,
      "adult": false,
      "known_for_department": "Acting"
    },
    {
      "id": 1442829,
      "name": "Breeda Wool",
      "profile_path": "/55cZ6VQI85JcsqphLeXWRbUnk4n.jpg",
      "popularity": 11.383,
      "adult": false,
      "known_for_department": "Acting"
    },
    {
      "id": 147119,
      "name": "Vincent Spano",
      "profile_path": "/ani7dv9xRTwgvbRUl6llciyh48K.jpg",
      "popularity": 11.382,
      "adult": false,
      "known_for_department": "Acting"
    },
    {
      "id": 1416997,
      "name": "Isabelle Chow Wang",
      "profile_path": "/eeUrvVd2GYAskTcBIoDG8INuBZE.jpg",
      "popularity": 11.38,
      "adult": false,
      "known_for_department": "Acting"
    },
    {
      "id": 16700,
      "name": "Greg Wise",
      "profile_path": "/3yjzOyFVc8TpPW0Q8svr4ykD2kW.jpg",
      "popularity": 11.38,
      "adult": false,
      "known_for_department": "Acting"
    },
    {
      "id": 1377670,
      "name": "Glenn Fleshler",
      "profile_path": "/x1Cef2yPZS7bJTwxI7DX3q0HNcv.jpg",
      "popularity": 11.379,
      "adult": false,
      "known_for_department": "Acting"
    },
    {
      "id": 20070,
      "name": "Jim Carter",
      "profile_path": "/okiL3gc0mNqP0kPfMQHHvFjKnHb.jpg",
      "popularity": 11.377,
      "adult": false,
      "known_for_department": "Acting"
    },
    {
      "id": 145363,
      "name": "Kim Hye-ok",
      "profile_path": "/e6TtMyr2PQbW6JNAWW7bZoaVhPt.jpg",
      "popularity": 11.376,
      "adult": false,
      "known_for_department": "Acting"
    },
    {
      "id": 46898,
      "name": "Peter Graham-Gaudreau",
      "profile_path": "/uxUN4vj7ioO8Oh3m2YW8ZJHh915.jpg",
      "popularity": 11.375,
      "adult": false,
      "known_for_department": "Acting"
    },
    {
      "id": 119713,
      "name": "Bruce Vilanch",
      "profile_path": "/2XMRxwHF5uCTxNf9qkq8IKG12Jj.jpg",
      "popularity": 11.374,
      "adult": false,
      "known_for_department": "Acting"
    },
    {
      "id": 52890,
      "name": "Richard Coyle",
      "profile_path": "/pW7dJLmR3PuL4T1eVGa5iixPHGZ.jpg",
      "popularity": 11.373,
      "adult": false,
      "known_for_department": "Acting"
    },
    {
      "id": 9625,
      "name": "Linda Fiorentino",
      "profile_path": "/kG0O5DRNJfIgxqv9eXkCq8eeR9U.jpg",
      "popularity": 11.373,
      "adult": false,
      "known_for_department": "Acting"
    },
    {
      "id": 1737904,
      "name": "徐正妍",
      "profile_path": "/za1tTtSULKsZPN0u1oTs2Iival0.jpg",
      "popularity": 11.372,
      "adult": false,
      "known_for_department": "Acting"
    }
  ]
}