{
  "page": 159,
  "total_results": 10000,
  "total_pages": 500,
  "results": [
    {
      "id": 124402,
      "name": "Masaki Okada",
      "profile_path": "/j8yU6eLFPzxuucMjb8UapQly9cT.jpg",
      "popularity": 13.304,
      "adult": false,
      "known_for_department": "Acting"
    },
    {
      "id": 18847,
      "name": "Irene Papas",
      "profile_path": "/ql3alLBiMWv6AkV0izHbXfpgcau.jpg",
      "popularity": 13.304,
      "adult": false,
      "known_for_department": "Acting"
    },
    {
      "id": 1926630,
      "name": "Stephanie Bennett",
      "profile_path": "/7R0gGXuxVbW5Em0Eij78GIFhltw.jpg",
      "popularity": 13.301,
      "adult": false,
      "known_for_department": "Acting"
    },
    {
      "id": 60017,
      "name": "Faith Hill",
      "profile_path": "/1puls2OlcTYysLl8h0VDiGFw4fo.jpg",
      "popularity": 13.301,
      "adult": false,
      "known_for_department": "Acting"
    },
    {
      "id": 1031261,
      "name": "Alyshia Ochse",
      "profile_path": "/6gI5qlYJrWZkAqt167B5BNq9M6W.jpg",
      "popularity": 13.296,
      "adult": false,
      "known_for_department": "Acting"
    },
    {
      "id": 5724,
      "name": "Denis Leary",
      "profile_path": "/nAqHuIw8z1QodcXdaJQShKogVFa.jpg",
      "popularity": 13.296,
      "adult": false,
      "known_for_department": "Acting"
    },
    {
      "id": 1615061,
      "name": "Tina Tamashiro",
      "profile_path": "/u2OfpoFq4ZFaWnuCuH0JSpTo6hr.jpg",
      "popularity": 13.295,
      "adult": false,
      "known_for_department": "Acting"
    },
    {
      "id": 98591,
      "name": "Belinda Gavin",
      "profile_path": "/mKaV0ClUBBl6oJtPPEGW5BK48ej.jpg",
      "popularity": 13.289,
      "adult": false,
      "known_for_department": "Acting"
    },
    {
      "id": 10018,
      "name": "Jack Hawkins",
      "profile_path": "/pfpe9NQrcrTrxMeU0xGsh1XRBOK.jpg",
      "popularity": 13.287,
      "adult": false,
      "known_for_department": "Acting"
    },
    {
      "id": 1329581,
      "name": "Anna Sinyakina",
      "profile_path": "/yL6w6QSL45tS1aJF4k6R6msKpXU.jpg",
      "popularity": 13.284,
      "adult": false,
      "known_for_department": "Acting"
    },
    {
      "id": 5937,
      "name": "Kari Matchett",
      "profile_path": "/sEbZlei6VeAUn33PTwwOfSvfSuz.jpg",
      "popularity": 13.284,
      "adult": false,
      "known_for_department": "Acting"
    },
    {
      "id": 3830,
      "name": "Jean Seberg",
      "profile_path": "/mNW6MJ5YAiFWAnH9pCmi0PjKXc.jpg",
      "popularity": 13.283,
      "adult": false,
      "known_for_department": "Acting"
    },
    {
      "id": 1192152,
      "name": "Tomasz Mandes",
      "profile_path": "/wmYwPfWSXfjXpwvljvXEX8h0wfC.jpg",
      "popularity": 13.281,
      "adult": false,
      "known_for_department": "Directing"
    },
    {
      "id": 728,
      "name": "Kelly Bishop",
      "profile_path": "/8b0SGs60ZiWwoloLZJObJRLkLc3.jpg",
      "popularity": 13.277,
      "adult": false,
      "known_for_department": "Acting"
    },
    {
      "id": 593,
      "name": "Joanna Cassidy",
      "profile_path": "/8R9H1GvaMaFiSDkOTMBwrL0qhWN.jpg",
      "popularity": 13.277,
      "adult": false,
      "known_for_department": "Acting"
    },
    {
      "id": 2076,
      "name": "David Warner",
      "profile_path": "/sJ5NyKkTmFGyiTrpCnZ1v0DSnQG.jpg",
      "popularity": 13.276,
      "adult": false,
      "known_for_department": "Acting"
    },
    {
      "id": 1194878,
      "name": "Neil Ellice",
      "profile_path": "/rDXkFLRNOJiWFqyyynplHjvwWwf.jpg",
      "popularity": 13.268,
      "adult": false,
      "known_for_department": "Production"
    },
    {
      "id": 60705,
      "name": "Thomas Ian Griffith",
      "profile_path": "/4h1qQeZMG2drwEEat6WKG0rbPVC.jpg",
      "popularity": 13.268,
      "adult": false,
      "known_for_department": "Acting"
    },
    {
      "id": 244430,
      "name": "Alexander Fu Sheng",
      "profile_path": "/wa5LkK81wPcSd941PUj9EsqsJI7.jpg",
      "popularity": 13.263,
      "adult": false,
      "known_for_department": "Acting"
    },
    {
      "id": 12957,
      "name": "Nancy Marchand",
      "profile_path": "/4dPOOlSAGXZ9Bf5BcSc7I2QMEiA.jpg",
      "popularity": 13.257,
      "adult": false,
      "known_for_department": "Acting"
    }
  ]
}