{
  "page": 372,
  "total_results": 10000,
  "total_pages": 500,
  "results": [
    {
      "id": 15950,
      "name": "BarBara Luna",
      "profile_path": "/xxeH3jlTv9z9IXpFJHtTy25cTFb.jpg",
      "popularity": 8.565,
      "adult": false,
      "known_for_department": "Acting"
    },
    {
      "id": 51100,
      "name": "Gad Elmaleh",
      "profile_path": "/buxyxlrFoXpcbeiYRKZn84EUiBm.jpg",
      "popularity": 8.564,
      "adult": false,
      "known_for_department": "Acting"
    },
    {
      "id": 221966,
      "name": "Christoforos Papakaliatis",
      "profile_path": "/9W3OHt1sEgPhvoKhyfudtKArTy1.jpg",
      "popularity": 8.562,
      "adult": false,
      "known_for_department": "Acting"
    },
    {
      "id": 3090,
      "name": "Richard Conte",
      "profile_path": "/pTTzNets0bgWAqx18D7by0hWUea.jpg",
      "popularity": 8.562,
      "adult": false,
      "known_for_department": "Acting"
    },
    {
      "id": 1384549,
      "name": "Takanori Iwata",
      "profile_path": "/c4YQfIROreyJBLja3zzhZPrYTwi.jpg",
      "popularity": 8.561,
      "adult": false,
      "known_for_department": "Acting"
    },
    {
      "id": 1353244,
      "name": "Yumi Hara",
      "profile_path": "/dbMtB3stkZarEbHSulpzXXp0un0.jpg",
      "popularity": 8.561,
      "adult": false,
      "known_for_department": "Acting"
    },
    {
      "id": 1253157,
      "name": "Filiz Ahmet",
      "profile_path": "/uaD96eFkJrYjCotiH4XoIbFyUAx.jpg",
      "popularity": 8.561,
      "adult": false,
      "known_for_department": "Acting"
    },
    {
      "id": 68559,
      "name": "Gary Daniels",
      "profile_path": "/60RqnmK1eAICJgbmA0YtMef6iys.jpg",
      "popularity": 8.561,
      "adult": false,
      "known_for_department": "Acting"
    },
    {
      "id": 36513,
      "name": "Liliane Rovère",
      "profile_path": "/mo7NTceScg2S8YByd9Nc5jCsdfm.jpg",
      "popularity": 8.561,
      "adult": false,
      "known_for_department": "Acting"
    },
    {
      "id": 131607,
      "name": "Rebecca Marder",
      "profile_path": "/9dNpPSvzQHTxsnojxmuwypFkdV6.jpg",
      "popularity": 8.56,
      "adult": false,
      "known_for_department": "Acting"
    },
    {
      "id": 126743,
      "name": "Lee Chung-ah",
      "profile_path": "/55UFbVcSLmkOxAplWWUMgRUXkAh.jpg",
      "popularity": 8.56,
      "adult": false,
      "known_for_department": "Acting"
    },
    {
      "id": 96172,
      "name": "Sam Levinson",
      "profile_path": "/unyjIDs02a9ghtZhnajoAKKGzhW.jpg",
      "popularity": 8.56,
      "adult": false,
      "known_for_department": "Directing"
    },
    {
      "id": 28395,
      "name": "Karoline Eichhorn",
      "profile_path": "/bReOiTHOCNBdLRyNJRhJPVYXUsC.jpg",
      "popularity": 8.557,
      "adult": false,
      "known_for_department": "Acting"
    },
    {
      "id": 1223878,
      "name": "Emily Kinney",
      "profile_path": "/c5diYLPzmeeiT4ZKbb2gm7m3pYx.jpg",
      "popularity": 8.556,
      "adult": false,
      "known_for_department": "Acting"
    },
    {
      "id": 30559,
      "name": "Pippa Scott",
      "profile_path": "/8aY7FTHBHjxiS9m0caOTuQrJxkq.jpg",
      "popularity": 8.556,
      "adult": false,
      "known_for_department": "Acting"
    },
    {
      "id": 1732611,
      "name": "Alina Boz",
      "profile_path": "/b08oLCOupmsPJCZgtcHKfO5ldS1.jpg",
      "popularity": 8.555,
      "adult": false,
      "known_for_department": "Acting"
    },
    {
      "id": 577478,
      "name": "Hannah Ware",
      "profile_path": "/alyHyAh2xfEkHGYEgmMBMDjrbPq.jpg",
      "popularity": 8.555,
      "adult": false,
      "known_for_department": "Acting"
    },
    {
      "id": 45753,
      "name": "Lyne Renee",
      "profile_path": "/ye1ZuD2ynhrAvVXMibJSXfezTsZ.jpg",
      "popularity": 8.555,
      "adult": false,
      "known_for_department": "Acting"
    },
    {
      "id": 6463,
      "name": "Dub Taylor",
      "profile_path": "/zvDrMTKXkFsLQ0j3fCj6UfNVNhK.jpg",
      "popularity": 8.555,
      "adult": false,
      "known_for_department": "Acting"
    },
    {
      "id": 302415,
      "name": "Eva Marcille",
      "profile_path": "/lRdOdPBfXHJRdBIGCZdhi6NgsUF.jpg",
      "popularity": 8.553,
      "adult": false,
      "known_for_department": "Acting"
    }
  ]
}