{
  "page": 110,
  "total_results": 10000,
  "total_pages": 500,
  "results": [
    {
      "id": 26716,
      "name": "Heather Burns",
      "profile_path": "/h9FejPeZ5n8U5rYB5Yqd73l2ZID.jpg",
      "popularity": 16.03,
      "adult": false,
      "known_for_department": "Acting"
    },
    {
      "id": 388,
      "name": "Jim Broadbent",
      "profile_path": "/jTyvGwwR1NFpvgDhcmuWZCM241w.jpg",
      "popularity": 16.03,
      "adult": false,
      "known_for_department": "Acting"
    },
    {
      "id": 935235,
      "name": "Marwan Kenzari",
      "profile_path": "/66903sgNtyzHN0Mi3D88UYgbH86.jpg",
      "popularity": 16.028,
      "adult": false,
      "known_for_department": "Acting"
    },
    {
      "id": 1549005,
      "name": "Kendall Jenner",
      "profile_path": "/etLrI9NwFNIfG6K7sSs1LtrIGxy.jpg",
      "popularity": 16.027,
      "adult": false,
      "known_for_department": "Acting"
    },
    {
      "id": 17882,
      "name": "Isabelle Huppert",
      "profile_path": "/3YQwWkpNKQeV5NUmdCH76Ne1gDP.jpg",
      "popularity": 16.016,
      "adult": false,
      "known_for_department": "Acting"
    },
    {
      "id": 2713,
      "name": "Linda Hamilton",
      "profile_path": "/7FNn9Z5xkRS9EFbGL2tpmpph9xV.jpg",
      "popularity": 16.013,
      "adult": false,
      "known_for_department": "Acting"
    },
    {
      "id": 57165,
      "name": "Jess Hill",
      "profile_path": "/uGzDd4gS3SQv790PZ46g2sDIiPS.jpg",
      "popularity": 16.012,
      "adult": false,
      "known_for_department": "Writing"
    },
    {
      "id": 1550587,
      "name": "Tomer Capone",
      "profile_path": "/r6s7dkYZUJpd00C7p9itT6Gp8XB.jpg",
      "popularity": 16.008,
      "adult": false,
      "known_for_department": "Acting"
    },
    {
      "id": 10966,
      "name": "J.K. Rowling",
      "profile_path": "/8VDx3K8NBGJDEWr4KdsGsuT8wuj.jpg",
      "popularity": 16.008,
      "adult": false,
      "known_for_department": "Writing"
    },
    {
      "id": 1253391,
      "name": "Ji Chang-wook",
      "profile_path": "/nlReEkp65LAhIVVNcxdIfSco0kn.jpg",
      "popularity": 16.005,
      "adult": false,
      "known_for_department": "Acting"
    },
    {
      "id": 36811,
      "name": "Nick Cannon",
      "profile_path": "/w0475CrtBvSva3p1qsIePoBXQ5g.jpg",
      "popularity": 16.004,
      "adult": false,
      "known_for_department": "Acting"
    },
    {
      "id": 4483,
      "name": "Dustin Hoffman",
      "profile_path": "/yFjTzJHE6AFbwQifOlnNDzmiwlq.jpg",
      "popularity": 16.003,
      "adult": false,
      "known_for_department": "Acting"
    },
    {
      "id": 11702,
      "name": "Adam Brody",
      "profile_path": "/jeMhuu9Q81XJLIef1OU7NlcxRW0.jpg",
      "popularity": 16.001,
      "adult": false,
      "known_for_department": "Acting"
    },
    {
      "id": 6068,
      "name": "Sela Ward",
      "profile_path": "/pzQuH9vm182Ar2vpUsakKzxPNV7.jpg",
      "popularity": 16.001,
      "adult": false,
      "known_for_department": "Acting"
    },
    {
      "id": 968954,
      "name": "Gina Comparetto",
      "profile_path": "/aopKEkUK1f8FUXxMrwBBBC9mIbD.jpg",
      "popularity": 15.998,
      "adult": false,
      "known_for_department": "Acting"
    },
    {
      "id": 10539,
      "name": "Kim Hunter",
      "profile_path": "/knu87rUxQVZ65Plp6BgoyasAHOT.jpg",
      "popularity": 15.994,
      "adult": false,
      "known_for_department": "Acting"
    },
    {
      "id": 13725,
      "name": "Meredith Baxter",
      "profile_path": "/yFjsVolO3q5uoqUwXtxsLdBtjFi.jpg",
      "popularity": 15.991,
      "adult": false,
      "known_for_department": "Acting"
    },
    {
      "id": 38280,
      "name": "Tang Wei",
      "profile_path": "/pXBCiu7mVEnrnDpIRc5cyyg1wPK.jpg",
      "popularity": 15.99,
      "adult": false,
      "known_for_department": "Acting"
    },
    {
      "id": 11855,
      "name": "Geraldine James",
      "profile_path": "/4FMJYeTIUxSE9SwCtnrwJzMsuC3.jpg",
      "popularity": 15.982,
      "adult": false,
      "known_for_department": "Acting"
    },
    {
      "id": 559195,
      "name": "Tobias Santelmann",
      "profile_path": "/wDsLQNsG4WWvwE6pwtV0FhL5JZt.jpg",
      "popularity": 15.971,
      "adult": false,
      "known_for_department": "Acting"
    }
  ]
}