{
  "page": 398,
  "total_results": 10000,
  "total_pages": 500,
  "results": [
    {
      "id": 50446,
      "name": "Anja Kling",
      "profile_path": "/RGhJFP6AbtgmXCbykmRykIQXaw.jpg",
      "popularity": 7.942,
      "adult": false,
      "known_for_department": "Acting"
    },
    {
      "id": 20494,
      "name": "Zoë Bell",
      "profile_path": "/fDckmfcIrrdcOgyGifVF2FvQtiE.jpg",
      "popularity": 7.942,
      "adult": false,
      "known_for_department": "Acting"
    },
    {
      "id": 59176,
      "name": "Jenna Boyd",
      "profile_path": "/tDMgyuY9KwFHpmJdqyi51aGOkCe.jpg",
      "popularity": 7.941,
      "adult": false,
      "known_for_department": "Acting"
    },
    {
      "id": 6725,
      "name": "Russ Tamblyn",
      "profile_path": "/qWpkcTJD0q5WQk4RRne7uW78611.jpg",
      "popularity": 7.941,
      "adult": false,
      "known_for_department": "Acting"
    },
    {
      "id": 5471,
      "name": "Naveen Andrews",
      "profile_path": "/tVAQ4dP9rRosjHZBLNVlfAGVE66.jpg",
      "popularity": 7.941,
      "adult": false,
      "known_for_department": "Acting"
    },
    {
      "id": 1924,
      "name": "Jeroen Krabbé",
      "profile_path": "/r26lZKUeLIaUt8DMotm4mdc4EaY.jpg",
      "popularity": 7.941,
      "adult": false,
      "known_for_department": "Acting"
    },
    {
      "id": 1746547,
      "name": "Ji Woo",
      "profile_path": "/n6hS8eBgv36UG6ZOWQoGyErFdit.jpg",
      "popularity": 7.94,
      "adult": false,
      "known_for_department": "Acting"
    },
    {
      "id": 1502314,
      "name": "Hunter Clowdus",
      "profile_path": "/xmk2oXrA0q4qi9eID8lpZtQ18zM.jpg",
      "popularity": 7.94,
      "adult": false,
      "known_for_department": "Acting"
    },
    {
      "id": 15397,
      "name": "Lino Ventura",
      "profile_path": "/j8D4ox5jSavrB7G8KrlxEIxivEq.jpg",
      "popularity": 7.94,
      "adult": false,
      "known_for_department": "Acting"
    },
    {
      "id": 1840067,
      "name": "Chelsea Edge",
      "profile_path": "/cejUIM3UJblJPFzDnx63MlnEDZy.jpg",
      "popularity": 7.939,
      "adult": false,
      "known_for_department": "Acting"
    },
    {
      "id": 1278160,
      "name": "Kim Won-hae",
      "profile_path": "/nWZGktRe2Ele7fLxZt8e492oRir.jpg",
      "popularity": 7.939,
      "adult": false,
      "known_for_department": "Acting"
    },
    {
      "id": 1232383,
      "name": "Parker McKenna Posey",
      "profile_path": "/mkdlGOGLEadTKddITrGjnoqHMSc.jpg",
      "popularity": 7.939,
      "adult": false,
      "known_for_department": "Acting"
    },
    {
      "id": 1212016,
      "name": "Alison Sweeney",
      "profile_path": "/xSFd60uTym5aTbQRGKOZ8EPxBDX.jpg",
      "popularity": 7.939,
      "adult": false,
      "known_for_department": "Acting"
    },
    {
      "id": 550949,
      "name": "Tien Hsin",
      "profile_path": "/zSEQ3gea3V6vRRLKjy0YAGw3EG5.jpg",
      "popularity": 7.939,
      "adult": false,
      "known_for_department": "Acting"
    },
    {
      "id": 6715,
      "name": "Dana Ashbrook",
      "profile_path": "/sAR3KoRwOxV9sztnEuTi5nLrTlz.jpg",
      "popularity": 7.939,
      "adult": false,
      "known_for_department": "Acting"
    },
    {
      "id": 135726,
      "name": "Simon J. Berger",
      "profile_path": "/njrbGetxp48znoyte8jHcR5wkgx.jpg",
      "popularity": 7.937,
      "adult": false,
      "known_for_department": "Acting"
    },
    {
      "id": 65020,
      "name": "Victoria Rowell",
      "profile_path": "/njRclKcWrRZAVB7TRTy7rsMPzxi.jpg",
      "popularity": 7.937,
      "adult": false,
      "known_for_department": "Acting"
    },
    {
      "id": 1216876,
      "name": "Barbara Barrie",
      "profile_path": "/eUVrPjqoAKGFuF6ORUOEzfXgAhb.jpg",
      "popularity": 7.936,
      "adult": false,
      "known_for_department": "Acting"
    },
    {
      "id": 1622590,
      "name": "Bruna Marquezine",
      "profile_path": "/mGDhenXwsFRaaz1PjbJjDkn2snc.jpg",
      "popularity": 7.935,
      "adult": false,
      "known_for_department": "Acting"
    },
    {
      "id": 38707,
      "name": "Jason Dolley",
      "profile_path": "/uMx8ZOpU3jPUte6tvtfQls9HDC7.jpg",
      "popularity": 7.935,
      "adult": false,
      "known_for_department": "Acting"
    }
  ]
}