{
  "page": 170,
  "total_results": 10000,
  "total_pages": 500,
  "results": [
    {
      "id": 35341,
      "name": "Geneviève Bujold",
      "profile_path": "/cOpXJeJ3xNuqF6bqxEjObuRWAE0.jpg",
      "popularity": 12.152,
      "adult": false,
      "known_for_department": "Acting"
    },
    {
      "id": 14541,
      "name": "Chris Sarandon",
      "profile_path": "/jP92Lq3JHl8mbdxzcZ6PyCQDwa5.jpg",
      "popularity": 12.149,
      "adult": false,
      "known_for_department": "Acting"
    },
    {
      "id": 58691,
      "name": "Heather Locklear",
      "profile_path": "/qDyoFs0GzYIIp3kxg0znfqEq5Vp.jpg",
      "popularity": 12.148,
      "adult": false,
      "known_for_department": "Acting"
    },
    {
      "id": 107770,
      "name": "B. J. Novak",
      "profile_path": "/o8Xf1khxhKGTz3QAplXD35opRA8.jpg",
      "popularity": 12.147,
      "adult": false,
      "known_for_department": "Acting"
    },
    {
      "id": 1583307,
      "name": "Natasha Liu Bordizzo",
      "profile_path": "/tROyGLEDMe8zpFQq09Fdbn42pGl.jpg",
      "popularity": 12.141,
      "adult": false,
      "known_for_department": "Acting"
    },
    {
      "id": 64435,
      "name": "Jaycee Chan",
      "profile_path": "/fQafEcMcURUkOY1zOygfwOp0AWf.jpg",
      "popularity": 12.141,
      "adult": false,
      "known_for_department": "Acting"
    },
    {
      "id": 110742,
      "name": "Tika Sumpter",
      "profile_path": "/6Hb9e7jna7nml58cztAvbKgFAPx.jpg",
      "popularity": 12.14,
      "adult": false,
      "known_for_department": "Acting"
    },
    {
      "id": 4888,
      "name": "Lily Rabe",
      "profile_path": "/u54mVF2vcjymvLhyImxzInq4Y3o.jpg",
      "popularity": 12.138,
      "adult": false,
      "known_for_department": "Acting"
    },
    {
      "id": 591,
      "name": "Brion James",
      "profile_path": "/9I5MBiK0o6Nup1YjsGuzsIc2tZZ.jpg",
      "popularity": 12.138,
      "adult": false,
      "known_for_department": "Acting"
    },
    {
      "id": 1206334,
      "name": "Josh O'Connor",
      "profile_path": "/fiDjDWCGSZ7xDaN1rKAP4gvRn1a.jpg",
      "popularity": 12.133,
      "adult": false,
      "known_for_department": "Acting"
    },
    {
      "id": 24203,
      "name": "Rhea Perlman",
      "profile_path": "/utg7mKbhNvxRWfWBwSb27tQTaOE.jpg",
      "popularity": 12.133,
      "adult": false,
      "known_for_department": "Acting"
    },
    {
      "id": 932821,
      "name": "So Ji-sub",
      "profile_path": "/oEdXNo3ohtldtIW6DMFPpvMYW4g.jpg",
      "popularity": 12.131,
      "adult": false,
      "known_for_department": "Acting"
    },
    {
      "id": 87280,
      "name": "Bellamy Young",
      "profile_path": "/tTGC9qsuSaBD9OlphwIqK3TLtmh.jpg",
      "popularity": 12.13,
      "adult": false,
      "known_for_department": "Acting"
    },
    {
      "id": 4819,
      "name": "Paolo Bonacelli",
      "profile_path": "/7h2EJQ19m9pZCfyGEoXb8aEFIF2.jpg",
      "popularity": 12.125,
      "adult": false,
      "known_for_department": "Acting"
    },
    {
      "id": 42722,
      "name": "Michael T. Weiss",
      "profile_path": "/blubry0tJA9kqEkwYl1b7VUgRlM.jpg",
      "popularity": 12.123,
      "adult": false,
      "known_for_department": "Acting"
    },
    {
      "id": 4004,
      "name": "Jeffrey Jones",
      "profile_path": "/zLodpqWUb9OzQLpK1ZY9im1Lh0p.jpg",
      "popularity": 12.121,
      "adult": false,
      "known_for_department": "Acting"
    },
    {
      "id": 2144,
      "name": "Tobin Bell",
      "profile_path": "/wyyfG5Pml4G1Y3Aw873LIe32wsl.jpg",
      "popularity": 12.12,
      "adult": false,
      "known_for_department": "Acting"
    },
    {
      "id": 1375002,
      "name": "Sunita Mani",
      "profile_path": "/xQo4rkMEphSAt8F9D1OyWv0GBLx.jpg",
      "popularity": 12.117,
      "adult": false,
      "known_for_department": "Acting"
    },
    {
      "id": 2959,
      "name": "Kayvan Novak",
      "profile_path": "/2cJuw1nGFHyJTMj8YIh91cvErSm.jpg",
      "popularity": 12.117,
      "adult": false,
      "known_for_department": "Acting"
    },
    {
      "id": 85721,
      "name": "Tamannaah Bhatia",
      "profile_path": "/t4WYoKiFAyO1Rhjv7O03EKmJHp4.jpg",
      "popularity": 12.116,
      "adult": false,
      "known_for_department": "Acting"
    }
  ]
}