{
  "page": 193,
  "total_results": 10000,
  "total_pages": 500,
  "results": [
    {
      "id": 1256020,
      "name": "Emily Swallow",
      "profile_path": "/jlgPZqdMsQaVv30oMqc40LzHYIw.jpg",
      "popularity": 12.225,
      "adult": false,
      "known_for_department": "Acting"
    },
    {
      "id": 945130,
      "name": "Chikako Aoyama",
      "profile_path": "/rhhmJ7ejqADcGMgZZ5oR2TAqRv5.jpg",
      "popularity": 12.225,
      "adult": false,
      "known_for_department": "Acting"
    },
    {
      "id": 6752,
      "name": "Zeljko Ivanek",
      "profile_path": "/xLv19n8UvGJLxI7Z6RIv9eNXGmf.jpg",
      "popularity": 12.223,
      "adult": false,
      "known_for_department": "Acting"
    },
    {
      "id": 140267,
      "name": "Osita Iheme",
      "profile_path": "",
      "popularity": 12.222,
      "adult": false,
      "known_for_department": "Acting"
    },
    {
      "id": 19740,
      "name": "Kate Vernon",
      "profile_path": "/zFg9qFTWui0l72b7MUIdDO1k817.jpg",
      "popularity": 12.22,
      "adult": false,
      "known_for_department": "Acting"
    },
    {
      "id": 1312526,
      "name": "Andrew Leung",
      "profile_path": "/hXK4gUIooj3SpQ2qwEN9JLV0B7d.jpg",
      "popularity": 12.219,
      "adult": false,
      "known_for_department": "Acting"
    },
    {
      "id": 20982,
      "name": "Marton Csokas",
      "profile_path": "/gmeUY7FR0bFLdu7Ma5kvpH3Gt6B.jpg",
      "popularity": 12.215,
      "adult": false,
      "known_for_department": "Acting"
    },
    {
      "id": 1223084,
      "name": "Mary Mouser",
      "profile_path": "/A5AMjqFB5SqWdZh4gOBGQNXK8vf.jpg",
      "popularity": 12.214,
      "adult": false,
      "known_for_department": "Acting"
    },
    {
      "id": 1109702,
      "name": "Karan Soni",
      "profile_path": "/s7jfz0OA9PeCEf1Te5b2heOia0b.jpg",
      "popularity": 12.214,
      "adult": false,
      "known_for_department": "Acting"
    },
    {
      "id": 69210,
      "name": "Chyler Leigh",
      "profile_path": "/yoL8HbWhnoTVugTV5qLJP8gVpIq.jpg",
      "popularity": 12.214,
      "adult": false,
      "known_for_department": "Acting"
    },
    {
      "id": 19439,
      "name": "Henry Gibson",
      "profile_path": "/2Py2ZzFfTobPIHEKRYuWHhxRDqF.jpg",
      "popularity": 12.214,
      "adult": false,
      "known_for_department": "Acting"
    },
    {
      "id": 35322,
      "name": "Alan Hale Jr.",
      "profile_path": "/13hyaSRqAe9LTkGTp4iEyZQO5Il.jpg",
      "popularity": 12.211,
      "adult": false,
      "known_for_department": "Acting"
    },
    {
      "id": 11148,
      "name": "Joan Allen",
      "profile_path": "/2w40UhN3WoW9G9EkLzhDcfF3t9W.jpg",
      "popularity": 12.209,
      "adult": false,
      "known_for_department": "Acting"
    },
    {
      "id": 963767,
      "name": "Bill Heck",
      "profile_path": "/A41HLWt1Dy5dKDfxVqqusVIZ4zq.jpg",
      "popularity": 12.205,
      "adult": false,
      "known_for_department": "Acting"
    },
    {
      "id": 42133,
      "name": "Nina Siemaszko",
      "profile_path": "/aXEBJst8pDU662tkrnJ1XZb4uUi.jpg",
      "popularity": 12.205,
      "adult": false,
      "known_for_department": "Acting"
    },
    {
      "id": 20300,
      "name": "Eileen Atkins",
      "profile_path": "/8gac03PfTFz2vByZi1aun0NiTqM.jpg",
      "popularity": 12.205,
      "adult": false,
      "known_for_department": "Acting"
    },
    {
      "id": 53283,
      "name": "Jonathan Taylor Thomas",
      "profile_path": "/E4cAiS5ge08euPEXrGLKhQX7cj.jpg",
      "popularity": 12.204,
      "adult": false,
      "known_for_department": "Acting"
    },
    {
      "id": 19152,
      "name": "Dylan Baker",
      "profile_path": "/tNifnU13oAn251qT5LRNCJJdhKs.jpg",
      "popularity": 12.204,
      "adult": false,
      "known_for_department": "Acting"
    },
    {
      "id": 6858,
      "name": "Mike Vogel",
      "profile_path": "/xbgA2Y8Vmr3oCJwiIymgiwDqpyy.jpg",
      "popularity": 12.204,
      "adult": false,
      "known_for_department": "Acting"
    },
    {
      "id": 2826761,
      "name": "Lilli Kay",
      "profile_path": "/d1XgQLLvwGrVA5Twgwf7jRXBEAL.jpg",
      "popularity": 12.202,
      "adult": false,
      "known_for_department": "Acting"
    }
  ]
}