{
  "page": 387,
  "total_results": 10000,
  "total_pages": 500,
  "results": [
    {
      "id": 233096,
      "name": "Lucien Laviscount",
      "profile_path": "/cCT1tuJLUNxXesHOT3TBDbCyHvt.jpg",
      "popularity": 7.748,
      "adult": false,
      "known_for_department": "Acting"
    },
    {
      "id": 8537,
      "name": "Jonathan Hyde",
      "profile_path": "/1jYyW3B5omvMTVfEswqQQBrHN2.jpg",
      "popularity": 7.748,
      "adult": false,
      "known_for_department": "Acting"
    },
    {
      "id": 44103,
      "name": "Richard Fitzpatrick",
      "profile_path": "/xHENypVUmcCzxRZsL5wkp4WYRgb.jpg",
      "popularity": 7.747,
      "adult": false,
      "known_for_department": "Acting"
    },
    {
      "id": 33448,
      "name": "Judy Parfitt",
      "profile_path": "/4AJOIPPZEvAj5d55ci6x4zgxcD.jpg",
      "popularity": 7.747,
      "adult": false,
      "known_for_department": "Acting"
    },
    {
      "id": 124820,
      "name": "Hiroshi Fujioka",
      "profile_path": "/nI1HftP1byNGKU0KRhyH3eVPXeQ.jpg",
      "popularity": 7.746,
      "adult": false,
      "known_for_department": "Acting"
    },
    {
      "id": 24501,
      "name": "Pierre Richard",
      "profile_path": "/s3P7GFbSU60YDwogCgPH8p9hDfj.jpg",
      "popularity": 7.745,
      "adult": false,
      "known_for_department": "Acting"
    },
    {
      "id": 2392464,
      "name": "Airu Kubozuka",
      "profile_path": "/fz5Ch43WxXPprYQ5PKaLsrus7O4.jpg",
      "popularity": 7.744,
      "adult": false,
      "known_for_department": "Acting"
    },
    {
      "id": 147100,
      "name": "Nuno Lopes",
      "profile_path": "/mM4d814VPIGxdYg7Q2BJRracSc8.jpg",
      "popularity": 7.744,
      "adult": false,
      "known_for_department": "Acting"
    },
    {
      "id": 60611,
      "name": "Brandi Alexander",
      "profile_path": "/qyU3MZl0YpcUUEklXUI1PQ28cT5.jpg",
      "popularity": 7.744,
      "adult": false,
      "known_for_department": "Acting"
    },
    {
      "id": 2104521,
      "name": "Lya Oussadit-Lessert",
      "profile_path": "/mqFkzFrMxqdmmzqey28toy6Dfc0.jpg",
      "popularity": 7.743,
      "adult": false,
      "known_for_department": "Acting"
    },
    {
      "id": 1527552,
      "name": "Agnieszka Żulewska",
      "profile_path": "/4rvcJMkl1Test5C6DFFpqJY2CrJ.jpg",
      "popularity": 7.743,
      "adult": false,
      "known_for_department": "Acting"
    },
    {
      "id": 115457,
      "name": "Eddie Bracken",
      "profile_path": "/iHAR0dzXbYw2pS2WkOmJGOd7QXG.jpg",
      "popularity": 7.743,
      "adult": false,
      "known_for_department": "Acting"
    },
    {
      "id": 98473,
      "name": "Cassandra Gava",
      "profile_path": "",
      "popularity": 7.743,
      "adult": false,
      "known_for_department": "Acting"
    },
    {
      "id": 13591,
      "name": "Richard Moll",
      "profile_path": "/p51OMBLWgsmf3qeprxszXHLmxKt.jpg",
      "popularity": 7.743,
      "adult": false,
      "known_for_department": "Acting"
    },
    {
      "id": 71552,
      "name": "Ari Graynor",
      "profile_path": "/5zeItxS6KlT6SzOJnsRZEzCv0Mm.jpg",
      "popularity": 7.742,
      "adult": false,
      "known_for_department": "Acting"
    },
    {
      "id": 38761,
      "name": "Stuart Whitman",
      "profile_path": "/cRov050vMurqfIsDG6TgVWxoYMq.jpg",
      "popularity": 7.742,
      "adult": false,
      "known_for_department": "Acting"
    },
    {
      "id": 1397749,
      "name": "Aaron Altaras",
      "profile_path": "/n23EIdM8qJRNEMqudL1Sb0vnRAP.jpg",
      "popularity": 7.741,
      "adult": false,
      "known_for_department": "Acting"
    },
    {
      "id": 87585,
      "name": "Naoko Matsui",
      "profile_path": "/oXUGZK7dk1jFDZkZqUTRvseXVV5.jpg",
      "popularity": 7.741,
      "adult": false,
      "known_for_department": "Acting"
    },
    {
      "id": 70785,
      "name": "Anita Briem",
      "profile_path": "/8M6MkLKpAXKRoYlhOH5LzBhBGFv.jpg",
      "popularity": 7.741,
      "adult": false,
      "known_for_department": "Acting"
    },
    {
      "id": 3126,
      "name": "Ione Skye",
      "profile_path": "/ye8qsi6fn51HW93c7065Jogbh9p.jpg",
      "popularity": 7.741,
      "adult": false,
      "known_for_department": "Acting"
    }
  ]
}