{
  "page": 385,
  "total_results": 10000,
  "total_pages": 500,
  "results": [
    {
      "id": 6929,
      "name": "Tippi Hedren",
      "profile_path": "/uMhXwLMUlTQk0N8g3FaVil0qxEq.jpg",
      "popularity": 8.765,
      "adult": false,
      "known_for_department": "Acting"
    },
    {
      "id": 220916,
      "name": "Dustin Clare",
      "profile_path": "/trKLSw4KZ2Cg6JF8KOkuawOG5WK.jpg",
      "popularity": 8.763,
      "adult": false,
      "known_for_department": "Acting"
    },
    {
      "id": 62019,
      "name": "Clu Gulager",
      "profile_path": "/yknfEYk9ate8XdG3XnPr6WAEgwX.jpg",
      "popularity": 8.763,
      "adult": false,
      "known_for_department": "Acting"
    },
    {
      "id": 25627,
      "name": "Hal Smith",
      "profile_path": "/xVXbKpSgCHvP5ymJNeB1fyf4GMP.jpg",
      "popularity": 8.763,
      "adult": false,
      "known_for_department": "Acting"
    },
    {
      "id": 10356,
      "name": "Marika Green",
      "profile_path": "/u1KMdWcSHCHCmflZeYtQjdp5Sez.jpg",
      "popularity": 8.763,
      "adult": false,
      "known_for_department": "Acting"
    },
    {
      "id": 74954,
      "name": "Corinne Bohrer",
      "profile_path": "/3zlALdvKNkRdrhTrxKTsyav8zRP.jpg",
      "popularity": 8.762,
      "adult": false,
      "known_for_department": "Acting"
    },
    {
      "id": 1116,
      "name": "Alan Ford",
      "profile_path": "/nSlngfcFsCPENxiqCwZnB1twKuC.jpg",
      "popularity": 8.762,
      "adult": false,
      "known_for_department": "Acting"
    },
    {
      "id": 1070768,
      "name": "Sudarat Butrprom",
      "profile_path": "/44I01d6f8qMwmazm57KJ13Rv19G.jpg",
      "popularity": 8.761,
      "adult": false,
      "known_for_department": "Acting"
    },
    {
      "id": 62976,
      "name": "Eleanor Matsuura",
      "profile_path": "/8PTKH2LHXVxoxPm4kULlQ0OdwTg.jpg",
      "popularity": 8.761,
      "adult": false,
      "known_for_department": "Acting"
    },
    {
      "id": 1939779,
      "name": "Luke Prael",
      "profile_path": "/o1v8Zb6KAMMcmciOspHAMFdP1DG.jpg",
      "popularity": 8.76,
      "adult": false,
      "known_for_department": "Acting"
    },
    {
      "id": 1537084,
      "name": "Siena Agudong",
      "profile_path": "/hMpnub7Wpr2xhJ8p8BgRMLFaQUU.jpg",
      "popularity": 8.76,
      "adult": false,
      "known_for_department": "Acting"
    },
    {
      "id": 35642,
      "name": "Kenichi Endo",
      "profile_path": "/5NyLtChKpQ0KLiYjZ3aSDylBIou.jpg",
      "popularity": 8.76,
      "adult": false,
      "known_for_department": "Acting"
    },
    {
      "id": 15105,
      "name": "Mike Hagerty",
      "profile_path": "/1AEBjPdKVXp1dtvoCG7onqzXtCn.jpg",
      "popularity": 8.759,
      "adult": false,
      "known_for_department": "Acting"
    },
    {
      "id": 20331,
      "name": "Yūko Tanaka",
      "profile_path": "/xXek6ZKG9iH5ughIneW3yv9slyY.jpg",
      "popularity": 8.758,
      "adult": false,
      "known_for_department": "Acting"
    },
    {
      "id": 2508520,
      "name": "Brian Moreno",
      "profile_path": "/2cX6Z0olrewXZjHxXuMRN7AAEn8.jpg",
      "popularity": 8.756,
      "adult": false,
      "known_for_department": "Acting"
    },
    {
      "id": 1169685,
      "name": "Eliana Jones",
      "profile_path": "/uY2EH2ZXjoMtsq9KWcPox4efgVk.jpg",
      "popularity": 8.753,
      "adult": false,
      "known_for_department": "Acting"
    },
    {
      "id": 104342,
      "name": "John Laughlin",
      "profile_path": "/4qf0XXBWk53VOMrQkR8yQ7d8O0l.jpg",
      "popularity": 8.753,
      "adult": false,
      "known_for_department": "Acting"
    },
    {
      "id": 9706,
      "name": "Toshiyuki Morikawa",
      "profile_path": "/u1N6H7V0dehFD4fcO7ZkHvIMUrG.jpg",
      "popularity": 8.752,
      "adult": false,
      "known_for_department": "Acting"
    },
    {
      "id": 1236,
      "name": "Mark Pellegrino",
      "profile_path": "/r0XnI7sUWzShVwnHw3ncSPxw0Tv.jpg",
      "popularity": 8.752,
      "adult": false,
      "known_for_department": "Acting"
    },
    {
      "id": 1435635,
      "name": "Anastasia Akatova",
      "profile_path": "/sV2BQ8WUmNXjzs3Wm4Ss8Hw7IeE.jpg",
      "popularity": 8.751,
      "adult": false,
      "known_for_department": "Acting"
    }
  ]
}