{
  "page": 467,
  "total_results": 10000,
  "total_pages": 500,
  "results": [
    {
      "id": 40376,
      "name": "Lymari Nadal",
      "profile_path": "/gGMpfG2K06elVHEk9jddoE92LR7.jpg",
      "popularity": 6.458,
      "adult": false,
      "known_for_department": "Acting"
    },
    {
      "id": 35806,
      "name": "Shaquille O'Neal",
      "profile_path": "/lSl3ZH4BHKrDoEZNIksPw87zaSb.jpg",
      "popularity": 6.458,
      "adult": false,
      "known_for_department": "Acting"
    },
    {
      "id": 16180,
      "name": "Robert Picardo",
      "profile_path": "/9TOY0mhWRMlU5Ur8QHMoDecWs2n.jpg",
      "popularity": 6.458,
      "adult": false,
      "known_for_department": "Acting"
    },
    {
      "id": 71375,
      "name": "Alden Ehrenreich",
      "profile_path": "/bx86TPUmeHp0QkijQb16r2qIwEr.jpg",
      "popularity": 6.457,
      "adult": false,
      "known_for_department": "Acting"
    },
    {
      "id": 43431,
      "name": "Barclay Hope",
      "profile_path": "/64DyRr2dUcrd0gPjgEBHIcDMSDo.jpg",
      "popularity": 6.456,
      "adult": false,
      "known_for_department": "Acting"
    },
    {
      "id": 86397,
      "name": "Chad Donella",
      "profile_path": "/iUOcGIj18DpXBJdAx3qmmKNF1wp.jpg",
      "popularity": 6.455,
      "adult": false,
      "known_for_department": "Acting"
    },
    {
      "id": 1096930,
      "name": "Samantha Logan",
      "profile_path": "/oFR0LQlcW5eZAVq1Fm0l8chkmpb.jpg",
      "popularity": 6.454,
      "adult": false,
      "known_for_department": "Acting"
    },
    {
      "id": 570775,
      "name": "Matt Lintz",
      "profile_path": "/8LxZ4WRHYLzraf4ghkApytJXMx.jpg",
      "popularity": 6.454,
      "adult": false,
      "known_for_department": "Acting"
    },
    {
      "id": 97783,
      "name": "Lisa Rinna",
      "profile_path": "/kNSwuPLalpGsvT7oHqOkZnAjGfx.jpg",
      "popularity": 6.454,
      "adult": false,
      "known_for_department": "Acting"
    },
    {
      "id": 148881,
      "name": "Aarif Rahman",
      "profile_path": "/xIhutO65mdNEWKHusfvHZYTDITE.jpg",
      "popularity": 6.453,
      "adult": false,
      "known_for_department": "Acting"
    },
    {
      "id": 117431,
      "name": "Shaun Johnston",
      "profile_path": "/8QeE3VvD3Gin7xSkfc24iqcs716.jpg",
      "popularity": 6.453,
      "adult": false,
      "known_for_department": "Acting"
    },
    {
      "id": 62036,
      "name": "Robert Carradine",
      "profile_path": "/kQrhmy4WKxFP8Zz8H3CUosHrhPp.jpg",
      "popularity": 6.453,
      "adult": false,
      "known_for_department": "Acting"
    },
    {
      "id": 1227717,
      "name": "Himesh Patel",
      "profile_path": "/fC6diZ0i3Epot9dRl7b2SSegf4L.jpg",
      "popularity": 6.451,
      "adult": false,
      "known_for_department": "Acting"
    },
    {
      "id": 127164,
      "name": "Phyllis Logan",
      "profile_path": "/jRNfzD3bA5fyPxXRTiDbfNsTcOV.jpg",
      "popularity": 6.451,
      "adult": false,
      "known_for_department": "Acting"
    },
    {
      "id": 1254557,
      "name": "Kim Yoon-hye",
      "profile_path": "/sBMmdoZNbL9XjRyxibxGYki4jMn.jpg",
      "popularity": 6.45,
      "adult": false,
      "known_for_department": "Acting"
    },
    {
      "id": 4094,
      "name": "Jack Kruschen",
      "profile_path": "/3QOPlFyLfFR8cLe0pseRjrm3lra.jpg",
      "popularity": 6.45,
      "adult": false,
      "known_for_department": "Acting"
    },
    {
      "id": 2657490,
      "name": "Sena Natsuki",
      "profile_path": "/wHTdQH2KSRXHfLMYFIW9e72HwDo.jpg",
      "popularity": 6.448,
      "adult": false,
      "known_for_department": "Acting"
    },
    {
      "id": 12677,
      "name": "Matthew Robbins",
      "profile_path": "/abxZZtYWLhnliR572pJvhfyksnD.jpg",
      "popularity": 6.448,
      "adult": false,
      "known_for_department": "Writing"
    },
    {
      "id": 80378,
      "name": "Preston Bailey",
      "profile_path": "/nQg1MXzhTHtzTLe4i5fNofXm261.jpg",
      "popularity": 6.446,
      "adult": false,
      "known_for_department": "Acting"
    },
    {
      "id": 67575,
      "name": "Shari Belafonte",
      "profile_path": "/qBcWIQixcbfJSqnnAnO4J9iX18H.jpg",
      "popularity": 6.446,
      "adult": false,
      "known_for_department": "Acting"
    }
  ]
}