{
  "page": 47,
  "total_results": 10000,
  "total_pages": 500,
  "results": [
    {
      "id": 1356630,
      "name": "Charlie Murphy",
      "profile_path": "/3kgiUhc4fvFpAZTF5MylwjEvJNR.jpg",
      "popularity": 27.506,
      "adult": false,
      "known_for_department": "Acting"
    },
    {
      "id": 10860,
      "name": "Jessica Biel",
      "profile_path": "/3txkpzteYNW12vpREFpagSrWe6d.jpg",
      "popularity": 27.497,
      "adult": false,
      "known_for_department": "Acting"
    },
    {
      "id": 56024,
      "name": "Jean Dujardin",
      "profile_path": "/iPtSWWoO8vajj6fIUQLQeuGOCsk.jpg",
      "popularity": 27.481,
      "adult": false,
      "known_for_department": "Acting"
    },
    {
      "id": 1544093,
      "name": "Kim Tae-hyung",
      "profile_path": "/jPCklfz8cAXfvRptmeNeYBa9Myf.jpg",
      "popularity": 27.472,
      "adult": false,
      "known_for_department": "Acting"
    },
    {
      "id": 4430,
      "name": "Sharon Stone",
      "profile_path": "/5lYs0HaAvsXPZJpMcndbSeQdPgT.jpg",
      "popularity": 27.461,
      "adult": false,
      "known_for_department": "Acting"
    },
    {
      "id": 108916,
      "name": "Rooney Mara",
      "profile_path": "/ixcGTDGHtwaQnNLpLS1S7V01DUJ.jpg",
      "popularity": 27.442,
      "adult": false,
      "known_for_department": "Acting"
    },
    {
      "id": 41089,
      "name": "Martin Starr",
      "profile_path": "/gNyCdend3C5gY3ucq42Zt3swfg2.jpg",
      "popularity": 27.436,
      "adult": false,
      "known_for_department": "Acting"
    },
    {
      "id": 2539470,
      "name": "Wiktoria Filus",
      "profile_path": "/619KfP0hwGKbOIoSmNjuRHQ17uz.jpg",
      "popularity": 27.429,
      "adult": false,
      "known_for_department": "Acting"
    },
    {
      "id": 1734,
      "name": "Annette O'Toole",
      "profile_path": "/mCTEEzuNXlCdyl9uM4ot688IfVz.jpg",
      "popularity": 27.427,
      "adult": false,
      "known_for_department": "Acting"
    },
    {
      "id": 240171,
      "name": "Gordon Liu Chia-hui",
      "profile_path": "/hLLDmQbIi8EO0hsBbgLAswqaOrq.jpg",
      "popularity": 27.426,
      "adult": false,
      "known_for_department": "Acting"
    },
    {
      "id": 150587,
      "name": "Katie McGrath",
      "profile_path": "/cq9pc7qFRUKCrkXgsi5mJkb64U5.jpg",
      "popularity": 27.414,
      "adult": false,
      "known_for_department": "Acting"
    },
    {
      "id": 239019,
      "name": "Kit Harington",
      "profile_path": "/noInYh5IKASiecR5lHJSjXIDmkm.jpg",
      "popularity": 27.411,
      "adult": false,
      "known_for_department": "Acting"
    },
    {
      "id": 10478,
      "name": "Jeanne Tripplehorn",
      "profile_path": "/q7D9MDnMVc5PAm99853gszHwJy7.jpg",
      "popularity": 27.388,
      "adult": false,
      "known_for_department": "Acting"
    },
    {
      "id": 1276,
      "name": "Patricia Clarkson",
      "profile_path": "/rHHM9G83fpBAcFathbSyV4Tot5j.jpg",
      "popularity": 27.376,
      "adult": false,
      "known_for_department": "Acting"
    },
    {
      "id": 21858,
      "name": "Krista Allen",
      "profile_path": "/dzSpRWvCr2XLkVUclv3OSXNe8wg.jpg",
      "popularity": 27.372,
      "adult": false,
      "known_for_department": "Acting"
    },
    {
      "id": 10872,
      "name": "Patton Oswalt",
      "profile_path": "/ljQvjbPmcIAl205Lb2Mu4CW8WO7.jpg",
      "popularity": 27.356,
      "adult": false,
      "known_for_department": "Acting"
    },
    {
      "id": 49735,
      "name": "Aidan Gillen",
      "profile_path": "/ju5ho6nnwOQ2QLGLnDP9yOZhGpb.jpg",
      "popularity": 27.355,
      "adult": false,
      "known_for_department": "Acting"
    },
    {
      "id": 550843,
      "name": "Elizabeth Olsen",
      "profile_path": "/wIU675y4dofIDVuhaNWPizJNtep.jpg",
      "popularity": 27.352,
      "adult": false,
      "known_for_department": "Acting"
    },
    {
      "id": 1333252,
      "name": "Baek Se-ri",
      "profile_path": "/uAzUqGnwaVrKDtIPEIhZi6j4YoC.jpg",
      "popularity": 27.337,
      "adult": false,
      "known_for_department": "Acting"
    },
    {
      "id": 1903874,
      "name": "Maya Hawke",
      "profile_path": "/abroQsos8bGN0ATm8j05z2THoOw.jpg",
      "popularity": 27.314,
      "adult": false,
      "known_for_department": "Acting"
    }
  ]
}