{
  "page": 355,
  "total_results": 10000,
  "total_pages": 500,
  "results": [
    {
      "id": 1182657,
      "name": "John Emmet Tracy",
      "profile_path": "/tJUSztVpizjsXLpqvEVwSq91isp.jpg",
      "popularity": 8.811,
      "adult": false,
      "known_for_department": "Acting"
    },
    {
      "id": 32128,
      "name": "Richard Greene",
      "profile_path": "/sjYM6UaGCwPJS3XbGNpB1paTebz.jpg",
      "popularity": 8.809,
      "adult": false,
      "known_for_department": "Acting"
    },
    {
      "id": 1421184,
      "name": "Park Joo-hee",
      "profile_path": "/5RlCnYiSyjiP2bOlx3faZ4mIJS6.jpg",
      "popularity": 8.808,
      "adult": false,
      "known_for_department": "Acting"
    },
    {
      "id": 29235,
      "name": "Lucy Cohu",
      "profile_path": "/jqPMVsy5ypNdEVd14O8YWOCijqx.jpg",
      "popularity": 8.808,
      "adult": false,
      "known_for_department": "Acting"
    },
    {
      "id": 1508532,
      "name": "Ava Kolker",
      "profile_path": "/qfuE5b4PNwVHKi1TweMIRdRwzx7.jpg",
      "popularity": 8.807,
      "adult": false,
      "known_for_department": "Acting"
    },
    {
      "id": 72028,
      "name": "Arye Gross",
      "profile_path": "/7pNNrW5JGpHt2tJeXPOSB3BLzeX.jpg",
      "popularity": 8.806,
      "adult": false,
      "known_for_department": "Acting"
    },
    {
      "id": 19239,
      "name": "Judith Ivey",
      "profile_path": "/yaeKvc55qRoE3snY5axr86dQnHp.jpg",
      "popularity": 8.806,
      "adult": false,
      "known_for_department": "Acting"
    },
    {
      "id": 151207,
      "name": "Andrew McFarlane",
      "profile_path": "/zrfopwL3Pluu59O4thZIep2rvog.jpg",
      "popularity": 8.805,
      "adult": false,
      "known_for_department": "Acting"
    },
    {
      "id": 20381,
      "name": "Jenna Dewan",
      "profile_path": "/nRAw6kIQaUQ8WZTK2djiE64gpNl.jpg",
      "popularity": 8.805,
      "adult": false,
      "known_for_department": "Acting"
    },
    {
      "id": 156204,
      "name": "Constance Zimmer",
      "profile_path": "/6lnaGnzw6ZBwomgdjN1cGqp7HNq.jpg",
      "popularity": 8.804,
      "adult": false,
      "known_for_department": "Acting"
    },
    {
      "id": 35109,
      "name": "Miriam Flynn",
      "profile_path": "/8o4nFOpCPrgJRhrUMHoouT1E9X3.jpg",
      "popularity": 8.803,
      "adult": false,
      "known_for_department": "Acting"
    },
    {
      "id": 52847,
      "name": "Joy Bryant",
      "profile_path": "/baTPZOyEztjp9MdcfpiiKg48QpM.jpg",
      "popularity": 8.802,
      "adult": false,
      "known_for_department": "Acting"
    },
    {
      "id": 42711,
      "name": "Ty Olsson",
      "profile_path": "/7vxoASi2aZZzw6c4guFSaPdE45y.jpg",
      "popularity": 8.802,
      "adult": false,
      "known_for_department": "Acting"
    },
    {
      "id": 1423098,
      "name": "Aisling Bea",
      "profile_path": "/9GDvJGiyRkCOmzlEUsMfWI0np89.jpg",
      "popularity": 8.801,
      "adult": false,
      "known_for_department": "Acting"
    },
    {
      "id": 461542,
      "name": "Sarah Baker",
      "profile_path": "/qnYCpbvDMr4qqrV2PREp6me7CJm.jpg",
      "popularity": 8.801,
      "adult": false,
      "known_for_department": "Acting"
    },
    {
      "id": 55861,
      "name": "Kirk Acevedo",
      "profile_path": "/jFUHECwo7L3KOZ0HxCQytl90qed.jpg",
      "popularity": 8.799,
      "adult": false,
      "known_for_department": "Acting"
    },
    {
      "id": 1562,
      "name": "Iben Hjejle",
      "profile_path": "/3xZOjMplIXmipe8qPzMcnANLNrR.jpg",
      "popularity": 8.799,
      "adult": false,
      "known_for_department": "Acting"
    },
    {
      "id": 2287101,
      "name": "Lauren Ridloff",
      "profile_path": "/eyMriacYFsWtdgzedVPfXmT0TFa.jpg",
      "popularity": 8.798,
      "adult": false,
      "known_for_department": "Acting"
    },
    {
      "id": 88123,
      "name": "Brenda Song",
      "profile_path": "/zMteg2Ss2LjIK2HtlIGaNB9t6HV.jpg",
      "popularity": 8.798,
      "adult": false,
      "known_for_department": "Acting"
    },
    {
      "id": 77293,
      "name": "Charlie Schlatter",
      "profile_path": "/tAXK63aGqIP7CqgvxNLEC2KHKvf.jpg",
      "popularity": 8.797,
      "adult": false,
      "known_for_department": "Acting"
    }
  ]
}