{
  "page": 236,
  "total_results": 10000,
  "total_pages": 500,
  "results": [
    {
      "id": 44651,
      "name": "Ken Duken",
      "profile_path": "/y0W1vcjV7RWmVAIgm03erG47fHs.jpg",
      "popularity": 12.755,
      "adult": false,
      "known_for_department": "Acting"
    },
    {
      "id": 18261,
      "name": "Jayne Atkinson",
      "profile_path": "/9IOlElVs5FxWLdW6mnfToHaOxY7.jpg",
      "popularity": 12.752,
      "adult": false,
      "known_for_department": "Acting"
    },
    {
      "id": 1164460,
      "name": "Laetitia Dosch",
      "profile_path": "/yqRob7aTzMbekDiBSOTTfwaNNrM.jpg",
      "popularity": 12.751,
      "adult": false,
      "known_for_department": "Acting"
    },
    {
      "id": 1070886,
      "name": "Daisy Head",
      "profile_path": "/5DcAwmYWDC7mvxMoceZIzcnpT2L.jpg",
      "popularity": 12.749,
      "adult": false,
      "known_for_department": "Acting"
    },
    {
      "id": 37946,
      "name": "Aitana Sánchez-Gijón",
      "profile_path": "/4gm7EJzvJQbN2RPW1ZOcEzF1jDn.jpg",
      "popularity": 12.749,
      "adult": false,
      "known_for_department": "Acting"
    },
    {
      "id": 1119117,
      "name": "Katsuhiko Fujii",
      "profile_path": "",
      "popularity": 12.748,
      "adult": false,
      "known_for_department": "Directing"
    },
    {
      "id": 1052255,
      "name": "Charlotte Hope",
      "profile_path": "/tFyn1QyNPqrhDmTkRKiWMidlCkD.jpg",
      "popularity": 12.747,
      "adult": false,
      "known_for_department": "Acting"
    },
    {
      "id": 28511,
      "name": "Luis Zahera",
      "profile_path": "/4WEGXd6pOWHkAUcffJrg42BFPI3.jpg",
      "popularity": 12.747,
      "adult": false,
      "known_for_department": "Acting"
    },
    {
      "id": 16578,
      "name": "Julia Nickson",
      "profile_path": "/lLtwvseiNe9pIjhC293nPmyRAET.jpg",
      "popularity": 12.743,
      "adult": false,
      "known_for_department": "Acting"
    },
    {
      "id": 93031,
      "name": "Ryan McPartlin",
      "profile_path": "/v0vKYfoSVLBEGBZ2ldjm3cHJwf3.jpg",
      "popularity": 12.742,
      "adult": false,
      "known_for_department": "Acting"
    },
    {
      "id": 25908,
      "name": "Sarah Steele",
      "profile_path": "/yLbOHrImsgO49MyF6iQdU73pldo.jpg",
      "popularity": 12.741,
      "adult": false,
      "known_for_department": "Acting"
    },
    {
      "id": 1462267,
      "name": "Yuina Kuroshima",
      "profile_path": "/AlWBUgpb2hQUMc7O3901PbFr0JU.jpg",
      "popularity": 12.74,
      "adult": false,
      "known_for_department": "Acting"
    },
    {
      "id": 91600,
      "name": "R. H. Thomson",
      "profile_path": "/j9RIw8mC5CpMRToDfUCzFgPGDhK.jpg",
      "popularity": 12.74,
      "adult": false,
      "known_for_department": "Acting"
    },
    {
      "id": 10731,
      "name": "Anna Chancellor",
      "profile_path": "/gKU8hHdC45q9WpYy4SeNLEhPwtK.jpg",
      "popularity": 12.74,
      "adult": false,
      "known_for_department": "Acting"
    },
    {
      "id": 54450,
      "name": "Gavin MacLeod",
      "profile_path": "/ESyFJ9IR7vfaf0YdmYsFiI1JUv.jpg",
      "popularity": 12.739,
      "adult": false,
      "known_for_department": "Acting"
    },
    {
      "id": 225216,
      "name": "Katie Maguire",
      "profile_path": "/e2NArSgGrpFTVxG8OrvuSSPMGCZ.jpg",
      "popularity": 12.738,
      "adult": false,
      "known_for_department": "Acting"
    },
    {
      "id": 1257215,
      "name": "Mizuki Yamamoto",
      "profile_path": "/mT5H0Gery2WsGXrA9ZRbxWb7oKP.jpg",
      "popularity": 12.737,
      "adult": false,
      "known_for_department": "Acting"
    },
    {
      "id": 47774,
      "name": "Vincent Pastore",
      "profile_path": "/dyRRn8POwLUMHT7lIISujioYOym.jpg",
      "popularity": 12.737,
      "adult": false,
      "known_for_department": "Acting"
    },
    {
      "id": 42799,
      "name": "Son Byung-ho",
      "profile_path": "/m1LTEGcOSnaDJfWP3jZtANMS8qG.jpg",
      "popularity": 12.734,
      "adult": false,
      "known_for_department": "Acting"
    },
    {
      "id": 1212530,
      "name": "Carol Ann Susi",
      "profile_path": "/9O1sHiZOzNjR4hRcvXugtWxx5hD.jpg",
      "popularity": 12.733,
      "adult": false,
      "known_for_department": "Acting"
    }
  ]
}