{
  "page": 267,
  "total_results": 10000,
  "total_pages": 500,
  "results": [
    {
      "id": 100602,
      "name": "Julia Duffy",
      "profile_path": "/mROYemMqxBKkKRjcH09pnrGNThw.jpg",
      "popularity": 10.529,
      "adult": false,
      "known_for_department": "Acting"
    },
    {
      "id": 1121961,
      "name": "Siobhan Williams",
      "profile_path": "/rYMTamEkeTJqxrfqQGYOlU1tK6V.jpg",
      "popularity": 10.527,
      "adult": false,
      "known_for_department": "Acting"
    },
    {
      "id": 14974,
      "name": "Barbara Stanwyck",
      "profile_path": "/y9BX4FNoFBjP2HPcs8rlzqXjJbu.jpg",
      "popularity": 10.527,
      "adult": false,
      "known_for_department": "Acting"
    },
    {
      "id": 2093355,
      "name": "Yoo Sul-young",
      "profile_path": "/4KFx2H7bmE0JIWxGrZ5Azf0w1jO.jpg",
      "popularity": 10.526,
      "adult": false,
      "known_for_department": "Acting"
    },
    {
      "id": 69399,
      "name": "Alexandra Holden",
      "profile_path": "/iyEimHNN11NgF1n6dX08wk5BqxB.jpg",
      "popularity": 10.526,
      "adult": false,
      "known_for_department": "Acting"
    },
    {
      "id": 3420718,
      "name": "Günter Zschimmer",
      "profile_path": "/vkgqzQWYfaqibUrKoDw4SE7EN0P.jpg",
      "popularity": 10.522,
      "adult": false,
      "known_for_department": "Acting"
    },
    {
      "id": 28294,
      "name": "Julika Jenkins",
      "profile_path": "/p81Ekx1ocQjuQMERTiZqn6zq95C.jpg",
      "popularity": 10.521,
      "adult": false,
      "known_for_department": "Acting"
    },
    {
      "id": 1435635,
      "name": "Anastasia Akatova",
      "profile_path": "/sV2BQ8WUmNXjzs3Wm4Ss8Hw7IeE.jpg",
      "popularity": 10.518,
      "adult": false,
      "known_for_department": "Acting"
    },
    {
      "id": 5577,
      "name": "Chris O'Donnell",
      "profile_path": "/KvWBFg1aMBdu4X2PihXYL8xcFD.jpg",
      "popularity": 10.518,
      "adult": false,
      "known_for_department": "Acting"
    },
    {
      "id": 200,
      "name": "Nancy Cartwright",
      "profile_path": "/40qNhyYJhSE2Yiy4pnXSZhdufO6.jpg",
      "popularity": 10.518,
      "adult": false,
      "known_for_department": "Acting"
    },
    {
      "id": 3695511,
      "name": "Ayesha Aure",
      "profile_path": "",
      "popularity": 10.514,
      "adult": false,
      "known_for_department": "Acting"
    },
    {
      "id": 237087,
      "name": "Eugenia Caruso",
      "profile_path": "/ocWaLnqvU58oU7ZAVsVKA1w2Als.jpg",
      "popularity": 10.514,
      "adult": false,
      "known_for_department": "Acting"
    },
    {
      "id": 47628,
      "name": "Julian Morris",
      "profile_path": "/y6ESECy7RcHMvedUm2wlPczgvBf.jpg",
      "popularity": 10.514,
      "adult": false,
      "known_for_department": "Acting"
    },
    {
      "id": 1146738,
      "name": "Neslihan Yeldan",
      "profile_path": "/ooA8zBqzm2QSvcal7s1SN06PyyR.jpg",
      "popularity": 10.513,
      "adult": false,
      "known_for_department": "Acting"
    },
    {
      "id": 62414,
      "name": "Yuen Biao",
      "profile_path": "/pgO9Im1QKPjLozvsWODLtZDTjw7.jpg",
      "popularity": 10.513,
      "adult": false,
      "known_for_department": "Acting"
    },
    {
      "id": 112013,
      "name": "Rain",
      "profile_path": "/aXOjIBUxu7fmBOxTJcgYmtTKD1D.jpg",
      "popularity": 10.511,
      "adult": false,
      "known_for_department": "Acting"
    },
    {
      "id": 129550,
      "name": "Norma Crane",
      "profile_path": "/udldU8UL1lVvKQodSWi2z7OcuiL.jpg",
      "popularity": 10.51,
      "adult": false,
      "known_for_department": "Acting"
    },
    {
      "id": 86764,
      "name": "Olivia Cheng",
      "profile_path": "/c1rOhwVuZi3v47fuTAnVVB4XuSc.jpg",
      "popularity": 10.509,
      "adult": false,
      "known_for_department": "Acting"
    },
    {
      "id": 38405,
      "name": "John Corbett",
      "profile_path": "/cuCgInCgheBdYaA7xtxbQRHFzIG.jpg",
      "popularity": 10.509,
      "adult": false,
      "known_for_department": "Acting"
    },
    {
      "id": 1570764,
      "name": "Ahmet Somers",
      "profile_path": "/zNTpPD5pIXU5bccscMZI2plh0VF.jpg",
      "popularity": 10.508,
      "adult": false,
      "known_for_department": "Acting"
    }
  ]
}