{
  "page": 357,
  "total_results": 10000,
  "total_pages": 500,
  "results": [
    {
      "id": 11110,
      "name": "Kate Ashfield",
      "profile_path": "/vqYDC94BXLsSPcLifZ3ax0gFS4z.jpg",
      "popularity": 8.781,
      "adult": false,
      "known_for_department": "Acting"
    },
    {
      "id": 1948906,
      "name": "Kimya Gökçe Aytaç",
      "profile_path": "/2UJw9i6zW58RCU5gs06T63LojPv.jpg",
      "popularity": 8.78,
      "adult": false,
      "known_for_department": "Acting"
    },
    {
      "id": 1026883,
      "name": "Scott Cavalheiro",
      "profile_path": "/AeeF2uiZVv1mgWRpNjR2g2TEmFq.jpg",
      "popularity": 8.78,
      "adult": false,
      "known_for_department": "Acting"
    },
    {
      "id": 940376,
      "name": "Kelly Marcel",
      "profile_path": "/thpdVW7O1975GcA3eNs1H8UIlmd.jpg",
      "popularity": 8.779,
      "adult": false,
      "known_for_department": "Writing"
    },
    {
      "id": 1980,
      "name": "Mary McCormack",
      "profile_path": "/e2brLtFCfgLdOp356bcEyRzQkoJ.jpg",
      "popularity": 8.778,
      "adult": false,
      "known_for_department": "Acting"
    },
    {
      "id": 1512175,
      "name": "Kevin G. Quinn",
      "profile_path": "/8Po2o77ZapHCVva5dnPxJHByPzv.jpg",
      "popularity": 8.776,
      "adult": false,
      "known_for_department": "Acting"
    },
    {
      "id": 131133,
      "name": "Trevor Noah",
      "profile_path": "/xwJ3MUh5wJ39KQZ3Lz8v8jzMTng.jpg",
      "popularity": 8.775,
      "adult": false,
      "known_for_department": "Acting"
    },
    {
      "id": 55885,
      "name": "Sofia Helin",
      "profile_path": "/aOzrZ51r9sPAE8sJvQm2LuZ3hYc.jpg",
      "popularity": 8.775,
      "adult": false,
      "known_for_department": "Acting"
    },
    {
      "id": 131191,
      "name": "Eiko Koike",
      "profile_path": "/bQlw67aAHJ7jPYNuFDjMKO9yoYA.jpg",
      "popularity": 8.774,
      "adult": false,
      "known_for_department": "Acting"
    },
    {
      "id": 40952,
      "name": "Sid James",
      "profile_path": "/cjldtyJMt8J0nuWwVIuBSn0o70w.jpg",
      "popularity": 8.774,
      "adult": false,
      "known_for_department": "Acting"
    },
    {
      "id": 29446,
      "name": "Armin Shimerman",
      "profile_path": "/ntubNSuRnJ7icAEGj6JYEeguzTn.jpg",
      "popularity": 8.774,
      "adult": false,
      "known_for_department": "Acting"
    },
    {
      "id": 9871,
      "name": "Ursula Andress",
      "profile_path": "/sRBkBuq2Ev6IwlUHvypTGHiyLA0.jpg",
      "popularity": 8.773,
      "adult": false,
      "known_for_department": "Acting"
    },
    {
      "id": 1304602,
      "name": "Ahn Seo-hyun",
      "profile_path": "/xy9E6V8nDg5WLp8HxCRPUSdvDMe.jpg",
      "popularity": 8.772,
      "adult": false,
      "known_for_department": "Acting"
    },
    {
      "id": 85848,
      "name": "Loretta Young",
      "profile_path": "/vtpGjZpAK88rTTi9Y7VLGpMyt6m.jpg",
      "popularity": 8.772,
      "adult": false,
      "known_for_department": "Acting"
    },
    {
      "id": 185889,
      "name": "Cynthia Daniel",
      "profile_path": "/vF3ZdRnDKT80iEsZokbgwBbAOBg.jpg",
      "popularity": 8.771,
      "adult": false,
      "known_for_department": "Acting"
    },
    {
      "id": 1351055,
      "name": "Ye Soo-jung",
      "profile_path": "/rwGPhu8Ge36eMkrOlzfdKKFargw.jpg",
      "popularity": 8.769,
      "adult": false,
      "known_for_department": "Acting"
    },
    {
      "id": 54708,
      "name": "Carla Gallo",
      "profile_path": "/yf9F5OL0S97coL8bnGxDGxguZ2I.jpg",
      "popularity": 8.769,
      "adult": false,
      "known_for_department": "Acting"
    },
    {
      "id": 2216492,
      "name": "Aleyse Shannon",
      "profile_path": "/i1e8aPazuuM3I7UCx4kVZlJv4fG.jpg",
      "popularity": 8.768,
      "adult": false,
      "known_for_department": "Acting"
    },
    {
      "id": 1056117,
      "name": "Peter Donald Badalamenti II",
      "profile_path": "/hvLW1m2vQJTraIkrOmVYiKk93hk.jpg",
      "popularity": 8.768,
      "adult": false,
      "known_for_department": "Acting"
    },
    {
      "id": 25539,
      "name": "Shonda Rhimes",
      "profile_path": "/pIQbVxfjNwZ0DaAjo3q107nng1b.jpg",
      "popularity": 8.765,
      "adult": false,
      "known_for_department": "Writing"
    }
  ]
}