{
  "page": 189,
  "total_results": 10000,
  "total_pages": 500,
  "results": [
    {
      "id": 2688474,
      "name": "Cheon Yoo-ji",
      "profile_path": "/rtBzOnuLD5JhawmhdVteWN9YEa3.jpg",
      "popularity": 12.574,
      "adult": false,
      "known_for_department": "Acting"
    },
    {
      "id": 1639847,
      "name": "Yahya Abdul-Mateen II",
      "profile_path": "/aBDebGZs2pAucyaK4EhHVJGm0Xu.jpg",
      "popularity": 12.573,
      "adult": false,
      "known_for_department": "Acting"
    },
    {
      "id": 101367,
      "name": "Yuki Uchida",
      "profile_path": "/y6de9FCwdsUGvAsNcamicxovins.jpg",
      "popularity": 12.572,
      "adult": false,
      "known_for_department": "Acting"
    },
    {
      "id": 500085,
      "name": "Erin Agostino",
      "profile_path": "/1zHucFSezBlVFrp8PqkMaNmeUi0.jpg",
      "popularity": 12.57,
      "adult": false,
      "known_for_department": "Acting"
    },
    {
      "id": 1046843,
      "name": "Kanichi Kurita",
      "profile_path": "/7XvDPMm6sNspJeZiyfIFBbLRBRI.jpg",
      "popularity": 12.568,
      "adult": false,
      "known_for_department": "Acting"
    },
    {
      "id": 2042908,
      "name": "Moses Ingram",
      "profile_path": "/kq80Tkd88u37U8ocN7dGuIqgQGv.jpg",
      "popularity": 12.567,
      "adult": false,
      "known_for_department": "Acting"
    },
    {
      "id": 162606,
      "name": "Ryan Stiles",
      "profile_path": "/awUGig6kHCKlZ0oXunMxvGwNFEt.jpg",
      "popularity": 12.567,
      "adult": false,
      "known_for_department": "Acting"
    },
    {
      "id": 20746,
      "name": "Justin Chambers",
      "profile_path": "/5UGtBemc4GPaCWjCwVR3YYmIlzV.jpg",
      "popularity": 12.564,
      "adult": false,
      "known_for_department": "Acting"
    },
    {
      "id": 8452,
      "name": "Andrei Tarkovsky",
      "profile_path": "/j0toVLrgLNuyGnUxGPnSfnPiSf5.jpg",
      "popularity": 12.564,
      "adult": false,
      "known_for_department": "Directing"
    },
    {
      "id": 4078,
      "name": "Lee Van Cleef",
      "profile_path": "/yQc5wjNCdRZzPp5E2wRPRYsEq9a.jpg",
      "popularity": 12.564,
      "adult": false,
      "known_for_department": "Acting"
    },
    {
      "id": 1293369,
      "name": "Kim Sun-young",
      "profile_path": "",
      "popularity": 12.563,
      "adult": false,
      "known_for_department": "Acting"
    },
    {
      "id": 5025,
      "name": "Vinessa Shaw",
      "profile_path": "/qqSpAMH1lYMNxnHkDHB1JpNa086.jpg",
      "popularity": 12.562,
      "adult": false,
      "known_for_department": "Acting"
    },
    {
      "id": 2435551,
      "name": "Toyin Abraham",
      "profile_path": "/7Hmot3IO6qfscUpmHqMiKuxOD7B.jpg",
      "popularity": 12.56,
      "adult": false,
      "known_for_department": "Acting"
    },
    {
      "id": 722,
      "name": "Jennifer Grey",
      "profile_path": "/dY8mECHnrLvr4UQr61Ym78cakoA.jpg",
      "popularity": 12.552,
      "adult": false,
      "known_for_department": "Acting"
    },
    {
      "id": 142213,
      "name": "Nazanin Boniadi",
      "profile_path": "/ftBadbFBgRZJcWn9YfbPv8Btyg0.jpg",
      "popularity": 12.551,
      "adult": false,
      "known_for_department": "Acting"
    },
    {
      "id": 62932,
      "name": "Jemima Rooper",
      "profile_path": "/rIhNnWuydjQMCjQiHVwSZAIsVXa.jpg",
      "popularity": 12.551,
      "adult": false,
      "known_for_department": "Acting"
    },
    {
      "id": 51887,
      "name": "Stefan Behrens",
      "profile_path": "/92xA7NGkQCoEo0EHSALp5TWPfS5.jpg",
      "popularity": 12.549,
      "adult": false,
      "known_for_department": "Acting"
    },
    {
      "id": 1350418,
      "name": "Yusuke Kobayashi",
      "profile_path": "/r5hRCRBz1kMPBIVERUYPzwHPaIN.jpg",
      "popularity": 12.545,
      "adult": false,
      "known_for_department": "Acting"
    },
    {
      "id": 18706,
      "name": "Meredith Salenger",
      "profile_path": "/8lOt7vQQkrZWmjg0STb4D7umIta.jpg",
      "popularity": 12.542,
      "adult": false,
      "known_for_department": "Acting"
    },
    {
      "id": 40279,
      "name": "Jenna Elfman",
      "profile_path": "/3w7iKOJnsKnxC0up8JpAmMHBlWR.jpg",
      "popularity": 12.539,
      "adult": false,
      "known_for_department": "Acting"
    }
  ]
}