{
  "page": 66,
  "total_results": 10000,
  "total_pages": 500,
  "results": [
    {
      "id": 80352,
      "name": "Noel Fisher",
      "profile_path": "/rBD5Iwt9WITaUKGk1oxSPLjjpm2.jpg",
      "popularity": 18.826,
      "adult": false,
      "known_for_department": "Acting"
    },
    {
      "id": 3623,
      "name": "Elena Anaya",
      "profile_path": "/hSkjzOfvRQ8DUJdhWveIKgRlyXb.jpg",
      "popularity": 18.823,
      "adult": false,
      "known_for_department": "Acting"
    },
    {
      "id": 1565088,
      "name": "Kim Min-gue",
      "profile_path": "/w4NojHsHdLGf7LLoT6jfyDcE8K6.jpg",
      "popularity": 18.814,
      "adult": false,
      "known_for_department": "Acting"
    },
    {
      "id": 57451,
      "name": "Leslie Bibb",
      "profile_path": "/g3a1O9lOTZvrwQupUtg4Fc3CdTd.jpg",
      "popularity": 18.811,
      "adult": false,
      "known_for_department": "Acting"
    },
    {
      "id": 4027,
      "name": "Frank Darabont",
      "profile_path": "/nvOqAQhKtXdHtczgqanoCfltsxJ.jpg",
      "popularity": 18.81,
      "adult": false,
      "known_for_department": "Writing"
    },
    {
      "id": 13567,
      "name": "Ann-Margret",
      "profile_path": "/7cq76gMW4Mal5cctMLCK8wilJ6.jpg",
      "popularity": 18.795,
      "adult": false,
      "known_for_department": "Acting"
    },
    {
      "id": 9656,
      "name": "Johnny Knoxville",
      "profile_path": "/m7pkqxOSdIojhcLwVmlww2nwJCl.jpg",
      "popularity": 18.793,
      "adult": false,
      "known_for_department": "Acting"
    },
    {
      "id": 1534,
      "name": "Chris Elliott",
      "profile_path": "/t8sdwz8iV7dQWQlYb2rPMKepT8h.jpg",
      "popularity": 18.781,
      "adult": false,
      "known_for_department": "Acting"
    },
    {
      "id": 3636,
      "name": "Paul Newman",
      "profile_path": "/bP2fByqNR7BorsUNuD6nSm0u2vJ.jpg",
      "popularity": 18.777,
      "adult": false,
      "known_for_department": "Acting"
    },
    {
      "id": 71562,
      "name": "Buck Taylor",
      "profile_path": "/l4fy1zNNRIG2i4pmNpCqatFuz7d.jpg",
      "popularity": 18.775,
      "adult": false,
      "known_for_department": "Acting"
    },
    {
      "id": 2206,
      "name": "Samantha Morton",
      "profile_path": "/5DOlLIlgxKYzb4Hsm0phrGmYVIq.jpg",
      "popularity": 18.771,
      "adult": false,
      "known_for_department": "Acting"
    },
    {
      "id": 2187124,
      "name": "Wan Peng",
      "profile_path": "/q6vKHvMGqDiUnKX1vZNnRYhezAJ.jpg",
      "popularity": 18.76,
      "adult": false,
      "known_for_department": "Acting"
    },
    {
      "id": 1936932,
      "name": "Alicia Agneson",
      "profile_path": "/a3IrkRmyqbm7NltqvN7ilWZZkx0.jpg",
      "popularity": 18.757,
      "adult": false,
      "known_for_department": "Acting"
    },
    {
      "id": 144852,
      "name": "Richard Harmon",
      "profile_path": "/OMc1TCt9GEJddnVI1o5BPIAoLV.jpg",
      "popularity": 18.756,
      "adult": false,
      "known_for_department": "Acting"
    },
    {
      "id": 6352,
      "name": "Jane Fonda",
      "profile_path": "/5Yb3nmRWXXZAxNhfhEuOMdfyVNN.jpg",
      "popularity": 18.755,
      "adult": false,
      "known_for_department": "Acting"
    },
    {
      "id": 36422,
      "name": "Luke Wilson",
      "profile_path": "/A5Qkz7F6ASrqVDftt11gGQD1oxH.jpg",
      "popularity": 18.752,
      "adult": false,
      "known_for_department": "Acting"
    },
    {
      "id": 18288,
      "name": "Terrence Howard",
      "profile_path": "/wXWt2NSY23v7DHe2yZQ1C8TikBp.jpg",
      "popularity": 18.75,
      "adult": false,
      "known_for_department": "Acting"
    },
    {
      "id": 23880,
      "name": "Steven Seagal",
      "profile_path": "/5Suwl6d8qmLqLOymMkigeyLR3CQ.jpg",
      "popularity": 18.737,
      "adult": false,
      "known_for_department": "Acting"
    },
    {
      "id": 61303,
      "name": "Dick Van Dyke",
      "profile_path": "/9FdcMWGMT03AOvlLzslXl1dksgK.jpg",
      "popularity": 18.726,
      "adult": false,
      "known_for_department": "Acting"
    },
    {
      "id": 297502,
      "name": "Cote de Pablo",
      "profile_path": "/py0I61VEXUyTvjHwWffClwfl9yb.jpg",
      "popularity": 18.721,
      "adult": false,
      "known_for_department": "Acting"
    }
  ]
}