{
  "page": 271,
  "total_results": 10000,
  "total_pages": 500,
  "results": [
    {
      "id": 11023,
      "name": "Shawn Ashmore",
      "profile_path": "/tXA1gFtsp9HWnzlQsaZSoZC8L4r.jpg",
      "popularity": 9.008,
      "adult": false,
      "known_for_department": "Acting"
    },
    {
      "id": 2300678,
      "name": "Zhao Zhiwei",
      "profile_path": "/z8pyQk4dmnbTGMDzR0cBPEbDBx0.jpg",
      "popularity": 9.007,
      "adult": false,
      "known_for_department": "Acting"
    },
    {
      "id": 1684142,
      "name": "Paola Lázaro",
      "profile_path": "/yoIuxBYuTkQQu5jXI8F6Bdu59vf.jpg",
      "popularity": 9.006,
      "adult": false,
      "known_for_department": "Acting"
    },
    {
      "id": 115916,
      "name": "Angela Mao Ying",
      "profile_path": "/1Hr9U3OdecQny9xiRDAhbx256pi.jpg",
      "popularity": 9.006,
      "adult": false,
      "known_for_department": "Acting"
    },
    {
      "id": 90061,
      "name": "Rosalinde Mynster",
      "profile_path": "/bLp2sQ1Prs075joKXqdFTvG2yOU.jpg",
      "popularity": 9.006,
      "adult": false,
      "known_for_department": "Acting"
    },
    {
      "id": 1242005,
      "name": "Yuka Iguchi",
      "profile_path": "/wutIs24BvVy0KYGPhnS1sK2IEWn.jpg",
      "popularity": 9.005,
      "adult": false,
      "known_for_department": "Acting"
    },
    {
      "id": 1121198,
      "name": "Amber Anderson",
      "profile_path": "/Am5h8Ons8tA9qaxf2H4mjcow048.jpg",
      "popularity": 9.005,
      "adult": false,
      "known_for_department": "Acting"
    },
    {
      "id": 33528,
      "name": "Joseph Cross",
      "profile_path": "/exxcI1BPy7BFQvXWM5DiH7xpwPO.jpg",
      "popularity": 9.004,
      "adult": false,
      "known_for_department": "Acting"
    },
    {
      "id": 1028461,
      "name": "Hannah Al Rashid",
      "profile_path": "/9dhmyPwVwqnzIJiiS3QIGRcPRH1.jpg",
      "popularity": 9.002,
      "adult": false,
      "known_for_department": "Acting"
    },
    {
      "id": 239258,
      "name": "Hazal Kaya",
      "profile_path": "/tiCrfO8qQe74NvP7OeAoF2wXQAO.jpg",
      "popularity": 9.001,
      "adult": false,
      "known_for_department": "Acting"
    },
    {
      "id": 27764,
      "name": "Steven Waddington",
      "profile_path": "/gmlX5NNJI5HoNrK3RUPwBUmUgBW.jpg",
      "popularity": 9.001,
      "adult": false,
      "known_for_department": "Acting"
    },
    {
      "id": 209326,
      "name": "Sam Heughan",
      "profile_path": "/rU3Whc039MeS4DEuxvf0AavFGH.jpg",
      "popularity": 8.998,
      "adult": false,
      "known_for_department": "Acting"
    },
    {
      "id": 65421,
      "name": "Elizabeth Rodriguez",
      "profile_path": "/9f851DP7NHAOKvvlZdXxYigDYbl.jpg",
      "popularity": 8.997,
      "adult": false,
      "known_for_department": "Acting"
    },
    {
      "id": 1306572,
      "name": "Giselle Eisenberg",
      "profile_path": "/pcw1LZ3r0BQEI65egYOCTl8fpLI.jpg",
      "popularity": 8.996,
      "adult": false,
      "known_for_department": "Acting"
    },
    {
      "id": 12217,
      "name": "Jay Mohr",
      "profile_path": "/eBlRdaQk6y8w7AHKb0YYpe4eEWv.jpg",
      "popularity": 8.995,
      "adult": false,
      "known_for_department": "Acting"
    },
    {
      "id": 2449,
      "name": "Kevin McNally",
      "profile_path": "/1QvG7MbfeWxb4LlZrlR4OtwvB8v.jpg",
      "popularity": 8.995,
      "adult": false,
      "known_for_department": "Acting"
    },
    {
      "id": 1877835,
      "name": "Iyana Halley",
      "profile_path": "/4L27vsUPVNDbDWPYtndqLfkt5uA.jpg",
      "popularity": 8.993,
      "adult": false,
      "known_for_department": "Acting"
    },
    {
      "id": 42362,
      "name": "Eddie Deezen",
      "profile_path": "/AqjxoV14Jd3p5uvPsSPoAHmzQHI.jpg",
      "popularity": 8.992,
      "adult": false,
      "known_for_department": "Acting"
    },
    {
      "id": 1190276,
      "name": "Fiona Dolman",
      "profile_path": "/uXOHx6wU4epLp7xOaax2PyB1zBR.jpg",
      "popularity": 8.991,
      "adult": false,
      "known_for_department": "Acting"
    },
    {
      "id": 1080195,
      "name": "Vicky Krieps",
      "profile_path": "/AdcQCdKeZTJ3TYNOzUEEnjTRdmA.jpg",
      "popularity": 8.989,
      "adult": false,
      "known_for_department": "Acting"
    }
  ]
}