{
  "page": 156,
  "total_results": 10000,
  "total_pages": 500,
  "results": [
    {
      "id": 7061,
      "name": "Joanna Page",
      "profile_path": "/bnWuNYmIRV7fF9qE5ABJLPfnwjU.jpg",
      "popularity": 14.85,
      "adult": false,
      "known_for_department": "Acting"
    },
    {
      "id": 97698,
      "name": "Michelle Bauer",
      "profile_path": "/p5s7WpTaGnMWgstpyXzGvRXP6dm.jpg",
      "popularity": 14.847,
      "adult": false,
      "known_for_department": "Acting"
    },
    {
      "id": 82191,
      "name": "Sharlto Copley",
      "profile_path": "/em89OJJvBRX7kNJJPASmNKQujsC.jpg",
      "popularity": 14.846,
      "adult": false,
      "known_for_department": "Acting"
    },
    {
      "id": 29273,
      "name": "Gilbert Roland",
      "profile_path": "/lKqHWWnAhRXncCzGaR97YVXRBgq.jpg",
      "popularity": 14.836,
      "adult": false,
      "known_for_department": "Acting"
    },
    {
      "id": 1187038,
      "name": "Leem Lubany",
      "profile_path": "/mmfXUa3WCRw2346CaU5msxzkdva.jpg",
      "popularity": 14.834,
      "adult": false,
      "known_for_department": "Acting"
    },
    {
      "id": 82639,
      "name": "Ophelia Lovibond",
      "profile_path": "/6VehrGtncWwMyeTx5rkq2ufbIGv.jpg",
      "popularity": 14.832,
      "adult": false,
      "known_for_department": "Acting"
    },
    {
      "id": 1192761,
      "name": "Dominic Sherwood",
      "profile_path": "/1ZxJDocd5JGwjKxEJ1gjORj1prQ.jpg",
      "popularity": 14.831,
      "adult": false,
      "known_for_department": "Acting"
    },
    {
      "id": 20277,
      "name": "David Suchet",
      "profile_path": "/4X4TT8Uf8mAmRIYgYh4EeR4mWva.jpg",
      "popularity": 14.826,
      "adult": false,
      "known_for_department": "Acting"
    },
    {
      "id": 26258,
      "name": "Kenneth Cranham",
      "profile_path": "/9lzTbNgaoArlxpEkYtWQfOyiYwu.jpg",
      "popularity": 14.825,
      "adult": false,
      "known_for_department": "Acting"
    },
    {
      "id": 118372,
      "name": "Yara Shahidi",
      "profile_path": "/3UVnSdjRyCGLUxmkzPrG7mInZog.jpg",
      "popularity": 14.823,
      "adult": false,
      "known_for_department": "Acting"
    },
    {
      "id": 71198,
      "name": "Christian Kane",
      "profile_path": "/bHQDqGBW2yCEsHlNMkmJpQA9lDr.jpg",
      "popularity": 14.815,
      "adult": false,
      "known_for_department": "Acting"
    },
    {
      "id": 14886,
      "name": "Craig Bierko",
      "profile_path": "/btsSJRxc0i7Xty1R0iCYOnbTuDE.jpg",
      "popularity": 14.811,
      "adult": false,
      "known_for_department": "Acting"
    },
    {
      "id": 2232023,
      "name": "Nadia Parkes",
      "profile_path": "/4FhvqGWPOD7r8qI1ADbq7E7UDm1.jpg",
      "popularity": 14.802,
      "adult": false,
      "known_for_department": "Acting"
    },
    {
      "id": 63663,
      "name": "Hayley McFarland",
      "profile_path": "/x2JAEC10XI6Ie2sArUzMbe4l2Mh.jpg",
      "popularity": 14.802,
      "adult": false,
      "known_for_department": "Acting"
    },
    {
      "id": 150587,
      "name": "Katie McGrath",
      "profile_path": "/cq9pc7qFRUKCrkXgsi5mJkb64U5.jpg",
      "popularity": 14.794,
      "adult": false,
      "known_for_department": "Acting"
    },
    {
      "id": 1096793,
      "name": "Jang Gwang",
      "profile_path": "/4zFdspdLSawn7DFMjIcZ08c739O.jpg",
      "popularity": 14.791,
      "adult": false,
      "known_for_department": "Acting"
    },
    {
      "id": 292250,
      "name": "S. J. Suryah",
      "profile_path": "/fRd4pnSnds4MR75x0cxlnSijwPD.jpg",
      "popularity": 14.791,
      "adult": false,
      "known_for_department": "Acting"
    },
    {
      "id": 95517,
      "name": "Justina Machado",
      "profile_path": "/wAEFYr8rQEoSRm99tLPDiwzuIwU.jpg",
      "popularity": 14.791,
      "adult": false,
      "known_for_department": "Acting"
    },
    {
      "id": 61964,
      "name": "Estelle Harris",
      "profile_path": "/ubRQRjXLwmBmOIuE2tr2GoqanvN.jpg",
      "popularity": 14.788,
      "adult": false,
      "known_for_department": "Acting"
    },
    {
      "id": 31029,
      "name": "Kristen Wilson",
      "profile_path": "/ld2W1mIvaS0yAd3pHW2wyeacg8v.jpg",
      "popularity": 14.784,
      "adult": false,
      "known_for_department": "Acting"
    }
  ]
}