{
  "page": 423,
  "total_results": 10000,
  "total_pages": 500,
  "results": [
    {
      "id": 1464501,
      "name": "Nilay Deniz",
      "profile_path": "/iPLDeBZ6di116bGTYF6W4TDn2CX.jpg",
      "popularity": 7.975,
      "adult": false,
      "known_for_department": "Acting"
    },
    {
      "id": 26970,
      "name": "Matt Barr",
      "profile_path": "/ew7lOiIbAW0AxYmh49FH1l1ukkk.jpg",
      "popularity": 7.974,
      "adult": false,
      "known_for_department": "Acting"
    },
    {
      "id": 14027,
      "name": "Paulette Goddard",
      "profile_path": "/gwdjswybo9UPRnSTbkletp4jNcw.jpg",
      "popularity": 7.974,
      "adult": false,
      "known_for_department": "Acting"
    },
    {
      "id": 123812,
      "name": "Lateef Crowder",
      "profile_path": "/mhGArPyh3N97t3PU4YnvLZTzHjl.jpg",
      "popularity": 7.973,
      "adult": false,
      "known_for_department": "Acting"
    },
    {
      "id": 1255927,
      "name": "Mauricio Mejía",
      "profile_path": "/tIe830ZAo81lKJy7MRtqHQnHkW.jpg",
      "popularity": 7.972,
      "adult": false,
      "known_for_department": "Acting"
    },
    {
      "id": 58264,
      "name": "Dirk Benedict",
      "profile_path": "/lQG0YpiHdhQgs5DKS0185JA60mr.jpg",
      "popularity": 7.972,
      "adult": false,
      "known_for_department": "Acting"
    },
    {
      "id": 67382,
      "name": "Ross Bagley",
      "profile_path": "/modarNXEmohsS1cEstQ6ppVeMlX.jpg",
      "popularity": 7.97,
      "adult": false,
      "known_for_department": "Acting"
    },
    {
      "id": 82055,
      "name": "Junko Takeuchi",
      "profile_path": "/r0mRj4lNrKCmwGrzpgptKe096u1.jpg",
      "popularity": 7.969,
      "adult": false,
      "known_for_department": "Acting"
    },
    {
      "id": 50667,
      "name": "Petra Morzé",
      "profile_path": "/gnGIp6qhc085n0o94zt3tZmq7ZX.jpg",
      "popularity": 7.969,
      "adult": false,
      "known_for_department": "Acting"
    },
    {
      "id": 120130,
      "name": "Giulia Michelini",
      "profile_path": "/kC3k7N3YCTXUKMioGr4oLtrqwYl.jpg",
      "popularity": 7.968,
      "adult": false,
      "known_for_department": "Acting"
    },
    {
      "id": 10091,
      "name": "Zelda Rubinstein",
      "profile_path": "/4YHBHMcJjON58kU0UQrU6JLQdZ3.jpg",
      "popularity": 7.968,
      "adult": false,
      "known_for_department": "Acting"
    },
    {
      "id": 1662028,
      "name": "Santosh Shoban",
      "profile_path": "/wDyB2jzRlJHtkeevu9IS97m2pAP.jpg",
      "popularity": 7.967,
      "adult": false,
      "known_for_department": "Acting"
    },
    {
      "id": 1118790,
      "name": "Yumika Hayashi",
      "profile_path": "/iChQAU7JEqjKx8bJKQP6wOI0uKv.jpg",
      "popularity": 7.967,
      "adult": false,
      "known_for_department": "Acting"
    },
    {
      "id": 101947,
      "name": "Joan Van Ark",
      "profile_path": "/kaFX2j8kclLUYHkNBoBIJySTMqT.jpg",
      "popularity": 7.965,
      "adult": false,
      "known_for_department": "Acting"
    },
    {
      "id": 21111,
      "name": "John F. Kennedy",
      "profile_path": "/4ZIxaLZUi8riUlWJFHoDaWU8xf4.jpg",
      "popularity": 7.965,
      "adult": false,
      "known_for_department": "Acting"
    },
    {
      "id": 1263061,
      "name": "William Benedict",
      "profile_path": "/zKqMIhAwZSPBr2L4BCdWgg1P1vC.jpg",
      "popularity": 7.964,
      "adult": false,
      "known_for_department": "Acting"
    },
    {
      "id": 1222951,
      "name": "Yoo In-young",
      "profile_path": "/x0vOHmoA04xhImosJ2o4UOXxJxh.jpg",
      "popularity": 7.964,
      "adult": false,
      "known_for_department": "Acting"
    },
    {
      "id": 151435,
      "name": "Rosa Arredondo",
      "profile_path": "/7BWNc6bCDJbXKrzA47SM71cbiOX.jpg",
      "popularity": 7.964,
      "adult": false,
      "known_for_department": "Acting"
    },
    {
      "id": 21236,
      "name": "Aldo Maccione",
      "profile_path": "/yTBm26JEEFMeOAhyiIdwuJIhJdw.jpg",
      "popularity": 7.964,
      "adult": false,
      "known_for_department": "Acting"
    },
    {
      "id": 12974,
      "name": "Leon",
      "profile_path": "/uhLVZV2rH0nnXwQKtsIT0qGsTyg.jpg",
      "popularity": 7.964,
      "adult": false,
      "known_for_department": "Acting"
    }
  ]
}