{
  "page": 24,
  "total_results": 10000,
  "total_pages": 500,
  "results": [
    {
      "id": 62747,
      "name": "Chad Michael Murray",
      "profile_path": "/jIkzUQUVLkgn3HFMFRJBDAD0OLj.jpg",
      "popularity": 28.015,
      "adult": false,
      "known_for_department": "Acting"
    },
    {
      "id": 1392137,
      "name": "Margaret Qualley",
      "profile_path": "/jStNyMj3acpLuH48awLVLqqlyaV.jpg",
      "popularity": 28.006,
      "adult": false,
      "known_for_department": "Acting"
    },
    {
      "id": 11155,
      "name": "Thomas Jane",
      "profile_path": "/kytPt3B4ft2DH7OMNiAsWuXkw4K.jpg",
      "popularity": 27.989,
      "adult": false,
      "known_for_department": "Acting"
    },
    {
      "id": 1708576,
      "name": "Ahn So-hee",
      "profile_path": "/q6DJet94KucWTMFxpsQvPPYSf82.jpg",
      "popularity": 27.965,
      "adult": false,
      "known_for_department": "Acting"
    },
    {
      "id": 27740,
      "name": "Walton Goggins",
      "profile_path": "/8WAXNCOo66vBnSi396Eh2IQUsG6.jpg",
      "popularity": 27.963,
      "adult": false,
      "known_for_department": "Acting"
    },
    {
      "id": 504,
      "name": "Tim Robbins",
      "profile_path": "/hsCu1JUzQQ4pl7uFxAVFLOs9yHh.jpg",
      "popularity": 27.962,
      "adult": false,
      "known_for_department": "Acting"
    },
    {
      "id": 17288,
      "name": "Michael Fassbender",
      "profile_path": "/e7SxBHtAxTyNE4GdOrHD7kqkukm.jpg",
      "popularity": 27.956,
      "adult": false,
      "known_for_department": "Acting"
    },
    {
      "id": 72994,
      "name": "Michael Mosley",
      "profile_path": "/puRHN4OMPBXKiJdW0yyMIN9ju4r.jpg",
      "popularity": 27.949,
      "adult": false,
      "known_for_department": "Acting"
    },
    {
      "id": 1315036,
      "name": "Daisy Ridley",
      "profile_path": "/n8kBnNOi9VmELHJy3FdZjrSN9zT.jpg",
      "popularity": 27.942,
      "adult": false,
      "known_for_department": "Acting"
    },
    {
      "id": 2232,
      "name": "Michael Keaton",
      "profile_path": "/baeHNv3qrVsnApuKbZXiJOhqMnw.jpg",
      "popularity": 27.939,
      "adult": false,
      "known_for_department": "Acting"
    },
    {
      "id": 1604826,
      "name": "Cha Eun-woo",
      "profile_path": "/2vD1LNTiiv4awEyHIUXdhsmYgVI.jpg",
      "popularity": 27.938,
      "adult": false,
      "known_for_department": "Acting"
    },
    {
      "id": 18589,
      "name": "Lee Majors",
      "profile_path": "/gKrnQP7cICGhQuTOoJIBcOtQixZ.jpg",
      "popularity": 27.893,
      "adult": false,
      "known_for_department": "Acting"
    },
    {
      "id": 1038,
      "name": "Jodie Foster",
      "profile_path": "/AodjR16HMtbV8zZsUJdvJUSYxlo.jpg",
      "popularity": 27.886,
      "adult": false,
      "known_for_department": "Acting"
    },
    {
      "id": 1997928,
      "name": "Jin Joo",
      "profile_path": "",
      "popularity": 27.885,
      "adult": false,
      "known_for_department": "Acting"
    },
    {
      "id": 59860,
      "name": "Alice Eve",
      "profile_path": "/tJUSx0Cw7pCnRsCWbGTX2POiTKM.jpg",
      "popularity": 27.863,
      "adult": false,
      "known_for_department": "Acting"
    },
    {
      "id": 2224,
      "name": "Christian Slater",
      "profile_path": "/6ww3uweEEXMlvtNjTlgBHxLErPF.jpg",
      "popularity": 27.826,
      "adult": false,
      "known_for_department": "Acting"
    },
    {
      "id": 3972,
      "name": "Wentworth Miller",
      "profile_path": "/js09M98qo6rEyyIlTbRMI6XiZJH.jpg",
      "popularity": 27.825,
      "adult": false,
      "known_for_department": "Acting"
    },
    {
      "id": 135651,
      "name": "Michael B. Jordan",
      "profile_path": "/4vXkRCbrquoP5Lrb4px7tubDLMC.jpg",
      "popularity": 27.811,
      "adult": false,
      "known_for_department": "Acting"
    },
    {
      "id": 221581,
      "name": "Rebel Wilson",
      "profile_path": "/6iAFqhVcOSLjeZq83mONpx99NAQ.jpg",
      "popularity": 27.707,
      "adult": false,
      "known_for_department": "Acting"
    },
    {
      "id": 4495,
      "name": "Steve Carell",
      "profile_path": "/dzJtsLspH5Bf8Tvw7OQC47ETNfJ.jpg",
      "popularity": 27.7,
      "adult": false,
      "known_for_department": "Acting"
    }
  ]
}