{
  "page": 391,
  "total_results": 10000,
  "total_pages": 500,
  "results": [
    {
      "id": 78303,
      "name": "Jimmy Kimmel",
      "profile_path": "/wVVvvIwDtCgArdp0fsmjcM2tYyr.jpg",
      "popularity": 8.066,
      "adult": false,
      "known_for_department": "Acting"
    },
    {
      "id": 145746,
      "name": "Christopher Rich",
      "profile_path": "/AkZ5a3Jg4FseCCQVoI15xI2uEGZ.jpg",
      "popularity": 8.065,
      "adult": false,
      "known_for_department": "Acting"
    },
    {
      "id": 2754753,
      "name": "Sydney Chandler",
      "profile_path": "/bnBSBGljj4fvxUQu7MhaYd8onjt.jpg",
      "popularity": 8.064,
      "adult": false,
      "known_for_department": "Acting"
    },
    {
      "id": 2970425,
      "name": "Alexander Lincoln",
      "profile_path": "/hl0ucWiSYjExyZ3n8j0K1vpurOT.jpg",
      "popularity": 8.063,
      "adult": false,
      "known_for_department": "Acting"
    },
    {
      "id": 1787399,
      "name": "Shaunette Renée Wilson",
      "profile_path": "/fPjeTxxE2sB0bQUcAoO13mKsKK5.jpg",
      "popularity": 8.063,
      "adult": false,
      "known_for_department": "Acting"
    },
    {
      "id": 1533946,
      "name": "Clark Olofsson",
      "profile_path": "/tUtxaTshEarI8PcEN4hcy3sj7KV.jpg",
      "popularity": 8.062,
      "adult": false,
      "known_for_department": "Writing"
    },
    {
      "id": 1540601,
      "name": "Thomas Barbusca",
      "profile_path": "/ymggL0ZCD2hJCBZTnCEzpkUUnw3.jpg",
      "popularity": 8.061,
      "adult": false,
      "known_for_department": "Acting"
    },
    {
      "id": 1274210,
      "name": "Millie Davis",
      "profile_path": "/hmrTAVR6CrsmX20AGmVGrGJag8Z.jpg",
      "popularity": 8.058,
      "adult": false,
      "known_for_department": "Acting"
    },
    {
      "id": 2769777,
      "name": "Jamison Belushi",
      "profile_path": "",
      "popularity": 8.057,
      "adult": false,
      "known_for_department": "Acting"
    },
    {
      "id": 102441,
      "name": "Dick Miller",
      "profile_path": "/zyQXh8BkLg0DDo23pxJN2dy6Bqj.jpg",
      "popularity": 8.057,
      "adult": false,
      "known_for_department": "Acting"
    },
    {
      "id": 87015,
      "name": "Eduard Fernández",
      "profile_path": "/gUfWXKnEEIn6S6UG2r97VL3UKEe.jpg",
      "popularity": 8.055,
      "adult": false,
      "known_for_department": "Acting"
    },
    {
      "id": 121953,
      "name": "Stephanie Szostak",
      "profile_path": "/ejqFLxGCQ2CTRr63P4qgqVTpAFP.jpg",
      "popularity": 8.054,
      "adult": false,
      "known_for_department": "Acting"
    },
    {
      "id": 89832,
      "name": "Hiroki Touchi",
      "profile_path": "/frSr6LADd6j8jMmOyeo10PrgNq5.jpg",
      "popularity": 8.054,
      "adult": false,
      "known_for_department": "Acting"
    },
    {
      "id": 928116,
      "name": "Eli Jane",
      "profile_path": "/93ucpvgTM54djKCJcGuRXLbFzDM.jpg",
      "popularity": 8.053,
      "adult": false,
      "known_for_department": "Acting"
    },
    {
      "id": 34543,
      "name": "Summer Phoenix",
      "profile_path": "/ncSXqGoq031Qj7DVREmtbWOjPqY.jpg",
      "popularity": 8.051,
      "adult": false,
      "known_for_department": "Acting"
    },
    {
      "id": 1441615,
      "name": "Marina Vasilyeva",
      "profile_path": "/neWSUPFfCviQhBoyDQj0GJqqDpq.jpg",
      "popularity": 8.05,
      "adult": false,
      "known_for_department": "Acting"
    },
    {
      "id": 1260914,
      "name": "Laura Galán",
      "profile_path": "/hrCZt7cAYMYLd3XdfoIvvTYHZXC.jpg",
      "popularity": 8.05,
      "adult": false,
      "known_for_department": "Acting"
    },
    {
      "id": 78062,
      "name": "Aml Ameen",
      "profile_path": "/wQ5zWlzmhvp2wG6gJiqoocEYHPJ.jpg",
      "popularity": 8.05,
      "adult": false,
      "known_for_department": "Acting"
    },
    {
      "id": 65831,
      "name": "Robert LaSardo",
      "profile_path": "/maezwGo8JUbjECLB6VZJPtGvn1B.jpg",
      "popularity": 8.05,
      "adult": false,
      "known_for_department": "Acting"
    },
    {
      "id": 1308373,
      "name": "Dylan Gelula",
      "profile_path": "/aCJpPFet1wI2L22sElF9bzXyHMe.jpg",
      "popularity": 8.049,
      "adult": false,
      "known_for_department": "Acting"
    }
  ]
}