{
  "page": 317,
  "total_results": 10000,
  "total_pages": 500,
  "results": [
    {
      "id": 16766,
      "name": "John Litel",
      "profile_path": "/kpNAy4IYFE3OXaOG60RPhkyp70d.jpg",
      "popularity": 10.455,
      "adult": false,
      "known_for_department": "Acting"
    },
    {
      "id": 992366,
      "name": "Maia Mitchell",
      "profile_path": "/5HBlwtytt4H9ApS75K3ZZzw8NDi.jpg",
      "popularity": 10.454,
      "adult": false,
      "known_for_department": "Acting"
    },
    {
      "id": 54427,
      "name": "Kimberly Brooks",
      "profile_path": "/iPlCk1VQ8fnAtsMow6HlCZoQc0w.jpg",
      "popularity": 10.454,
      "adult": false,
      "known_for_department": "Acting"
    },
    {
      "id": 24381,
      "name": "Jean Yanne",
      "profile_path": "/nZAsOM0mtE0oHHj9DlbH94SxtAI.jpg",
      "popularity": 10.454,
      "adult": false,
      "known_for_department": "Acting"
    },
    {
      "id": 18190,
      "name": "Justin Cooper",
      "profile_path": "/61qQPDArLSjydncUKeBz2D4lXRl.jpg",
      "popularity": 10.454,
      "adult": false,
      "known_for_department": "Acting"
    },
    {
      "id": 249917,
      "name": "Christina Schollin",
      "profile_path": "/m2m5BIQK3HqOrJK2aEYpmm7HjZo.jpg",
      "popularity": 10.452,
      "adult": false,
      "known_for_department": "Acting"
    },
    {
      "id": 1797563,
      "name": "Darya Rudenok",
      "profile_path": "/nk4twlFpCBFpH8RLMibcwR3Xx1r.jpg",
      "popularity": 10.451,
      "adult": false,
      "known_for_department": "Acting"
    },
    {
      "id": 435243,
      "name": "James Murray",
      "profile_path": "/g1Jj5FReoXteHqDzDTiYVO77iIR.jpg",
      "popularity": 10.45,
      "adult": false,
      "known_for_department": "Acting"
    },
    {
      "id": 5605,
      "name": "Richard Farnsworth",
      "profile_path": "/fDW2gb090aJkGc7L5xDMPpSZYlw.jpg",
      "popularity": 10.45,
      "adult": false,
      "known_for_department": "Acting"
    },
    {
      "id": 56342,
      "name": "Shinichiro Watanabe",
      "profile_path": "/AptCCXOt0n4pnTjvFau8GtFyysh.jpg",
      "popularity": 10.448,
      "adult": false,
      "known_for_department": "Directing"
    },
    {
      "id": 33547,
      "name": "Anthony Steel",
      "profile_path": "/aig5M3tqZg5qimyNauOVUuBJJ9u.jpg",
      "popularity": 10.448,
      "adult": false,
      "known_for_department": "Acting"
    },
    {
      "id": 1783721,
      "name": "Maddie Nichols",
      "profile_path": "/jH8lLhaqgRK1uVV84UgUnZukIyP.jpg",
      "popularity": 10.447,
      "adult": false,
      "known_for_department": "Acting"
    },
    {
      "id": 1557952,
      "name": "Ekaterina Samsonov",
      "profile_path": "/rZD4nlJ1QsNNDNpq9FVPRwMu0uR.jpg",
      "popularity": 10.447,
      "adult": false,
      "known_for_department": "Acting"
    },
    {
      "id": 92585,
      "name": "Dixie Carter",
      "profile_path": "/vunYThFacsDaNr1AKypq6v03ALO.jpg",
      "popularity": 10.447,
      "adult": false,
      "known_for_department": "Acting"
    },
    {
      "id": 225692,
      "name": "Jeremy Irvine",
      "profile_path": "/nPeBcyemdjH7zu8fL8gu9O0lnsb.jpg",
      "popularity": 10.446,
      "adult": false,
      "known_for_department": "Acting"
    },
    {
      "id": 1503909,
      "name": "Raffiella Chapman",
      "profile_path": "/u3vzRCht6RaULefF6EpBocmD30d.jpg",
      "popularity": 10.445,
      "adult": false,
      "known_for_department": "Acting"
    },
    {
      "id": 54865,
      "name": "Jeff Kober",
      "profile_path": "/rSHfqqDdNCBbia04NqxIB2U19wM.jpg",
      "popularity": 10.445,
      "adult": false,
      "known_for_department": "Acting"
    },
    {
      "id": 23076,
      "name": "Robert Hardy",
      "profile_path": "/5FK7rDWRsbNwAMsHHpkpeGafFtu.jpg",
      "popularity": 10.443,
      "adult": false,
      "known_for_department": "Acting"
    },
    {
      "id": 221809,
      "name": "Taylor Schilling",
      "profile_path": "/icdvnrgzoxHWpqpNAyGktkqrfc2.jpg",
      "popularity": 10.439,
      "adult": false,
      "known_for_department": "Acting"
    },
    {
      "id": 47562,
      "name": "Agatha Christie",
      "profile_path": "/1L4su640toYra8iuG3r8WP2pPth.jpg",
      "popularity": 10.439,
      "adult": false,
      "known_for_department": "Writing"
    }
  ]
}