{
  "page": 395,
  "total_results": 10000,
  "total_pages": 500,
  "results": [
    {
      "id": 17183,
      "name": "Jackie Earle Haley",
      "profile_path": "/qVPNzBEm9xF4YX1SwkXhxgsuqCt.jpg",
      "popularity": 6.418,
      "adult": false,
      "known_for_department": "Acting"
    },
    {
      "id": 1478376,
      "name": "Joey Fisher",
      "profile_path": "/i8uHisSZtTXA6SmzVsyYDKMeexT.jpg",
      "popularity": 6.417,
      "adult": false,
      "known_for_department": "Acting"
    },
    {
      "id": 1364004,
      "name": "Tom Bateman",
      "profile_path": "/xD8dL5f5DyxchvGFi9ScKDnf45e.jpg",
      "popularity": 6.417,
      "adult": false,
      "known_for_department": "Acting"
    },
    {
      "id": 28168,
      "name": "Timothy Stack",
      "profile_path": "/wMOpamq0meq9NSE5MMMV4x1MjFJ.jpg",
      "popularity": 6.417,
      "adult": false,
      "known_for_department": "Acting"
    },
    {
      "id": 1816917,
      "name": "Natacha Karam",
      "profile_path": "/9lbNoQ6LxPHPqbdIHhXTMHhebrM.jpg",
      "popularity": 6.416,
      "adult": false,
      "known_for_department": "Acting"
    },
    {
      "id": 52847,
      "name": "Joy Bryant",
      "profile_path": "/baTPZOyEztjp9MdcfpiiKg48QpM.jpg",
      "popularity": 6.416,
      "adult": false,
      "known_for_department": "Acting"
    },
    {
      "id": 9602,
      "name": "Donnelly Rhodes",
      "profile_path": "/rORAUcj05OMRVeUlensXUzj5hgt.jpg",
      "popularity": 6.416,
      "adult": false,
      "known_for_department": "Acting"
    },
    {
      "id": 6591,
      "name": "Chris Isaak",
      "profile_path": "/7NdLnxpXoUhQRQOkAbXfpqCIYdr.jpg",
      "popularity": 6.416,
      "adult": false,
      "known_for_department": "Acting"
    },
    {
      "id": 1954622,
      "name": "Ece Çeşmioğlu",
      "profile_path": "/6NVkiKFxXyj8IDhmf503Jg7FTiD.jpg",
      "popularity": 6.415,
      "adult": false,
      "known_for_department": "Acting"
    },
    {
      "id": 130654,
      "name": "Mikako Ichikawa",
      "profile_path": "/wrSk7QnBORj5SvJiXYj8EFXttuQ.jpg",
      "popularity": 6.415,
      "adult": false,
      "known_for_department": "Acting"
    },
    {
      "id": 127712,
      "name": "Matt Ryan",
      "profile_path": "/qLx6rzn6MMcJtTals5Z7Mb6z4Y9.jpg",
      "popularity": 6.415,
      "adult": false,
      "known_for_department": "Acting"
    },
    {
      "id": 60033,
      "name": "Yaya DaCosta",
      "profile_path": "/9diTHV1EIUNbXIYsTeDM5M3oQU9.jpg",
      "popularity": 6.415,
      "adult": false,
      "known_for_department": "Acting"
    },
    {
      "id": 10689,
      "name": "Rob Brown",
      "profile_path": "/jVevsp9OsdImQ8YxNjdG3KLYket.jpg",
      "popularity": 6.415,
      "adult": false,
      "known_for_department": "Acting"
    },
    {
      "id": 90502,
      "name": "Goro Taniguchi",
      "profile_path": "/v2CxZEm7nAmvQYOlR6gmTPSKGJf.jpg",
      "popularity": 6.414,
      "adult": false,
      "known_for_department": "Directing"
    },
    {
      "id": 3006559,
      "name": "Anson Chen",
      "profile_path": "/g1cVZ1IBvGpSU9aRe3exwHTBKkQ.jpg",
      "popularity": 6.413,
      "adult": false,
      "known_for_department": "Acting"
    },
    {
      "id": 1688664,
      "name": "Francesca Reale",
      "profile_path": "/9qqCNZUR1rYzwP81NzXOw3ecGeV.jpg",
      "popularity": 6.413,
      "adult": false,
      "known_for_department": "Acting"
    },
    {
      "id": 1332680,
      "name": "Uzo Aduba",
      "profile_path": "/fbx20O4wyOHNYONFbFv2usaT3yO.jpg",
      "popularity": 6.413,
      "adult": false,
      "known_for_department": "Acting"
    },
    {
      "id": 1235045,
      "name": "Lee Da-hae",
      "profile_path": "/liWpwu9TfCsoT6ovDuDMKwIyxDo.jpg",
      "popularity": 6.413,
      "adult": false,
      "known_for_department": "Acting"
    },
    {
      "id": 90134,
      "name": "Tetsuya Kakihara",
      "profile_path": "/uogW9g7uqEdB1nbShhjp6NSXeue.jpg",
      "popularity": 6.413,
      "adult": false,
      "known_for_department": "Acting"
    },
    {
      "id": 12466,
      "name": "Roy Cheung",
      "profile_path": "/gHue0osFNYoX06eXpTrMZWpOpi8.jpg",
      "popularity": 6.413,
      "adult": false,
      "known_for_department": "Acting"
    }
  ]
}