{
  "page": 442,
  "total_results": 10000,
  "total_pages": 500,
  "results": [
    {
      "id": 10961,
      "name": "Gavin Rossdale",
      "profile_path": "/zjvzezZJwfKX2gJqyT3aF9RukAM.jpg",
      "popularity": 7.54,
      "adult": false,
      "known_for_department": "Acting"
    },
    {
      "id": 1257611,
      "name": "Jung Ae-ri",
      "profile_path": "/e0yP43fpmV73EKYs0HgTQJ5KNP3.jpg",
      "popularity": 7.539,
      "adult": false,
      "known_for_department": "Acting"
    },
    {
      "id": 1124536,
      "name": "Haruka Shiraishi",
      "profile_path": "/9yEZfOzXJUGyb8Z6pmBf6UdkaLO.jpg",
      "popularity": 7.539,
      "adult": false,
      "known_for_department": "Acting"
    },
    {
      "id": 139459,
      "name": "Volodymyr Zelenskyy",
      "profile_path": "/jRFhTaLY4QOYPDQCunI3TfhJM7V.jpg",
      "popularity": 7.539,
      "adult": false,
      "known_for_department": "Acting"
    },
    {
      "id": 95866,
      "name": "Billie Joe Armstrong",
      "profile_path": "/upYUoLOi7xypknbNQmYVbLCekM4.jpg",
      "popularity": 7.539,
      "adult": false,
      "known_for_department": "Acting"
    },
    {
      "id": 1126301,
      "name": "Alix Bénézech",
      "profile_path": "/dyPVcKkDl95XDwNeduWbsoPbEk2.jpg",
      "popularity": 7.538,
      "adult": false,
      "known_for_department": "Acting"
    },
    {
      "id": 55266,
      "name": "Catherine Mary Stewart",
      "profile_path": "/bnzxmEpVmQT29okflCNwwLA63rz.jpg",
      "popularity": 7.538,
      "adult": false,
      "known_for_department": "Acting"
    },
    {
      "id": 10501,
      "name": "Topol",
      "profile_path": "/Ah6ZOrg9AmeqPU04qUGF5eon2Fv.jpg",
      "popularity": 7.538,
      "adult": false,
      "known_for_department": "Acting"
    },
    {
      "id": 576173,
      "name": "Harley Quinn Smith",
      "profile_path": "/6aUlJSKXJrRc2GzcSr9gsrg6wZH.jpg",
      "popularity": 7.536,
      "adult": false,
      "known_for_department": "Acting"
    },
    {
      "id": 6929,
      "name": "Tippi Hedren",
      "profile_path": "/uMhXwLMUlTQk0N8g3FaVil0qxEq.jpg",
      "popularity": 7.536,
      "adult": false,
      "known_for_department": "Acting"
    },
    {
      "id": 136347,
      "name": "Jessica McNamee",
      "profile_path": "/aAfaMEEqD8syHv5bLi5B3sccrM2.jpg",
      "popularity": 7.534,
      "adult": false,
      "known_for_department": "Acting"
    },
    {
      "id": 1214525,
      "name": "Anjli Mohindra",
      "profile_path": "/bUmLmifwwItfVP5bS6JbxISkwWR.jpg",
      "popularity": 7.533,
      "adult": false,
      "known_for_department": "Acting"
    },
    {
      "id": 3033,
      "name": "Wil Wheaton",
      "profile_path": "/yqEW17L7Fdg2RDRLLo4SqRHkjyw.jpg",
      "popularity": 7.532,
      "adult": false,
      "known_for_department": "Acting"
    },
    {
      "id": 1419854,
      "name": "Lee Si-won",
      "profile_path": "/lNcFcdTV2Zm73TXdUAlFqehtl4Z.jpg",
      "popularity": 7.531,
      "adult": false,
      "known_for_department": "Acting"
    },
    {
      "id": 70304,
      "name": "Sarah Jane Morris",
      "profile_path": "/fk8WsH4UqwO5Z4SuuoPohtejwYn.jpg",
      "popularity": 7.531,
      "adult": false,
      "known_for_department": "Acting"
    },
    {
      "id": 7853,
      "name": "Rodney A. Grant",
      "profile_path": "/l4FiVA1ddPI8SohmB01UP9avexw.jpg",
      "popularity": 7.531,
      "adult": false,
      "known_for_department": "Acting"
    },
    {
      "id": 1253454,
      "name": "Ayuru Ohashi",
      "profile_path": "/9ddNuth0xv2yf3ElK5exIRYsMXr.jpg",
      "popularity": 7.53,
      "adult": false,
      "known_for_department": "Acting"
    },
    {
      "id": 1222433,
      "name": "Jung Kyung-soon",
      "profile_path": "/eUwnM3UjkxjBUv4aEHnWUI7oqcf.jpg",
      "popularity": 7.529,
      "adult": false,
      "known_for_department": "Acting"
    },
    {
      "id": 50094,
      "name": "Ken Kirzinger",
      "profile_path": "/h9PfH9SP4gO7H7RPEpLvQWLY3zW.jpg",
      "popularity": 7.529,
      "adult": false,
      "known_for_department": "Acting"
    },
    {
      "id": 1212016,
      "name": "Alison Sweeney",
      "profile_path": "/xSFd60uTym5aTbQRGKOZ8EPxBDX.jpg",
      "popularity": 7.528,
      "adult": false,
      "known_for_department": "Acting"
    }
  ]
}