{
  "page": 70,
  "total_results": 10000,
  "total_pages": 500,
  "results": [
    {
      "id": 4273,
      "name": "Charlotte Gainsbourg",
      "profile_path": "/54RgTfNxhiTsaZfmCXWYLeZgMlC.jpg",
      "popularity": 19.501,
      "adult": false,
      "known_for_department": "Acting"
    },
    {
      "id": 51391,
      "name": "Frankie Muniz",
      "profile_path": "/tBckW8eJHv4vz8B3DJYH1rLAtyN.jpg",
      "popularity": 19.495,
      "adult": false,
      "known_for_department": "Acting"
    },
    {
      "id": 3127,
      "name": "Lili Taylor",
      "profile_path": "/if8rbaj1TXlzg0Oq4g0bpU3b5rh.jpg",
      "popularity": 19.493,
      "adult": false,
      "known_for_department": "Acting"
    },
    {
      "id": 8335,
      "name": "Kim Coates",
      "profile_path": "/brhVd2vTTBJNpM2ZrOFc6SnXCAd.jpg",
      "popularity": 19.484,
      "adult": false,
      "known_for_department": "Acting"
    },
    {
      "id": 208099,
      "name": "Kunal Nayyar",
      "profile_path": "/8W16ABvzYBvMp9xMUV5FvM3QV8e.jpg",
      "popularity": 19.474,
      "adult": false,
      "known_for_department": "Acting"
    },
    {
      "id": 133979,
      "name": "Jennette McCurdy",
      "profile_path": "/wgiXQMib6SKpOuAY2oLU6GARkWY.jpg",
      "popularity": 19.473,
      "adult": false,
      "known_for_department": "Acting"
    },
    {
      "id": 2402531,
      "name": "Yoo In-soo",
      "profile_path": "/9acPcttWXPT2UwTjlxv5lHVscU3.jpg",
      "popularity": 19.467,
      "adult": false,
      "known_for_department": "Acting"
    },
    {
      "id": 1508313,
      "name": "Finn Cole",
      "profile_path": "/yVWop3BSHbjIecYGqI1ToZIPR3T.jpg",
      "popularity": 19.459,
      "adult": false,
      "known_for_department": "Acting"
    },
    {
      "id": 1894505,
      "name": "Walaipech Link Khunthira",
      "profile_path": "/k8s7RZXnQSayYYdm7upza3s6uhA.jpg",
      "popularity": 19.458,
      "adult": false,
      "known_for_department": "Acting"
    },
    {
      "id": 2055,
      "name": "Robert Davi",
      "profile_path": "/yizOUAKs59CwKM6pU30gIP9gTup.jpg",
      "popularity": 19.455,
      "adult": false,
      "known_for_department": "Acting"
    },
    {
      "id": 1159982,
      "name": "Ansel Elgort",
      "profile_path": "/ynceZwoR41V4FBiElUpgG5aFi9i.jpg",
      "popularity": 19.448,
      "adult": false,
      "known_for_department": "Acting"
    },
    {
      "id": 41686,
      "name": "Neil Patrick Harris",
      "profile_path": "/qZwbo23uaJU87NxE5RubbeeLTYh.jpg",
      "popularity": 19.448,
      "adult": false,
      "known_for_department": "Acting"
    },
    {
      "id": 1234,
      "name": "Tara Reid",
      "profile_path": "/s7BRT4eypYGJxV4qeO1iMYFrnCq.jpg",
      "popularity": 19.442,
      "adult": false,
      "known_for_department": "Acting"
    },
    {
      "id": 1121786,
      "name": "Odeya Rush",
      "profile_path": "/1eDPlshKwSIs3tvvkPItLr0LUrZ.jpg",
      "popularity": 19.43,
      "adult": false,
      "known_for_department": "Acting"
    },
    {
      "id": 7497,
      "name": "Holt McCallany",
      "profile_path": "/a5ax2ICLrV6l0T74OSFvzssCQyQ.jpg",
      "popularity": 19.427,
      "adult": false,
      "known_for_department": "Acting"
    },
    {
      "id": 1464650,
      "name": "Dafne Keen",
      "profile_path": "/vohccdHmJHNZX9UIcRlmZ4Qwkj.jpg",
      "popularity": 19.426,
      "adult": false,
      "known_for_department": "Acting"
    },
    {
      "id": 10839,
      "name": "Leonor Varela",
      "profile_path": "/ooZQvMganzssNGoTKaIgFXM38U7.jpg",
      "popularity": 19.42,
      "adult": false,
      "known_for_department": "Acting"
    },
    {
      "id": 104632,
      "name": "Sylvia Hoeks",
      "profile_path": "/wKC9LgqgJRCXuzs1kUKaK7Uicv.jpg",
      "popularity": 19.415,
      "adult": false,
      "known_for_department": "Acting"
    },
    {
      "id": 5526,
      "name": "Georgie Henley",
      "profile_path": "/3G12GqaRzx4ovHYMELUAGwChOCx.jpg",
      "popularity": 19.415,
      "adult": false,
      "known_for_department": "Acting"
    },
    {
      "id": 11180,
      "name": "David Bradley",
      "profile_path": "/znpkwHitb3pcaJbUmgDqG0YenYp.jpg",
      "popularity": 19.413,
      "adult": false,
      "known_for_department": "Acting"
    }
  ]
}