{
  "page": 51,
  "total_results": 10000,
  "total_pages": 500,
  "results": [
    {
      "id": 1182597,
      "name": "Denise Gough",
      "profile_path": "/uGs5oHN1MK4tmU850fCw7d3Nx0h.jpg",
      "popularity": 21.033,
      "adult": false,
      "known_for_department": "Acting"
    },
    {
      "id": 5168,
      "name": "Gabriel Byrne",
      "profile_path": "/9r9oDGENg92VYYFMkV4C09IUlrb.jpg",
      "popularity": 20.985,
      "adult": false,
      "known_for_department": "Acting"
    },
    {
      "id": 25541,
      "name": "Katherine Heigl",
      "profile_path": "/taaHC2nloQjMAFNcDgtYXJKR6Yl.jpg",
      "popularity": 20.976,
      "adult": false,
      "known_for_department": "Acting"
    },
    {
      "id": 61110,
      "name": "Fred Armisen",
      "profile_path": "/nLMCRlt0MV2uu4KPbDPDNsPWfBG.jpg",
      "popularity": 20.972,
      "adult": false,
      "known_for_department": "Acting"
    },
    {
      "id": 204392,
      "name": "Cristin Milioti",
      "profile_path": "/jRkZ1k2kZGnKhCJ3iqA9Pf8p17c.jpg",
      "popularity": 20.952,
      "adult": false,
      "known_for_department": "Acting"
    },
    {
      "id": 2578379,
      "name": "Sung Yeon",
      "profile_path": "/xPJJqrcvagW2b39izMfNgNxQHin.jpg",
      "popularity": 20.941,
      "adult": false,
      "known_for_department": "Acting"
    },
    {
      "id": 4038,
      "name": "Susan Sarandon",
      "profile_path": "/sMbg2gnpbccjfRQrQ6Vz0O77Xrh.jpg",
      "popularity": 20.927,
      "adult": false,
      "known_for_department": "Acting"
    },
    {
      "id": 1901394,
      "name": "Huw Novelli",
      "profile_path": "/mm3mkwjaAoEeP2pJ23fm1syWf1j.jpg",
      "popularity": 20.924,
      "adult": false,
      "known_for_department": "Acting"
    },
    {
      "id": 98285,
      "name": "Bella Thorne",
      "profile_path": "/mdsbU2sEZ0Z2CZ2YGnurrYf70AN.jpg",
      "popularity": 20.916,
      "adult": false,
      "known_for_department": "Acting"
    },
    {
      "id": 19109,
      "name": "Carolyn Jones",
      "profile_path": "/ylA0xqACyD6mXS2e9d5cuI9wKut.jpg",
      "popularity": 20.911,
      "adult": false,
      "known_for_department": "Acting"
    },
    {
      "id": 1893,
      "name": "Casey Affleck",
      "profile_path": "/vD5MtCjHPHpmU9XNn74EPGMHT7o.jpg",
      "popularity": 20.906,
      "adult": false,
      "known_for_department": "Acting"
    },
    {
      "id": 69122,
      "name": "Heather Graham",
      "profile_path": "/avYdNkeg1oTvmrNJbFDcTlBCkKs.jpg",
      "popularity": 20.89,
      "adult": false,
      "known_for_department": "Acting"
    },
    {
      "id": 5064,
      "name": "Meryl Streep",
      "profile_path": "/vAzKggFbilf6eG1RY2lj6pdhrKl.jpg",
      "popularity": 20.88,
      "adult": false,
      "known_for_department": "Acting"
    },
    {
      "id": 17647,
      "name": "Michelle Rodriguez",
      "profile_path": "/jxSSvm0MwG7JVpKwRFL1a4mYiic.jpg",
      "popularity": 20.872,
      "adult": false,
      "known_for_department": "Acting"
    },
    {
      "id": 1173223,
      "name": "Danny Chan Kwok-kwan",
      "profile_path": "/hkHu1Z4EtN47bPwh6PlBIE3Jz76.jpg",
      "popularity": 20.871,
      "adult": false,
      "known_for_department": "Acting"
    },
    {
      "id": 92404,
      "name": "Joel Kinnaman",
      "profile_path": "/c4TTWy1WntzDxpgIe8kbODjWOfD.jpg",
      "popularity": 20.857,
      "adult": false,
      "known_for_department": "Acting"
    },
    {
      "id": 78423,
      "name": "Omar Sy",
      "profile_path": "/laNZay6AfEzvEvY1NUH9UFiSD0a.jpg",
      "popularity": 20.846,
      "adult": false,
      "known_for_department": "Acting"
    },
    {
      "id": 108916,
      "name": "Rooney Mara",
      "profile_path": "/ixcGTDGHtwaQnNLpLS1S7V01DUJ.jpg",
      "popularity": 20.842,
      "adult": false,
      "known_for_department": "Acting"
    },
    {
      "id": 14887,
      "name": "Paddy Considine",
      "profile_path": "/96bZA8JRDjBgCE7ZHHgOMPmykc4.jpg",
      "popularity": 20.84,
      "adult": false,
      "known_for_department": "Acting"
    },
    {
      "id": 8167,
      "name": "Paul Walker",
      "profile_path": "/q2PLqKHYCs35HR7QybaNPH3JT96.jpg",
      "popularity": 20.84,
      "adult": false,
      "known_for_department": "Acting"
    }
  ]
}