{
  "page": 450,
  "total_results": 10000,
  "total_pages": 500,
  "results": [
    {
      "id": 8899,
      "name": "Jamie Donnelly",
      "profile_path": "/kKO5DL3oBlsaqoaekwwvUV1o00H.jpg",
      "popularity": 7.309,
      "adult": false,
      "known_for_department": "Acting"
    },
    {
      "id": 53336,
      "name": "Brandon T. Jackson",
      "profile_path": "/r7Wfn6Vum2SZPyY3QQtw6Q6MBCq.jpg",
      "popularity": 7.308,
      "adult": false,
      "known_for_department": "Acting"
    },
    {
      "id": 1745973,
      "name": "Ai Yoshikawa",
      "profile_path": "/vfW8aVL3vcbJsMsWpMddO9tprsn.jpg",
      "popularity": 7.307,
      "adult": false,
      "known_for_department": "Acting"
    },
    {
      "id": 1102331,
      "name": "Annabelle Dexter-Jones",
      "profile_path": "/je4dS7rxKkl0TK2v7NuP2r4hSIv.jpg",
      "popularity": 7.307,
      "adult": false,
      "known_for_department": "Acting"
    },
    {
      "id": 591999,
      "name": "Julia Montes",
      "profile_path": "/qCwNYgBo6JJzMZKQvmZK3wZJunt.jpg",
      "popularity": 7.307,
      "adult": false,
      "known_for_department": "Acting"
    },
    {
      "id": 7866,
      "name": "Robert Pastorelli",
      "profile_path": "/pXQSrVeE4hTIzQvH5eZ1PNTRuK0.jpg",
      "popularity": 7.307,
      "adult": false,
      "known_for_department": "Acting"
    },
    {
      "id": 14407,
      "name": "Matt LeBlanc",
      "profile_path": "/llINftOQFR6B9v1f4XFCJiRMi2P.jpg",
      "popularity": 7.306,
      "adult": false,
      "known_for_department": "Acting"
    },
    {
      "id": 2117083,
      "name": "Anjelika Washington",
      "profile_path": "/94Es7NsV8V6hG8Jx0TJhp0IEkqi.jpg",
      "popularity": 7.305,
      "adult": false,
      "known_for_department": "Acting"
    },
    {
      "id": 1374515,
      "name": "Lee Yeon-doo",
      "profile_path": "/tz1Azwy3u4Nv8CwTlgxyGWzpH4Q.jpg",
      "popularity": 7.305,
      "adult": false,
      "known_for_department": "Acting"
    },
    {
      "id": 1244346,
      "name": "Katharina Abt",
      "profile_path": "/2gumC3faiIduRORTH6XAPUd7BEd.jpg",
      "popularity": 7.305,
      "adult": false,
      "known_for_department": "Acting"
    },
    {
      "id": 36424,
      "name": "LL Cool J",
      "profile_path": "/dpOHjasRJz7rk9CVutd6L9WnWTc.jpg",
      "popularity": 7.305,
      "adult": false,
      "known_for_department": "Acting"
    },
    {
      "id": 67602,
      "name": "Corbin Bleu",
      "profile_path": "/AiPiQPFgMCNz9ycgAMtskkPZUeC.jpg",
      "popularity": 7.304,
      "adult": false,
      "known_for_department": "Acting"
    },
    {
      "id": 29685,
      "name": "Kurt Fuller",
      "profile_path": "/kV02XLACLFd1YYQdSOgqy6lFmQ3.jpg",
      "popularity": 7.304,
      "adult": false,
      "known_for_department": "Acting"
    },
    {
      "id": 1428996,
      "name": "India Mullen",
      "profile_path": "/xiC6X3XdUpyOyiB993ZuiqIYmr8.jpg",
      "popularity": 7.302,
      "adult": false,
      "known_for_department": "Acting"
    },
    {
      "id": 1046863,
      "name": "Lee Hee-jun",
      "profile_path": "/4slyXnHbKgzmeyJNetBSORgDDEF.jpg",
      "popularity": 7.302,
      "adult": false,
      "known_for_department": "Acting"
    },
    {
      "id": 55789,
      "name": "Tate Taylor",
      "profile_path": "/zJaLbNHLoQMhCAeJhn1J1B0xrup.jpg",
      "popularity": 7.302,
      "adult": false,
      "known_for_department": "Directing"
    },
    {
      "id": 15232,
      "name": "Ty Burrell",
      "profile_path": "/1bO1J5d1WbwTXWmGeRthfZVDfjN.jpg",
      "popularity": 7.302,
      "adult": false,
      "known_for_department": "Acting"
    },
    {
      "id": 1044524,
      "name": "Nana Katase",
      "profile_path": "/5G1KIU3hEWMLPqwl9IudsRE4dQK.jpg",
      "popularity": 7.301,
      "adult": false,
      "known_for_department": "Acting"
    },
    {
      "id": 14069,
      "name": "Vic Tayback",
      "profile_path": "/aX34tFZt5C12QrSynsgDWNJl0MG.jpg",
      "popularity": 7.301,
      "adult": false,
      "known_for_department": "Acting"
    },
    {
      "id": 577478,
      "name": "Hannah Ware",
      "profile_path": "/alyHyAh2xfEkHGYEgmMBMDjrbPq.jpg",
      "popularity": 7.3,
      "adult": false,
      "known_for_department": "Acting"
    }
  ]
}