{
  "page": 293,
  "total_results": 10000,
  "total_pages": 500,
  "results": [
    {
      "id": 62692,
      "name": "Oliver Hudson",
      "profile_path": "/kvRmZBKs7xMZwsTu37adKPF8PKG.jpg",
      "popularity": 9.963,
      "adult": false,
      "known_for_department": "Acting"
    },
    {
      "id": 11152,
      "name": "Margaret Cho",
      "profile_path": "/lsHpa4aRrBMn7LtFX8AdPTFBMGY.jpg",
      "popularity": 9.963,
      "adult": false,
      "known_for_department": "Acting"
    },
    {
      "id": 137971,
      "name": "Miranda Frigon",
      "profile_path": "/44VovG3Gm0NGyHAhgyKla4RcHnw.jpg",
      "popularity": 9.962,
      "adult": false,
      "known_for_department": "Acting"
    },
    {
      "id": 45586,
      "name": "Magda Szubanski",
      "profile_path": "/fNb650TNqOBG6dSP9bLhoxxI9wA.jpg",
      "popularity": 9.96,
      "adult": false,
      "known_for_department": "Acting"
    },
    {
      "id": 37760,
      "name": "Kenny Doughty",
      "profile_path": "/lLsbZLO0JQPIiaRZTcVYbVxfv4m.jpg",
      "popularity": 9.96,
      "adult": false,
      "known_for_department": "Acting"
    },
    {
      "id": 1233,
      "name": "Philip Seymour Hoffman",
      "profile_path": "/50rqDkmvXwjwVhFH7q6ph2Rkw7S.jpg",
      "popularity": 9.959,
      "adult": false,
      "known_for_department": "Acting"
    },
    {
      "id": 82732,
      "name": "Mohanlal",
      "profile_path": "/wvoBULQimwguAGPOHZ8TDoy7jBJ.jpg",
      "popularity": 9.958,
      "adult": false,
      "known_for_department": "Acting"
    },
    {
      "id": 21430,
      "name": "Natassia Malthe",
      "profile_path": "/9Nr5wmzQyxhexT16Bm3kxnQdEcG.jpg",
      "popularity": 9.956,
      "adult": false,
      "known_for_department": "Acting"
    },
    {
      "id": 55267,
      "name": "Terry Kiser",
      "profile_path": "/mlbKBknv4TndoeeEtPXhAtRJpAh.jpg",
      "popularity": 9.955,
      "adult": false,
      "known_for_department": "Acting"
    },
    {
      "id": 239392,
      "name": "Koichi Iwaki",
      "profile_path": "/pG9rxWDiJkyJQ2HxyxNa7B35GQT.jpg",
      "popularity": 9.954,
      "adult": false,
      "known_for_department": "Acting"
    },
    {
      "id": 1098661,
      "name": "Leanne Lapp",
      "profile_path": "/x710rZfyIGI56kxwEPn3OAAD0j4.jpg",
      "popularity": 9.953,
      "adult": false,
      "known_for_department": "Acting"
    },
    {
      "id": 87108,
      "name": "Dayton Callie",
      "profile_path": "/miB43H7L4OYY5aRSxhoScjcOxu3.jpg",
      "popularity": 9.953,
      "adult": false,
      "known_for_department": "Acting"
    },
    {
      "id": 239010,
      "name": "Billy Lau",
      "profile_path": "/upXNfzzn7Qm1YXYZgIdHdFEpwKt.jpg",
      "popularity": 9.951,
      "adult": false,
      "known_for_department": "Acting"
    },
    {
      "id": 27649,
      "name": "Joseph Long",
      "profile_path": "/kIh1s4CVXqcPb57ya3AMY2v1zxc.jpg",
      "popularity": 9.95,
      "adult": false,
      "known_for_department": "Acting"
    },
    {
      "id": 1992182,
      "name": "Evrim Doğan",
      "profile_path": "/jWb0hSq7A2mgpuyQMvmR0dIGkt3.jpg",
      "popularity": 9.949,
      "adult": false,
      "known_for_department": "Acting"
    },
    {
      "id": 104522,
      "name": "Aoi Miyazaki",
      "profile_path": "/8J2i8Da2FmqMsDqSlndEpzkPQYd.jpg",
      "popularity": 9.948,
      "adult": false,
      "known_for_department": "Acting"
    },
    {
      "id": 65309,
      "name": "Omri Katz",
      "profile_path": "/wY3NxTyXhzJ8BkmBZcQuSE7WtoC.jpg",
      "popularity": 9.948,
      "adult": false,
      "known_for_department": "Acting"
    },
    {
      "id": 68559,
      "name": "Gary Daniels",
      "profile_path": "/60RqnmK1eAICJgbmA0YtMef6iys.jpg",
      "popularity": 9.946,
      "adult": false,
      "known_for_department": "Acting"
    },
    {
      "id": 2020904,
      "name": "Jackson A. Dunn",
      "profile_path": "/fHUH3GjxwO8yZgeoYKAL4b7b8X4.jpg",
      "popularity": 9.944,
      "adult": false,
      "known_for_department": "Acting"
    },
    {
      "id": 65300,
      "name": "Sarah Rose Karr",
      "profile_path": "/1AD1yCTMduGlrEAG1Gv9lx8R5ym.jpg",
      "popularity": 9.943,
      "adult": false,
      "known_for_department": "Acting"
    }
  ]
}