{
  "page": 176,
  "total_results": 10000,
  "total_pages": 500,
  "results": [
    {
      "id": 3055610,
      "name": "Ruslan Horovyi",
      "profile_path": "/xUmueYIqKBYSBCEf4ddPO77Ao2C.jpg",
      "popularity": 12.724,
      "adult": false,
      "known_for_department": "Directing"
    },
    {
      "id": 75037,
      "name": "Laura Bailey",
      "profile_path": "/y2szEyFy7VFAzdQjMwN3fLwEDn.jpg",
      "popularity": 12.724,
      "adult": false,
      "known_for_department": "Acting"
    },
    {
      "id": 198150,
      "name": "Ike Barinholtz",
      "profile_path": "/pxK1HXsQFfh3zT1KA3t6lEKMiZK.jpg",
      "popularity": 12.723,
      "adult": false,
      "known_for_department": "Acting"
    },
    {
      "id": 98215,
      "name": "Matt Gerald",
      "profile_path": "/k5iEsYWb1Prho4IO2xGTFaIwKu1.jpg",
      "popularity": 12.723,
      "adult": false,
      "known_for_department": "Acting"
    },
    {
      "id": 57723,
      "name": "Nora Miao",
      "profile_path": "/tEXCWBzrtq3xiF1rZI9FNjrD7ai.jpg",
      "popularity": 12.722,
      "adult": false,
      "known_for_department": "Acting"
    },
    {
      "id": 18974,
      "name": "Laura Prepon",
      "profile_path": "/z7J788ETmX70WCEggtJZllXxmOa.jpg",
      "popularity": 12.722,
      "adult": false,
      "known_for_department": "Acting"
    },
    {
      "id": 18067,
      "name": "Rachael Stirling",
      "profile_path": "/nk0evvx3mScy3kRnbXWi1g64ZMw.jpg",
      "popularity": 12.721,
      "adult": false,
      "known_for_department": "Acting"
    },
    {
      "id": 142389,
      "name": "Charlie Rowe",
      "profile_path": "/uj6FPTxlcjPGyQlCLEjFogvU8ny.jpg",
      "popularity": 12.716,
      "adult": false,
      "known_for_department": "Acting"
    },
    {
      "id": 1902,
      "name": "Dianne Wiest",
      "profile_path": "/axqtFLgJNNz0N9i443USHCOvrmY.jpg",
      "popularity": 12.715,
      "adult": false,
      "known_for_department": "Acting"
    },
    {
      "id": 1312526,
      "name": "Andrew Leung",
      "profile_path": "/hXK4gUIooj3SpQ2qwEN9JLV0B7d.jpg",
      "popularity": 12.708,
      "adult": false,
      "known_for_department": "Acting"
    },
    {
      "id": 1383391,
      "name": "Holly Earl",
      "profile_path": "/xOTgpttfytr7WJ2Okk8mia5u2qf.jpg",
      "popularity": 12.707,
      "adult": false,
      "known_for_department": "Acting"
    },
    {
      "id": 27564,
      "name": "Eric Lloyd",
      "profile_path": "/nr2lneir9Hgk6wxhKLhW2dEx9QS.jpg",
      "popularity": 12.707,
      "adult": false,
      "known_for_department": "Acting"
    },
    {
      "id": 51392,
      "name": "Justin Berfield",
      "profile_path": "/1FRN8DKGUcCSLwQlZaIpwJkk5jT.jpg",
      "popularity": 12.706,
      "adult": false,
      "known_for_department": "Acting"
    },
    {
      "id": 45749,
      "name": "Thekla Reuten",
      "profile_path": "/grsIJAo7a37SAVl3La5aaUFpVla.jpg",
      "popularity": 12.705,
      "adult": false,
      "known_for_department": "Acting"
    },
    {
      "id": 933176,
      "name": "Damien Leone",
      "profile_path": "/kr58jbtYatTS6wuAn35pg2d5YQK.jpg",
      "popularity": 12.701,
      "adult": false,
      "known_for_department": "Directing"
    },
    {
      "id": 17181,
      "name": "Ty Simpkins",
      "profile_path": "/8FyJcMFmPdCSfz2Zc5ZcAKrIorj.jpg",
      "popularity": 12.701,
      "adult": false,
      "known_for_department": "Acting"
    },
    {
      "id": 74242,
      "name": "Shea Whigham",
      "profile_path": "/d3caK3l4UfbnzOxv95wLoFLZzMO.jpg",
      "popularity": 12.699,
      "adult": false,
      "known_for_department": "Acting"
    },
    {
      "id": 7684,
      "name": "Thelma Ritter",
      "profile_path": "/6gZKUPYiAr5FJWPiR9SvSnt2Ijj.jpg",
      "popularity": 12.699,
      "adult": false,
      "known_for_department": "Acting"
    },
    {
      "id": 67690,
      "name": "Lola Forner",
      "profile_path": "/9AFUO0mRgEAoK4v2znjqYvvEdEn.jpg",
      "popularity": 12.695,
      "adult": false,
      "known_for_department": "Acting"
    },
    {
      "id": 1046143,
      "name": "Caity Lotz",
      "profile_path": "/nagw4Y9EVjCjw2r9BaXa67KjJsi.jpg",
      "popularity": 12.693,
      "adult": false,
      "known_for_department": "Acting"
    }
  ]
}