{
  "page": 228,
  "total_results": 10000,
  "total_pages": 500,
  "results": [
    {
      "id": 77462,
      "name": "Kam Heskin",
      "profile_path": "/gMcI1ImTKySqTcctF8T4rA3H7lT.jpg",
      "popularity": 11.093,
      "adult": false,
      "known_for_department": "Acting"
    },
    {
      "id": 1791508,
      "name": "Freya Parker",
      "profile_path": "/k2nXbHWHjrheQ1k4TdPpWeecGu3.jpg",
      "popularity": 11.092,
      "adult": false,
      "known_for_department": "Acting"
    },
    {
      "id": 95706,
      "name": "Laura Donnelly",
      "profile_path": "/osajwo2LqtHSLOrH3E3dTVZHP1Z.jpg",
      "popularity": 11.092,
      "adult": false,
      "known_for_department": "Acting"
    },
    {
      "id": 80757,
      "name": "Mike Tyson",
      "profile_path": "/pFbI6qiqb7GJLj6nedE7h8b3X6y.jpg",
      "popularity": 11.09,
      "adult": false,
      "known_for_department": "Acting"
    },
    {
      "id": 974317,
      "name": "Kate Upton",
      "profile_path": "/bUvvW7ypRQGtRuQs0ICuRew77z6.jpg",
      "popularity": 11.088,
      "adult": false,
      "known_for_department": "Acting"
    },
    {
      "id": 61527,
      "name": "Owain Yeoman",
      "profile_path": "/ubPMiDbNwgNhhAlDa4mIzuVZmXJ.jpg",
      "popularity": 11.088,
      "adult": false,
      "known_for_department": "Acting"
    },
    {
      "id": 1982522,
      "name": "Song Weilong",
      "profile_path": "/kpW26ZAwRLLqiS0cgjBEFAlgnUk.jpg",
      "popularity": 11.087,
      "adult": false,
      "known_for_department": "Acting"
    },
    {
      "id": 1414,
      "name": "Goro Miyazaki",
      "profile_path": "/44FdzDvvVhhiPT3xJXRLnfVgFbs.jpg",
      "popularity": 11.087,
      "adult": false,
      "known_for_department": "Directing"
    },
    {
      "id": 1637781,
      "name": "Brigette Lundy-Paine",
      "profile_path": "/88nq2n9o1e9Qjfz6rmbvfi184W.jpg",
      "popularity": 11.085,
      "adult": false,
      "known_for_department": "Acting"
    },
    {
      "id": 1090062,
      "name": "Sarah-Sofie Boussnina",
      "profile_path": "/x2ox5nJzT77qct65fl5z7hEPlPn.jpg",
      "popularity": 11.079,
      "adult": false,
      "known_for_department": "Acting"
    },
    {
      "id": 1592930,
      "name": "Christian Hillborg",
      "profile_path": "/vL48WfjEPequgRnVcLwCFkKVTN1.jpg",
      "popularity": 11.078,
      "adult": false,
      "known_for_department": "Acting"
    },
    {
      "id": 208467,
      "name": "Ian Peck",
      "profile_path": "/efEJsO8xhDdpOkWR0ArLl34B47f.jpg",
      "popularity": 11.077,
      "adult": false,
      "known_for_department": "Acting"
    },
    {
      "id": 10401,
      "name": "Blythe Danner",
      "profile_path": "/hO09OUblsKAy81L3B8LupByY51u.jpg",
      "popularity": 11.077,
      "adult": false,
      "known_for_department": "Acting"
    },
    {
      "id": 4307,
      "name": "Claude Akins",
      "profile_path": "/oBoSdz6meVMFrXN8vfaXGQAQsEa.jpg",
      "popularity": 11.076,
      "adult": false,
      "known_for_department": "Acting"
    },
    {
      "id": 32990,
      "name": "Sophie Thompson",
      "profile_path": "/tRPHovRBLwZTeWodLBqUD2arrlH.jpg",
      "popularity": 11.075,
      "adult": false,
      "known_for_department": "Acting"
    },
    {
      "id": 1556546,
      "name": "Hande Soral",
      "profile_path": "/cOxaA99Hg5ZkUWgFZjFBX5jlZmJ.jpg",
      "popularity": 11.073,
      "adult": false,
      "known_for_department": "Acting"
    },
    {
      "id": 550869,
      "name": "Megumi Kagurazaka",
      "profile_path": "/jhHsyQTLmzdsd7cJSIHUYLxFsiy.jpg",
      "popularity": 11.073,
      "adult": false,
      "known_for_department": "Acting"
    },
    {
      "id": 1197895,
      "name": "Cody Fern",
      "profile_path": "/bgxQmworCFDOnvBTgj7dTQ7CZ8O.jpg",
      "popularity": 11.071,
      "adult": false,
      "known_for_department": "Acting"
    },
    {
      "id": 106836,
      "name": "Alonna Shaw",
      "profile_path": "/mgKOOY18bTKQ0N0DL9vLPbkGKiN.jpg",
      "popularity": 11.071,
      "adult": false,
      "known_for_department": "Acting"
    },
    {
      "id": 25972,
      "name": "Melina Kanakaredes",
      "profile_path": "/wA41eJETN2U2WUE0EXBsHeIbS67.jpg",
      "popularity": 11.071,
      "adult": false,
      "known_for_department": "Acting"
    }
  ]
}