{
  "page": 145,
  "total_results": 10000,
  "total_pages": 500,
  "results": [
    {
      "id": 53926,
      "name": "Jon Heder",
      "profile_path": "/xGLRJEKKmNsDpz6MefPMU4gqQj1.jpg",
      "popularity": 13.876,
      "adult": false,
      "known_for_department": "Acting"
    },
    {
      "id": 57012,
      "name": "Fares Fares",
      "profile_path": "/dLIVOrhSO2vSDt1gz3gURXBeOaN.jpg",
      "popularity": 13.875,
      "adult": false,
      "known_for_department": "Acting"
    },
    {
      "id": 2294,
      "name": "Robert Rodriguez",
      "profile_path": "/bPqRdLWWwpOT8sBdj9PWOzNgwou.jpg",
      "popularity": 13.87,
      "adult": false,
      "known_for_department": "Directing"
    },
    {
      "id": 234982,
      "name": "Bella Heathcote",
      "profile_path": "/cVPZLFNJ1SCHCnmOi2Jmms9I0TV.jpg",
      "popularity": 13.866,
      "adult": false,
      "known_for_department": "Acting"
    },
    {
      "id": 10731,
      "name": "Anna Chancellor",
      "profile_path": "/gKU8hHdC45q9WpYy4SeNLEhPwtK.jpg",
      "popularity": 13.866,
      "adult": false,
      "known_for_department": "Acting"
    },
    {
      "id": 213394,
      "name": "Matthew Beard",
      "profile_path": "/bB98Y1MkIlwJBWIlR17hd6Jwxwd.jpg",
      "popularity": 13.865,
      "adult": false,
      "known_for_department": "Acting"
    },
    {
      "id": 56124,
      "name": "William Zabka",
      "profile_path": "/AoTxNif6Kv5KtIk3YdfQUxLrLeR.jpg",
      "popularity": 13.864,
      "adult": false,
      "known_for_department": "Acting"
    },
    {
      "id": 2117890,
      "name": "Byeon Woo-seok",
      "profile_path": "/zncWneej0zzw340EimyM39EWVvj.jpg",
      "popularity": 13.862,
      "adult": false,
      "known_for_department": "Acting"
    },
    {
      "id": 238333,
      "name": "Eve Torres",
      "profile_path": "/fWGRQi2TPCLrGw9PfS5lFIA7JvC.jpg",
      "popularity": 13.859,
      "adult": false,
      "known_for_department": "Acting"
    },
    {
      "id": 16848,
      "name": "Rob Zombie",
      "profile_path": "/kkl4gjIJ1pyEJhNp2B2HricD2v7.jpg",
      "popularity": 13.859,
      "adult": false,
      "known_for_department": "Acting"
    },
    {
      "id": 229031,
      "name": "Peyton List",
      "profile_path": "/b1rEqHlkyHwRtockTE7WQNLyu9t.jpg",
      "popularity": 13.858,
      "adult": false,
      "known_for_department": "Acting"
    },
    {
      "id": 23891,
      "name": "Ryan Kelley",
      "profile_path": "/dn7R7p0YIY3VjCIRwIzRrEuwPwq.jpg",
      "popularity": 13.858,
      "adult": false,
      "known_for_department": "Acting"
    },
    {
      "id": 15761,
      "name": "Grey DeLisle",
      "profile_path": "/anib3yRL9GyUvTkYNHWxQPlXLUH.jpg",
      "popularity": 13.856,
      "adult": false,
      "known_for_department": "Acting"
    },
    {
      "id": 42279,
      "name": "Laura Fraser",
      "profile_path": "/4aD3xDLA22CIf6jdK0IAs75h8pp.jpg",
      "popularity": 13.852,
      "adult": false,
      "known_for_department": "Acting"
    },
    {
      "id": 26042,
      "name": "Jerry Stiller",
      "profile_path": "/eGymLHTpIyxKyBjACsNTpEof6y4.jpg",
      "popularity": 13.851,
      "adult": false,
      "known_for_department": "Acting"
    },
    {
      "id": 5442,
      "name": "Benoît Magimel",
      "profile_path": "/1CjzWis6gQn3scuwbTHZ6aPNwHB.jpg",
      "popularity": 13.849,
      "adult": false,
      "known_for_department": "Acting"
    },
    {
      "id": 1146,
      "name": "Julie Delpy",
      "profile_path": "/rd40f4QpAUUne3hMaUhHrZtcK2c.jpg",
      "popularity": 13.847,
      "adult": false,
      "known_for_department": "Acting"
    },
    {
      "id": 182272,
      "name": "Cynthia Addai-Robinson",
      "profile_path": "/5eZAiWHtgiECm666CRemqMYdOlj.jpg",
      "popularity": 13.846,
      "adult": false,
      "known_for_department": "Acting"
    },
    {
      "id": 236048,
      "name": "Rosie Huntington-Whiteley",
      "profile_path": "/oq5iX2VoLGF41P5DmNDNJcczESR.jpg",
      "popularity": 13.845,
      "adult": false,
      "known_for_department": "Acting"
    },
    {
      "id": 237363,
      "name": "Kento Nagayama",
      "profile_path": "/tSsX1Qhv9J5ldy8Ug1ZIqHhYe6j.jpg",
      "popularity": 13.844,
      "adult": false,
      "known_for_department": "Acting"
    }
  ]
}