{
  "page": 440,
  "total_results": 10000,
  "total_pages": 500,
  "results": [
    {
      "id": 22109,
      "name": "Peter Firth",
      "profile_path": "/o7zbRKlhY8v9mhxyBvAwou7l200.jpg",
      "popularity": 7.814,
      "adult": false,
      "known_for_department": "Acting"
    },
    {
      "id": 2001929,
      "name": "Yoo Ra-seong",
      "profile_path": "/5FVhkw5rDdsLZGuxgoJRXYdR7CB.jpg",
      "popularity": 7.812,
      "adult": false,
      "known_for_department": "Acting"
    },
    {
      "id": 49767,
      "name": "Frederick Lau",
      "profile_path": "/4ukrX8OPPsD06YMFoTL00uZrwa4.jpg",
      "popularity": 7.81,
      "adult": false,
      "known_for_department": "Acting"
    },
    {
      "id": 33732,
      "name": "Taiji Tonoyama",
      "profile_path": "/eVIF2uqsVW7hoV0FYvgKnS2dJfU.jpg",
      "popularity": 7.81,
      "adult": false,
      "known_for_department": "Acting"
    },
    {
      "id": 1598773,
      "name": "Paras Patel",
      "profile_path": "/vDgwrSU4TplIaGA2MRr4CJDFOJd.jpg",
      "popularity": 7.807,
      "adult": false,
      "known_for_department": "Acting"
    },
    {
      "id": 1488591,
      "name": "Atomu Mizuishi",
      "profile_path": "/jdTBbkd7zppcFmPDDGVS5YFtGMy.jpg",
      "popularity": 7.806,
      "adult": false,
      "known_for_department": "Acting"
    },
    {
      "id": 1503534,
      "name": "Elise Bauman",
      "profile_path": "/l0bBpYsBjPWNfUEwS9SsaxMp8H7.jpg",
      "popularity": 7.805,
      "adult": false,
      "known_for_department": "Acting"
    },
    {
      "id": 1029251,
      "name": "Rin Asuka",
      "profile_path": "/mFiaudQwymV6BsSN0RyawLQ14UV.jpg",
      "popularity": 7.805,
      "adult": false,
      "known_for_department": "Acting"
    },
    {
      "id": 1560244,
      "name": "Anthony Ramos",
      "profile_path": "/2Stnm8PQI7xHkVwINb4MhS7LOuR.jpg",
      "popularity": 7.804,
      "adult": false,
      "known_for_department": "Acting"
    },
    {
      "id": 81092,
      "name": "Asin Thottumkal",
      "profile_path": "/86oUMGp7lPZtKiAUhdoQgM9QtDp.jpg",
      "popularity": 7.804,
      "adult": false,
      "known_for_department": "Acting"
    },
    {
      "id": 1392625,
      "name": "Kate Phillips",
      "profile_path": "/b8u5SAMAg0p1x7D4wXbr8F1JWJT.jpg",
      "popularity": 7.803,
      "adult": false,
      "known_for_department": "Acting"
    },
    {
      "id": 272279,
      "name": "Ivan Pelttser",
      "profile_path": "/5LOAQTFEsYXPbN9nw1tUUSuEm9u.jpg",
      "popularity": 7.802,
      "adult": false,
      "known_for_department": "Acting"
    },
    {
      "id": 82885,
      "name": "Zoe Lister-Jones",
      "profile_path": "/wqWdH8rdlPTIk8B81aWiABlcNKg.jpg",
      "popularity": 7.802,
      "adult": false,
      "known_for_department": "Acting"
    },
    {
      "id": 44831,
      "name": "Carrie Snodgress",
      "profile_path": "/5Bygw37FqX7qeuNTRycGIKFcaCj.jpg",
      "popularity": 7.802,
      "adult": false,
      "known_for_department": "Acting"
    },
    {
      "id": 20960,
      "name": "Rob Estes",
      "profile_path": "/b24y5Tv4A8DUjkfYpJ1l1qpkhyv.jpg",
      "popularity": 7.802,
      "adult": false,
      "known_for_department": "Acting"
    },
    {
      "id": 3125,
      "name": "Madonna",
      "profile_path": "/kpZhOceJy9p2km0JTy3ojSp9zEc.jpg",
      "popularity": 7.802,
      "adult": false,
      "known_for_department": "Acting"
    },
    {
      "id": 1960997,
      "name": "Christopher Convery",
      "profile_path": "/xUGbUC15au8walzf6zphqC0YImH.jpg",
      "popularity": 7.801,
      "adult": false,
      "known_for_department": "Acting"
    },
    {
      "id": 1919754,
      "name": "Mio Imada",
      "profile_path": "/f7gPq6gv3LDrs3eN0FJY5hGpfyG.jpg",
      "popularity": 7.801,
      "adult": false,
      "known_for_department": "Acting"
    },
    {
      "id": 136530,
      "name": "Mark Valley",
      "profile_path": "/ffHfLKffDbh2BzGUE0KM88TvoYF.jpg",
      "popularity": 7.801,
      "adult": false,
      "known_for_department": "Acting"
    },
    {
      "id": 5417,
      "name": "Carsten Norgaard",
      "profile_path": "/yFzJHQOi1BQeySsRKXj4k0fwnZ7.jpg",
      "popularity": 7.801,
      "adult": false,
      "known_for_department": "Acting"
    }
  ]
}