{
  "page": 7,
  "total_results": 10000,
  "total_pages": 500,
  "results": [
    {
      "id": 3051,
      "name": "Toni Collette",
      "profile_path": "/lzXRh16qe4HHeBN6tMyw0DHvaMn.jpg",
      "popularity": 53.455,
      "adult": false,
      "known_for_department": "Acting"
    },
    {
      "id": 17419,
      "name": "Bryan Cranston",
      "profile_path": "/7Jahy5LZX2Fo8fGJltMreAI49hC.jpg",
      "popularity": 53.418,
      "adult": false,
      "known_for_department": "Acting"
    },
    {
      "id": 192,
      "name": "Morgan Freeman",
      "profile_path": "/905k0RFzH0Kd6gx8oSxRdnr6FL.jpg",
      "popularity": 53.389,
      "adult": false,
      "known_for_department": "Acting"
    },
    {
      "id": 11288,
      "name": "Robert Pattinson",
      "profile_path": "/6RVxNlNmc0DIfZzaJKCJM43If3M.jpg",
      "popularity": 53.204,
      "adult": false,
      "known_for_department": "Acting"
    },
    {
      "id": 1253360,
      "name": "Pedro Pascal",
      "profile_path": "/dBOrm29cr7NUrjiDQMTtrTyDpfy.jpg",
      "popularity": 53.166,
      "adult": false,
      "known_for_department": "Acting"
    },
    {
      "id": 6193,
      "name": "Leonardo DiCaprio",
      "profile_path": "/wo2hJpn04vbtmh0B9utCFdsQhxM.jpg",
      "popularity": 53.037,
      "adult": false,
      "known_for_department": "Acting"
    },
    {
      "id": 1424363,
      "name": "Eden Brolin",
      "profile_path": "/z64sPFRx1IomrKZvkRF8GLwCvag.jpg",
      "popularity": 52.782,
      "adult": false,
      "known_for_department": "Acting"
    },
    {
      "id": 25837,
      "name": "Elisha Cuthbert",
      "profile_path": "/ym30LsFVLBFYkZ2eQvcraajSYCE.jpg",
      "popularity": 52.678,
      "adult": false,
      "known_for_department": "Acting"
    },
    {
      "id": 2963,
      "name": "Nicolas Cage",
      "profile_path": "/ar33qcWbEgREn07ZpXv5Pbj8hbM.jpg",
      "popularity": 52.498,
      "adult": false,
      "known_for_department": "Acting"
    },
    {
      "id": 5292,
      "name": "Denzel Washington",
      "profile_path": "/AHUnhGbnWnjin4M2sNdZYAei9h.jpg",
      "popularity": 52.492,
      "adult": false,
      "known_for_department": "Acting"
    },
    {
      "id": 3371806,
      "name": "Rob Guinto",
      "profile_path": "/gYs7kSFwr89BOHG2rxEOet17C2y.jpg",
      "popularity": 52.405,
      "adult": false,
      "known_for_department": "Acting"
    },
    {
      "id": 17735,
      "name": "Mike White",
      "profile_path": "/eJpW9GKmWh0W7enmjjZQ8MIEzoI.jpg",
      "popularity": 52.094,
      "adult": false,
      "known_for_department": "Acting"
    },
    {
      "id": 115150,
      "name": "Kaya Scodelario",
      "profile_path": "/uVp7VarM5GX08hfCEGt63OM5c5c.jpg",
      "popularity": 51.977,
      "adult": false,
      "known_for_department": "Acting"
    },
    {
      "id": 20,
      "name": "Elizabeth Perkins",
      "profile_path": "/vTWYllD9V76rgv9XAbtkkjjeunG.jpg",
      "popularity": 51.964,
      "adult": false,
      "known_for_department": "Acting"
    },
    {
      "id": 115440,
      "name": "Sydney Sweeney",
      "profile_path": "/lwuFGAL8Vpy0seLgzJqhJcke3py.jpg",
      "popularity": 51.756,
      "adult": false,
      "known_for_department": "Acting"
    },
    {
      "id": 25072,
      "name": "Oscar Isaac",
      "profile_path": "/mt11usKbDvaV0OgYJVO1xWJ4Mti.jpg",
      "popularity": 51.721,
      "adult": false,
      "known_for_department": "Acting"
    },
    {
      "id": 1283,
      "name": "Helena Bonham Carter",
      "profile_path": "/DDeITcCpnBd0CkAIRPhggy9bt5.jpg",
      "popularity": 51.633,
      "adult": false,
      "known_for_department": "Acting"
    },
    {
      "id": 123725,
      "name": "Abigail Spencer",
      "profile_path": "/ka5RVER07tqrkD25C7p7FKYgwJJ.jpg",
      "popularity": 51.579,
      "adult": false,
      "known_for_department": "Acting"
    },
    {
      "id": 5469,
      "name": "Ralph Fiennes",
      "profile_path": "/tJr9GcmGNHhLVVEH3i7QYbj6hBi.jpg",
      "popularity": 51.489,
      "adult": false,
      "known_for_department": "Acting"
    },
    {
      "id": 15735,
      "name": "Helen Mirren",
      "profile_path": "/1reKRrsdsHXJaRVHVyOEg4oPTcZ.jpg",
      "popularity": 51.146,
      "adult": false,
      "known_for_department": "Acting"
    }
  ]
}