{
  "page": 68,
  "total_results": 10000,
  "total_pages": 500,
  "results": [
    {
      "id": 3381,
      "name": "Glenn Ford",
      "profile_path": "/5HGIsOVaVwlc4brv7IdVJ7ncEZ5.jpg",
      "popularity": 18.332,
      "adult": false,
      "known_for_department": "Acting"
    },
    {
      "id": 2878,
      "name": "C. Thomas Howell",
      "profile_path": "/739YbFWpAYyo9neHvBGThgmT4YH.jpg",
      "popularity": 18.31,
      "adult": false,
      "known_for_department": "Acting"
    },
    {
      "id": 980,
      "name": "Vinnie Jones",
      "profile_path": "/tkYWG9gY2QpoBfOh4OWNz8yQfsw.jpg",
      "popularity": 18.308,
      "adult": false,
      "known_for_department": "Acting"
    },
    {
      "id": 1253353,
      "name": "Noah Centineo",
      "profile_path": "/p1bcst401RyxfDGykx2iQLI7CV5.jpg",
      "popularity": 18.306,
      "adult": false,
      "known_for_department": "Acting"
    },
    {
      "id": 1609347,
      "name": "Alex Høgh Andersen",
      "profile_path": "/wqtvSvC80cSbFCExptqC2s1DZO5.jpg",
      "popularity": 18.305,
      "adult": false,
      "known_for_department": "Acting"
    },
    {
      "id": 1039525,
      "name": "Lili Simmons",
      "profile_path": "/h1X7C95cwYoDX45Fe4Zk6KzIhCV.jpg",
      "popularity": 18.29,
      "adult": false,
      "known_for_department": "Acting"
    },
    {
      "id": 18331,
      "name": "Nancy Travis",
      "profile_path": "/8NVTIgCYB6H0GrAwNPLwdU92pdt.jpg",
      "popularity": 18.286,
      "adult": false,
      "known_for_department": "Acting"
    },
    {
      "id": 73249,
      "name": "Lee Jung-jae",
      "profile_path": "/3h5Cfm0X8ohWn7psZkqdNWqXAHH.jpg",
      "popularity": 18.279,
      "adult": false,
      "known_for_department": "Acting"
    },
    {
      "id": 91520,
      "name": "Michiel Huisman",
      "profile_path": "/y33jnMTqHaAMabZwy9BeE1TYZ00.jpg",
      "popularity": 18.278,
      "adult": false,
      "known_for_department": "Acting"
    },
    {
      "id": 1159,
      "name": "Steven Bauer",
      "profile_path": "/wWIgfXMRyGFKBWhV9yc8CObNqfh.jpg",
      "popularity": 18.277,
      "adult": false,
      "known_for_department": "Acting"
    },
    {
      "id": 54415,
      "name": "Josh Gad",
      "profile_path": "/17iKlfWZBDTAucqjkhRKHr9xjIz.jpg",
      "popularity": 18.274,
      "adult": false,
      "known_for_department": "Acting"
    },
    {
      "id": 1398879,
      "name": "Karen Pittman",
      "profile_path": "/8W9WXyloWrBmOUURLvEWYR8WrMy.jpg",
      "popularity": 18.265,
      "adult": false,
      "known_for_department": "Acting"
    },
    {
      "id": 1925,
      "name": "Vincent Cassel",
      "profile_path": "/ykBEiVh6YQ9UmMAYUiQkZBH3VV4.jpg",
      "popularity": 18.265,
      "adult": false,
      "known_for_department": "Acting"
    },
    {
      "id": 5606,
      "name": "Sissy Spacek",
      "profile_path": "/xAxenjxjLNQFq4v1ccS2to3Mnoq.jpg",
      "popularity": 18.264,
      "adult": false,
      "known_for_department": "Acting"
    },
    {
      "id": 1438264,
      "name": "Leo Wu",
      "profile_path": "/nCTRZdbRHr3MoSTuhPLw9tcBfI8.jpg",
      "popularity": 18.258,
      "adult": false,
      "known_for_department": "Acting"
    },
    {
      "id": 34502,
      "name": "Kellan Lutz",
      "profile_path": "/pLzdFABlU6oS2BvlHlAN990woY1.jpg",
      "popularity": 18.257,
      "adult": false,
      "known_for_department": "Acting"
    },
    {
      "id": 9206,
      "name": "Neve Campbell",
      "profile_path": "/9fDbXBbrM6L10YrzDJUJowDt8U.jpg",
      "popularity": 18.257,
      "adult": false,
      "known_for_department": "Acting"
    },
    {
      "id": 1465528,
      "name": "Angela White",
      "profile_path": "/sWI6etyiCVOToC3WLG5XELmeLvM.jpg",
      "popularity": 18.255,
      "adult": false,
      "known_for_department": "Acting"
    },
    {
      "id": 1716585,
      "name": "Siri Skjeggedal",
      "profile_path": "/mUPPqoYzMcvmSPef7lVCfbAIho2.jpg",
      "popularity": 18.251,
      "adult": false,
      "known_for_department": "Acting"
    },
    {
      "id": 1217003,
      "name": "Dana Barron",
      "profile_path": "/z6HwYRN4h9CpjjyyM3rBc4KYN6D.jpg",
      "popularity": 18.251,
      "adult": false,
      "known_for_department": "Acting"
    }
  ]
}