{
  "page": 277,
  "total_results": 10000,
  "total_pages": 500,
  "results": [
    {
      "id": 80998,
      "name": "Yuliya Snigir",
      "profile_path": "/8yOAGFm6X4Xw5DrWPRZRXM49Eix.jpg",
      "popularity": 11.192,
      "adult": false,
      "known_for_department": "Acting"
    },
    {
      "id": 25251,
      "name": "Lam Suet",
      "profile_path": "/5ZvphtA3dwsDu81lF3TV8rIwt4l.jpg",
      "popularity": 11.192,
      "adult": false,
      "known_for_department": "Acting"
    },
    {
      "id": 1588454,
      "name": "Manon Azem",
      "profile_path": "/81ZofzaZlQ4XKOR9PklmJKEdhcA.jpg",
      "popularity": 11.19,
      "adult": false,
      "known_for_department": "Acting"
    },
    {
      "id": 20220,
      "name": "Elden Henson",
      "profile_path": "/f4oYBfzNTgZUbp8B15rkmYAzdy5.jpg",
      "popularity": 11.19,
      "adult": false,
      "known_for_department": "Acting"
    },
    {
      "id": 10779,
      "name": "David Calder",
      "profile_path": "/7l4WZ0IufRCx3A0AHwRAH7K2Ccz.jpg",
      "popularity": 11.19,
      "adult": false,
      "known_for_department": "Acting"
    },
    {
      "id": 1248450,
      "name": "Cha Seung-won",
      "profile_path": "/11OJGJJ1PUbEVwdbZguuC98hzN1.jpg",
      "popularity": 11.189,
      "adult": false,
      "known_for_department": "Acting"
    },
    {
      "id": 71403,
      "name": "Rob Riggle",
      "profile_path": "/hQgOp8vWxl6KPZbqzKSSL4k6G1j.jpg",
      "popularity": 11.189,
      "adult": false,
      "known_for_department": "Acting"
    },
    {
      "id": 70903,
      "name": "Marc Warren",
      "profile_path": "/sIsnids6kyarj8QjMrlA1j9p08n.jpg",
      "popularity": 11.188,
      "adult": false,
      "known_for_department": "Acting"
    },
    {
      "id": 1609481,
      "name": "Seth Carr",
      "profile_path": "/mnllWIQF1QDXvCUoatxi0crMBTx.jpg",
      "popularity": 11.187,
      "adult": false,
      "known_for_department": "Acting"
    },
    {
      "id": 43476,
      "name": "Chloe Webb",
      "profile_path": "/7ylnbM8jTG0WQ3oFFaG0VuEJxnb.jpg",
      "popularity": 11.187,
      "adult": false,
      "known_for_department": "Acting"
    },
    {
      "id": 1108117,
      "name": "Sidharth Malhotra",
      "profile_path": "/ms0za8rU7SwBOboUc0G9jRLC1VW.jpg",
      "popularity": 11.186,
      "adult": false,
      "known_for_department": "Acting"
    },
    {
      "id": 87669,
      "name": "Alexie Gilmore",
      "profile_path": "/1Ev9eTuu8bL6t8xzfqchZm4wSfI.jpg",
      "popularity": 11.186,
      "adult": false,
      "known_for_department": "Acting"
    },
    {
      "id": 34199,
      "name": "Thomas Dekker",
      "profile_path": "/vO72HH4PfesrCwEioBJn2gR6ebC.jpg",
      "popularity": 11.186,
      "adult": false,
      "known_for_department": "Acting"
    },
    {
      "id": 1838200,
      "name": "Zhu Xudan",
      "profile_path": "/kYBfRkAPD3gSuYYRViLfFdSTGlM.jpg",
      "popularity": 11.185,
      "adult": false,
      "known_for_department": "Acting"
    },
    {
      "id": 1168909,
      "name": "Nao Toyama",
      "profile_path": "/1tl5iuYb2VvCfTzC9iPaBxASrXs.jpg",
      "popularity": 11.183,
      "adult": false,
      "known_for_department": "Acting"
    },
    {
      "id": 119426,
      "name": "Yuen Qiu",
      "profile_path": "/5S70RuTmpHXCcyZNzx1sTjamOKw.jpg",
      "popularity": 11.183,
      "adult": false,
      "known_for_department": "Acting"
    },
    {
      "id": 67004,
      "name": "Anneke von der Lippe",
      "profile_path": "/wAvLqJqsBAVMLanBTfvs4AJm5nL.jpg",
      "popularity": 11.18,
      "adult": false,
      "known_for_department": "Acting"
    },
    {
      "id": 18346,
      "name": "Rae'Ven Larrymore Kelly",
      "profile_path": "/bJGMNfhDyzAVh1cy9Yoi6dGvlES.jpg",
      "popularity": 11.18,
      "adult": false,
      "known_for_department": "Acting"
    },
    {
      "id": 19119,
      "name": "Mélanie Laurent",
      "profile_path": "/i99ogEo4gQyanCmHWYYoS6hsUqL.jpg",
      "popularity": 11.179,
      "adult": false,
      "known_for_department": "Acting"
    },
    {
      "id": 1960,
      "name": "Alexandre Sterling",
      "profile_path": "/cKiLYG2x6X17ozXPJD25hxG2lnC.jpg",
      "popularity": 11.179,
      "adult": false,
      "known_for_department": "Acting"
    }
  ]
}