{
  "page": 268,
  "total_results": 10000,
  "total_pages": 500,
  "results": [
    {
      "id": 582051,
      "name": "Frederikke Dahl Hansen",
      "profile_path": "/6LSQFl8ywMKrwlmeGU3H842ejek.jpg",
      "popularity": 9.668,
      "adult": false,
      "known_for_department": "Acting"
    },
    {
      "id": 1855299,
      "name": "Xing Zhaolin",
      "profile_path": "/8UPCvdZggQhuzCGkXvSOJ8EMqdI.jpg",
      "popularity": 9.667,
      "adult": false,
      "known_for_department": "Acting"
    },
    {
      "id": 591519,
      "name": "Laura Spencer",
      "profile_path": "/gaAIgczfFhGl1SSHijO6ZytEGjX.jpg",
      "popularity": 9.667,
      "adult": false,
      "known_for_department": "Acting"
    },
    {
      "id": 489467,
      "name": "Jack Gleeson",
      "profile_path": "/uhSnpvrZ5TMnUmfRmZGn2VeVB89.jpg",
      "popularity": 9.667,
      "adult": false,
      "known_for_department": "Acting"
    },
    {
      "id": 89883,
      "name": "Rie Tanaka",
      "profile_path": "/wBWsjzwpFovyHDv027zU0oZyWHd.jpg",
      "popularity": 9.667,
      "adult": false,
      "known_for_department": "Acting"
    },
    {
      "id": 12967,
      "name": "Swoosie Kurtz",
      "profile_path": "/sISOxpV6zn3EfC5uKVsX7s9xLBf.jpg",
      "popularity": 9.666,
      "adult": false,
      "known_for_department": "Acting"
    },
    {
      "id": 232396,
      "name": "Max Irons",
      "profile_path": "/8TRKWEEQr6GreyrAQ8AWZo4jWjS.jpg",
      "popularity": 9.665,
      "adult": false,
      "known_for_department": "Acting"
    },
    {
      "id": 38670,
      "name": "Camilla Belle",
      "profile_path": "/kYhpuTi1E3IvdHAmuijjth0lQNS.jpg",
      "popularity": 9.665,
      "adult": false,
      "known_for_department": "Acting"
    },
    {
      "id": 80607,
      "name": "Yoko Shimada",
      "profile_path": "/n4TCVSXaweXn2YbFXYAKTyOH7EO.jpg",
      "popularity": 9.662,
      "adult": false,
      "known_for_department": "Acting"
    },
    {
      "id": 10843,
      "name": "Luke Goss",
      "profile_path": "/umjHJpsrNxxDqUxGyvLAaR1oub0.jpg",
      "popularity": 9.661,
      "adult": false,
      "known_for_department": "Acting"
    },
    {
      "id": 1401531,
      "name": "Claudia Kim",
      "profile_path": "/kLADYH3QpmFM6TEP2tZaGSVx1yi.jpg",
      "popularity": 9.66,
      "adult": false,
      "known_for_department": "Acting"
    },
    {
      "id": 13309,
      "name": "Oprah Winfrey",
      "profile_path": "/nNpYieaDLxKZWw2FY9wsDkjwURu.jpg",
      "popularity": 9.66,
      "adult": false,
      "known_for_department": "Acting"
    },
    {
      "id": 52908,
      "name": "Collin Chou",
      "profile_path": "/tXZmRt3kp0wknv9jM2WLIf2W7EX.jpg",
      "popularity": 9.659,
      "adult": false,
      "known_for_department": "Acting"
    },
    {
      "id": 1074716,
      "name": "Julia Piaton",
      "profile_path": "/3xwRjwlYdmX6NWlnZvZgw8HeB8w.jpg",
      "popularity": 9.657,
      "adult": false,
      "known_for_department": "Acting"
    },
    {
      "id": 1254936,
      "name": "Zeyno Eracar",
      "profile_path": "/iq5YvCCM7mZPYCq6CSdspXAMe5a.jpg",
      "popularity": 9.654,
      "adult": false,
      "known_for_department": "Acting"
    },
    {
      "id": 966053,
      "name": "Lorraine Nicholson",
      "profile_path": "/2Qi2L3JFvx873XAXyftn4z3WhAU.jpg",
      "popularity": 9.654,
      "adult": false,
      "known_for_department": "Acting"
    },
    {
      "id": 116088,
      "name": "Logan Miller",
      "profile_path": "/y3l1yJQw2Jqp8yqBTbwBytM5gVw.jpg",
      "popularity": 9.654,
      "adult": false,
      "known_for_department": "Acting"
    },
    {
      "id": 117081,
      "name": "Teresa Ganzel",
      "profile_path": "/8ZFhsWrzxBrewduX8X6rRNQWpLw.jpg",
      "popularity": 9.653,
      "adult": false,
      "known_for_department": "Acting"
    },
    {
      "id": 15863,
      "name": "Don S. Davis",
      "profile_path": "/gxUvCXIFxAMqcWgosErBP5rHKDw.jpg",
      "popularity": 9.653,
      "adult": false,
      "known_for_department": "Acting"
    },
    {
      "id": 1178489,
      "name": "Taisiya Vilkova",
      "profile_path": "/bgDcRRkoNFY6OJ5jTEKg7xKSVqH.jpg",
      "popularity": 9.652,
      "adult": false,
      "known_for_department": "Acting"
    }
  ]
}