{
  "page": 174,
  "total_results": 10000,
  "total_pages": 500,
  "results": [
    {
      "id": 1258747,
      "name": "Eda Ece",
      "profile_path": "/kEBGhW3mhNKJReKYEYTQlSH6R3S.jpg",
      "popularity": 11.046,
      "adult": false,
      "known_for_department": "Acting"
    },
    {
      "id": 8252,
      "name": "William Holden",
      "profile_path": "/eMdXRtJVvescfdxHAINVf7dcpAV.jpg",
      "popularity": 11.041,
      "adult": false,
      "known_for_department": "Acting"
    },
    {
      "id": 58692,
      "name": "Melinda McGraw",
      "profile_path": "/thG0lL7maozskCZHaa5iK4gBgg7.jpg",
      "popularity": 11.04,
      "adult": false,
      "known_for_department": "Acting"
    },
    {
      "id": 38025,
      "name": "Kristin Davis",
      "profile_path": "/ykLp5sQ0BLakYsDlLZ4SoHzB8CG.jpg",
      "popularity": 11.04,
      "adult": false,
      "known_for_department": "Acting"
    },
    {
      "id": 1334653,
      "name": "Jedidiah Goodacre",
      "profile_path": "/c7XLTdVJwjnwaHdkWxN3Ykg7uOM.jpg",
      "popularity": 11.038,
      "adult": false,
      "known_for_department": "Acting"
    },
    {
      "id": 68122,
      "name": "Tim Daly",
      "profile_path": "/kopvWgVG3K58JycR3oY4GB6SJqZ.jpg",
      "popularity": 11.035,
      "adult": false,
      "known_for_department": "Acting"
    },
    {
      "id": 12640,
      "name": "David Duchovny",
      "profile_path": "/kFuB7QQ35SwMwWdiTGSDQdkxnsT.jpg",
      "popularity": 11.032,
      "adult": false,
      "known_for_department": "Acting"
    },
    {
      "id": 8977,
      "name": "Craig T. Nelson",
      "profile_path": "/rMh8qdexFKmc7mq7oLzsLLvCCjs.jpg",
      "popularity": 11.031,
      "adult": false,
      "known_for_department": "Acting"
    },
    {
      "id": 56830,
      "name": "Brigitte Lin",
      "profile_path": "/8Nq6F8bPy1HUHl4HkNIF0YGW1xD.jpg",
      "popularity": 11.028,
      "adult": false,
      "known_for_department": "Acting"
    },
    {
      "id": 49706,
      "name": "Adam Rodríguez",
      "profile_path": "/qFSbLvyNPZK40hY9gZXJDvq0qVK.jpg",
      "popularity": 11.024,
      "adult": false,
      "known_for_department": "Acting"
    },
    {
      "id": 9145,
      "name": "James Callis",
      "profile_path": "/dLmmQU5hA0J6Jxi20aS8kdN6k3o.jpg",
      "popularity": 11.024,
      "adult": false,
      "known_for_department": "Acting"
    },
    {
      "id": 238164,
      "name": "Jóhannes Haukur Jóhannesson",
      "profile_path": "/oqZftP0WS1rD5NFpR7vLp6JU52I.jpg",
      "popularity": 11.023,
      "adult": false,
      "known_for_department": "Acting"
    },
    {
      "id": 11090,
      "name": "Edgar Wright",
      "profile_path": "/dQzv5Ml2SkelS33hgl7E2oh0a9S.jpg",
      "popularity": 11.023,
      "adult": false,
      "known_for_department": "Directing"
    },
    {
      "id": 26107,
      "name": "Alba Gaïa Bellugi",
      "profile_path": "/uLwwFxJqXFrFE8ThqUtjZ5UCgN3.jpg",
      "popularity": 11.021,
      "adult": false,
      "known_for_department": "Acting"
    },
    {
      "id": 89819,
      "name": "Zachary Gordon",
      "profile_path": "/q7HWs7XsPrXbzRqpp087gHaI6cI.jpg",
      "popularity": 11.019,
      "adult": false,
      "known_for_department": "Acting"
    },
    {
      "id": 74932,
      "name": "Paige Turco",
      "profile_path": "/k1GyxA5YmN5qUpH5YzIe2zAoGgP.jpg",
      "popularity": 11.019,
      "adult": false,
      "known_for_department": "Acting"
    },
    {
      "id": 1115068,
      "name": "Mei Nagano",
      "profile_path": "/zI30FzyetpAENTcADmswChoKZlz.jpg",
      "popularity": 11.012,
      "adult": false,
      "known_for_department": "Acting"
    },
    {
      "id": 71198,
      "name": "Christian Kane",
      "profile_path": "/bHQDqGBW2yCEsHlNMkmJpQA9lDr.jpg",
      "popularity": 11.012,
      "adult": false,
      "known_for_department": "Acting"
    },
    {
      "id": 20275,
      "name": "Sarita Choudhury",
      "profile_path": "/pABEOxQAns54tHpxN2w73b7SiPB.jpg",
      "popularity": 11.01,
      "adult": false,
      "known_for_department": "Acting"
    },
    {
      "id": 1506301,
      "name": "Aglaya Tarasova",
      "profile_path": "/bmU2fLehITGUOdFyPNAM1B9QFqw.jpg",
      "popularity": 11.004,
      "adult": false,
      "known_for_department": "Acting"
    }
  ]
}