{
  "page": 470,
  "total_results": 10000,
  "total_pages": 500,
  "results": [
    {
      "id": 2115351,
      "name": "Benjamin Wadsworth",
      "profile_path": "/smNGeAw59reyB1btRIQOaxgbLZ4.jpg",
      "popularity": 8.193,
      "adult": false,
      "known_for_department": "Acting"
    },
    {
      "id": 1423441,
      "name": "Quincy Brown",
      "profile_path": "/7wGlGqE0htyR2stUUn85LmSyFTD.jpg",
      "popularity": 8.193,
      "adult": false,
      "known_for_department": "Acting"
    },
    {
      "id": 1182598,
      "name": "Hayley Squires",
      "profile_path": "/ezkiqInQHZVlOnwOka8gE9wEtDI.jpg",
      "popularity": 8.193,
      "adult": false,
      "known_for_department": "Acting"
    },
    {
      "id": 104482,
      "name": "James Martinez",
      "profile_path": "/nD2Alcz1mjb5hpvNKPZqYiqmZBI.jpg",
      "popularity": 8.193,
      "adult": false,
      "known_for_department": "Acting"
    },
    {
      "id": 85176,
      "name": "Bridgit Mendler",
      "profile_path": "/8ZsU2RQpzUZ8580tkctAgU7nuXI.jpg",
      "popularity": 8.193,
      "adult": false,
      "known_for_department": "Acting"
    },
    {
      "id": 87312,
      "name": "James Parks",
      "profile_path": "/5ZunnUnhjT1FeKf0j7ONog30fis.jpg",
      "popularity": 8.192,
      "adult": false,
      "known_for_department": "Acting"
    },
    {
      "id": 1222312,
      "name": "Ariel Lin",
      "profile_path": "/hFzUAwsQcz2nLw6BIjwSjDNPFtb.jpg",
      "popularity": 8.191,
      "adult": false,
      "known_for_department": "Acting"
    },
    {
      "id": 1046862,
      "name": "Song Ha-yoon",
      "profile_path": "/mUnOrOzzq2pplkjpWHhII1h474i.jpg",
      "popularity": 8.191,
      "adult": false,
      "known_for_department": "Acting"
    },
    {
      "id": 122423,
      "name": "Yorgos Lanthimos",
      "profile_path": "/eK2RB0nSEmB6RVSbHB2b6v0Nuip.jpg",
      "popularity": 8.191,
      "adult": false,
      "known_for_department": "Directing"
    },
    {
      "id": 2514,
      "name": "Michael Piller",
      "profile_path": "/gRVdvhnkO93FBIq4GuIWcw5scmD.jpg",
      "popularity": 8.191,
      "adult": false,
      "known_for_department": "Writing"
    },
    {
      "id": 101854,
      "name": "Ewen Solon",
      "profile_path": "/daipxVmwHowJhRi4fa7dfR4XLAS.jpg",
      "popularity": 8.189,
      "adult": false,
      "known_for_department": "Acting"
    },
    {
      "id": 1491814,
      "name": "Maksim Emelyanov",
      "profile_path": "/6jCzt55hhbdarJQuOmgVcrwpTTH.jpg",
      "popularity": 8.187,
      "adult": false,
      "known_for_department": "Acting"
    },
    {
      "id": 930674,
      "name": "Alican Yücesoy",
      "profile_path": "/t8tH13cmE5ZNHfFT0BSBz83JTU3.jpg",
      "popularity": 8.187,
      "adult": false,
      "known_for_department": "Acting"
    },
    {
      "id": 33492,
      "name": "Robert Costanzo",
      "profile_path": "/6HZSkvBcorNRTrHCDgBiSFms4OJ.jpg",
      "popularity": 8.186,
      "adult": false,
      "known_for_department": "Acting"
    },
    {
      "id": 1211881,
      "name": "Beth Goddard",
      "profile_path": "/6cw1r4qNSBg1LLeP5UeynvZ4Zh.jpg",
      "popularity": 8.185,
      "adult": false,
      "known_for_department": "Acting"
    },
    {
      "id": 84205,
      "name": "Kara Hui",
      "profile_path": "/6OV9kM62Y7M7EswtkpCThs0QAxg.jpg",
      "popularity": 8.185,
      "adult": false,
      "known_for_department": "Acting"
    },
    {
      "id": 29234,
      "name": "Joe Anderson",
      "profile_path": "/x0Fz2mIMU4Prk7I43pn87Fyno40.jpg",
      "popularity": 8.185,
      "adult": false,
      "known_for_department": "Acting"
    },
    {
      "id": 2631634,
      "name": "Liu Anqi",
      "profile_path": "/kP7vbvV9sl5StZAhVkWs1OGYvSm.jpg",
      "popularity": 8.184,
      "adult": false,
      "known_for_department": "Acting"
    },
    {
      "id": 1267370,
      "name": "Rina Sakuragi",
      "profile_path": "/8xmgSznhTn3pTlhClwdI7QodKsu.jpg",
      "popularity": 8.184,
      "adult": false,
      "known_for_department": "Acting"
    },
    {
      "id": 1236264,
      "name": "Liu Tao",
      "profile_path": "/8OlTZvZoXqT96Powhph4sML805V.jpg",
      "popularity": 8.184,
      "adult": false,
      "known_for_department": "Acting"
    }
  ]
}