{
  "page": 257,
  "total_results": 10000,
  "total_pages": 500,
  "results": [
    {
      "id": 96841,
      "name": "Matthew Lewis",
      "profile_path": "/aPQCLK2gxWOallsFoEwjb1p9lWE.jpg",
      "popularity": 10.286,
      "adult": false,
      "known_for_department": "Acting"
    },
    {
      "id": 47468,
      "name": "Frances de la Tour",
      "profile_path": "/aDSge7DWhUyMyA0rEXEZpGiZzGO.jpg",
      "popularity": 10.286,
      "adult": false,
      "known_for_department": "Acting"
    },
    {
      "id": 29879,
      "name": "Mayko Nguyen",
      "profile_path": "/ywp3CzNX8Nbcxfq2vWs5ueKN6m8.jpg",
      "popularity": 10.286,
      "adult": false,
      "known_for_department": "Acting"
    },
    {
      "id": 8853,
      "name": "Ralph Waite",
      "profile_path": "/9piV2h6tAuhynRP0PSmM2IsSh69.jpg",
      "popularity": 10.286,
      "adult": false,
      "known_for_department": "Acting"
    },
    {
      "id": 1031067,
      "name": "Sonequa Martin-Green",
      "profile_path": "/anz0LIPc0KarbDwLOyGt21eolvK.jpg",
      "popularity": 10.285,
      "adult": false,
      "known_for_department": "Acting"
    },
    {
      "id": 84752,
      "name": "Park Si-yeon",
      "profile_path": "/iaP44f9OYuHoLKi2Mhyo27LdBlJ.jpg",
      "popularity": 10.285,
      "adult": false,
      "known_for_department": "Acting"
    },
    {
      "id": 17122,
      "name": "Ju Jin-mo",
      "profile_path": "/AdtX7KBdMXcChFO2t4DOGVEzMfG.jpg",
      "popularity": 10.285,
      "adult": false,
      "known_for_department": "Acting"
    },
    {
      "id": 8309,
      "name": "Kierston Wareing",
      "profile_path": "/lcPlix0o1cQxOWG0YbeshdvGzfj.jpg",
      "popularity": 10.284,
      "adult": false,
      "known_for_department": "Acting"
    },
    {
      "id": 66079,
      "name": "Madolyn Smith Osborne",
      "profile_path": "/r9GAro6MqbU9MtWYsxuJqAutzN8.jpg",
      "popularity": 10.283,
      "adult": false,
      "known_for_department": "Acting"
    },
    {
      "id": 55091,
      "name": "Neil Brown Jr.",
      "profile_path": "/5dZ5OsxXwaecDIlH93dRsF27sVY.jpg",
      "popularity": 10.283,
      "adult": false,
      "known_for_department": "Acting"
    },
    {
      "id": 33457,
      "name": "Amy Aquino",
      "profile_path": "/59E061EJyEl2CLcBd12p9Vi7q0B.jpg",
      "popularity": 10.283,
      "adult": false,
      "known_for_department": "Acting"
    },
    {
      "id": 22125,
      "name": "Jimmi Simpson",
      "profile_path": "/nlTmd997MJX2y5bGSM9Msirwtld.jpg",
      "popularity": 10.283,
      "adult": false,
      "known_for_department": "Acting"
    },
    {
      "id": 28640,
      "name": "Molly Shannon",
      "profile_path": "/5ZTbNpJtDRU4ZCH24nJvFRxaqAD.jpg",
      "popularity": 10.282,
      "adult": false,
      "known_for_department": "Acting"
    },
    {
      "id": 80112,
      "name": "Sylvester McCoy",
      "profile_path": "/y7spOkUTzwf7WYgeGeNMnvBjStd.jpg",
      "popularity": 10.277,
      "adult": false,
      "known_for_department": "Acting"
    },
    {
      "id": 23873,
      "name": "Lisa Owen",
      "profile_path": "/t6u25UXmZ3DgXt0wxwFQxz6wuNu.jpg",
      "popularity": 10.277,
      "adult": false,
      "known_for_department": "Acting"
    },
    {
      "id": 13026,
      "name": "Nina Foch",
      "profile_path": "/7G1PlnCSzRHa9DTQcN0zO1y7sM3.jpg",
      "popularity": 10.277,
      "adult": false,
      "known_for_department": "Acting"
    },
    {
      "id": 8975,
      "name": "Sam Waterston",
      "profile_path": "/vNe4lHhXqOd5fF8oQ125KNQCfK3.jpg",
      "popularity": 10.277,
      "adult": false,
      "known_for_department": "Acting"
    },
    {
      "id": 99106,
      "name": "Molinee Green",
      "profile_path": "/nPnCmJ421gAwY5wJOb31A3tlpys.jpg",
      "popularity": 10.276,
      "adult": false,
      "known_for_department": "Acting"
    },
    {
      "id": 74607,
      "name": "Autumn Reeser",
      "profile_path": "/ftDOWocmtT9YSZhV6bVrbsywIad.jpg",
      "popularity": 10.276,
      "adult": false,
      "known_for_department": "Acting"
    },
    {
      "id": 21490,
      "name": "Peter Onorati",
      "profile_path": "/1ZrzYcnGcoMKA0jmcoC15GsrOxz.jpg",
      "popularity": 10.275,
      "adult": false,
      "known_for_department": "Acting"
    }
  ]
}