{
  "page": 443,
  "total_results": 10000,
  "total_pages": 500,
  "results": [
    {
      "id": 1251978,
      "name": "Mateo Arias",
      "profile_path": "/nTlXo5r08sMIh1Vp6BspYRYqdts.jpg",
      "popularity": 7.626,
      "adult": false,
      "known_for_department": "Acting"
    },
    {
      "id": 54500,
      "name": "Will Kemp",
      "profile_path": "/x1pO6ca7UpkzuLj68Z7a1LPpuFO.jpg",
      "popularity": 7.626,
      "adult": false,
      "known_for_department": "Acting"
    },
    {
      "id": 1128106,
      "name": "Kim Hyang-gi",
      "profile_path": "/qAfGNnSzuSRVISUtLssokeHtoWy.jpg",
      "popularity": 7.625,
      "adult": false,
      "known_for_department": "Acting"
    },
    {
      "id": 9235,
      "name": "Nicoletta Braschi",
      "profile_path": "/i1BYJhg2V6PZEkCaMyYNLRqutmM.jpg",
      "popularity": 7.625,
      "adult": false,
      "known_for_department": "Acting"
    },
    {
      "id": 1752096,
      "name": "Pawat Chittsawangdee",
      "profile_path": "/m0wsd5KI9w9qk5TFPt8a5pBwL97.jpg",
      "popularity": 7.624,
      "adult": false,
      "known_for_department": "Acting"
    },
    {
      "id": 940,
      "name": "John Shrapnel",
      "profile_path": "/A4Wmltbkz3sz79GcBkLeTqwfkvE.jpg",
      "popularity": 7.624,
      "adult": false,
      "known_for_department": "Acting"
    },
    {
      "id": 2286570,
      "name": "Belmont Cameli",
      "profile_path": "/yJwjcWwDdHkCeTLGgbKkSJdXXVc.jpg",
      "popularity": 7.623,
      "adult": false,
      "known_for_department": "Acting"
    },
    {
      "id": 1836856,
      "name": "Lara Silva",
      "profile_path": "/s42cFWjM2UnEHCpoYL6dSnASCVr.jpg",
      "popularity": 7.623,
      "adult": false,
      "known_for_department": "Acting"
    },
    {
      "id": 939099,
      "name": "Lou de Laâge",
      "profile_path": "/pLgtGNWrF3SzK4QXePhhosGZr0G.jpg",
      "popularity": 7.623,
      "adult": false,
      "known_for_department": "Acting"
    },
    {
      "id": 83633,
      "name": "Vanness Wu",
      "profile_path": "/9dwsdvRcMnXzCO3Oj0zQNnBEZH4.jpg",
      "popularity": 7.623,
      "adult": false,
      "known_for_department": "Acting"
    },
    {
      "id": 1459772,
      "name": "Nam Joo-hyuk",
      "profile_path": "/zQdkQio6SyNpKoudDLc17BRQDGD.jpg",
      "popularity": 7.622,
      "adult": false,
      "known_for_department": "Acting"
    },
    {
      "id": 1201138,
      "name": "Cinthya Carmona",
      "profile_path": "/GaZ3EBBcvVNSvVaNwljshB8kD8.jpg",
      "popularity": 7.622,
      "adult": false,
      "known_for_department": "Acting"
    },
    {
      "id": 9632,
      "name": "Fredric Lehne",
      "profile_path": "/qjtfC2QWLukoNVnDjp8QZF6E6Xz.jpg",
      "popularity": 7.622,
      "adult": false,
      "known_for_department": "Acting"
    },
    {
      "id": 2077868,
      "name": "YaYa Gosselin",
      "profile_path": "/2XwPLECE4rce7KC6d4RkbgRaKfO.jpg",
      "popularity": 7.621,
      "adult": false,
      "known_for_department": "Acting"
    },
    {
      "id": 86329,
      "name": "Ahn Kil-kang",
      "profile_path": "/oxCE74vQ0HgN3Z4ChEEnqk1Dxve.jpg",
      "popularity": 7.621,
      "adult": false,
      "known_for_department": "Acting"
    },
    {
      "id": 97783,
      "name": "Lisa Rinna",
      "profile_path": "/kNSwuPLalpGsvT7oHqOkZnAjGfx.jpg",
      "popularity": 7.62,
      "adult": false,
      "known_for_department": "Acting"
    },
    {
      "id": 1011104,
      "name": "Zuleyka Silver",
      "profile_path": "/3zCshsEvTJgvBSjfqVDe7ehYsTv.jpg",
      "popularity": 7.619,
      "adult": false,
      "known_for_department": "Acting"
    },
    {
      "id": 55635,
      "name": "Jaclyn Smith",
      "profile_path": "/ssDofPx6EStJARAwuIhGylloCmj.jpg",
      "popularity": 7.619,
      "adult": false,
      "known_for_department": "Acting"
    },
    {
      "id": 1543364,
      "name": "Diane Morgan",
      "profile_path": "/3Igu5RqKZePRLBw8Y3aWWlVBnrM.jpg",
      "popularity": 7.618,
      "adult": false,
      "known_for_department": "Acting"
    },
    {
      "id": 57626,
      "name": "Joy Boushel",
      "profile_path": "/8dRLwnJOQvcQRaRaCiN27MEn87T.jpg",
      "popularity": 7.618,
      "adult": false,
      "known_for_department": "Acting"
    }
  ]
}