{
  "page": 403,
  "total_results": 10000,
  "total_pages": 500,
  "results": [
    {
      "id": 131771,
      "name": "Kirby Bliss Blanton",
      "profile_path": "/ocjvHecG7af2WxqUbZhWg6o4ZC9.jpg",
      "popularity": 8.884,
      "adult": false,
      "known_for_department": "Acting"
    },
    {
      "id": 47987,
      "name": "Geri Halliwell",
      "profile_path": "/wWh8mqeNVDaJu9EwCUMwM9dNb06.jpg",
      "popularity": 8.884,
      "adult": false,
      "known_for_department": "Acting"
    },
    {
      "id": 6576,
      "name": "Mark Rolston",
      "profile_path": "/hcrNRIptYMRXgkJ9k76BlQu6DQp.jpg",
      "popularity": 8.882,
      "adult": false,
      "known_for_department": "Acting"
    },
    {
      "id": 150952,
      "name": "Misako Renbutsu",
      "profile_path": "/gi3eKsmjPbfpSr2k5ukH1sLJGKp.jpg",
      "popularity": 8.88,
      "adult": false,
      "known_for_department": "Acting"
    },
    {
      "id": 23918,
      "name": "Ron Thomas",
      "profile_path": "/rjaSjOIQwg77r6ZvZlER1Vblzpu.jpg",
      "popularity": 8.88,
      "adult": false,
      "known_for_department": "Acting"
    },
    {
      "id": 14416,
      "name": "Robert Hays",
      "profile_path": "/qbfxPYo5eAsO8LGkOPei4o4SH92.jpg",
      "popularity": 8.88,
      "adult": false,
      "known_for_department": "Acting"
    },
    {
      "id": 589945,
      "name": "Anna Powierza",
      "profile_path": "/cbRZV0c9gQ1x5FEeJjWIxfBUjng.jpg",
      "popularity": 8.879,
      "adult": false,
      "known_for_department": "Acting"
    },
    {
      "id": 35452,
      "name": "Corey Yuen",
      "profile_path": "/d4doL1fc0TCcQqgFvkB8fRRpa1F.jpg",
      "popularity": 8.879,
      "adult": false,
      "known_for_department": "Acting"
    },
    {
      "id": 1564501,
      "name": "Miranda Edwards",
      "profile_path": "/8ThdqK0IOBW5da1BlNe5VIMJFjd.jpg",
      "popularity": 8.878,
      "adult": false,
      "known_for_department": "Acting"
    },
    {
      "id": 1395660,
      "name": "Alessandro Borghi",
      "profile_path": "/cRnm7HQ84Ls6b91BONx0BrTUQXy.jpg",
      "popularity": 8.877,
      "adult": false,
      "known_for_department": "Acting"
    },
    {
      "id": 225579,
      "name": "Naomi Tani",
      "profile_path": "/mfkMsKvGeUMg3n9IrqH0UDjgp9i.jpg",
      "popularity": 8.877,
      "adult": false,
      "known_for_department": "Acting"
    },
    {
      "id": 4071,
      "name": "Otto Kruger",
      "profile_path": "/nGSvwcSyD0645Vuv1xTJbzA21aq.jpg",
      "popularity": 8.876,
      "adult": false,
      "known_for_department": "Acting"
    },
    {
      "id": 97369,
      "name": "Aleksandr Robak",
      "profile_path": "/c8K7ry0Q7pQcAeUTon58DSck8yL.jpg",
      "popularity": 8.875,
      "adult": false,
      "known_for_department": "Acting"
    },
    {
      "id": 12658,
      "name": "Patricia Hayes",
      "profile_path": "/6XFwNMFX81TJOvY5k5V0rUANQL.jpg",
      "popularity": 8.874,
      "adult": false,
      "known_for_department": "Acting"
    },
    {
      "id": 1181403,
      "name": "Pixie Davies",
      "profile_path": "/h7a55vLzl1FUBtguBdF6V7QFy7G.jpg",
      "popularity": 8.873,
      "adult": false,
      "known_for_department": "Acting"
    },
    {
      "id": 27659,
      "name": "Tim Woodward",
      "profile_path": "/zxPCPmDkVxUI1qoeeK7lqrgdXVJ.jpg",
      "popularity": 8.872,
      "adult": false,
      "known_for_department": "Acting"
    },
    {
      "id": 144288,
      "name": "Maiara Walsh",
      "profile_path": "/n5qik3XnpPEwa76SrQQJVgei7RP.jpg",
      "popularity": 8.871,
      "adult": false,
      "known_for_department": "Acting"
    },
    {
      "id": 83526,
      "name": "Haruka Ayase",
      "profile_path": "/oUfDmm4jJ03Vs58Ys64f1E219Ix.jpg",
      "popularity": 8.871,
      "adult": false,
      "known_for_department": "Acting"
    },
    {
      "id": 17693,
      "name": "Sarah Parish",
      "profile_path": "/5GmD0kvvZH6TOEoIxkzj0U1ItUP.jpg",
      "popularity": 8.87,
      "adult": false,
      "known_for_department": "Acting"
    },
    {
      "id": 1219312,
      "name": "Dot-Marie Jones",
      "profile_path": "/p6Lg9p6Y9IGlYjv2VEaGb4dvoWm.jpg",
      "popularity": 8.869,
      "adult": false,
      "known_for_department": "Acting"
    }
  ]
}