{
  "page": 284,
  "total_results": 10000,
  "total_pages": 500,
  "results": [
    {
      "id": 1744894,
      "name": "Alice Dufour",
      "profile_path": "/6IIxIwQ4CLFZeQV6jvrAfCHtGQT.jpg",
      "popularity": 9.353,
      "adult": false,
      "known_for_department": "Acting"
    },
    {
      "id": 26785,
      "name": "Nina Li Chi",
      "profile_path": "/lL76hgrDqmtUZMtSW8AB2o7GD8f.jpg",
      "popularity": 9.353,
      "adult": false,
      "known_for_department": "Acting"
    },
    {
      "id": 1217003,
      "name": "Dana Barron",
      "profile_path": "/z6HwYRN4h9CpjjyyM3rBc4KYN6D.jpg",
      "popularity": 9.352,
      "adult": false,
      "known_for_department": "Acting"
    },
    {
      "id": 42718,
      "name": "Elodie Frenck",
      "profile_path": "/bP0ys3W1JBBD6w1r5uHox5D7juw.jpg",
      "popularity": 9.349,
      "adult": false,
      "known_for_department": "Acting"
    },
    {
      "id": 2168270,
      "name": "Adeline Rudolph",
      "profile_path": "/u8Jc4R3EHPv0jEKdPNP4eiFySMb.jpg",
      "popularity": 9.347,
      "adult": false,
      "known_for_department": "Acting"
    },
    {
      "id": 984780,
      "name": "Jes Macallan",
      "profile_path": "/opXduSlSdcy0wiHDeuVGkMCbtEP.jpg",
      "popularity": 9.347,
      "adult": false,
      "known_for_department": "Acting"
    },
    {
      "id": 11163,
      "name": "John Saxon",
      "profile_path": "/rQh2ddJYtP3x2g1mnlFBQz547FO.jpg",
      "popularity": 9.347,
      "adult": false,
      "known_for_department": "Acting"
    },
    {
      "id": 15200,
      "name": "Jane Birkin",
      "profile_path": "/wjYt9WdPVEm0BKF0sWi6RyZREOc.jpg",
      "popularity": 9.346,
      "adult": false,
      "known_for_department": "Acting"
    },
    {
      "id": 78124,
      "name": "François Civil",
      "profile_path": "/vSkggoDmEHl820VMBzpGkjARU2z.jpg",
      "popularity": 9.344,
      "adult": false,
      "known_for_department": "Acting"
    },
    {
      "id": 212208,
      "name": "Taylor Swift",
      "profile_path": "/rywt1hM6M8VrB3r4cmIo48NJj9K.jpg",
      "popularity": 9.343,
      "adult": false,
      "known_for_department": "Acting"
    },
    {
      "id": 125718,
      "name": "Kelly Adams",
      "profile_path": "/wzQcNtTSDPAVzOAsxdvVrX4t2OJ.jpg",
      "popularity": 9.343,
      "adult": false,
      "known_for_department": "Acting"
    },
    {
      "id": 94864,
      "name": "Max Martini",
      "profile_path": "/3J9qjWkft7LsmHuQ0GHPnPIToOF.jpg",
      "popularity": 9.342,
      "adult": false,
      "known_for_department": "Acting"
    },
    {
      "id": 83352,
      "name": "Mircea Monroe",
      "profile_path": "/vdXwOmhoOzl4cSCIvBjKlO6iS4g.jpg",
      "popularity": 9.342,
      "adult": false,
      "known_for_department": "Acting"
    },
    {
      "id": 7031,
      "name": "Julian Rhind-Tutt",
      "profile_path": "/jvwtFc8XFpTb7NX1XRJX8TOfH5.jpg",
      "popularity": 9.341,
      "adult": false,
      "known_for_department": "Acting"
    },
    {
      "id": 222122,
      "name": "Gabriel Basso",
      "profile_path": "/gf2beMrrOZ3qrJkYLLCnf6SiinU.jpg",
      "popularity": 9.338,
      "adult": false,
      "known_for_department": "Acting"
    },
    {
      "id": 10960,
      "name": "Max Baker",
      "profile_path": "/z3hNp4zntZJVQPBUd08IXSAiWAL.jpg",
      "popularity": 9.338,
      "adult": false,
      "known_for_department": "Acting"
    },
    {
      "id": 1580,
      "name": "Daveigh Chase",
      "profile_path": "/3PVQPEc6nXNX2eoW2UbsfVikc7H.jpg",
      "popularity": 9.338,
      "adult": false,
      "known_for_department": "Acting"
    },
    {
      "id": 937654,
      "name": "Luigina Rocchi",
      "profile_path": "/jtX62XtWnIujZs7ueCTdsOklz7J.jpg",
      "popularity": 9.337,
      "adult": false,
      "known_for_department": "Acting"
    },
    {
      "id": 123180,
      "name": "Raveena Tandon",
      "profile_path": "/hZlFf8EvVWAz4qAM52J38k1TNs2.jpg",
      "popularity": 9.337,
      "adult": false,
      "known_for_department": "Acting"
    },
    {
      "id": 11151,
      "name": "Nick Cassavetes",
      "profile_path": "/kFGQOcOyBvQSW4k6m5LR8lnbu8n.jpg",
      "popularity": 9.336,
      "adult": false,
      "known_for_department": "Acting"
    }
  ]
}