{
  "page": 365,
  "total_results": 10000,
  "total_pages": 500,
  "results": [
    {
      "id": 224414,
      "name": "Wakana Matsumoto",
      "profile_path": "/7RwTLru6f1woicPGHhdpXoqvvVS.jpg",
      "popularity": 9.019,
      "adult": false,
      "known_for_department": "Acting"
    },
    {
      "id": 114460,
      "name": "Alexandra Jiménez",
      "profile_path": "/wkVjpWajYRV1Bj7OyJmmFcb5ixF.jpg",
      "popularity": 9.019,
      "adult": false,
      "known_for_department": "Acting"
    },
    {
      "id": 8241,
      "name": "Hillary Brooke",
      "profile_path": "/2R5hSW5KO1yCkLHj5MVe5dXlSSb.jpg",
      "popularity": 9.019,
      "adult": false,
      "known_for_department": "Acting"
    },
    {
      "id": 1328204,
      "name": "Kabby Hui",
      "profile_path": "/y0CYlehxvOQ9rGNDNRc5E945TRH.jpg",
      "popularity": 9.018,
      "adult": false,
      "known_for_department": "Acting"
    },
    {
      "id": 739,
      "name": "Alison Doody",
      "profile_path": "/k8muOVU3HAT5eyAape8DSdUK8Yu.jpg",
      "popularity": 9.018,
      "adult": false,
      "known_for_department": "Acting"
    },
    {
      "id": 1202611,
      "name": "Loreto Peralta",
      "profile_path": "/7g17p3Ar0IQCAR882aPg2VFDCro.jpg",
      "popularity": 9.016,
      "adult": false,
      "known_for_department": "Acting"
    },
    {
      "id": 13243,
      "name": "Glenn Shadix",
      "profile_path": "/zTu0Fh0ohLIvFnEXiRvhe91T3Wg.jpg",
      "popularity": 9.016,
      "adult": false,
      "known_for_department": "Acting"
    },
    {
      "id": 2202678,
      "name": "Konstantin Beloshapka",
      "profile_path": "/nxF11Rue0ILN8B5q7l5drxJbMJW.jpg",
      "popularity": 9.015,
      "adult": false,
      "known_for_department": "Acting"
    },
    {
      "id": 19439,
      "name": "Henry Gibson",
      "profile_path": "/2Py2ZzFfTobPIHEKRYuWHhxRDqF.jpg",
      "popularity": 9.014,
      "adult": false,
      "known_for_department": "Acting"
    },
    {
      "id": 3233141,
      "name": "Amar Chadha-Patel",
      "profile_path": "/txzqsWElQVML8suS1Ho46oCALri.jpg",
      "popularity": 9.013,
      "adult": false,
      "known_for_department": "Acting"
    },
    {
      "id": 21660,
      "name": "Rafi Gavron",
      "profile_path": "/avCWoO9fLwEhbT6cvu0TJcSj49g.jpg",
      "popularity": 9.013,
      "adult": false,
      "known_for_department": "Acting"
    },
    {
      "id": 10483,
      "name": "Blanche Ravalec",
      "profile_path": "/eT6LkwsgbHiPxluOwfzraJB4p0i.jpg",
      "popularity": 9.013,
      "adult": false,
      "known_for_department": "Acting"
    },
    {
      "id": 1181345,
      "name": "Jack Gore",
      "profile_path": "/o2jZrgP7SlHYWLpj0h0SDkkJ0ni.jpg",
      "popularity": 9.012,
      "adult": false,
      "known_for_department": "Acting"
    },
    {
      "id": 43125,
      "name": "Rob Paulsen",
      "profile_path": "/7buvKWIjPlspqruaO3b28V5owJr.jpg",
      "popularity": 9.012,
      "adult": false,
      "known_for_department": "Acting"
    },
    {
      "id": 39092,
      "name": "Geneviève Grad",
      "profile_path": "/j8MDewpBSGLjPpqAmSFUqX4i83v.jpg",
      "popularity": 9.012,
      "adult": false,
      "known_for_department": "Acting"
    },
    {
      "id": 16288,
      "name": "Lee Mi-sook",
      "profile_path": "/x7V9Mmu28eFkbfJYnnIm4w3mY7v.jpg",
      "popularity": 9.012,
      "adult": false,
      "known_for_department": "Acting"
    },
    {
      "id": 1523242,
      "name": "Bobby Schofield",
      "profile_path": "/phqatTkA0OZBgpVNMLOfk7Ca6gV.jpg",
      "popularity": 9.011,
      "adult": false,
      "known_for_department": "Acting"
    },
    {
      "id": 20386,
      "name": "Jason Behr",
      "profile_path": "/f5MY20huXGVDQbRHpKeobV6H6wS.jpg",
      "popularity": 9.01,
      "adult": false,
      "known_for_department": "Acting"
    },
    {
      "id": 3155,
      "name": "Pat O’Brien",
      "profile_path": "/fkDg7AqjRLGOQUceChntKF84m8h.jpg",
      "popularity": 9.01,
      "adult": false,
      "known_for_department": "Acting"
    },
    {
      "id": 91842,
      "name": "Nancy Parsons",
      "profile_path": "/tbC2AteA2g6vAaUQT2YMbLKE5Ks.jpg",
      "popularity": 9.009,
      "adult": false,
      "known_for_department": "Acting"
    }
  ]
}