{
  "page": 242,
  "total_results": 10000,
  "total_pages": 500,
  "results": [
    {
      "id": 32905,
      "name": "Rachel Dratch",
      "profile_path": "/5I1P5oQ3WyV4eIM8E89zO1xVYuM.jpg",
      "popularity": 11.155,
      "adult": false,
      "known_for_department": "Acting"
    },
    {
      "id": 79004,
      "name": "Takako Honda",
      "profile_path": "/LekbnCX6TcabG3EjSOKOgIGrvJ.jpg",
      "popularity": 11.154,
      "adult": false,
      "known_for_department": "Acting"
    },
    {
      "id": 25245,
      "name": "Jacky Cheung",
      "profile_path": "/eoh2sI1IBYmQSuIapr32EUbl3Nw.jpg",
      "popularity": 11.154,
      "adult": false,
      "known_for_department": "Acting"
    },
    {
      "id": 1571598,
      "name": "Ahn Hyo-Seop",
      "profile_path": "/aG0vjOO79RZpZ2M59Q6jy73x9bE.jpg",
      "popularity": 11.151,
      "adult": false,
      "known_for_department": "Acting"
    },
    {
      "id": 2419,
      "name": "Jean-Pierre Jeunet",
      "profile_path": "/u3QmPbF9gdTTLsAHS97ic93gg6S.jpg",
      "popularity": 11.145,
      "adult": false,
      "known_for_department": "Directing"
    },
    {
      "id": 1140237,
      "name": "Bailey Bass",
      "profile_path": "/zGdSEv9qEZr7GoJnSm5V8JsafGM.jpg",
      "popularity": 11.143,
      "adult": false,
      "known_for_department": "Acting"
    },
    {
      "id": 1234708,
      "name": "Jodie Sweetin",
      "profile_path": "/7jeFeCWWp75GT9ztIXBiavjxczI.jpg",
      "popularity": 11.14,
      "adult": false,
      "known_for_department": "Acting"
    },
    {
      "id": 267962,
      "name": "Emmanuelle Riva",
      "profile_path": "/dniG5pKshBGekaD36kNml5FDCba.jpg",
      "popularity": 11.14,
      "adult": false,
      "known_for_department": "Acting"
    },
    {
      "id": 45206,
      "name": "Alex Cord",
      "profile_path": "/auyeofs0g8y9KIzWzMoALUFs6TK.jpg",
      "popularity": 11.139,
      "adult": false,
      "known_for_department": "Acting"
    },
    {
      "id": 36938,
      "name": "Mimsy Farmer",
      "profile_path": "/3g3uhMDl2CQHQR8I1ODhVcgKhiz.jpg",
      "popularity": 11.138,
      "adult": false,
      "known_for_department": "Acting"
    },
    {
      "id": 111116,
      "name": "Matthew Rauch",
      "profile_path": "/zbwyjV7ojfO1HPXDHIRJE4U7BE.jpg",
      "popularity": 11.136,
      "adult": false,
      "known_for_department": "Acting"
    },
    {
      "id": 16554,
      "name": "Richard Crenna",
      "profile_path": "/dsViQ2ate32xTSQgxoEHKQl0Evj.jpg",
      "popularity": 11.136,
      "adult": false,
      "known_for_department": "Acting"
    },
    {
      "id": 11702,
      "name": "Adam Brody",
      "profile_path": "/jeMhuu9Q81XJLIef1OU7NlcxRW0.jpg",
      "popularity": 11.133,
      "adult": false,
      "known_for_department": "Acting"
    },
    {
      "id": 1419822,
      "name": "Hande Doğandemir",
      "profile_path": "/UUL2hfYWIaxLe06hf97Q3fBXHJ.jpg",
      "popularity": 11.129,
      "adult": false,
      "known_for_department": "Acting"
    },
    {
      "id": 1167956,
      "name": "Kozue Tanaka",
      "profile_path": "/zSgeEKCkHwFRkcD3k0UbRtUKfhN.jpg",
      "popularity": 11.126,
      "adult": false,
      "known_for_department": "Acting"
    },
    {
      "id": 52267,
      "name": "William Petersen",
      "profile_path": "/844k8tbN8mr5Nk69Ge2yzFR4k9r.jpg",
      "popularity": 11.126,
      "adult": false,
      "known_for_department": "Acting"
    },
    {
      "id": 54679,
      "name": "Rebecca Mader",
      "profile_path": "/xum3MomxlOy48dHdunRjq6I7gwi.jpg",
      "popularity": 11.125,
      "adult": false,
      "known_for_department": "Acting"
    },
    {
      "id": 145499,
      "name": "Beren Saat",
      "profile_path": "/zbXAJppkYJpfxDlxY1aQJXRxvX0.jpg",
      "popularity": 11.124,
      "adult": false,
      "known_for_department": "Acting"
    },
    {
      "id": 120137,
      "name": "Ivana Lotito",
      "profile_path": "/wjo35bFCQchtIT0kDFhgcb4FmBI.jpg",
      "popularity": 11.122,
      "adult": false,
      "known_for_department": "Acting"
    },
    {
      "id": 556475,
      "name": "Türkan Şoray",
      "profile_path": "/wUAijeqo04wtxAOdoX2whnuRH1b.jpg",
      "popularity": 11.119,
      "adult": false,
      "known_for_department": "Acting"
    }
  ]
}