{
  "page": 329,
  "total_results": 10000,
  "total_pages": 500,
  "results": [
    {
      "id": 110463,
      "name": "Lauren Stamile",
      "profile_path": "/8KiEzA1I4MB1RDo6JtvAGQRJyJ6.jpg",
      "popularity": 8.769,
      "adult": false,
      "known_for_department": "Acting"
    },
    {
      "id": 2691052,
      "name": "Sitare Akbaş",
      "profile_path": "/5rwWeRukZMRrnskemEq4LfE4KfB.jpg",
      "popularity": 8.768,
      "adult": false,
      "known_for_department": "Acting"
    },
    {
      "id": 41565,
      "name": "Nate Torrence",
      "profile_path": "/yT9o149xPygdY0NsF9sNgiQwuru.jpg",
      "popularity": 8.767,
      "adult": false,
      "known_for_department": "Acting"
    },
    {
      "id": 57748,
      "name": "Byron Mann",
      "profile_path": "/lJXes5cQU2a3x5V4auFV4CFyrYB.jpg",
      "popularity": 8.766,
      "adult": false,
      "known_for_department": "Acting"
    },
    {
      "id": 30318,
      "name": "Amanda Root",
      "profile_path": "/tOiRDlvdVFgCp4tkbNQOmmZ7GSL.jpg",
      "popularity": 8.766,
      "adult": false,
      "known_for_department": "Acting"
    },
    {
      "id": 2769,
      "name": "Natalie Wood",
      "profile_path": "/bl86pdMJLPZ6iQ2gOfghZQqsKwE.jpg",
      "popularity": 8.766,
      "adult": false,
      "known_for_department": "Acting"
    },
    {
      "id": 7684,
      "name": "Thelma Ritter",
      "profile_path": "/6gZKUPYiAr5FJWPiR9SvSnt2Ijj.jpg",
      "popularity": 8.765,
      "adult": false,
      "known_for_department": "Acting"
    },
    {
      "id": 2130692,
      "name": "Ali Gözüşirin",
      "profile_path": "/zN3TXBJhsbg6y4euZXNXd5yXGsv.jpg",
      "popularity": 8.763,
      "adult": false,
      "known_for_department": "Acting"
    },
    {
      "id": 72055,
      "name": "Tawny Kitaen",
      "profile_path": "/nEv9ccClwFOPdEHNI8ZTUUUHF4z.jpg",
      "popularity": 8.763,
      "adult": false,
      "known_for_department": "Acting"
    },
    {
      "id": 1855299,
      "name": "Xing Zhaolin",
      "profile_path": "/8UPCvdZggQhuzCGkXvSOJ8EMqdI.jpg",
      "popularity": 8.762,
      "adult": false,
      "known_for_department": "Acting"
    },
    {
      "id": 14882,
      "name": "Jackie Gleason",
      "profile_path": "/wOA7pQDGggvhrtUU30nFhYNwOLQ.jpg",
      "popularity": 8.762,
      "adult": false,
      "known_for_department": "Acting"
    },
    {
      "id": 1563266,
      "name": "Jorge Lendeborg Jr.",
      "profile_path": "/1633mS58BuM33No4kTPsusePEJa.jpg",
      "popularity": 8.761,
      "adult": false,
      "known_for_department": "Acting"
    },
    {
      "id": 1376567,
      "name": "Kim Shin-young",
      "profile_path": "/bDeitK2lm0JwyMOKQiPOL7ci56.jpg",
      "popularity": 8.761,
      "adult": false,
      "known_for_department": "Acting"
    },
    {
      "id": 12798,
      "name": "Enrique Murciano",
      "profile_path": "/r1KGKFRzPyAGqqPI8adzlZfNO20.jpg",
      "popularity": 8.761,
      "adult": false,
      "known_for_department": "Acting"
    },
    {
      "id": 119251,
      "name": "Gage Munroe",
      "profile_path": "/9IIuzYiVroMxZPEPNWU40GLWJGt.jpg",
      "popularity": 8.76,
      "adult": false,
      "known_for_department": "Acting"
    },
    {
      "id": 59785,
      "name": "Fat Joe",
      "profile_path": "/g4Z1K3bywKBDFGcNT4C5OapbEQj.jpg",
      "popularity": 8.76,
      "adult": false,
      "known_for_department": "Acting"
    },
    {
      "id": 118544,
      "name": "Melise",
      "profile_path": "/1USFrxT2872quJ0KGUUs2Zur3fl.jpg",
      "popularity": 8.759,
      "adult": false,
      "known_for_department": "Acting"
    },
    {
      "id": 61527,
      "name": "Owain Yeoman",
      "profile_path": "/ubPMiDbNwgNhhAlDa4mIzuVZmXJ.jpg",
      "popularity": 8.758,
      "adult": false,
      "known_for_department": "Acting"
    },
    {
      "id": 1323109,
      "name": "Aisling Franciosi",
      "profile_path": "/g6qewxM4EEg02HUTLUw9KGkLdNj.jpg",
      "popularity": 8.756,
      "adult": false,
      "known_for_department": "Acting"
    },
    {
      "id": 1010135,
      "name": "John Bradley",
      "profile_path": "/eLcisM9qqCLWnf0iImHuSn08FOi.jpg",
      "popularity": 8.756,
      "adult": false,
      "known_for_department": "Acting"
    }
  ]
}