{
  "page": 262,
  "total_results": 10000,
  "total_pages": 500,
  "results": [
    {
      "id": 83686,
      "name": "May Lo Mei-Wei",
      "profile_path": "/aMYR4JYfzFnRpvNOVXQKCHepPIK.jpg",
      "popularity": 9.19,
      "adult": false,
      "known_for_department": "Acting"
    },
    {
      "id": 17487,
      "name": "John Gallagher Jr.",
      "profile_path": "/e4eEg5lH6Yk0OkpieUoUYdzl2Ui.jpg",
      "popularity": 9.189,
      "adult": false,
      "known_for_department": "Acting"
    },
    {
      "id": 965224,
      "name": "Thomas Robinson",
      "profile_path": "/1dFBQuO6JPv2hJAuDdA0eYRlp2e.jpg",
      "popularity": 9.188,
      "adult": false,
      "known_for_department": "Acting"
    },
    {
      "id": 52477,
      "name": "Zachery Ty Bryan",
      "profile_path": "/tEIfky2Fv8dwy4I3nzqzSy56vPZ.jpg",
      "popularity": 9.188,
      "adult": false,
      "known_for_department": "Acting"
    },
    {
      "id": 2833335,
      "name": "Oka Giner",
      "profile_path": "/A02d1PS1xyVitHkU0SaaaWsc9H1.jpg",
      "popularity": 9.184,
      "adult": false,
      "known_for_department": "Acting"
    },
    {
      "id": 1385609,
      "name": "Kwak Dong-yeon",
      "profile_path": "/klgX8YheSFFXqEdjuCQY5rxTTGa.jpg",
      "popularity": 9.184,
      "adult": false,
      "known_for_department": "Acting"
    },
    {
      "id": 559413,
      "name": "Ai Hashimoto",
      "profile_path": "/2sTNnkzF5e6dogfHEsnD1aU36J4.jpg",
      "popularity": 9.184,
      "adult": false,
      "known_for_department": "Acting"
    },
    {
      "id": 59757,
      "name": "Ertan Saban",
      "profile_path": "/w9nuHRapfSjANFIfznxnQQT83L9.jpg",
      "popularity": 9.184,
      "adult": false,
      "known_for_department": "Acting"
    },
    {
      "id": 1182598,
      "name": "Hayley Squires",
      "profile_path": "/ezkiqInQHZVlOnwOka8gE9wEtDI.jpg",
      "popularity": 9.181,
      "adult": false,
      "known_for_department": "Acting"
    },
    {
      "id": 112785,
      "name": "Jung Woong-in",
      "profile_path": "/8chD5NkFYH5glIqBt6zyevoQRhK.jpg",
      "popularity": 9.181,
      "adult": false,
      "known_for_department": "Acting"
    },
    {
      "id": 97065,
      "name": "Richard Kline",
      "profile_path": "/erIjCE1eC2OyM9mO2PxtxsYeQXD.jpg",
      "popularity": 9.181,
      "adult": false,
      "known_for_department": "Acting"
    },
    {
      "id": 55547,
      "name": "Matt Czuchry",
      "profile_path": "/cGCDS57LYFi3z2taneq0w4qAscp.jpg",
      "popularity": 9.181,
      "adult": false,
      "known_for_department": "Acting"
    },
    {
      "id": 64880,
      "name": "Choi Min-sik",
      "profile_path": "/sd7gIA6nEkq6zumkDCfxSE0YSSV.jpg",
      "popularity": 9.18,
      "adult": false,
      "known_for_department": "Acting"
    },
    {
      "id": 2223265,
      "name": "Jackson Yee",
      "profile_path": "/d7y9zz1e5PDstH9PaLFXSXKaXIC.jpg",
      "popularity": 9.179,
      "adult": false,
      "known_for_department": "Acting"
    },
    {
      "id": 571418,
      "name": "Kristofer Hivju",
      "profile_path": "/bACL39GihNmBnFRay78rS3PUHsH.jpg",
      "popularity": 9.178,
      "adult": false,
      "known_for_department": "Acting"
    },
    {
      "id": 3242,
      "name": "Fay Wray",
      "profile_path": "/dfpwqfEulBX06hOrX56fLhGSWAz.jpg",
      "popularity": 9.176,
      "adult": false,
      "known_for_department": "Acting"
    },
    {
      "id": 1600083,
      "name": "Sofia Hublitz",
      "profile_path": "/A1nSqZXtKJwuQXDGrhmYa0CP0cZ.jpg",
      "popularity": 9.175,
      "adult": false,
      "known_for_department": "Acting"
    },
    {
      "id": 15563,
      "name": "Anika Noni Rose",
      "profile_path": "/d7aLtuNXBqVtqNnZl8wXsFV4ML5.jpg",
      "popularity": 9.175,
      "adult": false,
      "known_for_department": "Acting"
    },
    {
      "id": 10673,
      "name": "Andreas Wisniewski",
      "profile_path": "/sTI9mDwajw4j6HX3Ze4qoK3lhE7.jpg",
      "popularity": 9.175,
      "adult": false,
      "known_for_department": "Acting"
    },
    {
      "id": 41243,
      "name": "Paul Benedict",
      "profile_path": "/3N5vbiVkSvtY0SbWhFmndt9jWTZ.jpg",
      "popularity": 9.174,
      "adult": false,
      "known_for_department": "Acting"
    }
  ]
}