{
  "page": 282,
  "total_results": 10000,
  "total_pages": 500,
  "results": [
    {
      "id": 10475,
      "name": "Lois Chiles",
      "profile_path": "/vw8GjxOKId5zGkt8Rp1DTisuhaK.jpg",
      "popularity": 8.794,
      "adult": false,
      "known_for_department": "Acting"
    },
    {
      "id": 105648,
      "name": "Nat Faxon",
      "profile_path": "/y0zLB7zVDztJLc2XW9Rg3f7dZvQ.jpg",
      "popularity": 8.793,
      "adult": false,
      "known_for_department": "Acting"
    },
    {
      "id": 53676,
      "name": "Atul Kulkarni",
      "profile_path": "/z3mRRjJfYs5C9PR4jzKsbZVKTKy.jpg",
      "popularity": 8.793,
      "adult": false,
      "known_for_department": "Acting"
    },
    {
      "id": 1969661,
      "name": "Sevda Erginci",
      "profile_path": "/tl2cuFqy0YO5n8BCW1DCJFO3wkj.jpg",
      "popularity": 8.792,
      "adult": false,
      "known_for_department": "Acting"
    },
    {
      "id": 28110,
      "name": "Christina Cox",
      "profile_path": "/xV2wWyJ8hEzot7vQ0cByVrmq9w2.jpg",
      "popularity": 8.789,
      "adult": false,
      "known_for_department": "Acting"
    },
    {
      "id": 3926,
      "name": "Albert Finney",
      "profile_path": "/2sERwXPq1EMoplrRgAs8DUmyzgF.jpg",
      "popularity": 8.789,
      "adult": false,
      "known_for_department": "Acting"
    },
    {
      "id": 105727,
      "name": "Jake Abel",
      "profile_path": "/qPFAG3wNIUYO7HHZ3HHn6Kdr1PM.jpg",
      "popularity": 8.788,
      "adult": false,
      "known_for_department": "Acting"
    },
    {
      "id": 60960,
      "name": "Ray Nicholson",
      "profile_path": "/v6eFkFbnAAatiY3qqNeRaQpKoA6.jpg",
      "popularity": 8.786,
      "adult": false,
      "known_for_department": "Acting"
    },
    {
      "id": 43902,
      "name": "Erik Palladino",
      "profile_path": "/k8wx0HCCcjRYKqowh8E1yIdrsVu.jpg",
      "popularity": 8.786,
      "adult": false,
      "known_for_department": "Acting"
    },
    {
      "id": 1541266,
      "name": "Poppy Drayton",
      "profile_path": "/mx81cyurTIGDtoWcNPcK4fDKxAu.jpg",
      "popularity": 8.784,
      "adult": false,
      "known_for_department": "Acting"
    },
    {
      "id": 234907,
      "name": "Dar Salim",
      "profile_path": "/oTYCqdF6nfZTsvt1fbypi54ydI.jpg",
      "popularity": 8.782,
      "adult": false,
      "known_for_department": "Acting"
    },
    {
      "id": 1701993,
      "name": "Lee Joo-young",
      "profile_path": "/qItCRSPDO5VvAgueUHNEbg86ZMz.jpg",
      "popularity": 8.781,
      "adult": false,
      "known_for_department": "Acting"
    },
    {
      "id": 42687,
      "name": "Athena Massey",
      "profile_path": "/41yqNbjhnjEW8mSUaZws0XaRW3M.jpg",
      "popularity": 8.781,
      "adult": false,
      "known_for_department": "Acting"
    },
    {
      "id": 125055,
      "name": "Sara Ramirez",
      "profile_path": "/5hi4tZfMQe5Cw236c7eIFYi0D1F.jpg",
      "popularity": 8.78,
      "adult": false,
      "known_for_department": "Acting"
    },
    {
      "id": 1123505,
      "name": "Kim Jung-nan",
      "profile_path": "/3YzhO1vEURcvmlygJtrPrwNJYjZ.jpg",
      "popularity": 8.779,
      "adult": false,
      "known_for_department": "Acting"
    },
    {
      "id": 55710,
      "name": "Adam McKay",
      "profile_path": "/vOyZXNJq7Oo01LPtSD5AZHjctgH.jpg",
      "popularity": 8.778,
      "adult": false,
      "known_for_department": "Directing"
    },
    {
      "id": 1535059,
      "name": "Alia Seror-O'Neill",
      "profile_path": "/yTCWy64wzfu8hDPoc2ryDIjM0DE.jpg",
      "popularity": 8.777,
      "adult": false,
      "known_for_department": "Acting"
    },
    {
      "id": 210126,
      "name": "Michaela McManus",
      "profile_path": "/qMyZNTcrejnIQf7pQnpJp2yxVuD.jpg",
      "popularity": 8.777,
      "adult": false,
      "known_for_department": "Acting"
    },
    {
      "id": 7427,
      "name": "Felicity Huffman",
      "profile_path": "/tr2qJ2yM7fuq4IRetHlQcERmLlX.jpg",
      "popularity": 8.775,
      "adult": false,
      "known_for_department": "Acting"
    },
    {
      "id": 117794,
      "name": "Chris Morris",
      "profile_path": "/uwaXrxAgqDUF7qr43vOnwA6Aztl.jpg",
      "popularity": 8.774,
      "adult": false,
      "known_for_department": "Acting"
    }
  ]
}