{
  "page": 44,
  "total_results": 10000,
  "total_pages": 500,
  "results": [
    {
      "id": 1245104,
      "name": "Lee Min-ho ",
      "profile_path": "/iqopuz6cKuRZRUPZQrj7lFZcWWb.jpg",
      "popularity": 23.939,
      "adult": false,
      "known_for_department": "Acting"
    },
    {
      "id": 227,
      "name": "William Hurt",
      "profile_path": "/j3mjmuHLBW4XQSw53C8Sh0Lh3ZQ.jpg",
      "popularity": 23.937,
      "adult": false,
      "known_for_department": "Acting"
    },
    {
      "id": 3287482,
      "name": "Santa Pongsapak Oudompoch",
      "profile_path": "/oL9vosywPHldKAgAK0aoLXYmWtp.jpg",
      "popularity": 23.935,
      "adult": false,
      "known_for_department": "Acting"
    },
    {
      "id": 1492326,
      "name": "Brianna Hildebrand",
      "profile_path": "/dviiK8BTudnr8XIclaybtcZV5dw.jpg",
      "popularity": 23.934,
      "adult": false,
      "known_for_department": "Acting"
    },
    {
      "id": 6279,
      "name": "Alexis Bledel",
      "profile_path": "/mhkQzBtp2wuYoKhYqJ4IpDtbS3t.jpg",
      "popularity": 23.928,
      "adult": false,
      "known_for_department": "Acting"
    },
    {
      "id": 93210,
      "name": "Domhnall Gleeson",
      "profile_path": "/uDbwncuKlqL0fAuucXSvgakJDrc.jpg",
      "popularity": 23.919,
      "adult": false,
      "known_for_department": "Acting"
    },
    {
      "id": 56890,
      "name": "Malcolm McDowell",
      "profile_path": "/hL8ep4Hqj6izX7IlzE7Bbcfq62w.jpg",
      "popularity": 23.905,
      "adult": false,
      "known_for_department": "Acting"
    },
    {
      "id": 17346,
      "name": "Robin Tunney",
      "profile_path": "/vOmWyYNoVEaPPvoto4IW8dSXn7I.jpg",
      "popularity": 23.882,
      "adult": false,
      "known_for_department": "Acting"
    },
    {
      "id": 504,
      "name": "Tim Robbins",
      "profile_path": "/hsCu1JUzQQ4pl7uFxAVFLOs9yHh.jpg",
      "popularity": 23.877,
      "adult": false,
      "known_for_department": "Acting"
    },
    {
      "id": 2046128,
      "name": "Milly Alcock",
      "profile_path": "/xYpXcZ2aBclWweLSyxmXaFMUrn8.jpg",
      "popularity": 23.873,
      "adult": false,
      "known_for_department": "Acting"
    },
    {
      "id": 58168,
      "name": "Rachelle Lefevre",
      "profile_path": "/5ETzDBwbCZ9xYLMmD5c39snVsoQ.jpg",
      "popularity": 23.87,
      "adult": false,
      "known_for_department": "Acting"
    },
    {
      "id": 3460359,
      "name": "Kat Dovey",
      "profile_path": "/ra5VYcLI0NWyN9xiN1zjpAIOHc.jpg",
      "popularity": 23.847,
      "adult": false,
      "known_for_department": "Acting"
    },
    {
      "id": 4654,
      "name": "Jeremy Davies",
      "profile_path": "/b15bF582QuQjyw2Jgr5wxErWrDM.jpg",
      "popularity": 23.837,
      "adult": false,
      "known_for_department": "Acting"
    },
    {
      "id": 2282,
      "name": "Ben Kingsley",
      "profile_path": "/vQtBqpF2HDdzbfXHDzR4u37i1Ac.jpg",
      "popularity": 23.832,
      "adult": false,
      "known_for_department": "Acting"
    },
    {
      "id": 5411,
      "name": "Sanaa Lathan",
      "profile_path": "/mYrlBt33pPbdsgscTuWdHScu7md.jpg",
      "popularity": 23.825,
      "adult": false,
      "known_for_department": "Acting"
    },
    {
      "id": 221116,
      "name": "India Eisley",
      "profile_path": "/7dmchBMMzEvUG7pkEGYdyQ35Y3F.jpg",
      "popularity": 23.789,
      "adult": false,
      "known_for_department": "Acting"
    },
    {
      "id": 3416,
      "name": "Demi Moore",
      "profile_path": "/8Dzx0U1LwOpZ3uAm7cqKymqU9fL.jpg",
      "popularity": 23.786,
      "adult": false,
      "known_for_department": "Acting"
    },
    {
      "id": 1428067,
      "name": "Jace Norman",
      "profile_path": "/2jbPvSLFabJRMTKFxCn2yL5mmEv.jpg",
      "popularity": 23.768,
      "adult": false,
      "known_for_department": "Acting"
    },
    {
      "id": 12041,
      "name": "Julia Stiles",
      "profile_path": "/9PJ6G5begxnZkkwvqZqMs0Iwn5o.jpg",
      "popularity": 23.735,
      "adult": false,
      "known_for_department": "Acting"
    },
    {
      "id": 1992160,
      "name": "Adam Demos",
      "profile_path": "/wbBOnt8uvizAaxfvf7qzrROpic4.jpg",
      "popularity": 23.715,
      "adult": false,
      "known_for_department": "Acting"
    }
  ]
}