{
  "page": 114,
  "total_results": 10000,
  "total_pages": 500,
  "results": [
    {
      "id": 515,
      "name": "Glenn Close",
      "profile_path": "/4VHZ1GfLwN7MUgApy0LCBzdDF9L.jpg",
      "popularity": 15.683,
      "adult": false,
      "known_for_department": "Acting"
    },
    {
      "id": 3491,
      "name": "Thomas Kretschmann",
      "profile_path": "/7M0P39a3CVA22dJyv5YQEkTThU7.jpg",
      "popularity": 15.682,
      "adult": false,
      "known_for_department": "Acting"
    },
    {
      "id": 55779,
      "name": "John Schneider",
      "profile_path": "/c3cM4MuGSfDFQScZsYyWzVkD0pp.jpg",
      "popularity": 15.676,
      "adult": false,
      "known_for_department": "Acting"
    },
    {
      "id": 11159,
      "name": "Cheech Marin",
      "profile_path": "/eecHDNRn9K80ZcuSocsMhQb2G1i.jpg",
      "popularity": 15.668,
      "adult": false,
      "known_for_department": "Acting"
    },
    {
      "id": 4111,
      "name": "Ingrid Bergman",
      "profile_path": "/ncKMKRkK5JpCZ2c4A5e9erN8w0j.jpg",
      "popularity": 15.666,
      "adult": false,
      "known_for_department": "Acting"
    },
    {
      "id": 90643,
      "name": "Mervyn Johns",
      "profile_path": "/yzLrLZXfQYjiWFlyjqPCadP15q.jpg",
      "popularity": 15.656,
      "adult": false,
      "known_for_department": "Acting"
    },
    {
      "id": 41883,
      "name": "Max Thieriot",
      "profile_path": "/ceCeFvmzTrADF1HYU0jIlcKUBvQ.jpg",
      "popularity": 15.653,
      "adult": false,
      "known_for_department": "Acting"
    },
    {
      "id": 1065,
      "name": "Thomas F. Wilson",
      "profile_path": "/mVhm65ZVBIRIptWGiMIvoUy0Khi.jpg",
      "popularity": 15.646,
      "adult": false,
      "known_for_department": "Acting"
    },
    {
      "id": 765,
      "name": "Hiam Abbass",
      "profile_path": "/hkzC5aJKTiuCchBpybaHDVngYZW.jpg",
      "popularity": 15.644,
      "adult": false,
      "known_for_department": "Acting"
    },
    {
      "id": 42191,
      "name": "Kenny Johnson",
      "profile_path": "/AvokUhBWsqAdnRO3xAzWluf8vdx.jpg",
      "popularity": 15.636,
      "adult": false,
      "known_for_department": "Acting"
    },
    {
      "id": 216448,
      "name": "Hiroki Yasumoto",
      "profile_path": "/vNIGLl0wFmdhdnulMssQ1qyNeBs.jpg",
      "popularity": 15.63,
      "adult": false,
      "known_for_department": "Acting"
    },
    {
      "id": 1523579,
      "name": "Shin Hye-sun",
      "profile_path": "/cuCFjBn3SpWyhIfBy9TupzvTrmp.jpg",
      "popularity": 15.624,
      "adult": false,
      "known_for_department": "Acting"
    },
    {
      "id": 29528,
      "name": "Matthew Rhys",
      "profile_path": "/8uktKexgPn0tsW3dsXVNqkqiNh7.jpg",
      "popularity": 15.619,
      "adult": false,
      "known_for_department": "Acting"
    },
    {
      "id": 23915,
      "name": "Pat Morita",
      "profile_path": "/urxkD8FV5ajhjiFTyVQlbECGyRI.jpg",
      "popularity": 15.619,
      "adult": false,
      "known_for_department": "Acting"
    },
    {
      "id": 45415,
      "name": "William Katt",
      "profile_path": "/gfNMkpm33MsN2Q07JWIHI4UFas3.jpg",
      "popularity": 15.615,
      "adult": false,
      "known_for_department": "Acting"
    },
    {
      "id": 4589,
      "name": "Benjamin Bratt",
      "profile_path": "/hBenHPT4iJEG2kt5z2TOGnkRZwh.jpg",
      "popularity": 15.614,
      "adult": false,
      "known_for_department": "Acting"
    },
    {
      "id": 1674769,
      "name": "Alba Baptista",
      "profile_path": "/gV5LYhN7BRc7xjySFek9gdm5tNA.jpg",
      "popularity": 15.608,
      "adult": false,
      "known_for_department": "Acting"
    },
    {
      "id": 1609347,
      "name": "Alex Høgh Andersen",
      "profile_path": "/wqtvSvC80cSbFCExptqC2s1DZO5.jpg",
      "popularity": 15.604,
      "adult": false,
      "known_for_department": "Acting"
    },
    {
      "id": 147977,
      "name": "Wendy Moniz",
      "profile_path": "/o6h5BiaTiezKKEOaQKiGuTGeePe.jpg",
      "popularity": 15.595,
      "adult": false,
      "known_for_department": "Acting"
    },
    {
      "id": 62564,
      "name": "Madeline Carroll",
      "profile_path": "/rUXWRKgyf9vLoC4zSHlu5fHdtxR.jpg",
      "popularity": 15.595,
      "adult": false,
      "known_for_department": "Acting"
    }
  ]
}