{
  "page": 451,
  "total_results": 10000,
  "total_pages": 500,
  "results": [
    {
      "id": 77225,
      "name": "Barbara Rhoades",
      "profile_path": "/73MpFvk2YELp13jr6F4cPSx4S4B.jpg",
      "popularity": 8.675,
      "adult": false,
      "known_for_department": "Acting"
    },
    {
      "id": 8927,
      "name": "Jack Taylor",
      "profile_path": "/n5ejGHim42frapjMQcJXo5DmPNs.jpg",
      "popularity": 8.675,
      "adult": false,
      "known_for_department": "Acting"
    },
    {
      "id": 1362223,
      "name": "Alison Jaye Horowitz",
      "profile_path": "/iEWtgDu0OweicGOl1rxybzCaota.jpg",
      "popularity": 8.674,
      "adult": false,
      "known_for_department": "Acting"
    },
    {
      "id": 1331163,
      "name": "Sam Esmail",
      "profile_path": "/mej39wMtNDsOI5HklLb65QAiM6K.jpg",
      "popularity": 8.674,
      "adult": false,
      "known_for_department": "Directing"
    },
    {
      "id": 2670,
      "name": "Priscilla Lane",
      "profile_path": "/yZaydqhhBySCTQOE4lVU9S07P4k.jpg",
      "popularity": 8.674,
      "adult": false,
      "known_for_department": "Acting"
    },
    {
      "id": 1367568,
      "name": "Daisy Bevan",
      "profile_path": "/yMZrlOPLxwqNl666zdiKYxR5CBq.jpg",
      "popularity": 8.673,
      "adult": false,
      "known_for_department": "Acting"
    },
    {
      "id": 28413,
      "name": "Carmen Argenziano",
      "profile_path": "/aiHWJmsVn7iWuohSg6lzF23XYVr.jpg",
      "popularity": 8.673,
      "adult": false,
      "known_for_department": "Acting"
    },
    {
      "id": 8444,
      "name": "Christian Coulson",
      "profile_path": "/kFwnSTUCCRFWSvqQAU1cykrLqPK.jpg",
      "popularity": 8.673,
      "adult": false,
      "known_for_department": "Acting"
    },
    {
      "id": 27588,
      "name": "Michael Benyaer",
      "profile_path": "/rN6CNG1XqFTf88rUO64RDlLLwO4.jpg",
      "popularity": 8.672,
      "adult": false,
      "known_for_department": "Acting"
    },
    {
      "id": 1527148,
      "name": "Daphne Patakia",
      "profile_path": "/9Ijm0QntviSMbVaUyjsv2CqUxuH.jpg",
      "popularity": 8.671,
      "adult": false,
      "known_for_department": "Acting"
    },
    {
      "id": 79363,
      "name": "Peter Phelps",
      "profile_path": "/5UGsFHlQOxf5Ded5M4OJwU6hjgu.jpg",
      "popularity": 8.671,
      "adult": false,
      "known_for_department": "Acting"
    },
    {
      "id": 23119,
      "name": "Peter Krause",
      "profile_path": "/4p42emuJrU8fFxbBuOhYFFdzmN6.jpg",
      "popularity": 8.67,
      "adult": false,
      "known_for_department": "Acting"
    },
    {
      "id": 2565,
      "name": "Yves Montand",
      "profile_path": "/wewmvQm200D2jD14G4YjSmg0WVb.jpg",
      "popularity": 8.67,
      "adult": false,
      "known_for_department": "Acting"
    },
    {
      "id": 1060610,
      "name": "Veronika Kánská",
      "profile_path": "/yniMjG3JICEf6Ik1uIi9gZ7dwil.jpg",
      "popularity": 8.669,
      "adult": false,
      "known_for_department": "Acting"
    },
    {
      "id": 72985,
      "name": "Ramón Rodríguez",
      "profile_path": "/1gobmVevxCWVhV7s6J2B0oWPDZj.jpg",
      "popularity": 8.669,
      "adult": false,
      "known_for_department": "Acting"
    },
    {
      "id": 1384549,
      "name": "Takanori Iwata",
      "profile_path": "/c4YQfIROreyJBLja3zzhZPrYTwi.jpg",
      "popularity": 8.667,
      "adult": false,
      "known_for_department": "Acting"
    },
    {
      "id": 1197948,
      "name": "Brittany Ashworth",
      "profile_path": "/cRG4tFdI2jaT5GW9MiTWx5jDMwj.jpg",
      "popularity": 8.667,
      "adult": false,
      "known_for_department": "Acting"
    },
    {
      "id": 77036,
      "name": "David Parker",
      "profile_path": "/nNQghiiU7IWn2yQBpJ8PKIqTqbC.jpg",
      "popularity": 8.667,
      "adult": false,
      "known_for_department": "Acting"
    },
    {
      "id": 11521,
      "name": "Kristin Minter",
      "profile_path": "/9GFNP3LnCJ6KNK8PnZ5btbCJqXC.jpg",
      "popularity": 8.666,
      "adult": false,
      "known_for_department": "Acting"
    },
    {
      "id": 1186840,
      "name": "Sterling Jerins",
      "profile_path": "/10kkqqbO8Ct58DqsBPSQIsG9ve4.jpg",
      "popularity": 8.665,
      "adult": false,
      "known_for_department": "Acting"
    }
  ]
}