{
  "page": 393,
  "total_results": 10000,
  "total_pages": 500,
  "results": [
    {
      "id": 117431,
      "name": "Shaun Johnston",
      "profile_path": "/8QeE3VvD3Gin7xSkfc24iqcs716.jpg",
      "popularity": 8.175,
      "adult": false,
      "known_for_department": "Acting"
    },
    {
      "id": 52116,
      "name": "Wendy Raquel Robinson",
      "profile_path": "/3yaBYcN0BtlX9rTaatBQJxXOVPx.jpg",
      "popularity": 8.174,
      "adult": false,
      "known_for_department": "Acting"
    },
    {
      "id": 21909,
      "name": "Ekin Cheng",
      "profile_path": "/dS42D99itm6n5ROUoGxJFRH802j.jpg",
      "popularity": 8.174,
      "adult": false,
      "known_for_department": "Acting"
    },
    {
      "id": 1552872,
      "name": "Geum Bo-ra",
      "profile_path": "/xiAF41pRedAw4qoBlXxRljmZ9mN.jpg",
      "popularity": 8.173,
      "adult": false,
      "known_for_department": "Acting"
    },
    {
      "id": 119244,
      "name": "Jun Fubuki",
      "profile_path": "/uHF9NdKrG1bN7GwZB7PI21Rkdv8.jpg",
      "popularity": 8.173,
      "adult": false,
      "known_for_department": "Acting"
    },
    {
      "id": 83122,
      "name": "Moon So-ri",
      "profile_path": "/iXfIsmrzohNAAf2gyPCE06rJM1N.jpg",
      "popularity": 8.173,
      "adult": false,
      "known_for_department": "Acting"
    },
    {
      "id": 82639,
      "name": "Ophelia Lovibond",
      "profile_path": "/6VehrGtncWwMyeTx5rkq2ufbIGv.jpg",
      "popularity": 8.173,
      "adult": false,
      "known_for_department": "Acting"
    },
    {
      "id": 2503171,
      "name": "Ishbel Bautista",
      "profile_path": "/3ERiIjLXr1sT0zC3RYagrndo6oS.jpg",
      "popularity": 8.171,
      "adult": false,
      "known_for_department": "Acting"
    },
    {
      "id": 119171,
      "name": "Andrea Parker",
      "profile_path": "/v1T8rFDueOuREauJcFt31P5cr5u.jpg",
      "popularity": 8.171,
      "adult": false,
      "known_for_department": "Acting"
    },
    {
      "id": 69033,
      "name": "Vivian Wu",
      "profile_path": "/6XLjcLxICMms0YLS4tpUNg8GhHR.jpg",
      "popularity": 8.171,
      "adult": false,
      "known_for_department": "Acting"
    },
    {
      "id": 54718,
      "name": "Brooke Dillman",
      "profile_path": "/tmZM7jwbz8xMVGvp89T0TAhH1lL.jpg",
      "popularity": 8.171,
      "adult": false,
      "known_for_department": "Acting"
    },
    {
      "id": 1241056,
      "name": "Lee Ji-ah",
      "profile_path": "/ygeyMgBL3S091Sm8MJYI4f5hv4T.jpg",
      "popularity": 8.17,
      "adult": false,
      "known_for_department": "Acting"
    },
    {
      "id": 229614,
      "name": "Camila Sodi",
      "profile_path": "/sG7BhICpNZZp9hxxgXVv7BHipRa.jpg",
      "popularity": 8.17,
      "adult": false,
      "known_for_department": "Acting"
    },
    {
      "id": 11793,
      "name": "Priscilla Pointer",
      "profile_path": "/1meEczqjKplBsq3SVpVS9FGDmp4.jpg",
      "popularity": 8.17,
      "adult": false,
      "known_for_department": "Acting"
    },
    {
      "id": 1398499,
      "name": "Ludwig Simon",
      "profile_path": "/w39LU1NZ1PSJIO8OA30kYTnRf0F.jpg",
      "popularity": 8.169,
      "adult": false,
      "known_for_department": "Acting"
    },
    {
      "id": 1228347,
      "name": "Raymond Ablack",
      "profile_path": "/m8LIuaoivT2LXYkjJS4vGdEvjjy.jpg",
      "popularity": 8.169,
      "adult": false,
      "known_for_department": "Acting"
    },
    {
      "id": 1405734,
      "name": "Cristina Castaño",
      "profile_path": "/A1ElJSris3TWm7HkogvXej7bPDi.jpg",
      "popularity": 8.168,
      "adult": false,
      "known_for_department": "Acting"
    },
    {
      "id": 1216581,
      "name": "Murray McArthur",
      "profile_path": "/aW9Ib3PzKuWuSd0YrTIbFLGX877.jpg",
      "popularity": 8.168,
      "adult": false,
      "known_for_department": "Acting"
    },
    {
      "id": 10698,
      "name": "Tchéky Karyo",
      "profile_path": "/jrtGiLYaALwDZgF39Hlgb8O1XZ1.jpg",
      "popularity": 8.168,
      "adult": false,
      "known_for_department": "Acting"
    },
    {
      "id": 70852,
      "name": "Schuyler Fisk",
      "profile_path": "/5nQajFEGYNH8IeVhbWMKdF4lxu8.jpg",
      "popularity": 8.167,
      "adult": false,
      "known_for_department": "Acting"
    }
  ]
}