{
  "page": 180,
  "total_results": 10000,
  "total_pages": 500,
  "results": [
    {
      "id": 28864,
      "name": "Landry Allbright",
      "profile_path": "/vTjroX0wuJlOtgSjev1mzAjSpGv.jpg",
      "popularity": 11.329,
      "adult": false,
      "known_for_department": "Acting"
    },
    {
      "id": 17243,
      "name": "Jonathan Tucker",
      "profile_path": "/w5R10n4Fsb1OsgEVxtppXHIgesc.jpg",
      "popularity": 18.529,
      "adult": false,
      "known_for_department": "Acting"
    },
    {
      "id": 104795,
      "name": "Bill Paterson",
      "profile_path": "/mk5vpYLmER7asqOhEwVKXD3P3YE.jpg",
      "popularity": 14.928,
      "adult": false,
      "known_for_department": "Acting"
    },
    {
      "id": 95038,
      "name": "Johanna Braddy",
      "profile_path": "/2aZpXth2OupCbG7jMjq3d81ych6.jpg",
      "popularity": 15.728,
      "adult": false,
      "known_for_department": "Acting"
    },
    {
      "id": 55392,
      "name": "Martha Higareda",
      "profile_path": "/xYLqdug60YhTD4NCe2a8YhnwuAN.jpg",
      "popularity": 12.927,
      "adult": false,
      "known_for_department": "Acting"
    },
    {
      "id": 21629,
      "name": "Tzi Ma",
      "profile_path": "/x4fz0LCIiBNGdil3nBYO22W7QJ0.jpg",
      "popularity": 12.927,
      "adult": false,
      "known_for_department": "Acting"
    },
    {
      "id": 1815238,
      "name": "Elaine Zhong",
      "profile_path": "/tkEzMiPQykYsSC5wIZ9TkHs5OIg.jpg",
      "popularity": 8.252,
      "adult": false,
      "known_for_department": "Acting"
    },
    {
      "id": 19426,
      "name": "Jackie Coogan",
      "profile_path": "/l9wiXgf7kLiuxgArVVeOqgPYHrm.jpg",
      "popularity": 14.926,
      "adult": false,
      "known_for_department": "Acting"
    },
    {
      "id": 1381981,
      "name": "Alex MacNicoll",
      "profile_path": "/mytVKNLXbFYe7rLEYc7UkQxBRJ2.jpg",
      "popularity": 8.526,
      "adult": false,
      "known_for_department": "Acting"
    },
    {
      "id": 1476330,
      "name": "Gabriel LaBelle",
      "profile_path": "/lBwXHttMqND0DDcwuh43hmj9ifd.jpg",
      "popularity": 15.325,
      "adult": false,
      "known_for_department": "Acting"
    },
    {
      "id": 151263,
      "name": "T.J. Thyne",
      "profile_path": "/wzPGaDjzimfGjIpRg6NjN9eqJxL.jpg",
      "popularity": 14.923,
      "adult": false,
      "known_for_department": "Acting"
    },
    {
      "id": 4813,
      "name": "Béatrice Dalle",
      "profile_path": "/pkHDYnYnNepShunyInM5QQKwXWa.jpg",
      "popularity": 16.123,
      "adult": false,
      "known_for_department": "Acting"
    },
    {
      "id": 1128902,
      "name": "Camille Rowe",
      "profile_path": "/vMrYMXMGr5w4NHVt0DbVjA004s7.jpg",
      "popularity": 11.723,
      "adult": false,
      "known_for_department": "Acting"
    },
    {
      "id": 24198,
      "name": "Anne Dudek",
      "profile_path": "/ea7ib0LrrJMtqS8FGpNiStFCoDq.jpg",
      "popularity": 14.521,
      "adult": false,
      "known_for_department": "Acting"
    },
    {
      "id": 1252061,
      "name": "Çağatay Ulusoy",
      "profile_path": "/zGjJTnLtd9tfpzTOQYMc4ICcfmp.jpg",
      "popularity": 13.321,
      "adult": false,
      "known_for_department": "Acting"
    },
    {
      "id": 212044,
      "name": "Natalie Knepp",
      "profile_path": "/uRkFCGFRl1L2F3VQ1ijUxbc27XI.jpg",
      "popularity": 11.321,
      "adult": false,
      "known_for_department": "Acting"
    },
    {
      "id": 59177,
      "name": "Michael Rady",
      "profile_path": "/a702olRCFvJNVdrQkBKbeNkaAey.jpg",
      "popularity": 15.72,
      "adult": false,
      "known_for_department": "Acting"
    },
    {
      "id": 51544,
      "name": "Mare Winningham",
      "profile_path": "/nXawdsVgNQp4Q41vu735nvajIT9.jpg",
      "popularity": 18.92,
      "adult": false,
      "known_for_department": "Acting"
    },
    {
      "id": 15234,
      "name": "David Arquette",
      "profile_path": "/1C5sLNLNVZ3P8sMy7HUQ32IKdqX.jpg",
      "popularity": 12.12,
      "adult": false,
      "known_for_department": "Acting"
    },
    {
      "id": 1230738,
      "name": "Hopper Penn",
      "profile_path": "/jjScDkYCpGbUPfnQ8QABIfcPu8c.jpg",
      "popularity": 13.719,
      "adult": false,
      "known_for_department": "Acting"
    }
  ]
}