{
  "page": 344,
  "total_results": 10000,
  "total_pages": 500,
  "results": [
    {
      "id": 185460,
      "name": "Mark Lewis Jones",
      "profile_path": "/5SAmzx40A0C3VOgzYPlcOmwqdL6.jpg",
      "popularity": 8.642,
      "adult": false,
      "known_for_department": "Acting"
    },
    {
      "id": 545394,
      "name": "Yuki Kazamatsuri",
      "profile_path": "/yGi9z2kzcEAKRntfzjAg6GMS9pI.jpg",
      "popularity": 8.64,
      "adult": false,
      "known_for_department": "Acting"
    },
    {
      "id": 26512,
      "name": "Carroll O'Connor",
      "profile_path": "/mtWn8rcfkgxiR37o6KzNaqvaZre.jpg",
      "popularity": 8.64,
      "adult": false,
      "known_for_department": "Acting"
    },
    {
      "id": 9832,
      "name": "Tyler Mane",
      "profile_path": "/h5knoBWStVv7a0FKPwfKV7f7Ez1.jpg",
      "popularity": 8.639,
      "adult": false,
      "known_for_department": "Acting"
    },
    {
      "id": 134178,
      "name": "Patricia Richardson",
      "profile_path": "/i7nIqwsGp0XlL0pvRX6dx1CkK5z.jpg",
      "popularity": 8.638,
      "adult": false,
      "known_for_department": "Acting"
    },
    {
      "id": 56830,
      "name": "Brigitte Lin",
      "profile_path": "/8Nq6F8bPy1HUHl4HkNIF0YGW1xD.jpg",
      "popularity": 8.638,
      "adult": false,
      "known_for_department": "Acting"
    },
    {
      "id": 55584,
      "name": "Ingvar Sigurdsson",
      "profile_path": "/rRzLj3miinQxIpPxJUzMdV9ZJb6.jpg",
      "popularity": 8.638,
      "adult": false,
      "known_for_department": "Acting"
    },
    {
      "id": 1893926,
      "name": "Kang Yoo-seok",
      "profile_path": "/gIuAOI5uORQyk2KV6AeDfULZq7P.jpg",
      "popularity": 8.637,
      "adult": false,
      "known_for_department": "Acting"
    },
    {
      "id": 1214573,
      "name": "Serena Williams",
      "profile_path": "/qMoRnzYuUkqb8VZjbX4XWZeQZzY.jpg",
      "popularity": 8.635,
      "adult": false,
      "known_for_department": "Acting"
    },
    {
      "id": 1332468,
      "name": "Heo Dong-won",
      "profile_path": "/2ozJdoP76fZvlLo1MhqPunoy6CW.jpg",
      "popularity": 8.634,
      "adult": false,
      "known_for_department": "Acting"
    },
    {
      "id": 1222259,
      "name": "Tavia Yeung",
      "profile_path": "/3ZG39HQH9VRHXBYnwSEVRtLq6zn.jpg",
      "popularity": 8.634,
      "adult": false,
      "known_for_department": "Acting"
    },
    {
      "id": 34982,
      "name": "Jeff Bennett",
      "profile_path": "/p78svoOr99IA2oBOUzAH9cnPOwf.jpg",
      "popularity": 8.634,
      "adult": false,
      "known_for_department": "Acting"
    },
    {
      "id": 27004,
      "name": "Meghan Heffern",
      "profile_path": "/eXJzVsCd0muB4n8Psby5g0zIAb5.jpg",
      "popularity": 8.634,
      "adult": false,
      "known_for_department": "Acting"
    },
    {
      "id": 2364949,
      "name": "Melanie Martinez",
      "profile_path": "/qqqCO1jF2pkTkohPCwOW8IpZtaH.jpg",
      "popularity": 8.633,
      "adult": false,
      "known_for_department": "Acting"
    },
    {
      "id": 1883890,
      "name": "Brent Antonello",
      "profile_path": "/qJL3MaceYZzuO3aFjBqg5y9CIFm.jpg",
      "popularity": 8.633,
      "adult": false,
      "known_for_department": "Acting"
    },
    {
      "id": 1328338,
      "name": "Chihiro Yamamoto",
      "profile_path": "/rdrIuK5bxqJIPdolAhsAlMqn4pM.jpg",
      "popularity": 8.633,
      "adult": false,
      "known_for_department": "Acting"
    },
    {
      "id": 53917,
      "name": "Danny Webb",
      "profile_path": "/e7OhVUIsfGWYIrYxwD1KEWF7afP.jpg",
      "popularity": 8.633,
      "adult": false,
      "known_for_department": "Acting"
    },
    {
      "id": 77164,
      "name": "Ryan Robbins",
      "profile_path": "/kZrq5a760JU1kHuxQ7Q8YCgsOr6.jpg",
      "popularity": 8.632,
      "adult": false,
      "known_for_department": "Acting"
    },
    {
      "id": 1223185,
      "name": "Miles Fisher",
      "profile_path": "/shf8LrQ1hmXut0PoYjNHjFuOwqk.jpg",
      "popularity": 8.631,
      "adult": false,
      "known_for_department": "Acting"
    },
    {
      "id": 33741,
      "name": "Rita Hayworth",
      "profile_path": "/k92fu0gVAY98kFGXgIZmdquroFQ.jpg",
      "popularity": 8.63,
      "adult": false,
      "known_for_department": "Acting"
    }
  ]
}