{
  "page": 84,
  "total_results": 10000,
  "total_pages": 500,
  "results": [
    {
      "id": 4135,
      "name": "Robert Redford",
      "profile_path": "/hNiy78lk26xTE6tjisSCowcOVw0.jpg",
      "popularity": 17.874,
      "adult": false,
      "known_for_department": "Acting"
    },
    {
      "id": 93564,
      "name": "Pihla Viitala",
      "profile_path": "/4arJbR42gQfEdWOrnZKIJTuLCLF.jpg",
      "popularity": 17.867,
      "adult": false,
      "known_for_department": "Acting"
    },
    {
      "id": 1133349,
      "name": "Elizabeth Debicki",
      "profile_path": "/nXXbGG1vCrHlscwqD55EGI9aHpA.jpg",
      "popularity": 17.865,
      "adult": false,
      "known_for_department": "Acting"
    },
    {
      "id": 12982,
      "name": "Peter Capaldi",
      "profile_path": "/wcsd1tMVFjgplfZlTUfb7fiD2zP.jpg",
      "popularity": 17.865,
      "adult": false,
      "known_for_department": "Acting"
    },
    {
      "id": 4431,
      "name": "Jessica Lange",
      "profile_path": "/kXkqaKWbAFaF3uYf8BXRoXZMxaZ.jpg",
      "popularity": 17.865,
      "adult": false,
      "known_for_department": "Acting"
    },
    {
      "id": 4455,
      "name": "Ulrich Thomsen",
      "profile_path": "/tfbcIIvi8ArK001GAn0k0oCheWc.jpg",
      "popularity": 17.863,
      "adult": false,
      "known_for_department": "Acting"
    },
    {
      "id": 3035,
      "name": "Jerry O'Connell",
      "profile_path": "/p2zcFeDIKUrPrbT5ODqoLifdN3Q.jpg",
      "popularity": 17.855,
      "adult": false,
      "known_for_department": "Acting"
    },
    {
      "id": 31171,
      "name": "Julie Bowen",
      "profile_path": "/y8oHR0SZCIoWKqFNbtwcJCCU6uq.jpg",
      "popularity": 17.854,
      "adult": false,
      "known_for_department": "Acting"
    },
    {
      "id": 11770,
      "name": "John Carpenter",
      "profile_path": "/ghBgALx0z2hGdY32eG9VL6dPyhz.jpg",
      "popularity": 17.851,
      "adult": false,
      "known_for_department": "Directing"
    },
    {
      "id": 56117,
      "name": "Martin Kove",
      "profile_path": "/vKfS55g6rqldWekNdy4JifuJQsw.jpg",
      "popularity": 17.85,
      "adult": false,
      "known_for_department": "Acting"
    },
    {
      "id": 31515,
      "name": "Mark Cuban",
      "profile_path": "/iK8LVp8R9Pf2MnYWBP6c0HKPf2D.jpg",
      "popularity": 17.838,
      "adult": false,
      "known_for_department": "Acting"
    },
    {
      "id": 4808,
      "name": "Giancarlo Esposito",
      "profile_path": "/lBvDQZjxhIGMbH61iHnqerpbqHc.jpg",
      "popularity": 17.835,
      "adult": false,
      "known_for_department": "Acting"
    },
    {
      "id": 2954,
      "name": "Jeffrey Wright",
      "profile_path": "/yGcuHGW4glqRpOPxgiCvjcren7F.jpg",
      "popularity": 17.834,
      "adult": false,
      "known_for_department": "Acting"
    },
    {
      "id": 25246,
      "name": "Andy Lau",
      "profile_path": "/8LCbwZJhjJRew59dJ7xSqyozVWf.jpg",
      "popularity": 17.831,
      "adult": false,
      "known_for_department": "Acting"
    },
    {
      "id": 22122,
      "name": "Meagan Good",
      "profile_path": "/iwSNBQKKDhEbtNe8I4ROYoYmWqE.jpg",
      "popularity": 17.831,
      "adult": false,
      "known_for_department": "Acting"
    },
    {
      "id": 63522,
      "name": "Sofía Vergara",
      "profile_path": "/kLkzvEwCUHwqBu4SXBo3pd7si7P.jpg",
      "popularity": 17.825,
      "adult": false,
      "known_for_department": "Acting"
    },
    {
      "id": 16937,
      "name": "Rex Linn",
      "profile_path": "/dY8x6OrmS0dBdogxeF2QALrCvpI.jpg",
      "popularity": 17.825,
      "adult": false,
      "known_for_department": "Acting"
    },
    {
      "id": 11366,
      "name": "Lorenzo Lamas",
      "profile_path": "/40H8ed5hKkapzRNVFo2UWPGmK3w.jpg",
      "popularity": 17.822,
      "adult": false,
      "known_for_department": "Acting"
    },
    {
      "id": 74427,
      "name": "John Hensley",
      "profile_path": "/9iKjAq8aTnHxW4LBPAUnRtwBurY.jpg",
      "popularity": 17.819,
      "adult": false,
      "known_for_department": "Acting"
    },
    {
      "id": 3030321,
      "name": "Jakapan Puttha",
      "profile_path": "/j7KGwqXmzsEJQv9MH0yqvwJaqAu.jpg",
      "popularity": 17.816,
      "adult": false,
      "known_for_department": "Acting"
    }
  ]
}