{
  "page": 134,
  "total_results": 10000,
  "total_pages": 500,
  "results": [
    {
      "id": 52938,
      "name": "Vanessa Lengies",
      "profile_path": "/dgdgqTj0kQ3Xpbx0ss7nvJ9hAl4.jpg",
      "popularity": 12.472,
      "adult": false,
      "known_for_department": "Acting"
    },
    {
      "id": 1705786,
      "name": "Can Yaman",
      "profile_path": "/a0wKL1MaCbjh2rJxtheaL3QKm6v.jpg",
      "popularity": 12.471,
      "adult": false,
      "known_for_department": "Acting"
    },
    {
      "id": 1454946,
      "name": "Milana Vayntrub",
      "profile_path": "/i5Cou9ExwTZvRRtl79V75CsI7oC.jpg",
      "popularity": 12.471,
      "adult": false,
      "known_for_department": "Acting"
    },
    {
      "id": 221840,
      "name": "Sara Canning",
      "profile_path": "/55AL7y8ybTE7uvpQALughR7bkkB.jpg",
      "popularity": 12.467,
      "adult": false,
      "known_for_department": "Acting"
    },
    {
      "id": 1252801,
      "name": "Emma Kenney",
      "profile_path": "/AvcM57XKunQCFGsu5cZZHkNre4z.jpg",
      "popularity": 12.466,
      "adult": false,
      "known_for_department": "Acting"
    },
    {
      "id": 1223875,
      "name": "Angela Kang",
      "profile_path": "/aeqK2edX5pipyfQsjk3GYY0CEZd.jpg",
      "popularity": 12.465,
      "adult": false,
      "known_for_department": "Production"
    },
    {
      "id": 1225953,
      "name": "Sterling K. Brown",
      "profile_path": "/vjFATaJfAyBie56J4Qv2DQ9Dyem.jpg",
      "popularity": 12.464,
      "adult": false,
      "known_for_department": "Acting"
    },
    {
      "id": 574378,
      "name": "Amber Rose Revah",
      "profile_path": "/cThPovs1j59Vs5iejgLqUZRBchv.jpg",
      "popularity": 12.463,
      "adult": false,
      "known_for_department": "Acting"
    },
    {
      "id": 20372,
      "name": "Edison Chen",
      "profile_path": "/zbV9UFmygySEGTOsqEamkne8E96.jpg",
      "popularity": 12.463,
      "adult": false,
      "known_for_department": "Acting"
    },
    {
      "id": 1015824,
      "name": "Ayame Misaki",
      "profile_path": "/7ViHWgrPifqwjMTGrzS7XI32VZs.jpg",
      "popularity": 12.462,
      "adult": false,
      "known_for_department": "Acting"
    },
    {
      "id": 62910,
      "name": "Sarah Lind",
      "profile_path": "/nSaDmrp62sgMcBaBvaM2YsYgTvw.jpg",
      "popularity": 12.453,
      "adult": false,
      "known_for_department": "Acting"
    },
    {
      "id": 1379122,
      "name": "Zackary Arthur",
      "profile_path": "/bHNxWDhEsxvEHWhh8oA9ArIo3AI.jpg",
      "popularity": 12.451,
      "adult": false,
      "known_for_department": "Acting"
    },
    {
      "id": 1078674,
      "name": "Park Ji-hwan",
      "profile_path": "/yCxBKivLmLaoziCveVbo89aW0zW.jpg",
      "popularity": 12.449,
      "adult": false,
      "known_for_department": "Acting"
    },
    {
      "id": 22252,
      "name": "Leslie Easterbrook",
      "profile_path": "/cgivmDAMFWTMGKGr12Z0HjEcBgN.jpg",
      "popularity": 12.444,
      "adult": false,
      "known_for_department": "Acting"
    },
    {
      "id": 195675,
      "name": "Ricky Whittle",
      "profile_path": "/cjeDbVfBp6Qvb3C74Dfy7BKDTQN.jpg",
      "popularity": 12.441,
      "adult": false,
      "known_for_department": "Acting"
    },
    {
      "id": 56117,
      "name": "Martin Kove",
      "profile_path": "/vKfS55g6rqldWekNdy4JifuJQsw.jpg",
      "popularity": 12.439,
      "adult": false,
      "known_for_department": "Acting"
    },
    {
      "id": 1282054,
      "name": "Sophie Cookson",
      "profile_path": "/3HrHnpDFjHIdHNeEyhEdzh6L6jd.jpg",
      "popularity": 12.435,
      "adult": false,
      "known_for_department": "Acting"
    },
    {
      "id": 59175,
      "name": "Blake Lively",
      "profile_path": "/rkGVjd6wImtgjOCi0IpeffdEWtb.jpg",
      "popularity": 12.435,
      "adult": false,
      "known_for_department": "Acting"
    },
    {
      "id": 18316,
      "name": "Ally Walker",
      "profile_path": "/YpBscMWFIZwCG5StxWAfbfX3XL.jpg",
      "popularity": 12.435,
      "adult": false,
      "known_for_department": "Acting"
    },
    {
      "id": 41229,
      "name": "Meg Foster",
      "profile_path": "/fGIeR5uPwPf9CF7uQPj9ReVD2IV.jpg",
      "popularity": 12.433,
      "adult": false,
      "known_for_department": "Acting"
    }
  ]
}