{
  "page": 390,
  "total_results": 10000,
  "total_pages": 500,
  "results": [
    {
      "id": 44639,
      "name": "Torben Liebrecht",
      "profile_path": "/2wOsGzDKRbKA5phd4o5zkx6lzIS.jpg",
      "popularity": 9.106,
      "adult": false,
      "known_for_department": "Acting"
    },
    {
      "id": 8892,
      "name": "Olivia Newton-John",
      "profile_path": "/pPgHm4ToBirjWcuOTrEMxS82stP.jpg",
      "popularity": 9.106,
      "adult": false,
      "known_for_department": "Acting"
    },
    {
      "id": 2093266,
      "name": "Sina Mehrad",
      "profile_path": "/zOnKlmkVZ74wAolzK9FnLkAvkAy.jpg",
      "popularity": 9.104,
      "adult": false,
      "known_for_department": "Acting"
    },
    {
      "id": 112645,
      "name": "Marci T. House",
      "profile_path": "/axLQS0wYYPMjJmaL268aUcaW505.jpg",
      "popularity": 9.104,
      "adult": false,
      "known_for_department": "Acting"
    },
    {
      "id": 63895,
      "name": "Alessandra Martines",
      "profile_path": "/xMfeR8rsf7wwYBG3JYFlcFzYgGR.jpg",
      "popularity": 9.104,
      "adult": false,
      "known_for_department": "Acting"
    },
    {
      "id": 230472,
      "name": "Ryoko Shiraishi",
      "profile_path": "/9HiasuMo5zn0nOGLcFJGQ5VvjWy.jpg",
      "popularity": 9.103,
      "adult": false,
      "known_for_department": "Acting"
    },
    {
      "id": 33492,
      "name": "Robert Costanzo",
      "profile_path": "/6HZSkvBcorNRTrHCDgBiSFms4OJ.jpg",
      "popularity": 9.103,
      "adult": false,
      "known_for_department": "Acting"
    },
    {
      "id": 1795607,
      "name": "Jahi Di'Allo Winston",
      "profile_path": "/x13w2XYkCdjllsbrzyb1aKno27o.jpg",
      "popularity": 9.102,
      "adult": false,
      "known_for_department": "Acting"
    },
    {
      "id": 1767463,
      "name": "Shazi Raja",
      "profile_path": "/y7SJkf86HM8TM5dlytFvz1pHoJ3.jpg",
      "popularity": 9.1,
      "adult": false,
      "known_for_department": "Acting"
    },
    {
      "id": 1252496,
      "name": "Cara Theobold",
      "profile_path": "/nWrD5EFqCBf8M53tjVoNPdNFs3E.jpg",
      "popularity": 9.1,
      "adult": false,
      "known_for_department": "Acting"
    },
    {
      "id": 19974,
      "name": "Greg Germann",
      "profile_path": "/cRLbrKwasOiBj68pORvrZTPHRfB.jpg",
      "popularity": 9.1,
      "adult": false,
      "known_for_department": "Acting"
    },
    {
      "id": 4265,
      "name": "Choi Min-I",
      "profile_path": "/lHmeUqHfvPZYLxq06wgVpRBvFNW.jpg",
      "popularity": 9.1,
      "adult": false,
      "known_for_department": "Acting"
    },
    {
      "id": 2687,
      "name": "Lyriq Bent",
      "profile_path": "/qDd2q7C13sfeVDFPsMXRxHhGAvn.jpg",
      "popularity": 9.099,
      "adult": false,
      "known_for_department": "Acting"
    },
    {
      "id": 1474028,
      "name": "Sharon Rooney",
      "profile_path": "/aMsYxadSBZ2dIlULmpHZCJyL9VF.jpg",
      "popularity": 9.097,
      "adult": false,
      "known_for_department": "Acting"
    },
    {
      "id": 234930,
      "name": "Isabella Laughland",
      "profile_path": "/5Od1m1YlSQvsggZhFwzRRFmskPX.jpg",
      "popularity": 9.096,
      "adult": false,
      "known_for_department": "Acting"
    },
    {
      "id": 941555,
      "name": "Guillermo García Cantú",
      "profile_path": "/yt8amJYrjS2Mc14nunQ4KdmYlR6.jpg",
      "popularity": 9.094,
      "adult": false,
      "known_for_department": "Acting"
    },
    {
      "id": 3175111,
      "name": "Mondop Heamtan",
      "profile_path": "/3IUL7S38INoGNkMdC4KJE3dc8bw.jpg",
      "popularity": 9.09,
      "adult": false,
      "known_for_department": "Acting"
    },
    {
      "id": 1392541,
      "name": "Mace Coronel",
      "profile_path": "/3RnzXjN3llx0Zo3oV3zLDvr3yIZ.jpg",
      "popularity": 9.09,
      "adult": false,
      "known_for_department": "Acting"
    },
    {
      "id": 16358,
      "name": "Simon McBurney",
      "profile_path": "/wwN02i4RBoPHDdOKXBV5AhFALdT.jpg",
      "popularity": 9.09,
      "adult": false,
      "known_for_department": "Acting"
    },
    {
      "id": 117437,
      "name": "Patrick St. Esprit",
      "profile_path": "/lgHbDLjzl6GHXlE1QqV6LwXojuD.jpg",
      "popularity": 9.088,
      "adult": false,
      "known_for_department": "Acting"
    }
  ]
}