{
  "page": 495,
  "total_results": 10000,
  "total_pages": 500,
  "results": [
    {
      "id": 8791,
      "name": "Marie-Josée Croze",
      "profile_path": "/cGBcSPPfsXbtydml0taNOY4WVwu.jpg",
      "popularity": 7.699,
      "adult": false,
      "known_for_department": "Acting"
    },
    {
      "id": 1041,
      "name": "Diahnne Abbott",
      "profile_path": "/9fHTqXGGtOxWHmo4dHSXmgN3YPY.jpg",
      "popularity": 7.699,
      "adult": false,
      "known_for_department": "Acting"
    },
    {
      "id": 1157126,
      "name": "Emiri Kato",
      "profile_path": "/5KdvblOJetjMoeSiMf1QR8XJBpW.jpg",
      "popularity": 7.698,
      "adult": false,
      "known_for_department": "Acting"
    },
    {
      "id": 12355,
      "name": "Russell Johnson",
      "profile_path": "/lDPl3KlE61o9ROvjsEfeJWYkFhl.jpg",
      "popularity": 7.698,
      "adult": false,
      "known_for_department": "Acting"
    },
    {
      "id": 8497,
      "name": "Collin Wilcox Paxton",
      "profile_path": "/2bamUyfXBrv2ttHMcAEBRjmGFCS.jpg",
      "popularity": 7.698,
      "adult": false,
      "known_for_department": "Acting"
    },
    {
      "id": 937913,
      "name": "Morgan Spector",
      "profile_path": "/u34cIKa0DMqCJYZuWZwLUiM1n2v.jpg",
      "popularity": 7.697,
      "adult": false,
      "known_for_department": "Acting"
    },
    {
      "id": 29803,
      "name": "Madeline Kahn",
      "profile_path": "/iEaCnVYtwbQ5xMaGQylcpmxgZcG.jpg",
      "popularity": 7.697,
      "adult": false,
      "known_for_department": "Acting"
    },
    {
      "id": 548608,
      "name": "Guo Tao",
      "profile_path": "/s4g5lIlszWb1QxpMLO2YDNDUsMx.jpg",
      "popularity": 7.696,
      "adult": false,
      "known_for_department": "Acting"
    },
    {
      "id": 126286,
      "name": "Mitsuki Saiga",
      "profile_path": "/qjRHodCBpKY8nEa4p8dZriDoil4.jpg",
      "popularity": 7.696,
      "adult": false,
      "known_for_department": "Acting"
    },
    {
      "id": 24743,
      "name": "Simon MacCorkindale",
      "profile_path": "/rlNnpXapxZTw3LkNcqqdbJUki2Y.jpg",
      "popularity": 7.696,
      "adult": false,
      "known_for_department": "Acting"
    },
    {
      "id": 939,
      "name": "David Schofield",
      "profile_path": "/on5V05LXlkU2kiu4TjaDvpp0jBn.jpg",
      "popularity": 7.695,
      "adult": false,
      "known_for_department": "Acting"
    },
    {
      "id": 1149338,
      "name": "Mikie Hara",
      "profile_path": "/36FIV6sJvc46lG288RhAnS7aW6e.jpg",
      "popularity": 7.694,
      "adult": false,
      "known_for_department": "Acting"
    },
    {
      "id": 54338,
      "name": "Hafsia Herzi",
      "profile_path": "/yw4XPantvfi8HEz75TTqy56FiH3.jpg",
      "popularity": 7.694,
      "adult": false,
      "known_for_department": "Acting"
    },
    {
      "id": 1043938,
      "name": "María Elena Velasco",
      "profile_path": "/oQ9IBfB38EepJZcuvsdNXSOHexg.jpg",
      "popularity": 7.693,
      "adult": false,
      "known_for_department": "Acting"
    },
    {
      "id": 145628,
      "name": "Shriya Saran",
      "profile_path": "/ioOgKBSCJhOdKoZpg86ld7zANbf.jpg",
      "popularity": 7.693,
      "adult": false,
      "known_for_department": "Acting"
    },
    {
      "id": 52188,
      "name": "Drew Snyder",
      "profile_path": "/svKja4WkKpc608n5m0ZMHoGvvWq.jpg",
      "popularity": 7.693,
      "adult": false,
      "known_for_department": "Acting"
    },
    {
      "id": 2769219,
      "name": "Amelie Bea Smith",
      "profile_path": "/dddQ9MiYIaoVEbt3ZoDbx65Waza.jpg",
      "popularity": 7.692,
      "adult": false,
      "known_for_department": "Acting"
    },
    {
      "id": 240948,
      "name": "Moon Sung-keun",
      "profile_path": "/wQjOvAFqCItwMw7dxa486KnGgEE.jpg",
      "popularity": 7.692,
      "adult": false,
      "known_for_department": "Acting"
    },
    {
      "id": 125734,
      "name": "Lee Ki-young",
      "profile_path": "/zQlPXY8vusE72nPQwanRACveDdV.jpg",
      "popularity": 7.691,
      "adult": false,
      "known_for_department": "Acting"
    },
    {
      "id": 1216004,
      "name": "Jordan Calloway",
      "profile_path": "/tRqqOTzfAAftvtWgNIdjyo5WDfm.jpg",
      "popularity": 7.69,
      "adult": false,
      "known_for_department": "Acting"
    }
  ]
}