{
  "page": 420,
  "total_results": 10000,
  "total_pages": 500,
  "results": [
    {
      "id": 20361,
      "name": "John Bennett Perry",
      "profile_path": "/5pO51CnN8xNa6Xeosr6hTsMrM4g.jpg",
      "popularity": 6.972,
      "adult": false,
      "known_for_department": "Acting"
    },
    {
      "id": 98628,
      "name": "Kim Fields",
      "profile_path": "/yCjJ85sBk2BQmhXBgHBBZDQtY5c.jpg",
      "popularity": 6.971,
      "adult": false,
      "known_for_department": "Acting"
    },
    {
      "id": 83438,
      "name": "Julia McKenzie",
      "profile_path": "/kNQTuGDiu6s1A9yLqm4EjDmT8cd.jpg",
      "popularity": 6.971,
      "adult": false,
      "known_for_department": "Acting"
    },
    {
      "id": 62417,
      "name": "Richard Ng",
      "profile_path": "/oEFqGH1vQjRoNlVfZseRMYTzAsY.jpg",
      "popularity": 6.971,
      "adult": false,
      "known_for_department": "Acting"
    },
    {
      "id": 584143,
      "name": "Yukiyoshi Ozawa",
      "profile_path": "/eGBjjAmzqlj0fvliJPj93ENoCmr.jpg",
      "popularity": 6.969,
      "adult": false,
      "known_for_department": "Acting"
    },
    {
      "id": 2158642,
      "name": "Luis Mesa",
      "profile_path": "/dISc5QIvqlcuzjxn6PVBARlGrZx.jpg",
      "popularity": 6.968,
      "adult": false,
      "known_for_department": "Acting"
    },
    {
      "id": 2111602,
      "name": "Yang Zhiying",
      "profile_path": "/dWkz8sb8ArVRj4F3vej8WKk8b7o.jpg",
      "popularity": 6.968,
      "adult": false,
      "known_for_department": "Acting"
    },
    {
      "id": 1668475,
      "name": "Sun Yihan",
      "profile_path": "/bk8y8pE9xssy3BG2OGD1SgfU4cm.jpg",
      "popularity": 6.968,
      "adult": false,
      "known_for_department": "Acting"
    },
    {
      "id": 2167,
      "name": "Mercedes Ruehl",
      "profile_path": "/mQIPCqImthK7Hn6mGeRDJ11QcEZ.jpg",
      "popularity": 6.968,
      "adult": false,
      "known_for_department": "Acting"
    },
    {
      "id": 3028634,
      "name": "Mohamad Al Ahmad",
      "profile_path": "",
      "popularity": 6.967,
      "adult": false,
      "known_for_department": "Acting"
    },
    {
      "id": 103554,
      "name": "Isabel Lucas",
      "profile_path": "/dxIZvymamZaeJ46HDJ0ldaJmG2v.jpg",
      "popularity": 6.967,
      "adult": false,
      "known_for_department": "Acting"
    },
    {
      "id": 2537,
      "name": "Shin'ichi Chiba",
      "profile_path": "/iB8qxT3SYcEf4d40F2eNpa3AsV1.jpg",
      "popularity": 6.967,
      "adult": false,
      "known_for_department": "Acting"
    },
    {
      "id": 1435167,
      "name": "Valentina Bellè",
      "profile_path": "/uCbip6RpanFI5ctR60IB8ON5Fj9.jpg",
      "popularity": 6.966,
      "adult": false,
      "known_for_department": "Acting"
    },
    {
      "id": 90609,
      "name": "Oz Perkins",
      "profile_path": "/fCEfHXkvkKNPnySxlHvukgVOeTw.jpg",
      "popularity": 6.966,
      "adult": false,
      "known_for_department": "Acting"
    },
    {
      "id": 1912295,
      "name": "Bodil Joensen",
      "profile_path": "/jF2hMwqjDe17p7H3KZUKxLVlIsR.jpg",
      "popularity": 6.965,
      "adult": false,
      "known_for_department": "Acting"
    },
    {
      "id": 57358,
      "name": "Brant von Hoffman",
      "profile_path": "/ijMKZOXtDZqEHdQ7oe1QNuZdw74.jpg",
      "popularity": 6.965,
      "adult": false,
      "known_for_department": "Acting"
    },
    {
      "id": 19360,
      "name": "Léa Drucker",
      "profile_path": "/n2AG5cA6pbEFuBn8zDd4Boj0em4.jpg",
      "popularity": 6.965,
      "adult": false,
      "known_for_department": "Acting"
    },
    {
      "id": 1392665,
      "name": "Karolina Szymczak",
      "profile_path": "/8Vkiqs8EAdKVV78FYcPLRXPbGLz.jpg",
      "popularity": 6.964,
      "adult": false,
      "known_for_department": "Acting"
    },
    {
      "id": 1255877,
      "name": "Yoon Jin-yi",
      "profile_path": "/At4N18E4N3WeQASGFXrVCafnJk3.jpg",
      "popularity": 6.963,
      "adult": false,
      "known_for_department": "Acting"
    },
    {
      "id": 453588,
      "name": "Melanie Papalia",
      "profile_path": "/vaWzF78QBxphHhLop0tRaLqGx6P.jpg",
      "popularity": 6.963,
      "adult": false,
      "known_for_department": "Acting"
    }
  ]
}