{
  "page": 500,
  "total_results": 10000,
  "total_pages": 500,
  "results": [
    {
      "id": 140407,
      "name": "Ksenia Solo",
      "profile_path": "/iWMeGas6GpzCKvOcQpe1M7Y1i0U.jpg",
      "popularity": 7.406,
      "adult": false,
      "known_for_department": "Acting"
    },
    {
      "id": 64775,
      "name": "Robert Vito",
      "profile_path": "/74nr2wDt1s4CxfKtnA73PzopOud.jpg",
      "popularity": 7.006,
      "adult": false,
      "known_for_department": "Acting"
    },
    {
      "id": 62000,
      "name": "Tiffany Shepis",
      "profile_path": "/7XQa0TjxogZJOxfCNyK1aczTPOu.jpg",
      "popularity": 8.206,
      "adult": false,
      "known_for_department": "Acting"
    },
    {
      "id": 26879,
      "name": "Raymond Gérôme",
      "profile_path": "/3uArwYv0nMvVdFAPvpKtq3jbXbP.jpg",
      "popularity": 6.606,
      "adult": false,
      "known_for_department": "Acting"
    },
    {
      "id": 1134734,
      "name": "Pauline Chan",
      "profile_path": "/lwEjTPAOCWJCftIQ3H1kvt1d5cd.jpg",
      "popularity": 8.606,
      "adult": false,
      "known_for_department": "Acting"
    },
    {
      "id": 593202,
      "name": "Maddie Hasson",
      "profile_path": "/toEj0aAgZnIot2rOWXFFj8Xeaew.jpg",
      "popularity": 10.206,
      "adult": false,
      "known_for_department": "Acting"
    },
    {
      "id": 135162,
      "name": "Karen Sillas",
      "profile_path": "/vQhlcyC2TZkHJQ2w86e1BSmRdae.jpg",
      "popularity": 7.406,
      "adult": false,
      "known_for_department": "Acting"
    },
    {
      "id": 109137,
      "name": "Bergüzar Korel",
      "profile_path": "/2V3lTaBpEjcD1m5R1PBs971WNBE.jpg",
      "popularity": 11.006,
      "adult": false,
      "known_for_department": "Acting"
    },
    {
      "id": 6110,
      "name": "Graham Beckel",
      "profile_path": "/duFny0c11zVA37XG1bHFTNOCvRG.jpg",
      "popularity": 7.806,
      "adult": false,
      "known_for_department": "Acting"
    },
    {
      "id": 941524,
      "name": "Byron Jennings",
      "profile_path": "/2I51lhM3Ya5Cp5aMIp6OxBDUgkv.jpg",
      "popularity": 5.406,
      "adult": false,
      "known_for_department": "Acting"
    },
    {
      "id": 135409,
      "name": "Brigid Brannagh",
      "profile_path": "/p7FD0q7Uvio1CK5eirJbDDmMNqX.jpg",
      "popularity": 7.806,
      "adult": false,
      "known_for_department": "Acting"
    },
    {
      "id": 134712,
      "name": "Seth Smith",
      "profile_path": "",
      "popularity": 6.206,
      "adult": false,
      "known_for_department": "Acting"
    },
    {
      "id": 118076,
      "name": "David Call",
      "profile_path": "/lcfAlaiVRjpmb5OXtrso0eH8br.jpg",
      "popularity": 7.006,
      "adult": false,
      "known_for_department": "Acting"
    },
    {
      "id": 71552,
      "name": "Ari Graynor",
      "profile_path": "/5zeItxS6KlT6SzOJnsRZEzCv0Mm.jpg",
      "popularity": 9.806,
      "adult": false,
      "known_for_department": "Acting"
    },
    {
      "id": 30367,
      "name": "Alisan Porter",
      "profile_path": "/4T0hDFlwViLCQ2JCIEBnab9kwht.jpg",
      "popularity": 8.606,
      "adult": false,
      "known_for_department": "Acting"
    },
    {
      "id": 1120842,
      "name": "Amy Groening",
      "profile_path": "/jOb8WUITh7zhRcUEkwjE41E4U2c.jpg",
      "popularity": 6.606,
      "adult": false,
      "known_for_department": "Acting"
    },
    {
      "id": 138509,
      "name": "Lee Moon-sik",
      "profile_path": "/l35QNTHvVchdwKaX4TBvmC5ibRy.jpg",
      "popularity": 8.205,
      "adult": false,
      "known_for_department": "Acting"
    },
    {
      "id": 59293,
      "name": "Archie Kao",
      "profile_path": "/f0CpbBJl5JMeMwxZ4IqsLmptCoT.jpg",
      "popularity": 11.005,
      "adult": false,
      "known_for_department": "Acting"
    },
    {
      "id": 1459111,
      "name": "Chris McNally",
      "profile_path": "/1z0tZvUSBrHEJBfqQHiF0SLaveQ.jpg",
      "popularity": 8.205,
      "adult": false,
      "known_for_department": "Acting"
    },
    {
      "id": 1224128,
      "name": "Rachel Cannon",
      "profile_path": "/j2bPPCDIBv7HTTocL3Ape1iUZWQ.jpg",
      "popularity": 6.205,
      "adult": false,
      "known_for_department": "Acting"
    }
  ]
}