{
  "page": 496,
  "total_results": 10000,
  "total_pages": 500,
  "results": [
    {
      "id": 125055,
      "name": "Sara Ramirez",
      "profile_path": "/5hi4tZfMQe5Cw236c7eIFYi0D1F.jpg",
      "popularity": 7.178,
      "adult": false,
      "known_for_department": "Acting"
    },
    {
      "id": 52358,
      "name": "Boaz Yakin",
      "profile_path": "/fBMZdwXjIilRm4tWHs24fPnsVeq.jpg",
      "popularity": 7.178,
      "adult": false,
      "known_for_department": "Writing"
    },
    {
      "id": 31211,
      "name": "Clive Barker",
      "profile_path": "/h6JebwvNTpOquhJGrmDh8zCYjQZ.jpg",
      "popularity": 7.177,
      "adult": false,
      "known_for_department": "Writing"
    },
    {
      "id": 16420,
      "name": "Richard Boone",
      "profile_path": "/3jr6nbojJHrDvc0xQFrGOBwXt0M.jpg",
      "popularity": 7.176,
      "adult": false,
      "known_for_department": "Acting"
    },
    {
      "id": 7929,
      "name": "Angus MacLane",
      "profile_path": "/aVjfb4A3Nms5JFyYP7yqx5s7YtQ.jpg",
      "popularity": 7.176,
      "adult": false,
      "known_for_department": "Visual Effects"
    },
    {
      "id": 7795,
      "name": "Buck Henry",
      "profile_path": "/iAOjaj5OHMMXno65MwmDtkqHeb6.jpg",
      "popularity": 7.176,
      "adult": false,
      "known_for_department": "Acting"
    },
    {
      "id": 2124,
      "name": "Iman",
      "profile_path": "/xhJ7gUVUP1TzkC4RuNStV1Bzng1.jpg",
      "popularity": 7.176,
      "adult": false,
      "known_for_department": "Acting"
    },
    {
      "id": 990136,
      "name": "Judd Lormand",
      "profile_path": "/jeZBWgcjiTaXZM6FwcHm9QW1F6w.jpg",
      "popularity": 7.175,
      "adult": false,
      "known_for_department": "Acting"
    },
    {
      "id": 25144,
      "name": "Ty Panitz",
      "profile_path": "",
      "popularity": 7.175,
      "adult": false,
      "known_for_department": "Acting"
    },
    {
      "id": 20301,
      "name": "Justin Kirk",
      "profile_path": "/68QWfaIoOYy4QzjnjiXPXxnpT6u.jpg",
      "popularity": 7.175,
      "adult": false,
      "known_for_department": "Acting"
    },
    {
      "id": 168750,
      "name": "Jake Epstein",
      "profile_path": "/rxsnhNXPkFwxBePrSV53kVS52Sj.jpg",
      "popularity": 7.174,
      "adult": false,
      "known_for_department": "Acting"
    },
    {
      "id": 40389,
      "name": "Bernadette Peters",
      "profile_path": "/x2hZ6AsIAfb5t512Q72SYtdNdZf.jpg",
      "popularity": 7.174,
      "adult": false,
      "known_for_department": "Acting"
    },
    {
      "id": 34199,
      "name": "Thomas Dekker",
      "profile_path": "/vO72HH4PfesrCwEioBJn2gR6ebC.jpg",
      "popularity": 7.174,
      "adult": false,
      "known_for_department": "Acting"
    },
    {
      "id": 2398803,
      "name": "Wang Youjun",
      "profile_path": "/aX50AMpq2oGPDGk21yAiY0bM2AT.jpg",
      "popularity": 7.173,
      "adult": false,
      "known_for_department": "Acting"
    },
    {
      "id": 41020,
      "name": "E. Roger Mitchell",
      "profile_path": "/qdcwrdA1IYvuRe0A2abSvzVLZVS.jpg",
      "popularity": 7.173,
      "adult": false,
      "known_for_department": "Acting"
    },
    {
      "id": 1179337,
      "name": "Jared Gilmore",
      "profile_path": "/w1SMnBS8rgpwedyK4dgSvP0vJv5.jpg",
      "popularity": 7.172,
      "adult": false,
      "known_for_department": "Acting"
    },
    {
      "id": 90596,
      "name": "Katie Featherston",
      "profile_path": "/zfoprDirNsWxvxDKvRzUyPXKGR6.jpg",
      "popularity": 7.172,
      "adult": false,
      "known_for_department": "Acting"
    },
    {
      "id": 1394997,
      "name": "Tituss Burgess",
      "profile_path": "/aSgNPpLPp8Ou1X6qHdSP6Sq7Gju.jpg",
      "popularity": 7.171,
      "adult": false,
      "known_for_department": "Acting"
    },
    {
      "id": 68180,
      "name": "Gary Grubbs",
      "profile_path": "/uXJG4skJTElTQ5BJ9pkJjzfKIDv.jpg",
      "popularity": 7.171,
      "adult": false,
      "known_for_department": "Acting"
    },
    {
      "id": 2021739,
      "name": "Changbin",
      "profile_path": "/uahnOKnIw2mkbsvxBV8bIYoIrjA.jpg",
      "popularity": 7.17,
      "adult": false,
      "known_for_department": "Acting"
    }
  ]
}