{
  "page": 490,
  "total_results": 10000,
  "total_pages": 500,
  "results": [
    {
      "id": 1251160,
      "name": "Michael Eric Reid",
      "profile_path": "/idWpVtKwQ4ubCBAGlW0b3jM5Mk0.jpg",
      "popularity": 7.987,
      "adult": false,
      "known_for_department": "Acting"
    },
    {
      "id": 135200,
      "name": "Ikuji Nakamura",
      "profile_path": "/6CZABcNV6f6zVWImdT7Eg7eFDOb.jpg",
      "popularity": 7.987,
      "adult": false,
      "known_for_department": "Acting"
    },
    {
      "id": 105747,
      "name": "Kate Jackson",
      "profile_path": "/jZj5IJss6c94E7RQIfkDt3wilUm.jpg",
      "popularity": 7.987,
      "adult": false,
      "known_for_department": "Acting"
    },
    {
      "id": 40327,
      "name": "Toru Furuya",
      "profile_path": "/nsibN89E7tYhy0B6Xk9UvkirSXF.jpg",
      "popularity": 7.986,
      "adult": false,
      "known_for_department": "Acting"
    },
    {
      "id": 6079,
      "name": "Ivan Shvedoff",
      "profile_path": "/33k3avFGiydICwCBvF0PZoNGcIx.jpg",
      "popularity": 7.986,
      "adult": false,
      "known_for_department": "Acting"
    },
    {
      "id": 227778,
      "name": "Carol Cheng",
      "profile_path": "/fnbJTW1jf93T8pexvjWNjOxW3gq.jpg",
      "popularity": 7.985,
      "adult": false,
      "known_for_department": "Acting"
    },
    {
      "id": 44714,
      "name": "Eva Gabor",
      "profile_path": "/7AGOoUGvGlMcBKD0nM7Quo4lYAq.jpg",
      "popularity": 7.985,
      "adult": false,
      "known_for_department": "Acting"
    },
    {
      "id": 3360,
      "name": "Joan Fontaine",
      "profile_path": "/zwbyeuUkfNwq97L3Xlb2YIFhig.jpg",
      "popularity": 7.985,
      "adult": false,
      "known_for_department": "Acting"
    },
    {
      "id": 585956,
      "name": "Benjamín Rojas",
      "profile_path": "/hFt7INPNchsW92QF4Lsl0vlsiON.jpg",
      "popularity": 7.984,
      "adult": false,
      "known_for_department": "Acting"
    },
    {
      "id": 122535,
      "name": "Samantha Spiro",
      "profile_path": "/qRHDueWNjMHLNstQen26vSDtV05.jpg",
      "popularity": 7.984,
      "adult": false,
      "known_for_department": "Acting"
    },
    {
      "id": 1094319,
      "name": "Matthew Page",
      "profile_path": "/vMI1zxybJONZYqL8MI9gGxyfqfC.jpg",
      "popularity": 7.981,
      "adult": false,
      "known_for_department": "Acting"
    },
    {
      "id": 1491344,
      "name": "Renata Notni",
      "profile_path": "/9K3ciInRuT5BiJ03HD4YTnRsunY.jpg",
      "popularity": 7.98,
      "adult": false,
      "known_for_department": "Acting"
    },
    {
      "id": 123660,
      "name": "Tara Spencer-Nairn",
      "profile_path": "/2kxSF65Xvr0mVCY5gyP81erCbHf.jpg",
      "popularity": 7.98,
      "adult": false,
      "known_for_department": "Acting"
    },
    {
      "id": 553201,
      "name": "Jerry Lamb Hiu-Fung",
      "profile_path": "/3WZd6N5SEYtk5sZdg4cm8qPJf4D.jpg",
      "popularity": 7.979,
      "adult": false,
      "known_for_department": "Acting"
    },
    {
      "id": 20899,
      "name": "Peter Riegert",
      "profile_path": "/yPgaRZBMVy9eoNNuiPIm0wzG9sD.jpg",
      "popularity": 7.979,
      "adult": false,
      "known_for_department": "Acting"
    },
    {
      "id": 2476148,
      "name": "Lou Llobell",
      "profile_path": "/mTzgWFs5PAKcM09bOtiwCeVc67Z.jpg",
      "popularity": 7.978,
      "adult": false,
      "known_for_department": "Acting"
    },
    {
      "id": 1222249,
      "name": "Ron Ng",
      "profile_path": "/rhT0EL5LYYLZIyS3Aax6MakEE9e.jpg",
      "popularity": 7.977,
      "adult": false,
      "known_for_department": "Acting"
    },
    {
      "id": 95090,
      "name": "Michael St. Gerard",
      "profile_path": "/z4q17Rm7hVAnIjCHDFKzPKMAZAG.jpg",
      "popularity": 7.977,
      "adult": false,
      "known_for_department": "Acting"
    },
    {
      "id": 26784,
      "name": "Danny Lee Sau-Yin",
      "profile_path": "/fyRGlzi1fF20d37ryTQx8aK6k49.jpg",
      "popularity": 7.976,
      "adult": false,
      "known_for_department": "Acting"
    },
    {
      "id": 4996,
      "name": "Tatyana Ali",
      "profile_path": "/wlCYid92sB1dffkxW271NEqrYOB.jpg",
      "popularity": 7.976,
      "adult": false,
      "known_for_department": "Acting"
    }
  ]
}