{
  "page": 233,
  "total_results": 10000,
  "total_pages": 500,
  "results": [
    {
      "id": 1063128,
      "name": "Ethan Juan",
      "profile_path": "/vDiFcca1TYcFssxjU9efGjIAWN4.jpg",
      "popularity": 13.586,
      "adult": false,
      "known_for_department": "Acting"
    },
    {
      "id": 131520,
      "name": "Brooklyn Decker",
      "profile_path": "/x3JWepaXTopE9k0g87Q9diRM5Nc.jpg",
      "popularity": 13.586,
      "adult": false,
      "known_for_department": "Acting"
    },
    {
      "id": 118752,
      "name": "Natalie Morales",
      "profile_path": "/cAmnBs0c08A6pLwRJpIr7ImkjIQ.jpg",
      "popularity": 13.583,
      "adult": false,
      "known_for_department": "Acting"
    },
    {
      "id": 1255413,
      "name": "Kim Young-kwang",
      "profile_path": "/4FWsJgetXvEwWmPrR7KTjPhBchv.jpg",
      "popularity": 13.581,
      "adult": false,
      "known_for_department": "Acting"
    },
    {
      "id": 1442583,
      "name": "Park So-dam",
      "profile_path": "/gaDnEiMD5PClT9ARg1bSFyexbor.jpg",
      "popularity": 13.58,
      "adult": false,
      "known_for_department": "Acting"
    },
    {
      "id": 1258530,
      "name": "Kadir Doğulu",
      "profile_path": "/3CGKCJajmO7TUcDN1fqW0XkLbHV.jpg",
      "popularity": 13.58,
      "adult": false,
      "known_for_department": "Acting"
    },
    {
      "id": 1457238,
      "name": "Sonoya Mizuno",
      "profile_path": "/scbRPaGPw3VnR6mrmZQZi6Cuj1m.jpg",
      "popularity": 13.577,
      "adult": false,
      "known_for_department": "Acting"
    },
    {
      "id": 42141,
      "name": "Casey Sander",
      "profile_path": "/xHVyamqUbJK2dmFCw7LOQzYREJF.jpg",
      "popularity": 13.577,
      "adult": false,
      "known_for_department": "Acting"
    },
    {
      "id": 1597365,
      "name": "Joseph Quinn",
      "profile_path": "/ub4MLUD2yxamNwuX1PKGJjKjhIW.jpg",
      "popularity": 13.575,
      "adult": false,
      "known_for_department": "Acting"
    },
    {
      "id": 119245,
      "name": "Sherry Jackson",
      "profile_path": "/9XNA3LsUvNf5O3BSAysvsJ1XnMl.jpg",
      "popularity": 13.574,
      "adult": false,
      "known_for_department": "Acting"
    },
    {
      "id": 52360,
      "name": "Ken Daurio",
      "profile_path": "/w2h65hO12TzEZmONJ3RB6DqcskJ.jpg",
      "popularity": 13.573,
      "adult": false,
      "known_for_department": "Writing"
    },
    {
      "id": 61983,
      "name": "Jason Marsden",
      "profile_path": "/53aVh2ka0b4ZyR8dO8hBTQxQ9hc.jpg",
      "popularity": 13.572,
      "adult": false,
      "known_for_department": "Acting"
    },
    {
      "id": 1044952,
      "name": "Kris Van Damme",
      "profile_path": "/4465DC6Fz3RUtOGwD2E4xidFr8z.jpg",
      "popularity": 13.571,
      "adult": false,
      "known_for_department": "Acting"
    },
    {
      "id": 154917,
      "name": "Al Sapienza",
      "profile_path": "/tqgr67aRg1OuuRhQFd8I3JduSRD.jpg",
      "popularity": 13.57,
      "adult": false,
      "known_for_department": "Acting"
    },
    {
      "id": 1153821,
      "name": "Edvin Endre",
      "profile_path": "/csP0OxPMM41Ri5pN39YX72mOV2z.jpg",
      "popularity": 13.569,
      "adult": false,
      "known_for_department": "Acting"
    },
    {
      "id": 123408,
      "name": "Lee Na-young",
      "profile_path": "/vN7rFR6NrkdkmFnH0xMRaZrJtjY.jpg",
      "popularity": 13.566,
      "adult": false,
      "known_for_department": "Acting"
    },
    {
      "id": 119866,
      "name": "Jimmy Workman",
      "profile_path": "/4Sjje7blXkMA0ipxkSni1NKreMl.jpg",
      "popularity": 13.566,
      "adult": false,
      "known_for_department": "Acting"
    },
    {
      "id": 13026,
      "name": "Nina Foch",
      "profile_path": "/7G1PlnCSzRHa9DTQcN0zO1y7sM3.jpg",
      "popularity": 13.565,
      "adult": false,
      "known_for_department": "Acting"
    },
    {
      "id": 1212139,
      "name": "Jennie Garth",
      "profile_path": "/nqgP9o12FNDOeON6bfbnN8pvb72.jpg",
      "popularity": 13.564,
      "adult": false,
      "known_for_department": "Acting"
    },
    {
      "id": 220142,
      "name": "Suranne Jones",
      "profile_path": "/mwoX6TauWmPOgmRyvgMwp7nAXVB.jpg",
      "popularity": 13.562,
      "adult": false,
      "known_for_department": "Acting"
    }
  ]
}