{
  "page": 240,
  "total_results": 10000,
  "total_pages": 500,
  "results": [
    {
      "id": 6213,
      "name": "Jamie Kennedy",
      "profile_path": "/shm7XMZF9bfliTDahcjqplhMkMD.jpg",
      "popularity": 11.565,
      "adult": false,
      "known_for_department": "Acting"
    },
    {
      "id": 6726,
      "name": "Sheryl Lee",
      "profile_path": "/zgGpEcAywZu1tx5OVj5I6j7PpxW.jpg",
      "popularity": 11.564,
      "adult": false,
      "known_for_department": "Acting"
    },
    {
      "id": 1489441,
      "name": "Annalisa Cochrane",
      "profile_path": "/4shQO7CCVY2Crv37GvEdVTfnbwP.jpg",
      "popularity": 11.56,
      "adult": false,
      "known_for_department": "Acting"
    },
    {
      "id": 90135,
      "name": "Marina Inoue",
      "profile_path": "/nQ7a3krkbea6ukw9KGvvTpMma96.jpg",
      "popularity": 11.56,
      "adult": false,
      "known_for_department": "Acting"
    },
    {
      "id": 17345,
      "name": "Rockmond Dunbar",
      "profile_path": "/jPeVjtCH3bo1tzbDogdXyZpNrir.jpg",
      "popularity": 11.56,
      "adult": false,
      "known_for_department": "Acting"
    },
    {
      "id": 1263819,
      "name": "Hanna Ardéhn",
      "profile_path": "/dsEI15Q5rjiYlYbqTu3nsLCHyuR.jpg",
      "popularity": 11.558,
      "adult": false,
      "known_for_department": "Acting"
    },
    {
      "id": 1660946,
      "name": "Colin Woodell",
      "profile_path": "/sMd7ba1hWVm5E1Lf5VYcj82ouod.jpg",
      "popularity": 11.557,
      "adult": false,
      "known_for_department": "Acting"
    },
    {
      "id": 1214870,
      "name": "Tyler James Williams",
      "profile_path": "/iuPSybfJYExEgUfSmIdN540gdHp.jpg",
      "popularity": 11.556,
      "adult": false,
      "known_for_department": "Acting"
    },
    {
      "id": 209723,
      "name": "Eve Harlow",
      "profile_path": "/iXwYkiU3IgxYfaPuU8nFzFYWyqI.jpg",
      "popularity": 11.555,
      "adult": false,
      "known_for_department": "Acting"
    },
    {
      "id": 238164,
      "name": "Jóhannes Haukur Jóhannesson",
      "profile_path": "/oqZftP0WS1rD5NFpR7vLp6JU52I.jpg",
      "popularity": 11.554,
      "adult": false,
      "known_for_department": "Acting"
    },
    {
      "id": 168610,
      "name": "Kathleen Munroe",
      "profile_path": "/co8l2AzgtCnx4SgJpcqDrIfIxli.jpg",
      "popularity": 11.554,
      "adult": false,
      "known_for_department": "Acting"
    },
    {
      "id": 63470,
      "name": "Jennifer Lyons",
      "profile_path": "/2Eph4ijlHdB7TPRP6LSiJOj79pQ.jpg",
      "popularity": 11.554,
      "adult": false,
      "known_for_department": "Acting"
    },
    {
      "id": 49915,
      "name": "Jesse McCartney",
      "profile_path": "/95f7jVXUwkHUUfj3AjvTJYx3pei.jpg",
      "popularity": 11.554,
      "adult": false,
      "known_for_department": "Acting"
    },
    {
      "id": 357551,
      "name": "Amy Landecker",
      "profile_path": "/3woCLCbumhHOxrkeVOT7ylWi7Lg.jpg",
      "popularity": 11.553,
      "adult": false,
      "known_for_department": "Acting"
    },
    {
      "id": 71241,
      "name": "Justin Henry",
      "profile_path": "/9wp0WZZSbXzYqmQVwsFfnfDpAT6.jpg",
      "popularity": 11.55,
      "adult": false,
      "known_for_department": "Acting"
    },
    {
      "id": 956385,
      "name": "Meadow Williams",
      "profile_path": "/7CQHKHgjAEcKaeTOZ2XsBVoT6Uz.jpg",
      "popularity": 11.549,
      "adult": false,
      "known_for_department": "Acting"
    },
    {
      "id": 1664773,
      "name": "Emmanuel Imani",
      "profile_path": "/gTYTHVIfv1HMr6h1gtLoACH7l17.jpg",
      "popularity": 11.548,
      "adult": false,
      "known_for_department": "Acting"
    },
    {
      "id": 30861,
      "name": "Leslie Jordan",
      "profile_path": "/3wEqWsL5ku3Gsn1kZRbJbxGuu6W.jpg",
      "popularity": 11.548,
      "adult": false,
      "known_for_department": "Acting"
    },
    {
      "id": 127268,
      "name": "William Chan Wai-Ting",
      "profile_path": "/ovPTGfoN7EJei92CSAqs0sPvuoS.jpg",
      "popularity": 11.547,
      "adult": false,
      "known_for_department": "Acting"
    },
    {
      "id": 185831,
      "name": "Jason Hughes",
      "profile_path": "/s22a4k057Zj9Q37RVd5B0MykNdv.jpg",
      "popularity": 11.545,
      "adult": false,
      "known_for_department": "Acting"
    }
  ]
}