{
  "page": 472,
  "total_results": 10000,
  "total_pages": 500,
  "results": [
    {
      "id": 58151,
      "name": "Elisa Donovan",
      "profile_path": "/vThds668uWdcsCtWO9znsgfm7Oa.jpg",
      "popularity": 8.704,
      "adult": false,
      "known_for_department": "Acting"
    },
    {
      "id": 55554,
      "name": "John Kapelos",
      "profile_path": "/9buu5iq8FxJXMqMjmqEjm1zl2A6.jpg",
      "popularity": 8.704,
      "adult": false,
      "known_for_department": "Acting"
    },
    {
      "id": 35111,
      "name": "Bumper Robinson",
      "profile_path": "/9KU72zZXIfsGAPgHmhlJmTYvor9.jpg",
      "popularity": 8.704,
      "adult": false,
      "known_for_department": "Acting"
    },
    {
      "id": 24880,
      "name": "George Chakiris",
      "profile_path": "/ekrj3IYZM4OOlPJzYK8xAa3KDrE.jpg",
      "popularity": 8.704,
      "adult": false,
      "known_for_department": "Acting"
    },
    {
      "id": 11091,
      "name": "Brett Ratner",
      "profile_path": "/uOtFtBPkLQaTq8TobPG0XvNKrvD.jpg",
      "popularity": 8.704,
      "adult": false,
      "known_for_department": "Production"
    },
    {
      "id": 131724,
      "name": "Adrienne Bailon-Houghton",
      "profile_path": "/9UA8xg1CFlAxbo1dl5WLtm74KeI.jpg",
      "popularity": 8.703,
      "adult": false,
      "known_for_department": "Acting"
    },
    {
      "id": 111640,
      "name": "Munetaka Aoki",
      "profile_path": "/l5GdFPBBz717Kiimyqp5ieaglVo.jpg",
      "popularity": 8.702,
      "adult": false,
      "known_for_department": "Acting"
    },
    {
      "id": 34839,
      "name": "Kevin Gage",
      "profile_path": "/nTaDLkN1RAhPGaM0AO1CFysnwUl.jpg",
      "popularity": 8.701,
      "adult": false,
      "known_for_department": "Acting"
    },
    {
      "id": 19069,
      "name": "Claude Chabrol",
      "profile_path": "/jpoYZBC62oKBYeWYISZSrccD7Nt.jpg",
      "popularity": 8.701,
      "adult": false,
      "known_for_department": "Directing"
    },
    {
      "id": 2267329,
      "name": "Ava Russo",
      "profile_path": "/5C2SQuhmy0syjo5OV90QZHztKkB.jpg",
      "popularity": 8.7,
      "adult": false,
      "known_for_department": "Acting"
    },
    {
      "id": 129706,
      "name": "Motoki Fukami",
      "profile_path": "/zeAgnTG7qhokdpwweSjvyNvFA3f.jpg",
      "popularity": 8.7,
      "adult": false,
      "known_for_department": "Acting"
    },
    {
      "id": 32384,
      "name": "Eddie Barth",
      "profile_path": "/mx0vwuRpEqMGxHnnzquxlHx6Ird.jpg",
      "popularity": 8.7,
      "adult": false,
      "known_for_department": "Acting"
    },
    {
      "id": 1761093,
      "name": "Donna Benedicto",
      "profile_path": "/muXNSartYyLpgZHQuoJ9NTzqoya.jpg",
      "popularity": 8.699,
      "adult": false,
      "known_for_department": "Acting"
    },
    {
      "id": 1244947,
      "name": "Kim Min-jong",
      "profile_path": "/yFJBj9wBNB9qGVZDcvQtWIDB40m.jpg",
      "popularity": 8.699,
      "adult": false,
      "known_for_department": "Acting"
    },
    {
      "id": 1209782,
      "name": "Michelle Hu",
      "profile_path": "/oNwNoLJg707G0HSIDnNU4mpaoIu.jpg",
      "popularity": 8.699,
      "adult": false,
      "known_for_department": "Acting"
    },
    {
      "id": 115700,
      "name": "Takumi Saitoh",
      "profile_path": "/bI4F2yT9R3HW4o17V7Mne7EqIbB.jpg",
      "popularity": 8.699,
      "adult": false,
      "known_for_department": "Acting"
    },
    {
      "id": 59296,
      "name": "Daniella Alonso",
      "profile_path": "/8uiJDYHs3ZwzdpJiirRdcBmltBU.jpg",
      "popularity": 8.699,
      "adult": false,
      "known_for_department": "Acting"
    },
    {
      "id": 1986576,
      "name": "Aleksandr Kuznetsov",
      "profile_path": "/ejfeqNpYh2tOt2KkyBTluLyHjx2.jpg",
      "popularity": 8.698,
      "adult": false,
      "known_for_department": "Acting"
    },
    {
      "id": 106470,
      "name": "Clare Hoak",
      "profile_path": "/5d5V0Ve5NqELPGvfrCb9AZON1Zb.jpg",
      "popularity": 8.698,
      "adult": false,
      "known_for_department": "Acting"
    },
    {
      "id": 1564168,
      "name": "Kwon Yul",
      "profile_path": "/tKoW6rlm3q8JGt7Hw6h7wsZkp49.jpg",
      "popularity": 8.697,
      "adult": false,
      "known_for_department": "Acting"
    }
  ]
}