{
  "page": 229,
  "total_results": 10000,
  "total_pages": 500,
  "results": [
    {
      "id": 65220,
      "name": "Danica McKellar",
      "profile_path": "/qVasJ8uKtvrntIXaPylneLW3ykf.jpg",
      "popularity": 11.929,
      "adult": false,
      "known_for_department": "Acting"
    },
    {
      "id": 16411,
      "name": "Arthur Rankin, Jr.",
      "profile_path": "/ea8EC04C9VhDd0iMpIyCmZHnMak.jpg",
      "popularity": 11.929,
      "adult": false,
      "known_for_department": "Directing"
    },
    {
      "id": 1924,
      "name": "Jeroen Krabbé",
      "profile_path": "/r26lZKUeLIaUt8DMotm4mdc4EaY.jpg",
      "popularity": 11.929,
      "adult": false,
      "known_for_department": "Acting"
    },
    {
      "id": 1443712,
      "name": "Madeline Brewer",
      "profile_path": "/zjH3Bl22nCMVulfcy6psRBOOgqZ.jpg",
      "popularity": 11.928,
      "adult": false,
      "known_for_department": "Acting"
    },
    {
      "id": 1678451,
      "name": "Go Bo-gyeol",
      "profile_path": "/7F3kb0p0ZXUz07Wg9VCm0thzhns.jpg",
      "popularity": 11.923,
      "adult": false,
      "known_for_department": "Acting"
    },
    {
      "id": 67600,
      "name": "Ashley Tisdale",
      "profile_path": "/znzE8om6N3H9wJQ5AUTMxPOnA3s.jpg",
      "popularity": 11.923,
      "adult": false,
      "known_for_department": "Acting"
    },
    {
      "id": 52647,
      "name": "Shawn Hatosy",
      "profile_path": "/ck89JiJcY9ovd7hXHatZsKMQvhm.jpg",
      "popularity": 11.923,
      "adult": false,
      "known_for_department": "Acting"
    },
    {
      "id": 114463,
      "name": "Michelle Jenner",
      "profile_path": "/g3JyHqwBcV7g1ds3dHtWkDXyXqb.jpg",
      "popularity": 11.922,
      "adult": false,
      "known_for_department": "Acting"
    },
    {
      "id": 1256300,
      "name": "Daniel Lissing",
      "profile_path": "/dJbhKpatqcleB1lssaAogo8KxGv.jpg",
      "popularity": 11.921,
      "adult": false,
      "known_for_department": "Acting"
    },
    {
      "id": 54789,
      "name": "Sean Patrick Flanery",
      "profile_path": "/aHQtxIjMEDWdXqvFJplx0Kcwdn6.jpg",
      "popularity": 11.919,
      "adult": false,
      "known_for_department": "Acting"
    },
    {
      "id": 1728810,
      "name": "Dilara Aksüyek",
      "profile_path": "/gq5pkxa0mXKLpjc5YjIFSVbNkFd.jpg",
      "popularity": 11.917,
      "adult": false,
      "known_for_department": "Acting"
    },
    {
      "id": 1448024,
      "name": "Mimosa Willamo",
      "profile_path": "/7QQ3HI08MxJDKdl7DRp95aspjOW.jpg",
      "popularity": 11.917,
      "adult": false,
      "known_for_department": "Acting"
    },
    {
      "id": 1310760,
      "name": "Ki Hong Lee",
      "profile_path": "/96zkB3e07LB1hw2segekZS1PlQb.jpg",
      "popularity": 11.917,
      "adult": false,
      "known_for_department": "Acting"
    },
    {
      "id": 237577,
      "name": "Yulia Peresild",
      "profile_path": "/bGy3cBJbQ0L0pm9K4vPh3jKKOFS.jpg",
      "popularity": 11.915,
      "adult": false,
      "known_for_department": "Acting"
    },
    {
      "id": 574658,
      "name": "Jelena Gavrilović",
      "profile_path": "/jsg6n5qSCQ30KfrZd4H3WExIyiV.jpg",
      "popularity": 11.913,
      "adult": false,
      "known_for_department": "Acting"
    },
    {
      "id": 1343688,
      "name": "Yuki Morinaga",
      "profile_path": "/20WRU4HX4Nl3HPLARPuDSvx5SdN.jpg",
      "popularity": 11.91,
      "adult": false,
      "known_for_department": "Acting"
    },
    {
      "id": 4738,
      "name": "Connor Paolo",
      "profile_path": "/fAvc2hUrh0cqi3OfLteu5cWRD50.jpg",
      "popularity": 11.91,
      "adult": false,
      "known_for_department": "Acting"
    },
    {
      "id": 5010,
      "name": "Todd Field",
      "profile_path": "/dJZYO81fHPK0unjrlbqOtUuhcly.jpg",
      "popularity": 11.909,
      "adult": false,
      "known_for_department": "Directing"
    },
    {
      "id": 82191,
      "name": "Sharlto Copley",
      "profile_path": "/em89OJJvBRX7kNJJPASmNKQujsC.jpg",
      "popularity": 11.908,
      "adult": false,
      "known_for_department": "Acting"
    },
    {
      "id": 1935646,
      "name": "Pınar Deniz",
      "profile_path": "/svchKgph3hMXV0Wfw1pwKqRiVcR.jpg",
      "popularity": 11.904,
      "adult": false,
      "known_for_department": "Acting"
    }
  ]
}