{
  "page": 196,
  "total_results": 10000,
  "total_pages": 500,
  "results": [
    {
      "id": 210271,
      "name": "Taylor Kinney",
      "profile_path": "/lOYVNwhlvah02OnrGIZkFpyr4Wf.jpg",
      "popularity": 11.207,
      "adult": false,
      "known_for_department": "Acting"
    },
    {
      "id": 2520194,
      "name": "Carolina Sala",
      "profile_path": "/gL4Df2s9eZ6t2V3Wni3DWbabxiw.jpg",
      "popularity": 11.206,
      "adult": false,
      "known_for_department": "Acting"
    },
    {
      "id": 93219,
      "name": "Jake Short",
      "profile_path": "/xA3N4HbFV4TdtD931LeQQuLJzfI.jpg",
      "popularity": 11.204,
      "adult": false,
      "known_for_department": "Acting"
    },
    {
      "id": 500427,
      "name": "Hannibal Buress",
      "profile_path": "/mcw3Orbg4vbALXTVG4hriZjH1sj.jpg",
      "popularity": 11.203,
      "adult": false,
      "known_for_department": "Acting"
    },
    {
      "id": 41556,
      "name": "Omari Hardwick",
      "profile_path": "/2kROckfySgXMBa2nsCIDoR9R6gg.jpg",
      "popularity": 11.203,
      "adult": false,
      "known_for_department": "Acting"
    },
    {
      "id": 1371546,
      "name": "Alexa Mansour",
      "profile_path": "/xm0qZi9pqYbmhFz2YiijCnbilSv.jpg",
      "popularity": 11.202,
      "adult": false,
      "known_for_department": "Acting"
    },
    {
      "id": 17305,
      "name": "Greg Grunberg",
      "profile_path": "/ir2QunLf6aTaowpEygbIcjiZLDB.jpg",
      "popularity": 11.202,
      "adult": false,
      "known_for_department": "Acting"
    },
    {
      "id": 1033632,
      "name": "Victoria Guerra",
      "profile_path": "/2baLSCRfyT4b9z9DcBqwVvHI1XF.jpg",
      "popularity": 11.2,
      "adult": false,
      "known_for_department": "Acting"
    },
    {
      "id": 26087,
      "name": "Amanda Tapping",
      "profile_path": "/8ZiETPxUFtgrtWL0LgMwPP8ytuK.jpg",
      "popularity": 11.199,
      "adult": false,
      "known_for_department": "Acting"
    },
    {
      "id": 18354,
      "name": "Bridget Moynahan",
      "profile_path": "/5y5CRPu9aw5Wx3EwyX1A2RpuLQP.jpg",
      "popularity": 11.199,
      "adult": false,
      "known_for_department": "Acting"
    },
    {
      "id": 15293,
      "name": "Keisha Castle-Hughes",
      "profile_path": "/9lBukGiFVV0pKNwndaNhRQVnNmt.jpg",
      "popularity": 11.198,
      "adult": false,
      "known_for_department": "Acting"
    },
    {
      "id": 117437,
      "name": "Patrick St. Esprit",
      "profile_path": "/lgHbDLjzl6GHXlE1QqV6LwXojuD.jpg",
      "popularity": 11.197,
      "adult": false,
      "known_for_department": "Acting"
    },
    {
      "id": 66497,
      "name": "Darby Stanchfield",
      "profile_path": "/dfFTEUxgeBAIM5yWnw5ULZQWjx7.jpg",
      "popularity": 11.197,
      "adult": false,
      "known_for_department": "Acting"
    },
    {
      "id": 15903,
      "name": "George Carlin",
      "profile_path": "/6YKQHJzml6XviUADpSC6kfF56W9.jpg",
      "popularity": 11.197,
      "adult": false,
      "known_for_department": "Acting"
    },
    {
      "id": 560070,
      "name": "Jin Kyung",
      "profile_path": "/eKw4YbLw0LWkTCn6wbTiKkRltc2.jpg",
      "popularity": 11.196,
      "adult": false,
      "known_for_department": "Acting"
    },
    {
      "id": 1445350,
      "name": "Rei Ayana",
      "profile_path": "/tORkG5cC1unAkmA7O1hxiUHdC3S.jpg",
      "popularity": 11.194,
      "adult": false,
      "known_for_department": "Acting"
    },
    {
      "id": 31612,
      "name": "Jenny Tamburi",
      "profile_path": "/yljphOgqRdx0zT0RkNv03on5Xfn.jpg",
      "popularity": 11.194,
      "adult": false,
      "known_for_department": "Acting"
    },
    {
      "id": 20005,
      "name": "Moira Kelly",
      "profile_path": "/3yQRnGSfbPWQDInZHTzzXsrAhUR.jpg",
      "popularity": 11.193,
      "adult": false,
      "known_for_department": "Acting"
    },
    {
      "id": 146750,
      "name": "George MacKay",
      "profile_path": "/80IQRdk9FIfkVJQB54Y7rZjNyDj.jpg",
      "popularity": 11.189,
      "adult": false,
      "known_for_department": "Acting"
    },
    {
      "id": 54865,
      "name": "Jeff Kober",
      "profile_path": "/rSHfqqDdNCBbia04NqxIB2U19wM.jpg",
      "popularity": 11.189,
      "adult": false,
      "known_for_department": "Acting"
    }
  ]
}