{
  "page": 425,
  "total_results": 10000,
  "total_pages": 500,
  "results": [
    {
      "id": 2036,
      "name": "Alex Garland",
      "profile_path": "/nDCkPeWFVcvXrRAJuXNxVCTJEXe.jpg",
      "popularity": 7.713,
      "adult": false,
      "known_for_department": "Writing"
    },
    {
      "id": 2477613,
      "name": "Eliot Salt",
      "profile_path": "/7wE2fgucCBqtapjI2eJSlwBxnlN.jpg",
      "popularity": 7.712,
      "adult": false,
      "known_for_department": "Acting"
    },
    {
      "id": 53516,
      "name": "Mark Sheppard",
      "profile_path": "/aTlqvlKgfyUAZT48AvEytqkMBC6.jpg",
      "popularity": 7.712,
      "adult": false,
      "known_for_department": "Acting"
    },
    {
      "id": 35468,
      "name": "Amber Benson",
      "profile_path": "/kjTTZsimC54A4F4pQnimqy1DdOr.jpg",
      "popularity": 7.712,
      "adult": false,
      "known_for_department": "Acting"
    },
    {
      "id": 1376137,
      "name": "Matilde Gioli",
      "profile_path": "/pBuOryoVymvlfLWpFgBNX3hwTsr.jpg",
      "popularity": 7.711,
      "adult": false,
      "known_for_department": "Acting"
    },
    {
      "id": 121640,
      "name": "Angela Cartwright",
      "profile_path": "/oX8UNl0V2MA2j6QVwHaV9h5wEGa.jpg",
      "popularity": 7.711,
      "adult": false,
      "known_for_department": "Acting"
    },
    {
      "id": 93805,
      "name": "Greer Garson",
      "profile_path": "/6jpbH6x6r8IfOT0f3hqC7xFpQuV.jpg",
      "popularity": 7.711,
      "adult": false,
      "known_for_department": "Acting"
    },
    {
      "id": 3039963,
      "name": "Jitaraphol Potiwihok",
      "profile_path": "/nR8JGJaJ1oVwLH8iJazgrc9eqbf.jpg",
      "popularity": 7.709,
      "adult": false,
      "known_for_department": "Acting"
    },
    {
      "id": 1470911,
      "name": "Jamie Demetriou",
      "profile_path": "/owXXYV1MNijRAVJV2Q47WEWT9Wv.jpg",
      "popularity": 7.709,
      "adult": false,
      "known_for_department": "Acting"
    },
    {
      "id": 12647,
      "name": "Armin Mueller-Stahl",
      "profile_path": "/yDT9hMg3osAbiWl5YZXTYG4SmGj.jpg",
      "popularity": 7.709,
      "adult": false,
      "known_for_department": "Acting"
    },
    {
      "id": 4072,
      "name": "Lon Chaney Jr.",
      "profile_path": "/xj8gBZ7Vbu1rGm1uaL11MfD8RSe.jpg",
      "popularity": 7.708,
      "adult": false,
      "known_for_department": "Acting"
    },
    {
      "id": 1646704,
      "name": "Inka Kallén",
      "profile_path": "/wp8dzZH0qEbmy8v0iFWfQaxOKgu.jpg",
      "popularity": 7.706,
      "adult": false,
      "known_for_department": "Acting"
    },
    {
      "id": 43019,
      "name": "Patrick Baladi",
      "profile_path": "/aquPqJZgWRw8JAbaYqURLfxr5RN.jpg",
      "popularity": 7.706,
      "adult": false,
      "known_for_department": "Acting"
    },
    {
      "id": 2137,
      "name": "Benito Martinez",
      "profile_path": "/3lPxnrPCs31lnliBNEssgxw7Qxg.jpg",
      "popularity": 7.706,
      "adult": false,
      "known_for_department": "Acting"
    },
    {
      "id": 2019443,
      "name": "Nadia Tereszkiewicz",
      "profile_path": "/vt2gbOajQmgESBJapHZyaHpE3nr.jpg",
      "popularity": 7.705,
      "adult": false,
      "known_for_department": "Acting"
    },
    {
      "id": 1440698,
      "name": "Jamie Clayton",
      "profile_path": "/brPmDbpGPvu2DRDsGLHYZRLwBha.jpg",
      "popularity": 7.705,
      "adult": false,
      "known_for_department": "Acting"
    },
    {
      "id": 89626,
      "name": "Reda Kateb",
      "profile_path": "/mvDuT7covYkAjK2Ix2VHJcvPyE0.jpg",
      "popularity": 7.704,
      "adult": false,
      "known_for_department": "Acting"
    },
    {
      "id": 74358,
      "name": "Kelly Sheridan",
      "profile_path": "/sxg2oRxwAEWd2Y8baJarjwC1XPA.jpg",
      "popularity": 7.704,
      "adult": false,
      "known_for_department": "Acting"
    },
    {
      "id": 1967234,
      "name": "Frank Dorsin",
      "profile_path": "/mFmT8s8KbSgzsMHFhngtSvsFdmz.jpg",
      "popularity": 7.703,
      "adult": false,
      "known_for_department": "Acting"
    },
    {
      "id": 1333030,
      "name": "Son Jong-hak",
      "profile_path": "/zJpV04XtqJdtSWxD3ylvT4FU35s.jpg",
      "popularity": 7.703,
      "adult": false,
      "known_for_department": "Acting"
    }
  ]
}