{
  "page": 483,
  "total_results": 10000,
  "total_pages": 500,
  "results": [
    {
      "id": 45453,
      "name": "Eleanor Bron",
      "profile_path": "/jQbsHbeh9AdMyeLf8sS3UkGGHl.jpg",
      "popularity": 8.347,
      "adult": false,
      "known_for_department": "Acting"
    },
    {
      "id": 9260,
      "name": "Michelle Nicastro",
      "profile_path": "/cU32AXOXyLY8jXlwzWStI7C83s8.jpg",
      "popularity": 8.347,
      "adult": false,
      "known_for_department": "Acting"
    },
    {
      "id": 2551480,
      "name": "Jairo Ordóñez",
      "profile_path": "/fozkafjHkHO9bm0IIwp6g0E9qRq.jpg",
      "popularity": 8.346,
      "adult": false,
      "known_for_department": "Acting"
    },
    {
      "id": 1185787,
      "name": "Liu Yan",
      "profile_path": "/iTimJWpWDGmnnPs13v7Fgy2mIpL.jpg",
      "popularity": 8.346,
      "adult": false,
      "known_for_department": "Acting"
    },
    {
      "id": 112225,
      "name": "Eva Herzigová",
      "profile_path": "/ojew5lY70irucdauCnGL14T6Uz3.jpg",
      "popularity": 8.346,
      "adult": false,
      "known_for_department": "Acting"
    },
    {
      "id": 46691,
      "name": "Teruyuki Kagawa",
      "profile_path": "/rvzydGB4kJBQZ0dKsS9lUOLp0Kk.jpg",
      "popularity": 8.346,
      "adult": false,
      "known_for_department": "Acting"
    },
    {
      "id": 84422,
      "name": "Carolyn McCormick",
      "profile_path": "/203YNdKZVySGvxeEcRA8dABBUyO.jpg",
      "popularity": 8.345,
      "adult": false,
      "known_for_department": "Acting"
    },
    {
      "id": 70674,
      "name": "Norman Chui",
      "profile_path": "/s3uEzXI19Xq5D3pJojgnvVz6vov.jpg",
      "popularity": 8.345,
      "adult": false,
      "known_for_department": "Acting"
    },
    {
      "id": 1539662,
      "name": "Zhang Han",
      "profile_path": "/d7jfyPwUBEPpp3siCclNEPy5IgX.jpg",
      "popularity": 8.344,
      "adult": false,
      "known_for_department": "Acting"
    },
    {
      "id": 1286744,
      "name": "Steele Stebbins",
      "profile_path": "/i6eQFLLcAGaSddfmKDCX7nCPnog.jpg",
      "popularity": 8.344,
      "adult": false,
      "known_for_department": "Acting"
    },
    {
      "id": 135944,
      "name": "Alexandre Willaume",
      "profile_path": "/9idbbstYInVyKSpbDaLMjwwRFns.jpg",
      "popularity": 8.344,
      "adult": false,
      "known_for_department": "Acting"
    },
    {
      "id": 1614208,
      "name": "Wang Ruizi",
      "profile_path": "/tBNtYS0IDRCQJajLrgAO5oC5bbY.jpg",
      "popularity": 8.343,
      "adult": false,
      "known_for_department": "Acting"
    },
    {
      "id": 1539217,
      "name": "Mark McKenna",
      "profile_path": "/a8r29te8SjNZm28YpYW0MXl3epg.jpg",
      "popularity": 8.343,
      "adult": false,
      "known_for_department": "Acting"
    },
    {
      "id": 27860,
      "name": "Barry Newman",
      "profile_path": "/lO5YVjEjM9zHsZ8kjz4QtGy7Der.jpg",
      "popularity": 8.343,
      "adult": false,
      "known_for_department": "Acting"
    },
    {
      "id": 85142,
      "name": "Paul Ben-Victor",
      "profile_path": "/qhxGWVppbnwF4YuzQQtIym5z99E.jpg",
      "popularity": 8.342,
      "adult": false,
      "known_for_department": "Acting"
    },
    {
      "id": 2412142,
      "name": "Shiki Aoki",
      "profile_path": "/qaM9R2f5O2vX70HM6Oj8fuyys72.jpg",
      "popularity": 8.341,
      "adult": false,
      "known_for_department": "Acting"
    },
    {
      "id": 548608,
      "name": "Guo Tao",
      "profile_path": "/s4g5lIlszWb1QxpMLO2YDNDUsMx.jpg",
      "popularity": 8.34,
      "adult": false,
      "known_for_department": "Acting"
    },
    {
      "id": 83726,
      "name": "Elliot Villar",
      "profile_path": "/x230qsDMMmMRqarkEoPwhC0u8KY.jpg",
      "popularity": 8.34,
      "adult": false,
      "known_for_department": "Acting"
    },
    {
      "id": 44275,
      "name": "Rosemary Dunsmore",
      "profile_path": "/uR570A4TxJhfWMuNh9S9JlnwBlx.jpg",
      "popularity": 8.339,
      "adult": false,
      "known_for_department": "Acting"
    },
    {
      "id": 1031914,
      "name": "Anna Castillo",
      "profile_path": "/skQ9HzWM4Ya9YB6J9QSRPVgjfNG.jpg",
      "popularity": 8.338,
      "adult": false,
      "known_for_department": "Acting"
    }
  ]
}