{
  "page": 485,
  "total_results": 10000,
  "total_pages": 500,
  "results": [
    {
      "id": 1836856,
      "name": "Lara Silva",
      "profile_path": "/s42cFWjM2UnEHCpoYL6dSnASCVr.jpg",
      "popularity": 8.327,
      "adult": false,
      "known_for_department": "Acting"
    },
    {
      "id": 1596934,
      "name": "Natalia Reyes",
      "profile_path": "/9N7FNKUhjtinrNPy8ANvXrB7iEr.jpg",
      "popularity": 8.326,
      "adult": false,
      "known_for_department": "Acting"
    },
    {
      "id": 109988,
      "name": "Sheena Easton",
      "profile_path": "/sUg7R7VGNOzSU7sJzrwCBB1orMh.jpg",
      "popularity": 8.324,
      "adult": false,
      "known_for_department": "Acting"
    },
    {
      "id": 26598,
      "name": "Günther Stoll",
      "profile_path": "/wg9u42tJyMzWOCwmtVuvunODmgO.jpg",
      "popularity": 8.324,
      "adult": false,
      "known_for_department": "Acting"
    },
    {
      "id": 1215961,
      "name": "Rick Hurst",
      "profile_path": "/9BeOCN6X4GBVStGVidxdLlWR4sO.jpg",
      "popularity": 8.323,
      "adult": false,
      "known_for_department": "Acting"
    },
    {
      "id": 82807,
      "name": "Lydia Leonard",
      "profile_path": "/hZyocFIvGrZxJD3sDxAtWvMjDyJ.jpg",
      "popularity": 8.323,
      "adult": false,
      "known_for_department": "Acting"
    },
    {
      "id": 7634,
      "name": "Pamela Sue Martin",
      "profile_path": "/mXv4146mU7pWic8hrkeh1NuTpqS.jpg",
      "popularity": 8.323,
      "adult": false,
      "known_for_department": "Acting"
    },
    {
      "id": 184946,
      "name": "Sarah Lawson",
      "profile_path": "/mwcylGHkjkW0KmtbOZSHTaAGSNG.jpg",
      "popularity": 8.322,
      "adult": false,
      "known_for_department": "Acting"
    },
    {
      "id": 123791,
      "name": "Elaine Tan",
      "profile_path": "/jCI51ktCpWANi1WywmvdPRyjL61.jpg",
      "popularity": 8.321,
      "adult": false,
      "known_for_department": "Acting"
    },
    {
      "id": 1552969,
      "name": "Jeong Yeon-joo",
      "profile_path": "/vxj3DaBQPZTCmLLc7Fp0gD3rlJY.jpg",
      "popularity": 8.32,
      "adult": false,
      "known_for_department": "Acting"
    },
    {
      "id": 55710,
      "name": "Adam McKay",
      "profile_path": "/vOyZXNJq7Oo01LPtSD5AZHjctgH.jpg",
      "popularity": 8.32,
      "adult": false,
      "known_for_department": "Directing"
    },
    {
      "id": 10938,
      "name": "Barbara Carrera",
      "profile_path": "/a7U7R803rUUxPFow2vhHloQ6BSZ.jpg",
      "popularity": 8.32,
      "adult": false,
      "known_for_department": "Acting"
    },
    {
      "id": 453588,
      "name": "Melanie Papalia",
      "profile_path": "/vaWzF78QBxphHhLop0tRaLqGx6P.jpg",
      "popularity": 8.317,
      "adult": false,
      "known_for_department": "Acting"
    },
    {
      "id": 12024,
      "name": "Victoria Vetri",
      "profile_path": "/yewmqEiiJ0veWY5hrTLbwtcjMWI.jpg",
      "popularity": 8.317,
      "adult": false,
      "known_for_department": "Acting"
    },
    {
      "id": 2210161,
      "name": "Devrim Özkan",
      "profile_path": "/12rRcA5jxTKyFnFoq26RpOam75a.jpg",
      "popularity": 8.316,
      "adult": false,
      "known_for_department": "Acting"
    },
    {
      "id": 1745956,
      "name": "Ahn Min-sang",
      "profile_path": "/gf1yuo8OE35lSPnjY7aoDNqQdRB.jpg",
      "popularity": 8.316,
      "adult": false,
      "known_for_department": "Acting"
    },
    {
      "id": 1136791,
      "name": "Samuel Pang",
      "profile_path": "/fhNmfAJiCkbnRThWfVsvbwBmVrC.jpg",
      "popularity": 8.316,
      "adult": false,
      "known_for_department": "Acting"
    },
    {
      "id": 172103,
      "name": "Victoria Dillard",
      "profile_path": "/mjkQ5ChfjaLi5mNGAtt2DBwLRx1.jpg",
      "popularity": 8.316,
      "adult": false,
      "known_for_department": "Acting"
    },
    {
      "id": 25026,
      "name": "Cristina Marcos",
      "profile_path": "/9xE1wX3T9qsrscLpNnPuUFllHEB.jpg",
      "popularity": 8.316,
      "adult": false,
      "known_for_department": "Acting"
    },
    {
      "id": 17414,
      "name": "Jill Talley",
      "profile_path": "/Agn37LbeahPpzrUxPFGSlMo52sX.jpg",
      "popularity": 8.316,
      "adult": false,
      "known_for_department": "Acting"
    }
  ]
}