{
  "page": 160,
  "total_results": 10000,
  "total_pages": 500,
  "results": [
    {
      "id": 10713,
      "name": "Eric Idle",
      "profile_path": "/fXPCAvoXW3gbpqWhzjePXSZ4VPi.jpg",
      "popularity": 16.209,
      "adult": false,
      "known_for_department": "Acting"
    },
    {
      "id": 8977,
      "name": "Craig T. Nelson",
      "profile_path": "/rMh8qdexFKmc7mq7oLzsLLvCCjs.jpg",
      "popularity": 16.207,
      "adult": false,
      "known_for_department": "Acting"
    },
    {
      "id": 1257563,
      "name": "Annet Mahendru",
      "profile_path": "/uiDRmFkpNGarEon6715o9lPEPlj.jpg",
      "popularity": 16.205,
      "adult": false,
      "known_for_department": "Acting"
    },
    {
      "id": 1328983,
      "name": "Neymar Jr",
      "profile_path": "/8887Hq0XyckSVy7xfHIUikt7qRO.jpg",
      "popularity": 16.204,
      "adult": false,
      "known_for_department": "Acting"
    },
    {
      "id": 94978,
      "name": "Christina Pickles",
      "profile_path": "/rNm1i3zTL6dyHWR5nmJ0v7J5llq.jpg",
      "popularity": 16.2,
      "adult": false,
      "known_for_department": "Acting"
    },
    {
      "id": 4730,
      "name": "Emmy Rossum",
      "profile_path": "/aJ8bzA1WJOBFx0Ppdo1fLMiNxLh.jpg",
      "popularity": 16.2,
      "adult": false,
      "known_for_department": "Acting"
    },
    {
      "id": 1748,
      "name": "William Shatner",
      "profile_path": "/7lsjbNFMGj3kYYWoMk1LNnl4p5P.jpg",
      "popularity": 16.199,
      "adult": false,
      "known_for_department": "Acting"
    },
    {
      "id": 1332971,
      "name": "Dean-Charles Chapman",
      "profile_path": "/xIVxI2ECxxN5J2XNkHPjRax0IHc.jpg",
      "popularity": 16.198,
      "adult": false,
      "known_for_department": "Acting"
    },
    {
      "id": 1290462,
      "name": "Natalia Belitski",
      "profile_path": "/7ZEIVNV9IbvQzOf0iOFZaYaewtZ.jpg",
      "popularity": 16.198,
      "adult": false,
      "known_for_department": "Acting"
    },
    {
      "id": 515,
      "name": "Glenn Close",
      "profile_path": "/4VHZ1GfLwN7MUgApy0LCBzdDF9L.jpg",
      "popularity": 16.196,
      "adult": false,
      "known_for_department": "Acting"
    },
    {
      "id": 932967,
      "name": "Mahershala Ali",
      "profile_path": "/9ZmSejm5lnUVY5IJ1iNx2QEjnHb.jpg",
      "popularity": 16.195,
      "adult": false,
      "known_for_department": "Acting"
    },
    {
      "id": 77897,
      "name": "Tyra Banks",
      "profile_path": "/g5Aar3pS2imJowLgk0GVawyggvf.jpg",
      "popularity": 16.192,
      "adult": false,
      "known_for_department": "Acting"
    },
    {
      "id": 16217,
      "name": "Lynn Whitfield",
      "profile_path": "/wXSwJplyOgANJKTRvOAsvqURbP0.jpg",
      "popularity": 16.185,
      "adult": false,
      "known_for_department": "Acting"
    },
    {
      "id": 6168,
      "name": "Austin Pendleton",
      "profile_path": "/nrXfqtXDDYzSFNLPQnfLkus4I7s.jpg",
      "popularity": 16.176,
      "adult": false,
      "known_for_department": "Acting"
    },
    {
      "id": 207,
      "name": "Tom Wilkinson",
      "profile_path": "/d5yLk0PK8q7EKR3E3G2txO758IW.jpg",
      "popularity": 16.173,
      "adult": false,
      "known_for_department": "Acting"
    },
    {
      "id": 6104,
      "name": "Julian Sands",
      "profile_path": "/8TYtEyKZle2B3cUYT7FBM9HJRtZ.jpg",
      "popularity": 16.162,
      "adult": false,
      "known_for_department": "Acting"
    },
    {
      "id": 23882,
      "name": "Amy Madigan",
      "profile_path": "/xgtQOuPAmQZXWUO2PXetNpXm08A.jpg",
      "popularity": 16.161,
      "adult": false,
      "known_for_department": "Acting"
    },
    {
      "id": 1593672,
      "name": "Park Hae-soo",
      "profile_path": "/hfejrQ8gjRWCheiKpJANajXT0xi.jpg",
      "popularity": 16.159,
      "adult": false,
      "known_for_department": "Acting"
    },
    {
      "id": 1481440,
      "name": "Daniel Stisen",
      "profile_path": "/jhyIFfBnM5nLhHdpFiGIW6qk9x5.jpg",
      "popularity": 16.153,
      "adult": false,
      "known_for_department": "Acting"
    },
    {
      "id": 1503072,
      "name": "Mimi Ndiweni",
      "profile_path": "/kfwWaxcovzkahqDDhhJwPrGbnny.jpg",
      "popularity": 16.148,
      "adult": false,
      "known_for_department": "Acting"
    }
  ]
}