{
  "page": 88,
  "total_results": 10000,
  "total_pages": 500,
  "results": [
    {
      "id": 26495,
      "name": "Jean Louisa Kelly",
      "profile_path": "/hUaXI2x27HNIKc4WXcnvNkl4wF9.jpg",
      "popularity": 17.174,
      "adult": false,
      "known_for_department": "Acting"
    },
    {
      "id": 1508785,
      "name": "Ellie Bamber",
      "profile_path": "/mGy6vUx4vZGk1tQBoRhFEa7I7mj.jpg",
      "popularity": 17.166,
      "adult": false,
      "known_for_department": "Acting"
    },
    {
      "id": 13241,
      "name": "Estella Warren",
      "profile_path": "/aFodbZpSEsz6lz8T3ehkeb8y44a.jpg",
      "popularity": 17.163,
      "adult": false,
      "known_for_department": "Acting"
    },
    {
      "id": 132078,
      "name": "DJ Qualls",
      "profile_path": "/cZkgFklRDC39wGFPdKjwFbnSP0M.jpg",
      "popularity": 17.155,
      "adult": false,
      "known_for_department": "Acting"
    },
    {
      "id": 119783,
      "name": "Joseph Mawle",
      "profile_path": "/1Ocb9v3h54beGVoJMm4w50UQhLf.jpg",
      "popularity": 17.149,
      "adult": false,
      "known_for_department": "Acting"
    },
    {
      "id": 238130,
      "name": "Yuri Kolokolnikov",
      "profile_path": "/vUKweo4yAQzGDVENj5iCndXY5yT.jpg",
      "popularity": 17.141,
      "adult": false,
      "known_for_department": "Acting"
    },
    {
      "id": 3900,
      "name": "Linus Roache",
      "profile_path": "/u98VM2S9mbUMCMPvCpk2OUn4Eg2.jpg",
      "popularity": 17.139,
      "adult": false,
      "known_for_department": "Acting"
    },
    {
      "id": 111683,
      "name": "Jason Mantzoukas",
      "profile_path": "/ogkbSybFX2NrMZk0u0dBt1KZwVW.jpg",
      "popularity": 17.136,
      "adult": false,
      "known_for_department": "Acting"
    },
    {
      "id": 147,
      "name": "Michael Madsen",
      "profile_path": "/AnQm8pXVbMicr4U0IRsOascthVI.jpg",
      "popularity": 17.131,
      "adult": false,
      "known_for_department": "Acting"
    },
    {
      "id": 176823,
      "name": "Spencer Grammer",
      "profile_path": "/1L8Y45RJo2YxUXl6ldIowQay1V7.jpg",
      "popularity": 17.13,
      "adult": false,
      "known_for_department": "Acting"
    },
    {
      "id": 2453169,
      "name": "Lilly Krug",
      "profile_path": "/6TA1LMrmCXtPu3iDW8S7y8rkn0R.jpg",
      "popularity": 17.124,
      "adult": false,
      "known_for_department": "Acting"
    },
    {
      "id": 2688474,
      "name": "Cheon Yoo-ji",
      "profile_path": "/rtBzOnuLD5JhawmhdVteWN9YEa3.jpg",
      "popularity": 17.116,
      "adult": false,
      "known_for_department": "Acting"
    },
    {
      "id": 12967,
      "name": "Swoosie Kurtz",
      "profile_path": "/uCHMttpxVITjDXtjs8FS6O7TQHx.jpg",
      "popularity": 17.116,
      "adult": false,
      "known_for_department": "Acting"
    },
    {
      "id": 13446,
      "name": "Eliza Dushku",
      "profile_path": "/lvu4Vo9GL7uOjtU59MDiy3QDPAZ.jpg",
      "popularity": 17.115,
      "adult": false,
      "known_for_department": "Acting"
    },
    {
      "id": 25877,
      "name": "Roger Cross",
      "profile_path": "/7EmrR0CojKlFkp9bObqWGomJeKF.jpg",
      "popularity": 17.113,
      "adult": false,
      "known_for_department": "Acting"
    },
    {
      "id": 8783,
      "name": "Eric Bana",
      "profile_path": "/xIjQVywxkymHbbSO7lD2F9f377W.jpg",
      "popularity": 17.106,
      "adult": false,
      "known_for_department": "Acting"
    },
    {
      "id": 1649152,
      "name": "Jacob Batalon",
      "profile_path": "/53YhaL4xw4Sb1ssoHkeSSBaO29c.jpg",
      "popularity": 17.098,
      "adult": false,
      "known_for_department": "Acting"
    },
    {
      "id": 147023,
      "name": "Ram Charan",
      "profile_path": "/mNQA0qYtLeemo7mljd9RlG9jUMR.jpg",
      "popularity": 17.093,
      "adult": false,
      "known_for_department": "Acting"
    },
    {
      "id": 68769,
      "name": "Julie Gonzalo",
      "profile_path": "/6clO3lFK6dn3lBXe8zZoRNPbERr.jpg",
      "popularity": 17.092,
      "adult": false,
      "known_for_department": "Acting"
    },
    {
      "id": 61852,
      "name": "Nicholas Gonzalez",
      "profile_path": "/z4fwpWWZNpqLXOvtFMgc1s3DMB1.jpg",
      "popularity": 17.083,
      "adult": false,
      "known_for_department": "Acting"
    }
  ]
}