{
  "page": 36,
  "total_results": 10000,
  "total_pages": 500,
  "results": [
    {
      "id": 7180,
      "name": "John Candy",
      "profile_path": "/xOoA2gFdnl0qe9esbG0FJvCY0Fh.jpg",
      "popularity": 28.367,
      "adult": false,
      "known_for_department": "Acting"
    },
    {
      "id": 10478,
      "name": "Jeanne Tripplehorn",
      "profile_path": "/q7D9MDnMVc5PAm99853gszHwJy7.jpg",
      "popularity": 28.312,
      "adult": false,
      "known_for_department": "Acting"
    },
    {
      "id": 11155,
      "name": "Thomas Jane",
      "profile_path": "/kytPt3B4ft2DH7OMNiAsWuXkw4K.jpg",
      "popularity": 28.274,
      "adult": false,
      "known_for_department": "Acting"
    },
    {
      "id": 38559,
      "name": "Christopher Lambert",
      "profile_path": "/qKmxieTgzvsA5hSA7w1VoHizmmE.jpg",
      "popularity": 28.272,
      "adult": false,
      "known_for_department": "Acting"
    },
    {
      "id": 3165040,
      "name": "Rika",
      "profile_path": "/vwYqrhcSRVrnra4S0NopnywN8rK.jpg",
      "popularity": 28.271,
      "adult": false,
      "known_for_department": "Acting"
    },
    {
      "id": 59263,
      "name": "Diora Baird",
      "profile_path": "/8xNfIVNDumyxqGJw71DleJ5YugK.jpg",
      "popularity": 28.251,
      "adult": false,
      "known_for_department": "Acting"
    },
    {
      "id": 12708,
      "name": "Peter Billingsley",
      "profile_path": "/2Aq3fcRbEifBWfOgBIbZdPDcDUW.jpg",
      "popularity": 28.23,
      "adult": false,
      "known_for_department": "Acting"
    },
    {
      "id": 13922,
      "name": "Seth Green",
      "profile_path": "/l4No5Eu6j0U80hCIkaSn17AOWrj.jpg",
      "popularity": 28.225,
      "adult": false,
      "known_for_department": "Acting"
    },
    {
      "id": 58370,
      "name": "Amanda Crew",
      "profile_path": "/diGTfFDOAjtfpClK3pJHkQIYhNc.jpg",
      "popularity": 28.19,
      "adult": false,
      "known_for_department": "Acting"
    },
    {
      "id": 18997,
      "name": "Bryce Dallas Howard",
      "profile_path": "/qQX1rhQaJ1G8eMG2RknFKiXfNRc.jpg",
      "popularity": 28.187,
      "adult": false,
      "known_for_department": "Acting"
    },
    {
      "id": 1088620,
      "name": "Sophie Rundle",
      "profile_path": "/9HxJ6pG1Q0BBbIV1UXk5iU9zDM9.jpg",
      "popularity": 28.184,
      "adult": false,
      "known_for_department": "Acting"
    },
    {
      "id": 1215797,
      "name": "Erinn Hayes",
      "profile_path": "/iesmfFl12Dgb8mb1jCKMGsIcQ9o.jpg",
      "popularity": 28.136,
      "adult": false,
      "known_for_department": "Acting"
    },
    {
      "id": 9600,
      "name": "Ted Cassidy",
      "profile_path": "/wGl9g8LgfJRGcCy1qv9AZwsfOrK.jpg",
      "popularity": 28.133,
      "adult": false,
      "known_for_department": "Acting"
    },
    {
      "id": 8256,
      "name": "Anne Heche",
      "profile_path": "/65LVuA01bmKCmr8yqY2Ae3IgeC4.jpg",
      "popularity": 28.133,
      "adult": false,
      "known_for_department": "Acting"
    },
    {
      "id": 2712,
      "name": "Michael Biehn",
      "profile_path": "/9oFLsADWQm2TvU8XzLIzBbjdMkU.jpg",
      "popularity": 28.092,
      "adult": false,
      "known_for_department": "Acting"
    },
    {
      "id": 1245733,
      "name": "Justin Roiland",
      "profile_path": "/wYApP38aXe6ZcEtlBAfNRxJTQQi.jpg",
      "popularity": 28.088,
      "adult": false,
      "known_for_department": "Acting"
    },
    {
      "id": 4512,
      "name": "James Woods",
      "profile_path": "/tLH7mpH4KqkWL5VgjueTbewGsfK.jpg",
      "popularity": 28.082,
      "adult": false,
      "known_for_department": "Acting"
    },
    {
      "id": 8487,
      "name": "Gregory Peck",
      "profile_path": "/1inRvnNChyobOnEpIdCUZsNStRW.jpg",
      "popularity": 28.081,
      "adult": false,
      "known_for_department": "Acting"
    },
    {
      "id": 1083010,
      "name": "Letitia Wright",
      "profile_path": "/kfA5KhyU6OSy4NrMzHCxYU7A0DW.jpg",
      "popularity": 28.069,
      "adult": false,
      "known_for_department": "Acting"
    },
    {
      "id": 61852,
      "name": "Nicholas Gonzalez",
      "profile_path": "/z4fwpWWZNpqLXOvtFMgc1s3DMB1.jpg",
      "popularity": 28.069,
      "adult": false,
      "known_for_department": "Acting"
    }
  ]
}