{
  "page": 263,
  "total_results": 10000,
  "total_pages": 500,
  "results": [
    {
      "id": 2626159,
      "name": "Kim Hong-je",
      "profile_path": "",
      "popularity": 10.423,
      "adult": false,
      "known_for_department": "Acting"
    },
    {
      "id": 1371,
      "name": "David Wenham",
      "profile_path": "/F7CWSqUE75HtrcdqIQ7UMZ9aTX.jpg",
      "popularity": 10.423,
      "adult": false,
      "known_for_department": "Acting"
    },
    {
      "id": 2773022,
      "name": "Ryosuke Sota",
      "profile_path": "/cVCaRzJA7wgrcNfkrhdEmaJGRTH.jpg",
      "popularity": 10.422,
      "adult": false,
      "known_for_department": "Acting"
    },
    {
      "id": 1817307,
      "name": "Montana Jordan",
      "profile_path": "/xFmmWQPCSR3LHS6VNL6sti7FDow.jpg",
      "popularity": 10.421,
      "adult": false,
      "known_for_department": "Acting"
    },
    {
      "id": 148139,
      "name": "Vicky McClure",
      "profile_path": "/iwX7okUAyokzACVR0XdXJlYOPO.jpg",
      "popularity": 10.421,
      "adult": false,
      "known_for_department": "Acting"
    },
    {
      "id": 29710,
      "name": "Bess Armstrong",
      "profile_path": "/3kQttHj9mbsDsP2GUljpjTAoWVi.jpg",
      "popularity": 10.42,
      "adult": false,
      "known_for_department": "Acting"
    },
    {
      "id": 1407597,
      "name": "Sayaka Senbongi",
      "profile_path": "/yLRKX9DPDGgTRKBQRFTUh3pvbU0.jpg",
      "popularity": 10.418,
      "adult": false,
      "known_for_department": "Acting"
    },
    {
      "id": 127856,
      "name": "Robert Więckiewicz",
      "profile_path": "/vwlINef3ieTorDydXdyjuEbm90L.jpg",
      "popularity": 10.417,
      "adult": false,
      "known_for_department": "Acting"
    },
    {
      "id": 77088,
      "name": "Katharine McPhee",
      "profile_path": "/4nOXPxPDnh3eOQ5udzBQwLoaHeM.jpg",
      "popularity": 10.417,
      "adult": false,
      "known_for_department": "Acting"
    },
    {
      "id": 1643,
      "name": "Adrian Rawlins",
      "profile_path": "/G0PGZqTjenuVTAQiib4ScU7vAI.jpg",
      "popularity": 10.417,
      "adult": false,
      "known_for_department": "Acting"
    },
    {
      "id": 112205,
      "name": "Satsuki Yukino",
      "profile_path": "/fb9LqdOZPNjlXq3uHriBOmIe2WP.jpg",
      "popularity": 10.415,
      "adult": false,
      "known_for_department": "Acting"
    },
    {
      "id": 50683,
      "name": "Eva Habermann",
      "profile_path": "/mdkozijZooNyg2K8Dg26zAAJoYh.jpg",
      "popularity": 10.415,
      "adult": false,
      "known_for_department": "Acting"
    },
    {
      "id": 225692,
      "name": "Jeremy Irvine",
      "profile_path": "/nPeBcyemdjH7zu8fL8gu9O0lnsb.jpg",
      "popularity": 10.414,
      "adult": false,
      "known_for_department": "Acting"
    },
    {
      "id": 59296,
      "name": "Daniella Alonso",
      "profile_path": "/8uiJDYHs3ZwzdpJiirRdcBmltBU.jpg",
      "popularity": 10.413,
      "adult": false,
      "known_for_department": "Acting"
    },
    {
      "id": 19275,
      "name": "Amanda Detmer",
      "profile_path": "/xJ6SL65TFSX8reQeMTMWwzCCEIr.jpg",
      "popularity": 10.413,
      "adult": false,
      "known_for_department": "Acting"
    },
    {
      "id": 18891,
      "name": "Joan Severance",
      "profile_path": "/2bgZLV4KYig6p7aXIMkDCwGx4yZ.jpg",
      "popularity": 10.412,
      "adult": false,
      "known_for_department": "Acting"
    },
    {
      "id": 2176669,
      "name": "Nam Yoon-su",
      "profile_path": "/dzNJmuloAaEpHvVk6bQpYOCYCh4.jpg",
      "popularity": 10.41,
      "adult": false,
      "known_for_department": "Acting"
    },
    {
      "id": 1766034,
      "name": "Mrunal Thakur",
      "profile_path": "/ad2Y9NitIm1AqdPIbdc0B0NmykM.jpg",
      "popularity": 10.409,
      "adult": false,
      "known_for_department": "Acting"
    },
    {
      "id": 1116333,
      "name": "Hisako Kanemoto",
      "profile_path": "/qyJPQaehMc4Sy5jaTfIJLdrll2v.jpg",
      "popularity": 10.409,
      "adult": false,
      "known_for_department": "Acting"
    },
    {
      "id": 67206,
      "name": "Andrew Howard",
      "profile_path": "/kba1JeCUYHufjB933G5xPRhO8lV.jpg",
      "popularity": 10.409,
      "adult": false,
      "known_for_department": "Acting"
    }
  ]
}