{
  "page": 270,
  "total_results": 10000,
  "total_pages": 500,
  "results": [
    {
      "id": 124482,
      "name": "Nobutoshi Canna",
      "profile_path": "/ijjbaeZuMuFHQJrvY0DAqzQzjht.jpg",
      "popularity": 12.643,
      "adult": false,
      "known_for_department": "Acting"
    },
    {
      "id": 571418,
      "name": "Kristofer Hivju",
      "profile_path": "/bACL39GihNmBnFRay78rS3PUHsH.jpg",
      "popularity": 12.637,
      "adult": false,
      "known_for_department": "Acting"
    },
    {
      "id": 66580,
      "name": "Scott Adsit",
      "profile_path": "/vbbuugUWrZhxA7ASWYiGqdZ6Dtf.jpg",
      "popularity": 12.636,
      "adult": false,
      "known_for_department": "Acting"
    },
    {
      "id": 101396,
      "name": "Brenda Strong",
      "profile_path": "/jMfkFmQT2zgTojkcmn67Fju3HU.jpg",
      "popularity": 12.635,
      "adult": false,
      "known_for_department": "Acting"
    },
    {
      "id": 1226195,
      "name": "Rob Stewart",
      "profile_path": "/kzCmiU4CgIOHQNCsjWPa3s3qEir.jpg",
      "popularity": 12.634,
      "adult": false,
      "known_for_department": "Acting"
    },
    {
      "id": 1046460,
      "name": "Max Arciniega",
      "profile_path": "/eqKAJKPpt41KpsLIkkBnAY4HMAL.jpg",
      "popularity": 12.634,
      "adult": false,
      "known_for_department": "Acting"
    },
    {
      "id": 108535,
      "name": "Jung Ryeo-won",
      "profile_path": "/iIZDoACPMkqLwbZEckiP3tdS1Pu.jpg",
      "popularity": 12.634,
      "adult": false,
      "known_for_department": "Acting"
    },
    {
      "id": 14732,
      "name": "James Gregory",
      "profile_path": "/sefUDHUyEA9odf5Jzz4jqeCfr7R.jpg",
      "popularity": 12.629,
      "adult": false,
      "known_for_department": "Acting"
    },
    {
      "id": 2055553,
      "name": "Cherie Jimenez",
      "profile_path": "/dRJ36CZwN7Lcw8vDduKrNOCPZa.jpg",
      "popularity": 12.628,
      "adult": false,
      "known_for_department": "Acting"
    },
    {
      "id": 569210,
      "name": "Bethany Brown",
      "profile_path": "/wYcP5INh8muLO13QYMoEhgw5Dp5.jpg",
      "popularity": 12.628,
      "adult": false,
      "known_for_department": "Acting"
    },
    {
      "id": 1517139,
      "name": "Kanako Urai",
      "profile_path": "/f81mBCecktiRHfq5FLQSRRVEYON.jpg",
      "popularity": 12.627,
      "adult": false,
      "known_for_department": "Acting"
    },
    {
      "id": 1381537,
      "name": "Marcus Rosner",
      "profile_path": "/8O5Y5kEcIeom3dcp6hA0e6x7vLs.jpg",
      "popularity": 12.627,
      "adult": false,
      "known_for_department": "Acting"
    },
    {
      "id": 76759,
      "name": "Benjamin Salisbury",
      "profile_path": "/fQ5BiuBMY6gisJxrSHwUS43lXx8.jpg",
      "popularity": 12.627,
      "adult": false,
      "known_for_department": "Acting"
    },
    {
      "id": 77209,
      "name": "Grace Park",
      "profile_path": "/ojVQCgxZc2PeDchwsi3Vfq9m7fo.jpg",
      "popularity": 12.625,
      "adult": false,
      "known_for_department": "Acting"
    },
    {
      "id": 23429,
      "name": "Adam Godley",
      "profile_path": "/xOM0zOb2KZ2q8M6lRrDo9bEBeJE.jpg",
      "popularity": 12.624,
      "adult": false,
      "known_for_department": "Acting"
    },
    {
      "id": 1266271,
      "name": "Yuki Mamiya",
      "profile_path": "/np0YnsqTM7Olkcgw0Br7Cre7ypu.jpg",
      "popularity": 12.62,
      "adult": false,
      "known_for_department": "Acting"
    },
    {
      "id": 8396,
      "name": "Tom 'Tiny' Lister Jr.",
      "profile_path": "/i1seZDiLC3AKrAYqfFSln6ZGNmF.jpg",
      "popularity": 12.619,
      "adult": false,
      "known_for_department": "Acting"
    },
    {
      "id": 84973,
      "name": "Kim A-joong",
      "profile_path": "/iy3zJ4fXaDdF9EsCsfVbG4LSgGE.jpg",
      "popularity": 12.617,
      "adult": false,
      "known_for_department": "Acting"
    },
    {
      "id": 25442,
      "name": "Joss Stone",
      "profile_path": "/kFbmkxR4RjvEhKQ4Ad7LFVoevR4.jpg",
      "popularity": 12.616,
      "adult": false,
      "known_for_department": "Acting"
    },
    {
      "id": 134726,
      "name": "Supakorn Kitsuwon",
      "profile_path": "/z9Wez6xkYYf6BLP8bLupL2c8KAZ.jpg",
      "popularity": 12.615,
      "adult": false,
      "known_for_department": "Acting"
    }
  ]
}