{
  "page": 116,
  "total_results": 10000,
  "total_pages": 500,
  "results": [
    {
      "id": 12021,
      "name": "Mia Farrow",
      "profile_path": "/gcwtOTaZELSghsCDtyPnIjlBJtM.jpg",
      "popularity": 15.342,
      "adult": false,
      "known_for_department": "Acting"
    },
    {
      "id": 1926,
      "name": "Eddie Izzard",
      "profile_path": "/jPsZdu9DzGudytybdzjXAm77Q0r.jpg",
      "popularity": 15.34,
      "adult": false,
      "known_for_department": "Acting"
    },
    {
      "id": 8924,
      "name": "Frank Langella",
      "profile_path": "/vO2NQUrG2qDtQVWK2IalrFKUYcj.jpg",
      "popularity": 15.339,
      "adult": false,
      "known_for_department": "Acting"
    },
    {
      "id": 76759,
      "name": "Benjamin Salisbury",
      "profile_path": "/fQ5BiuBMY6gisJxrSHwUS43lXx8.jpg",
      "popularity": 15.337,
      "adult": false,
      "known_for_department": "Acting"
    },
    {
      "id": 41091,
      "name": "Kristen Wiig",
      "profile_path": "/N517EQh7j4mNl3BStMmjMN6hId.jpg",
      "popularity": 15.336,
      "adult": false,
      "known_for_department": "Acting"
    },
    {
      "id": 8349,
      "name": "Martin Sheen",
      "profile_path": "/m2Y3Q0uyuW6htrn2W9UWCWMkpZu.jpg",
      "popularity": 15.335,
      "adult": false,
      "known_for_department": "Acting"
    },
    {
      "id": 52779,
      "name": "Ryan Murphy",
      "profile_path": "/uPojf0hEIpud1huRC9NY7R55OSy.jpg",
      "popularity": 15.333,
      "adult": false,
      "known_for_department": "Production"
    },
    {
      "id": 151263,
      "name": "T.J. Thyne",
      "profile_path": "/wzPGaDjzimfGjIpRg6NjN9eqJxL.jpg",
      "popularity": 15.331,
      "adult": false,
      "known_for_department": "Acting"
    },
    {
      "id": 24200,
      "name": "Leonardo Nam",
      "profile_path": "/qZfTztsK99FFaEwLI0bILlMnQki.jpg",
      "popularity": 15.33,
      "adult": false,
      "known_for_department": "Acting"
    },
    {
      "id": 191228,
      "name": "Victoria Justice",
      "profile_path": "/t6sEHumY9d2o4Qfto6ZqQqfSRK3.jpg",
      "popularity": 15.325,
      "adult": false,
      "known_for_department": "Acting"
    },
    {
      "id": 55936,
      "name": "Jemaine Clement",
      "profile_path": "/6eiNbeurpHb2fxIeT0RrJ0wRI25.jpg",
      "popularity": 15.324,
      "adult": false,
      "known_for_department": "Acting"
    },
    {
      "id": 17067,
      "name": "Karoline Herfurth",
      "profile_path": "/hAU7VJT6SjhisLIyMZJmotQawt2.jpg",
      "popularity": 15.324,
      "adult": false,
      "known_for_department": "Acting"
    },
    {
      "id": 82400,
      "name": "Vincent Zhao",
      "profile_path": "/dFopptv52mzwK4FWPMyO0FcFJTe.jpg",
      "popularity": 15.319,
      "adult": false,
      "known_for_department": "Acting"
    },
    {
      "id": 86270,
      "name": "Joseph Kosinski",
      "profile_path": "/oWLUXWY0j8TYzwnf2wETYWO181S.jpg",
      "popularity": 15.316,
      "adult": false,
      "known_for_department": "Directing"
    },
    {
      "id": 20005,
      "name": "Moira Kelly",
      "profile_path": "/3yQRnGSfbPWQDInZHTzzXsrAhUR.jpg",
      "popularity": 15.316,
      "adult": false,
      "known_for_department": "Acting"
    },
    {
      "id": 1469128,
      "name": "Brec Bassinger",
      "profile_path": "/ggGaeipC6rPreZFPjqIeVZs5ZlX.jpg",
      "popularity": 15.314,
      "adult": false,
      "known_for_department": "Acting"
    },
    {
      "id": 21688,
      "name": "Bae Doona",
      "profile_path": "/4NrnwPEeOWWfgyoxIXQybBDtJ5d.jpg",
      "popularity": 15.311,
      "adult": false,
      "known_for_department": "Acting"
    },
    {
      "id": 64436,
      "name": "Daniel Wu",
      "profile_path": "/w6fCmYDlTNYfgdXBZjZH107c9zJ.jpg",
      "popularity": 15.309,
      "adult": false,
      "known_for_department": "Acting"
    },
    {
      "id": 12899,
      "name": "Jim Varney",
      "profile_path": "/yrhgPWGOc36GN0P9kuJ48sU4fVa.jpg",
      "popularity": 15.309,
      "adult": false,
      "known_for_department": "Acting"
    },
    {
      "id": 6692,
      "name": "Caroline Goodall",
      "profile_path": "/4cagGtMqACvkuw6Llq8Li8UJ1AR.jpg",
      "popularity": 15.309,
      "adult": false,
      "known_for_department": "Acting"
    }
  ]
}