{
  "page": 321,
  "total_results": 10000,
  "total_pages": 500,
  "results": [
    {
      "id": 89109,
      "name": "Hayley Kiyoko",
      "profile_path": "/dhMvtUNmsWoKBILCGF7QmxBG2mK.jpg",
      "popularity": 9.939,
      "adult": false,
      "known_for_department": "Acting"
    },
    {
      "id": 7796,
      "name": "Illeana Douglas",
      "profile_path": "/w2O2SOXzwtJu9eytb3hGS7T8ftR.jpg",
      "popularity": 9.938,
      "adult": false,
      "known_for_department": "Acting"
    },
    {
      "id": 3247772,
      "name": "Lizeth Selene",
      "profile_path": "/o8BNtreaGlVJkSlsYjGtFzwkXpG.jpg",
      "popularity": 9.937,
      "adult": false,
      "known_for_department": "Acting"
    },
    {
      "id": 2993237,
      "name": "Rajsi Verma",
      "profile_path": "/iXswVyBIknN50ajV99oYnWfEje1.jpg",
      "popularity": 9.937,
      "adult": false,
      "known_for_department": "Acting"
    },
    {
      "id": 1973077,
      "name": "Ananya Pandey",
      "profile_path": "/kM33DKHC0rAEaLzAmFMlDQBxCtq.jpg",
      "popularity": 9.937,
      "adult": false,
      "known_for_department": "Acting"
    },
    {
      "id": 1621189,
      "name": "Chandler Kinney",
      "profile_path": "/zTmwFNsuSknDY98weDiRH3yMPA0.jpg",
      "popularity": 9.936,
      "adult": false,
      "known_for_department": "Acting"
    },
    {
      "id": 1220278,
      "name": "Jo Joyner",
      "profile_path": "/3TeGLMv1kDzNCa9BDTTthKV4SGk.jpg",
      "popularity": 9.936,
      "adult": false,
      "known_for_department": "Acting"
    },
    {
      "id": 154769,
      "name": "Allison Munn",
      "profile_path": "/naWXYBk5OWNWB5uV4V0b0qZ3pgq.jpg",
      "popularity": 9.936,
      "adult": false,
      "known_for_department": "Acting"
    },
    {
      "id": 83411,
      "name": "Timothy Scott",
      "profile_path": "/1KXqxseXqcbkQTHvybJArdLtdbs.jpg",
      "popularity": 9.936,
      "adult": false,
      "known_for_department": "Acting"
    },
    {
      "id": 1772357,
      "name": "Jacky Lai",
      "profile_path": "/os2Mpyuku25ylGrZtXea3QzQbsN.jpg",
      "popularity": 9.934,
      "adult": false,
      "known_for_department": "Acting"
    },
    {
      "id": 1572354,
      "name": "Lee Jung-eun",
      "profile_path": "/4r3K47UpSmzZ5t9cyTRRqRl9rdz.jpg",
      "popularity": 9.934,
      "adult": false,
      "known_for_department": "Acting"
    },
    {
      "id": 4776,
      "name": "Michael Murphy",
      "profile_path": "/3quWjoqh8vKoSXE9Ll3AC7pgsRh.jpg",
      "popularity": 9.934,
      "adult": false,
      "known_for_department": "Acting"
    },
    {
      "id": 1696230,
      "name": "Issac Ryan Brown",
      "profile_path": "/xyS9AOh0YZsCEzlLkE5DHQhUhZa.jpg",
      "popularity": 9.933,
      "adult": false,
      "known_for_department": "Acting"
    },
    {
      "id": 1460362,
      "name": "Katrine Greis-Rosenthal",
      "profile_path": "/jv0O3SqhMHEMOuLq7SJpwS2Re9N.jpg",
      "popularity": 9.933,
      "adult": false,
      "known_for_department": "Acting"
    },
    {
      "id": 3695511,
      "name": "Ayesha Aure",
      "profile_path": "",
      "popularity": 9.932,
      "adult": false,
      "known_for_department": "Acting"
    },
    {
      "id": 118725,
      "name": "Baron Chen",
      "profile_path": "/cIC1Erx4W8A7b7WwcrtqpQ0Ue3l.jpg",
      "popularity": 9.93,
      "adult": false,
      "known_for_department": "Acting"
    },
    {
      "id": 67850,
      "name": "Riley Smith",
      "profile_path": "/cBLhhvqOQY8g95RaymVbd2Bd6py.jpg",
      "popularity": 9.93,
      "adult": false,
      "known_for_department": "Acting"
    },
    {
      "id": 116128,
      "name": "John M. Jackson",
      "profile_path": "/8RlhL3X2ygxJN4Po72aKLor55kd.jpg",
      "popularity": 9.929,
      "adult": false,
      "known_for_department": "Acting"
    },
    {
      "id": 102952,
      "name": "Sarah Jones",
      "profile_path": "/1YFh9NStF75XWTLT9CPGG2395HN.jpg",
      "popularity": 9.929,
      "adult": false,
      "known_for_department": "Acting"
    },
    {
      "id": 20361,
      "name": "John Bennett Perry",
      "profile_path": "/5pO51CnN8xNa6Xeosr6hTsMrM4g.jpg",
      "popularity": 9.927,
      "adult": false,
      "known_for_department": "Acting"
    }
  ]
}