{
  "page": 211,
  "total_results": 10000,
  "total_pages": 500,
  "results": [
    {
      "id": 10963,
      "name": "José Zúñiga",
      "profile_path": "/r6nFkJkMHP9tFDohwfav9Bf2rCR.jpg",
      "popularity": 10.2,
      "adult": false,
      "known_for_department": "Acting"
    },
    {
      "id": 143307,
      "name": "Marilyn Norry",
      "profile_path": "/geSDvvFEqdEyJT8djVmwJNo6bjq.jpg",
      "popularity": 10.199,
      "adult": false,
      "known_for_department": "Acting"
    },
    {
      "id": 333,
      "name": "Evan Jones",
      "profile_path": "/uxYasGfUeiAGDZeOza7cIEE2Pbc.jpg",
      "popularity": 10.197,
      "adult": false,
      "known_for_department": "Acting"
    },
    {
      "id": 14813,
      "name": "Marina Vlady",
      "profile_path": "/zGsc6ueE0Pr2fjn5pl2RL64Tik0.jpg",
      "popularity": 10.195,
      "adult": false,
      "known_for_department": "Acting"
    },
    {
      "id": 12929,
      "name": "Rosie O'Donnell",
      "profile_path": "/bfeIiPngsbLU7zK8sS18l3Pz3KR.jpg",
      "popularity": 10.194,
      "adult": false,
      "known_for_department": "Acting"
    },
    {
      "id": 1516266,
      "name": "Minami Hamabe",
      "profile_path": "/eQN8N2chINckvQDiNqzDXI0v9vN.jpg",
      "popularity": 10.193,
      "adult": false,
      "known_for_department": "Acting"
    },
    {
      "id": 205258,
      "name": "Harry Lloyd",
      "profile_path": "/qZSf6OzRpDaZdOCX6pynSRp6jVV.jpg",
      "popularity": 10.192,
      "adult": false,
      "known_for_department": "Acting"
    },
    {
      "id": 41662,
      "name": "Lindsay Sloane",
      "profile_path": "/gUhnA6tvk2kOQaBxqpJ0QgoKRtA.jpg",
      "popularity": 10.192,
      "adult": false,
      "known_for_department": "Acting"
    },
    {
      "id": 6280,
      "name": "Powers Boothe",
      "profile_path": "/dOwVFE10FgpLXrKhPdEAplpESjR.jpg",
      "popularity": 10.192,
      "adult": false,
      "known_for_department": "Acting"
    },
    {
      "id": 1474965,
      "name": "Lindsey Gort",
      "profile_path": "/pwZIFiSPltZbspDWEAtSB14Pcae.jpg",
      "popularity": 10.191,
      "adult": false,
      "known_for_department": "Acting"
    },
    {
      "id": 40949,
      "name": "Joan Sims",
      "profile_path": "/o72EytYeGT6Feol33Q3mu3tCh7v.jpg",
      "popularity": 10.19,
      "adult": false,
      "known_for_department": "Acting"
    },
    {
      "id": 1670,
      "name": "Daniel Mays",
      "profile_path": "/2qmA5mXnhA7Nelu2BTbJTvzq35u.jpg",
      "popularity": 10.189,
      "adult": false,
      "known_for_department": "Acting"
    },
    {
      "id": 14261,
      "name": "David Niven",
      "profile_path": "/3l4hldACWcnR3z6SPE7Y24hDjNV.jpg",
      "popularity": 10.187,
      "adult": false,
      "known_for_department": "Acting"
    },
    {
      "id": 565447,
      "name": "Romina Power",
      "profile_path": "/mwrPRD0g0oZCQkPKASMyzsNQy3G.jpg",
      "popularity": 10.185,
      "adult": false,
      "known_for_department": "Acting"
    },
    {
      "id": 1485114,
      "name": "Madalyn Horcher",
      "profile_path": "/tgbI87CaMhNUFPdnqw9fpvh1hBW.jpg",
      "popularity": 10.184,
      "adult": false,
      "known_for_department": "Acting"
    },
    {
      "id": 18735,
      "name": "Rock Hudson",
      "profile_path": "/reiGa8Kj40Mg9A23Emg6tp9qkm.jpg",
      "popularity": 10.184,
      "adult": false,
      "known_for_department": "Acting"
    },
    {
      "id": 26716,
      "name": "Heather Burns",
      "profile_path": "/h9FejPeZ5n8U5rYB5Yqd73l2ZID.jpg",
      "popularity": 10.183,
      "adult": false,
      "known_for_department": "Acting"
    },
    {
      "id": 76792,
      "name": "Freida Pinto",
      "profile_path": "/fhUEcLvlsy13hHO5xJb0fV3AiYw.jpg",
      "popularity": 10.182,
      "adult": false,
      "known_for_department": "Acting"
    },
    {
      "id": 46239,
      "name": "Eiko Matsuda",
      "profile_path": "/iAkw70zEammVeKlr99OyyEHb1gj.jpg",
      "popularity": 10.182,
      "adult": false,
      "known_for_department": "Acting"
    },
    {
      "id": 2638304,
      "name": "Fiona Palomo",
      "profile_path": "/oQ9hiKvvr4gG3bnTFyzHP9jO5o6.jpg",
      "popularity": 10.181,
      "adult": false,
      "known_for_department": "Acting"
    }
  ]
}