{
  "page": 345,
  "total_results": 10000,
  "total_pages": 500,
  "results": [
    {
      "id": 1238461,
      "name": "Ariyon Bakare",
      "profile_path": "/9M9tcUNydZaPkWUV99ZCTfQMre7.jpg",
      "popularity": 9.684,
      "adult": false,
      "known_for_department": "Acting"
    },
    {
      "id": 101777,
      "name": "Julianna McCarthy",
      "profile_path": "",
      "popularity": 9.684,
      "adult": false,
      "known_for_department": "Acting"
    },
    {
      "id": 1325962,
      "name": "Daiki Yamashita",
      "profile_path": "/rQNdJdZewk7VGP16ZNbpfJ9ZeMd.jpg",
      "popularity": 9.683,
      "adult": false,
      "known_for_department": "Acting"
    },
    {
      "id": 1953453,
      "name": "Ha Jun",
      "profile_path": "/1UbY5XFDdNQk7tQliOfSxdtCJmf.jpg",
      "popularity": 9.682,
      "adult": false,
      "known_for_department": "Acting"
    },
    {
      "id": 97599,
      "name": "Nathalie Boltt",
      "profile_path": "/mYvZlMSwvv6WDfJHfV6bYm4ddES.jpg",
      "popularity": 9.682,
      "adult": false,
      "known_for_department": "Acting"
    },
    {
      "id": 15900,
      "name": "Paul Dooley",
      "profile_path": "/7nTdbpU4wIsSDZ8WCPXNJOG9KPI.jpg",
      "popularity": 9.681,
      "adult": false,
      "known_for_department": "Acting"
    },
    {
      "id": 2887,
      "name": "Tom Waits",
      "profile_path": "/uxDkURjzHnaglIH2YRWUMJjoDx.jpg",
      "popularity": 9.679,
      "adult": false,
      "known_for_department": "Acting"
    },
    {
      "id": 1826894,
      "name": "Niu Junfeng",
      "profile_path": "/BIwCMssWFSNktwV5XLEFjbS9R7.jpg",
      "popularity": 9.678,
      "adult": false,
      "known_for_department": "Acting"
    },
    {
      "id": 1700784,
      "name": "Mathilde Ollivier",
      "profile_path": "/hLTH1hHRi7jrAbKcS1cwFMk7RNb.jpg",
      "popularity": 9.678,
      "adult": false,
      "known_for_department": "Acting"
    },
    {
      "id": 2260,
      "name": "Steven Zaillian",
      "profile_path": "/3V8X2EnjzqdrUagdnjTgKi213AJ.jpg",
      "popularity": 9.678,
      "adult": false,
      "known_for_department": "Writing"
    },
    {
      "id": 1582,
      "name": "James Duval",
      "profile_path": "/vvasxKKPnxv2qOoXTnaXW3ecGLO.jpg",
      "popularity": 9.678,
      "adult": false,
      "known_for_department": "Acting"
    },
    {
      "id": 1733923,
      "name": "Beren Gökyıldız",
      "profile_path": "/3FoMB5P8zlP6VZ5P7eI33z91qHo.jpg",
      "popularity": 9.676,
      "adult": false,
      "known_for_department": "Acting"
    },
    {
      "id": 2773022,
      "name": "Ryosuke Sota",
      "profile_path": "/cVCaRzJA7wgrcNfkrhdEmaJGRTH.jpg",
      "popularity": 9.675,
      "adult": false,
      "known_for_department": "Acting"
    },
    {
      "id": 1935646,
      "name": "Pınar Deniz",
      "profile_path": "/svchKgph3hMXV0Wfw1pwKqRiVcR.jpg",
      "popularity": 9.675,
      "adult": false,
      "known_for_department": "Acting"
    },
    {
      "id": 1450374,
      "name": "Jacky Cai",
      "profile_path": "/bMl4iCaaoFDVb7JVPWjTVWKqGev.jpg",
      "popularity": 9.674,
      "adult": false,
      "known_for_department": "Acting"
    },
    {
      "id": 2346450,
      "name": "Yasmeen Fletcher",
      "profile_path": "/tmKowGVI58PoNuBTVzlr6OdT7ow.jpg",
      "popularity": 9.673,
      "adult": false,
      "known_for_department": "Acting"
    },
    {
      "id": 1791945,
      "name": "Bek Hyun-jin",
      "profile_path": "/alli4mgPgBUlQc3eXozFVIlUR2I.jpg",
      "popularity": 9.673,
      "adult": false,
      "known_for_department": "Acting"
    },
    {
      "id": 102786,
      "name": "Barack Obama",
      "profile_path": "/reEkbvLlNknpCo2I37Vim6XpqGu.jpg",
      "popularity": 9.673,
      "adult": false,
      "known_for_department": "Acting"
    },
    {
      "id": 53761,
      "name": "Christopher Gorham",
      "profile_path": "/u3D21bfXweqiGWalFxMq2jONcYi.jpg",
      "popularity": 9.673,
      "adult": false,
      "known_for_department": "Acting"
    },
    {
      "id": 1409121,
      "name": "Fumika Baba",
      "profile_path": "/2WGw1Fmbp38GM8EoyYTGe9Al9BO.jpg",
      "popularity": 9.672,
      "adult": false,
      "known_for_department": "Acting"
    }
  ]
}