{
  "page": 152,
  "total_results": 10000,
  "total_pages": 500,
  "results": [
    {
      "id": 1208,
      "name": "Ralph Bellamy",
      "profile_path": "/vC6cdrUUewgurTlVXt36eRAtQKb.jpg",
      "popularity": 13.154,
      "adult": false,
      "known_for_department": "Acting"
    },
    {
      "id": 1493218,
      "name": "Cyrus Arnold",
      "profile_path": "/p9ugSy9MyfBhYrlGOMpH81lk8iT.jpg",
      "popularity": 13.147,
      "adult": false,
      "known_for_department": "Acting"
    },
    {
      "id": 1276777,
      "name": "Lamont Johnson",
      "profile_path": "/49CrcbKnC3hgNwlJfEjtwR4X9rd.jpg",
      "popularity": 13.144,
      "adult": false,
      "known_for_department": "Acting"
    },
    {
      "id": 22809,
      "name": "Keeley Hawes",
      "profile_path": "/9Zt8IHLR1PGso3fSV155LZ1jPCE.jpg",
      "popularity": 13.142,
      "adult": false,
      "known_for_department": "Acting"
    },
    {
      "id": 1820948,
      "name": "Aaron Hilmer",
      "profile_path": "/wVVbhpjsDeC6GI9Pa37qqbuVhZd.jpg",
      "popularity": 13.139,
      "adult": false,
      "known_for_department": "Acting"
    },
    {
      "id": 1601451,
      "name": "María Gabriela de Faría",
      "profile_path": "/mMxLRggKxuQrwgtMpK3HMwhEmmH.jpg",
      "popularity": 13.139,
      "adult": false,
      "known_for_department": "Acting"
    },
    {
      "id": 963117,
      "name": "Bar Paly",
      "profile_path": "/u0ObQI94EUdcIt0eHhEBUrA4gGW.jpg",
      "popularity": 13.137,
      "adult": false,
      "known_for_department": "Acting"
    },
    {
      "id": 134396,
      "name": "Galadriel Stineman",
      "profile_path": "/cW0xP0I2QC0JCD8tItquX73VeiB.jpg",
      "popularity": 13.137,
      "adult": false,
      "known_for_department": "Acting"
    },
    {
      "id": 49706,
      "name": "Adam Rodríguez",
      "profile_path": "/qFSbLvyNPZK40hY9gZXJDvq0qVK.jpg",
      "popularity": 13.137,
      "adult": false,
      "known_for_department": "Acting"
    },
    {
      "id": 60458,
      "name": "Liana Liberato",
      "profile_path": "/5EEvVU9EDZ1ricNizDYUgclG1BF.jpg",
      "popularity": 13.133,
      "adult": false,
      "known_for_department": "Acting"
    },
    {
      "id": 19655,
      "name": "James D'Arcy",
      "profile_path": "/6CInTvBeLwXLx2id9TgaULaVEO4.jpg",
      "popularity": 13.133,
      "adult": false,
      "known_for_department": "Acting"
    },
    {
      "id": 18284,
      "name": "Loretta Devine",
      "profile_path": "/cGTQ0X19bkMWqL6O00JK2t6uJBK.jpg",
      "popularity": 13.133,
      "adult": false,
      "known_for_department": "Acting"
    },
    {
      "id": 1469128,
      "name": "Brec Bassinger",
      "profile_path": "/ggGaeipC6rPreZFPjqIeVZs5ZlX.jpg",
      "popularity": 13.132,
      "adult": false,
      "known_for_department": "Acting"
    },
    {
      "id": 52929,
      "name": "Angie Harmon",
      "profile_path": "/cntFCwNRBDQi4IMoUrmaVzvT7wa.jpg",
      "popularity": 13.13,
      "adult": false,
      "known_for_department": "Acting"
    },
    {
      "id": 10850,
      "name": "Kevin Feige",
      "profile_path": "/kCBqXZ5PT5udYGEj2wfTSFbLMvT.jpg",
      "popularity": 13.129,
      "adult": false,
      "known_for_department": "Production"
    },
    {
      "id": 16131,
      "name": "Mariette Hartley",
      "profile_path": "/8imUoP6Y74jyFg1AhCqHXSIdce1.jpg",
      "popularity": 13.125,
      "adult": false,
      "known_for_department": "Acting"
    },
    {
      "id": 2327300,
      "name": "Alexandra Swarens",
      "profile_path": "/6lUmARiOl1ryM5ACEUUDtNtBod.jpg",
      "popularity": 13.124,
      "adult": false,
      "known_for_department": "Acting"
    },
    {
      "id": 131820,
      "name": "Emma Bell",
      "profile_path": "/nWsmC9JQcg27WcD7X9MxCAMWEox.jpg",
      "popularity": 13.123,
      "adult": false,
      "known_for_department": "Acting"
    },
    {
      "id": 7242,
      "name": "Temuera Morrison",
      "profile_path": "/1ckHDFgKXJ8pazmvLCW7DeOKqA0.jpg",
      "popularity": 13.12,
      "adult": false,
      "known_for_department": "Acting"
    },
    {
      "id": 6167,
      "name": "Judd Hirsch",
      "profile_path": "/7rJ0TZfMoPLTcO203tHhE6tcPKP.jpg",
      "popularity": 13.12,
      "adult": false,
      "known_for_department": "Acting"
    }
  ]
}