{
  "page": 198,
  "total_results": 10000,
  "total_pages": 500,
  "results": [
    {
      "id": 2453363,
      "name": "Noppanut Guntachai",
      "profile_path": "/n4MoIArbTMQhuzq8brdgDpzE2yu.jpg",
      "popularity": 11.981,
      "adult": false,
      "known_for_department": "Acting"
    },
    {
      "id": 27995,
      "name": "Barbara Crampton",
      "profile_path": "/yXIEQiWM3hhgqmx2bJfRTp9341f.jpg",
      "popularity": 11.981,
      "adult": false,
      "known_for_department": "Acting"
    },
    {
      "id": 8892,
      "name": "Olivia Newton-John",
      "profile_path": "/pPgHm4ToBirjWcuOTrEMxS82stP.jpg",
      "popularity": 11.981,
      "adult": false,
      "known_for_department": "Acting"
    },
    {
      "id": 53572,
      "name": "Charles Malik Whitfield",
      "profile_path": "/94C1eqU1IGj8IkWZNpRiimz77eW.jpg",
      "popularity": 11.98,
      "adult": false,
      "known_for_department": "Acting"
    },
    {
      "id": 10839,
      "name": "Leonor Varela",
      "profile_path": "/ooZQvMganzssNGoTKaIgFXM38U7.jpg",
      "popularity": 11.979,
      "adult": false,
      "known_for_department": "Acting"
    },
    {
      "id": 83218,
      "name": "Ellen Hollman",
      "profile_path": "/oBoWoQ5RjOPW69aivd3pFl1LvNi.jpg",
      "popularity": 11.978,
      "adult": false,
      "known_for_department": "Acting"
    },
    {
      "id": 1972707,
      "name": "Esther Acebo",
      "profile_path": "/2v2eOKCjnQfY3jCsowtH8wLxFMC.jpg",
      "popularity": 11.976,
      "adult": false,
      "known_for_department": "Acting"
    },
    {
      "id": 1614317,
      "name": "Sebastian Croft",
      "profile_path": "/u0ZEDjzTrPpS39ObYPCclgOrLaR.jpg",
      "popularity": 11.974,
      "adult": false,
      "known_for_department": "Acting"
    },
    {
      "id": 94864,
      "name": "Max Martini",
      "profile_path": "/3J9qjWkft7LsmHuQ0GHPnPIToOF.jpg",
      "popularity": 11.974,
      "adult": false,
      "known_for_department": "Acting"
    },
    {
      "id": 56256,
      "name": "Coco Martin",
      "profile_path": "/a1ddjv7ATsbt6cR80WlXBC5ncuA.jpg",
      "popularity": 11.972,
      "adult": false,
      "known_for_department": "Acting"
    },
    {
      "id": 20768,
      "name": "Cherie Lunghi",
      "profile_path": "/LoIGKqUw3d58MrVsLpw22goYCK.jpg",
      "popularity": 11.97,
      "adult": false,
      "known_for_department": "Acting"
    },
    {
      "id": 8925,
      "name": "Emmanuelle Seigner",
      "profile_path": "/xPRldoTHgFd1Z5TtGk3jo3TGvPL.jpg",
      "popularity": 11.967,
      "adult": false,
      "known_for_department": "Acting"
    },
    {
      "id": 2341794,
      "name": "Rish Shah",
      "profile_path": "/mxk7ArOC6QjtGitmLDqLvJn6Ra6.jpg",
      "popularity": 11.966,
      "adult": false,
      "known_for_department": "Acting"
    },
    {
      "id": 5299,
      "name": "Cassandra Freeman",
      "profile_path": "/qtOxf8cHwmuqO0O3Zlo6GPN04fo.jpg",
      "popularity": 11.963,
      "adult": false,
      "known_for_department": "Acting"
    },
    {
      "id": 1995527,
      "name": "Kim Ji-yeon-III",
      "profile_path": "/pTHMIbgqBMjHG4kTkWUnKprQah4.jpg",
      "popularity": 11.96,
      "adult": false,
      "known_for_department": "Acting"
    },
    {
      "id": 225730,
      "name": "Ryunosuke Kamiki",
      "profile_path": "/ut7ewXjdgUmgkhJ1EtbOo9tbc7s.jpg",
      "popularity": 11.958,
      "adult": false,
      "known_for_department": "Acting"
    },
    {
      "id": 143593,
      "name": "Xavier Dolan",
      "profile_path": "/ohlR0okNYx0lg4NFqQJoys8c4Zp.jpg",
      "popularity": 11.956,
      "adult": false,
      "known_for_department": "Directing"
    },
    {
      "id": 1214870,
      "name": "Tyler James Williams",
      "profile_path": "/iuPSybfJYExEgUfSmIdN540gdHp.jpg",
      "popularity": 11.953,
      "adult": false,
      "known_for_department": "Acting"
    },
    {
      "id": 1145520,
      "name": "Ari Aster",
      "profile_path": "/7ycICw9yVpk6bzTKLRiPd9eSfHA.jpg",
      "popularity": 11.953,
      "adult": false,
      "known_for_department": "Directing"
    },
    {
      "id": 47395,
      "name": "Miles Malleson",
      "profile_path": "/a5GAmDgilMZRBbNPyTbD9gHVZFG.jpg",
      "popularity": 11.952,
      "adult": false,
      "known_for_department": "Acting"
    }
  ]
}