{
  "page": 266,
  "total_results": 10000,
  "total_pages": 500,
  "results": [
    {
      "id": 104659,
      "name": "Lane Shefter Bishop",
      "profile_path": "/t3ygrjo8p2GU2KLRWgAzT2wfN5n.jpg",
      "popularity": 10.294,
      "adult": false,
      "known_for_department": "Directing"
    },
    {
      "id": 84786,
      "name": "Kim Min-jung",
      "profile_path": "/8XxAvhAk8NG0Ez45at9PFQnJrMZ.jpg",
      "popularity": 10.291,
      "adult": false,
      "known_for_department": "Acting"
    },
    {
      "id": 130260,
      "name": "Adriana Ugarte",
      "profile_path": "/bn7tsAI8Ot0wb85v5pLp7QJ7SRB.jpg",
      "popularity": 10.29,
      "adult": false,
      "known_for_department": "Acting"
    },
    {
      "id": 119834,
      "name": "Necar Zadegan",
      "profile_path": "/25cjlqMmnbfTCgh3kLijOH57URG.jpg",
      "popularity": 10.29,
      "adult": false,
      "known_for_department": "Acting"
    },
    {
      "id": 1443420,
      "name": "Claudia Doumit",
      "profile_path": "/klx1j0mceCxyamucN1vm2Cp8FAG.jpg",
      "popularity": 10.289,
      "adult": false,
      "known_for_department": "Acting"
    },
    {
      "id": 114601,
      "name": "Carly Chaikin",
      "profile_path": "/qKwgQuSqe3vBmlcyLplXDt6fysW.jpg",
      "popularity": 10.289,
      "adult": false,
      "known_for_department": "Acting"
    },
    {
      "id": 49278,
      "name": "Olivier Rabourdin",
      "profile_path": "/r15C7VnXnyMJk8JyNQOJGaauiKA.jpg",
      "popularity": 10.288,
      "adult": false,
      "known_for_department": "Acting"
    },
    {
      "id": 12797,
      "name": "Glenn Morshower",
      "profile_path": "/SjgNUSLoBAVossDI4QkNtDxYDZ.jpg",
      "popularity": 10.288,
      "adult": false,
      "known_for_department": "Acting"
    },
    {
      "id": 33487,
      "name": "Patricia Wettig",
      "profile_path": "/e90WEPSvdrCqBJrpH4LAsR1UBp4.jpg",
      "popularity": 10.286,
      "adult": false,
      "known_for_department": "Acting"
    },
    {
      "id": 25834,
      "name": "Leslie Hope",
      "profile_path": "/pLvZqTqyAh0YmC7egk460I5py42.jpg",
      "popularity": 10.286,
      "adult": false,
      "known_for_department": "Acting"
    },
    {
      "id": 1030252,
      "name": "Álex González",
      "profile_path": "/wSshBfOlhrRbHG7SRJp8nDeOtnD.jpg",
      "popularity": 10.284,
      "adult": false,
      "known_for_department": "Acting"
    },
    {
      "id": 119171,
      "name": "Andrea Parker",
      "profile_path": "/v1T8rFDueOuREauJcFt31P5cr5u.jpg",
      "popularity": 10.284,
      "adult": false,
      "known_for_department": "Acting"
    },
    {
      "id": 49002,
      "name": "Donald Faison",
      "profile_path": "/gNwWP1CHob9Y8fjY69w7EwGxMoz.jpg",
      "popularity": 10.282,
      "adult": false,
      "known_for_department": "Acting"
    },
    {
      "id": 149010,
      "name": "Orlando Brown",
      "profile_path": "/bedZmTFMkTLmXwbSn2z0IQqQE02.jpg",
      "popularity": 10.279,
      "adult": false,
      "known_for_department": "Acting"
    },
    {
      "id": 120725,
      "name": "Yu Rongguang",
      "profile_path": "/fMPufRYhRezUJbzl1NcVnJC6eVn.jpg",
      "popularity": 10.279,
      "adult": false,
      "known_for_department": "Acting"
    },
    {
      "id": 81895,
      "name": "Lucinda Dickey",
      "profile_path": "/hZGNDZfmie8PGwS4yu3KfEiNgt9.jpg",
      "popularity": 10.279,
      "adult": false,
      "known_for_department": "Acting"
    },
    {
      "id": 8537,
      "name": "Jonathan Hyde",
      "profile_path": "/1jYyW3B5omvMTVfEswqQQBrHN2.jpg",
      "popularity": 10.279,
      "adult": false,
      "known_for_department": "Acting"
    },
    {
      "id": 1108117,
      "name": "Sidharth Malhotra",
      "profile_path": "/ms0za8rU7SwBOboUc0G9jRLC1VW.jpg",
      "popularity": 10.278,
      "adult": false,
      "known_for_department": "Acting"
    },
    {
      "id": 28279,
      "name": "Agnès Jaoui",
      "profile_path": "/5iapBWdu5lnnZ0hLOFVYPY2yslB.jpg",
      "popularity": 10.278,
      "adult": false,
      "known_for_department": "Acting"
    },
    {
      "id": 43366,
      "name": "Ann Dowd",
      "profile_path": "/zo44U71uiMNVW1HSiOa5F9MpqIq.jpg",
      "popularity": 10.277,
      "adult": false,
      "known_for_department": "Acting"
    }
  ]
}