{
  "page": 107,
  "total_results": 10000,
  "total_pages": 500,
  "results": [
    {
      "id": 3091,
      "name": "Al Lettieri",
      "profile_path": "/fE5mEWPkkVJlCji0EoKht8PYw89.jpg",
      "popularity": 15.899,
      "adult": false,
      "known_for_department": "Acting"
    },
    {
      "id": 1255540,
      "name": "Allison Williams",
      "profile_path": "/yBolxMiZL1EjmNogPzTAuT85qad.jpg",
      "popularity": 15.894,
      "adult": false,
      "known_for_department": "Acting"
    },
    {
      "id": 2048,
      "name": "Gary Busey",
      "profile_path": "/rlWeUWouDHa82PAINfhYLz0e90W.jpg",
      "popularity": 15.893,
      "adult": false,
      "known_for_department": "Acting"
    },
    {
      "id": 557921,
      "name": "Leo Howard",
      "profile_path": "/gMpV1XHvmLTdpmBfN2yGB8fh1Ny.jpg",
      "popularity": 15.878,
      "adult": false,
      "known_for_department": "Acting"
    },
    {
      "id": 50398,
      "name": "Devon Sawa",
      "profile_path": "/yvMbpZ0UFQ1IBwlWm8quCA6fNc5.jpg",
      "popularity": 15.875,
      "adult": false,
      "known_for_department": "Acting"
    },
    {
      "id": 1028899,
      "name": "Meghann Fahy",
      "profile_path": "/inKBENsH8yzN0tAvaC6x0Wz5Tls.jpg",
      "popularity": 15.872,
      "adult": false,
      "known_for_department": "Acting"
    },
    {
      "id": 53929,
      "name": "Haylie Duff",
      "profile_path": "/lhT6id12TbfNT44R0giYbad22bJ.jpg",
      "popularity": 15.872,
      "adult": false,
      "known_for_department": "Acting"
    },
    {
      "id": 1521843,
      "name": "Jeanne Goursaud",
      "profile_path": "/s8qscLujMGHO9KYk9NJlGyahOSm.jpg",
      "popularity": 15.86,
      "adult": false,
      "known_for_department": "Acting"
    },
    {
      "id": 1483976,
      "name": "Maddie Ziegler",
      "profile_path": "/lVNeL2gTjKCti1pbjrqdmePMwGB.jpg",
      "popularity": 15.855,
      "adult": false,
      "known_for_department": "Acting"
    },
    {
      "id": 52419,
      "name": "Josh Hamilton",
      "profile_path": "/nckOejjgliMjF0vwmra2lKIODUL.jpg",
      "popularity": 15.853,
      "adult": false,
      "known_for_department": "Acting"
    },
    {
      "id": 1161474,
      "name": "Yuki Yamada",
      "profile_path": "/1oRe8UYddBYzyqAjlSwMTIFgg4K.jpg",
      "popularity": 15.851,
      "adult": false,
      "known_for_department": "Acting"
    },
    {
      "id": 16858,
      "name": "Lauren Graham",
      "profile_path": "/3leQVZnthAZwngH7HAD6T7qfsVu.jpg",
      "popularity": 15.851,
      "adult": false,
      "known_for_department": "Acting"
    },
    {
      "id": 27237,
      "name": "G.W. Bailey",
      "profile_path": "/doZuJwI446yhQ28PHT9vyM6pa0f.jpg",
      "popularity": 15.842,
      "adult": false,
      "known_for_department": "Acting"
    },
    {
      "id": 1058633,
      "name": "Peri Baumeister",
      "profile_path": "/bfWBGT1b8kB22hhUc4WQWWUvzln.jpg",
      "popularity": 15.837,
      "adult": false,
      "known_for_department": "Acting"
    },
    {
      "id": 20277,
      "name": "David Suchet",
      "profile_path": "/4X4TT8Uf8mAmRIYgYh4EeR4mWva.jpg",
      "popularity": 15.835,
      "adult": false,
      "known_for_department": "Acting"
    },
    {
      "id": 3282,
      "name": "Sara Gilbert",
      "profile_path": "/8D0ahnddH6EOS8zE5DAV7mAcGzy.jpg",
      "popularity": 15.824,
      "adult": false,
      "known_for_department": "Acting"
    },
    {
      "id": 5741,
      "name": "Matt Groening",
      "profile_path": "/2HmAw3AN93DGESPi3ibLZgBa8cT.jpg",
      "popularity": 15.823,
      "adult": false,
      "known_for_department": "Writing"
    },
    {
      "id": 1057485,
      "name": "Tess Haubrich",
      "profile_path": "/pNvjKa3Rl2q681EM6kQrwbEfJeg.jpg",
      "popularity": 15.818,
      "adult": false,
      "known_for_department": "Acting"
    },
    {
      "id": 12516,
      "name": "Linda Hunt",
      "profile_path": "/7Q58ghdO35UAbEJ8qGh4RPqqmQI.jpg",
      "popularity": 15.818,
      "adult": false,
      "known_for_department": "Acting"
    },
    {
      "id": 4764,
      "name": "John C. Reilly",
      "profile_path": "/iDQ8w4qcxU3le5ZWoCKpHs1QNok.jpg",
      "popularity": 15.818,
      "adult": false,
      "known_for_department": "Acting"
    }
  ]
}