{
  "page": 223,
  "total_results": 10000,
  "total_pages": 500,
  "results": [
    {
      "id": 96279,
      "name": "Con O'Neill",
      "profile_path": "/7Fnj1dB9kStTuy29eEVK4IuOxWO.jpg",
      "popularity": 11.607,
      "adult": false,
      "known_for_department": "Acting"
    },
    {
      "id": 1352,
      "name": "Jean-Louis Trintignant",
      "profile_path": "/wn6owr4wvkeaEvlsPtwXSldFGEW.jpg",
      "popularity": 11.607,
      "adult": false,
      "known_for_department": "Acting"
    },
    {
      "id": 220990,
      "name": "Kevin Janssens",
      "profile_path": "/gzKVkmCYNSvJDvin2B4RPT1WeJT.jpg",
      "popularity": 11.606,
      "adult": false,
      "known_for_department": "Acting"
    },
    {
      "id": 132180,
      "name": "Ji Sung",
      "profile_path": "/6RBiKyGLczeCrgnu1tfw5URRvEg.jpg",
      "popularity": 11.604,
      "adult": false,
      "known_for_department": "Acting"
    },
    {
      "id": 3475,
      "name": "David Battley",
      "profile_path": "/wzeJVtlft8bBpjhqVzKethORR6l.jpg",
      "popularity": 11.603,
      "adult": false,
      "known_for_department": "Acting"
    },
    {
      "id": 1603600,
      "name": "Patricia López Arnaiz",
      "profile_path": "/7fWsjnIi3xfxPzXExkwQMVUUusz.jpg",
      "popularity": 11.6,
      "adult": false,
      "known_for_department": "Acting"
    },
    {
      "id": 219752,
      "name": "Hiroki Takahashi",
      "profile_path": "/8vC4fuIORjrgFcXle4bjgDeaNhE.jpg",
      "popularity": 11.599,
      "adult": false,
      "known_for_department": "Acting"
    },
    {
      "id": 14593,
      "name": "Ingeborga Dapkūnaitė",
      "profile_path": "/epH5vef5Tm6b2VyU71KKCxw9tyd.jpg",
      "popularity": 11.599,
      "adult": false,
      "known_for_department": "Acting"
    },
    {
      "id": 19207,
      "name": "Timothy Bottoms",
      "profile_path": "/e0SKyrvvyJFZWx3QFzI4qAkWi8E.jpg",
      "popularity": 11.598,
      "adult": false,
      "known_for_department": "Acting"
    },
    {
      "id": 1262570,
      "name": "Hanna Binke",
      "profile_path": "/vA2txSv7ZlsDdXNaVZvzB0G3NSt.jpg",
      "popularity": 11.594,
      "adult": false,
      "known_for_department": "Acting"
    },
    {
      "id": 35780,
      "name": "Amitabh Bachchan",
      "profile_path": "/yAvq3EG5W5WaegZHB7gNdlM2KED.jpg",
      "popularity": 11.594,
      "adult": false,
      "known_for_department": "Acting"
    },
    {
      "id": 1143960,
      "name": "Erin Krakow",
      "profile_path": "/8euXiEHmBwzV6NdwQ8dfwzFa7C7.jpg",
      "popularity": 11.593,
      "adult": false,
      "known_for_department": "Acting"
    },
    {
      "id": 20584,
      "name": "Lucy Lawless",
      "profile_path": "/s3FqnfsjIEkWibx8QFtbyq5VnZL.jpg",
      "popularity": 11.589,
      "adult": false,
      "known_for_department": "Acting"
    },
    {
      "id": 1110520,
      "name": "Zhang Lanxin",
      "profile_path": "/8qI5n4rGcv12XTsrRMKsBUOjQPY.jpg",
      "popularity": 11.588,
      "adult": false,
      "known_for_department": "Acting"
    },
    {
      "id": 14670,
      "name": "Joan Rivers",
      "profile_path": "/uIDEnLdh5ofM4nX5etIYUXxpLZH.jpg",
      "popularity": 11.586,
      "adult": false,
      "known_for_department": "Acting"
    },
    {
      "id": 136835,
      "name": "Cathryn Harrison",
      "profile_path": "/9nLMKHzlRAVYo9nrysoNPY8iNIm.jpg",
      "popularity": 11.584,
      "adult": false,
      "known_for_department": "Acting"
    },
    {
      "id": 115792,
      "name": "Masako Katsuki",
      "profile_path": "/szBdXm77jVvvHLaDoxEs9Nl9dtF.jpg",
      "popularity": 11.584,
      "adult": false,
      "known_for_department": "Acting"
    },
    {
      "id": 29234,
      "name": "Joe Anderson",
      "profile_path": "/x0Fz2mIMU4Prk7I43pn87Fyno40.jpg",
      "popularity": 11.584,
      "adult": false,
      "known_for_department": "Acting"
    },
    {
      "id": 1651019,
      "name": "Burak Çelik",
      "profile_path": "/veN3x0qdxSfcvE8Mt2DjYEhkpPC.jpg",
      "popularity": 11.581,
      "adult": false,
      "known_for_department": "Acting"
    },
    {
      "id": 1871464,
      "name": "Benjamin Voisin",
      "profile_path": "/gn7NsqkZ3kAZxDnE18ZMjJzTCIQ.jpg",
      "popularity": 11.578,
      "adult": false,
      "known_for_department": "Acting"
    }
  ]
}