{
  "page": 187,
  "total_results": 10000,
  "total_pages": 500,
  "results": [
    {
      "id": 1780007,
      "name": "Amybeth McNulty",
      "profile_path": "/ypkqSiS3u36Ki4KZwvRR3kbZ1IW.jpg",
      "popularity": 12.244,
      "adult": false,
      "known_for_department": "Acting"
    },
    {
      "id": 29224,
      "name": "Nikki Blonsky",
      "profile_path": "/dTsVd4Mlt78S7sc7Wev10TWqrzq.jpg",
      "popularity": 12.241,
      "adult": false,
      "known_for_department": "Acting"
    },
    {
      "id": 587634,
      "name": "Park Bo-gum",
      "profile_path": "/lITY3WsJOFjlHkP1bJ3PwYhuNnD.jpg",
      "popularity": 12.239,
      "adult": false,
      "known_for_department": "Acting"
    },
    {
      "id": 58014,
      "name": "Rossif Sutherland",
      "profile_path": "/25N7FFIGuPxSTCMqe0vrywzPwnv.jpg",
      "popularity": 12.239,
      "adult": false,
      "known_for_department": "Acting"
    },
    {
      "id": 11161,
      "name": "Tom Savini",
      "profile_path": "/zBYnzxzlAIEoanEU00bGYJmRS6k.jpg",
      "popularity": 12.238,
      "adult": false,
      "known_for_department": "Acting"
    },
    {
      "id": 1228995,
      "name": "Ellie Haddington",
      "profile_path": "/uiSAmpSfjtGueB8is9eUMjGeUmT.jpg",
      "popularity": 12.237,
      "adult": false,
      "known_for_department": "Acting"
    },
    {
      "id": 566375,
      "name": "Jo Jae-yun",
      "profile_path": "/iGaXbn7UCj559yM1HDHhS3sFhkV.jpg",
      "popularity": 12.234,
      "adult": false,
      "known_for_department": "Acting"
    },
    {
      "id": 94156,
      "name": "Diana Dors",
      "profile_path": "/jqn5glFet4dl1zKpC4prnqQORXX.jpg",
      "popularity": 12.234,
      "adult": false,
      "known_for_department": "Acting"
    },
    {
      "id": 67222,
      "name": "Chingmy Yau",
      "profile_path": "/8ZEk4Yc0GlC1xcF6U7cO8GUKPAl.jpg",
      "popularity": 12.233,
      "adult": false,
      "known_for_department": "Acting"
    },
    {
      "id": 1326056,
      "name": "Bella Dayne",
      "profile_path": "/8fWktaJ2TM5gckri7RNUFSugtnm.jpg",
      "popularity": 12.232,
      "adult": false,
      "known_for_department": "Acting"
    },
    {
      "id": 51936,
      "name": "Lindy Booth",
      "profile_path": "/5vT2mIIGTM7XQx4utAyRjW1aRPW.jpg",
      "popularity": 12.231,
      "adult": false,
      "known_for_department": "Acting"
    },
    {
      "id": 32683,
      "name": "Sidse Babett Knudsen",
      "profile_path": "/yVkWyBuJaup9I6FIgjZlGkczNNj.jpg",
      "popularity": 12.226,
      "adult": false,
      "known_for_department": "Acting"
    },
    {
      "id": 53515,
      "name": "Beatie Edney",
      "profile_path": "/cnGo8nAzVV8KadJ5ppbdMcSryKs.jpg",
      "popularity": 12.225,
      "adult": false,
      "known_for_department": "Acting"
    },
    {
      "id": 4521,
      "name": "Burt Young",
      "profile_path": "/po3D7HKkMhoNkBMcIKpxjWzjoF.jpg",
      "popularity": 12.221,
      "adult": false,
      "known_for_department": "Acting"
    },
    {
      "id": 61363,
      "name": "Alex Pettyfer",
      "profile_path": "/jcejkad2OWB71Bz1RRc4Ib0961k.jpg",
      "popularity": 12.216,
      "adult": false,
      "known_for_department": "Acting"
    },
    {
      "id": 1883866,
      "name": "Lulu Wilson",
      "profile_path": "/Aba6EJ1NxhDTsJyO5F0oigTjeuD.jpg",
      "popularity": 12.213,
      "adult": false,
      "known_for_department": "Acting"
    },
    {
      "id": 62692,
      "name": "Oliver Hudson",
      "profile_path": "/kvRmZBKs7xMZwsTu37adKPF8PKG.jpg",
      "popularity": 12.213,
      "adult": false,
      "known_for_department": "Acting"
    },
    {
      "id": 120430,
      "name": "Shefali Shah",
      "profile_path": "/9F8UGARvP7w10Chq5povDPHpfUC.jpg",
      "popularity": 12.21,
      "adult": false,
      "known_for_department": "Acting"
    },
    {
      "id": 1241498,
      "name": "Daisuke Ono",
      "profile_path": "/rCo5Q3xMnOFMavs6YJAbP2ZRsqt.jpg",
      "popularity": 12.209,
      "adult": false,
      "known_for_department": "Acting"
    },
    {
      "id": 41422,
      "name": "Jesse Spencer",
      "profile_path": "/4A86Y3ZkcTUESQ1XMYiA66peQ3M.jpg",
      "popularity": 12.209,
      "adult": false,
      "known_for_department": "Acting"
    }
  ]
}