{
  "page": 34,
  "total_results": 10000,
  "total_pages": 500,
  "results": [
    {
      "id": 1331,
      "name": "Hugo Weaving",
      "profile_path": "/lSC8Et0PYi5zeQb3IpPkFje7hgR.jpg",
      "popularity": 25.806,
      "adult": false,
      "known_for_department": "Acting"
    },
    {
      "id": 12041,
      "name": "Julia Stiles",
      "profile_path": "/9PJ6G5begxnZkkwvqZqMs0Iwn5o.jpg",
      "popularity": 25.783,
      "adult": false,
      "known_for_department": "Acting"
    },
    {
      "id": 21315,
      "name": "Eric Roberts",
      "profile_path": "/NiWg1TaUcal7xn1ZQeyA2dLd5F.jpg",
      "popularity": 25.75,
      "adult": false,
      "known_for_department": "Acting"
    },
    {
      "id": 4726,
      "name": "Marcia Gay Harden",
      "profile_path": "/tP4GnvdKOwWnPjAO3f6e6HI1bhn.jpg",
      "popularity": 25.74,
      "adult": false,
      "known_for_department": "Acting"
    },
    {
      "id": 1160,
      "name": "Michelle Pfeiffer",
      "profile_path": "/oGUmQBU87QXAsnaGleYaAjAXSlj.jpg",
      "popularity": 25.735,
      "adult": false,
      "known_for_department": "Acting"
    },
    {
      "id": 122237,
      "name": "Michaela Conlin",
      "profile_path": "/5Qv7KNTMDbdO7m5p1wIic5kVKr8.jpg",
      "popularity": 25.722,
      "adult": false,
      "known_for_department": "Acting"
    },
    {
      "id": 15112,
      "name": "Tom Selleck",
      "profile_path": "/uhrK7HBzIVPFTNgp08KHuihadMS.jpg",
      "popularity": 25.699,
      "adult": false,
      "known_for_department": "Acting"
    },
    {
      "id": 37089,
      "name": "Cameron Monaghan",
      "profile_path": "/fyWtrRJEm35nk4l0v7rEXqjQ0q2.jpg",
      "popularity": 25.656,
      "adult": false,
      "known_for_department": "Acting"
    },
    {
      "id": 1281,
      "name": "Freddie Highmore",
      "profile_path": "/4haqYYQJFhFe9Poqb26Xpuj1VJk.jpg",
      "popularity": 25.635,
      "adult": false,
      "known_for_department": "Acting"
    },
    {
      "id": 1121,
      "name": "Benicio del Toro",
      "profile_path": "/cVh4UgCMu6aAkZ2BqymTLV86FzZ.jpg",
      "popularity": 25.629,
      "adult": false,
      "known_for_department": "Acting"
    },
    {
      "id": 2956,
      "name": "Amanda Peet",
      "profile_path": "/ahuC3ksBIJ6A6lgzPnMuyVzx74K.jpg",
      "popularity": 25.602,
      "adult": false,
      "known_for_department": "Acting"
    },
    {
      "id": 6885,
      "name": "Charlize Theron",
      "profile_path": "/gd7ShD0yt4bsR2STeQ19KQ6hvXL.jpg",
      "popularity": 25.599,
      "adult": false,
      "known_for_department": "Acting"
    },
    {
      "id": 1133349,
      "name": "Elizabeth Debicki",
      "profile_path": "/nXXbGG1vCrHlscwqD55EGI9aHpA.jpg",
      "popularity": 25.57,
      "adult": false,
      "known_for_department": "Acting"
    },
    {
      "id": 69122,
      "name": "Heather Graham",
      "profile_path": "/avYdNkeg1oTvmrNJbFDcTlBCkKs.jpg",
      "popularity": 25.56,
      "adult": false,
      "known_for_department": "Acting"
    },
    {
      "id": 368,
      "name": "Reese Witherspoon",
      "profile_path": "/odkbrsn8I9m0zIVSntrDTl3hjUh.jpg",
      "popularity": 25.549,
      "adult": false,
      "known_for_department": "Acting"
    },
    {
      "id": 1753914,
      "name": "Josephine Langford",
      "profile_path": "/8Fj1UIFRJA0B5Zo22KwML5d3Mr3.jpg",
      "popularity": 25.542,
      "adult": false,
      "known_for_department": "Acting"
    },
    {
      "id": 544896,
      "name": "Krithi Shetty",
      "profile_path": "/23NxkwhU2JA8IIoTwM1OWuUxOUg.jpg",
      "popularity": 25.529,
      "adult": false,
      "known_for_department": "Acting"
    },
    {
      "id": 90130,
      "name": "Aaron Ashmore",
      "profile_path": "/kkGwF2nhgnYLUfXuH2CDvrHeUay.jpg",
      "popularity": 25.511,
      "adult": false,
      "known_for_department": "Acting"
    },
    {
      "id": 17064,
      "name": "Ben Whishaw",
      "profile_path": "/2GBtQ6scGeSHkX1urOP1EJbmksx.jpg",
      "popularity": 25.51,
      "adult": false,
      "known_for_department": "Acting"
    },
    {
      "id": 3380426,
      "name": "Sarocha Chankimha",
      "profile_path": "/s7yYGre0hNEsAf8CFnT1UJ27so6.jpg",
      "popularity": 25.5,
      "adult": false,
      "known_for_department": "Acting"
    }
  ]
}