{
  "page": 306,
  "total_results": 10000,
  "total_pages": 500,
  "results": [
    {
      "id": 105648,
      "name": "Nat Faxon",
      "profile_path": "/i7bsT8ewAjCr7zByWOyCnbrT0x9.jpg",
      "popularity": 9.209,
      "adult": false,
      "known_for_department": "Acting"
    },
    {
      "id": 22137,
      "name": "Viveca Lindfors",
      "profile_path": "/5gs8qdR66iRG60hX3kmRTvP2AWF.jpg",
      "popularity": 9.208,
      "adult": false,
      "known_for_department": "Acting"
    },
    {
      "id": 110080,
      "name": "Sheridan Smith",
      "profile_path": "/6vHbF7cO4vWr8Tm8wxfZDHpO32e.jpg",
      "popularity": 9.207,
      "adult": false,
      "known_for_department": "Acting"
    },
    {
      "id": 1573807,
      "name": "Bart Edwards",
      "profile_path": "/cjiHNJ8zr2mepLBasxsYqGFBf8e.jpg",
      "popularity": 9.206,
      "adult": false,
      "known_for_department": "Acting"
    },
    {
      "id": 1509729,
      "name": "Rena Takeda",
      "profile_path": "/dPUhBBKWUvmglC5PbGbCUumat24.jpg",
      "popularity": 9.206,
      "adult": false,
      "known_for_department": "Acting"
    },
    {
      "id": 1704774,
      "name": "Cade Mansfield Cooksey",
      "profile_path": "/hU1TrovqQPG1MA8kewCIDYqbMBp.jpg",
      "popularity": 9.205,
      "adult": false,
      "known_for_department": "Acting"
    },
    {
      "id": 81244,
      "name": "Akira Ishida",
      "profile_path": "/jnW2Gn2NlR2uwOCeyOuzypnTmkH.jpg",
      "popularity": 9.205,
      "adult": false,
      "known_for_department": "Acting"
    },
    {
      "id": 1413817,
      "name": "Talitha Luke-Eardley",
      "profile_path": "/hB1z6eQK4MbMFmS9eKpVoncN0G9.jpg",
      "popularity": 9.204,
      "adult": false,
      "known_for_department": "Acting"
    },
    {
      "id": 1252930,
      "name": "İpek Tenolcay",
      "profile_path": "/54vzPrIkQHHF6vHNPcyQ1zwUDuu.jpg",
      "popularity": 9.204,
      "adult": false,
      "known_for_department": "Acting"
    },
    {
      "id": 168197,
      "name": "Olivia Olson",
      "profile_path": "/pFSy3Q57oU39NVebHzPkpTrANZe.jpg",
      "popularity": 9.204,
      "adult": false,
      "known_for_department": "Acting"
    },
    {
      "id": 35476,
      "name": "Brittany Daniel",
      "profile_path": "/ggejsCiO94S2ZxljXN7LEypnaTQ.jpg",
      "popularity": 9.203,
      "adult": false,
      "known_for_department": "Acting"
    },
    {
      "id": 87637,
      "name": "Masami Nagasawa",
      "profile_path": "/g5m4nwA95afODsscBkUEzX8Qq0Y.jpg",
      "popularity": 9.202,
      "adult": false,
      "known_for_department": "Acting"
    },
    {
      "id": 4738,
      "name": "Connor Paolo",
      "profile_path": "/fAvc2hUrh0cqi3OfLteu5cWRD50.jpg",
      "popularity": 9.202,
      "adult": false,
      "known_for_department": "Acting"
    },
    {
      "id": 71586,
      "name": "Alfie Allen",
      "profile_path": "/7gPpG0TBMX20tPhWC8BT47x2lnh.jpg",
      "popularity": 9.2,
      "adult": false,
      "known_for_department": "Acting"
    },
    {
      "id": 42174,
      "name": "Kay Lenz",
      "profile_path": "/srdxyMP6QIRpmLudd78lRCMuVZk.jpg",
      "popularity": 9.198,
      "adult": false,
      "known_for_department": "Acting"
    },
    {
      "id": 56547,
      "name": "Chris Webster",
      "profile_path": "/yo97GZJnU75mMdTLNQ85SCWOTka.jpg",
      "popularity": 9.197,
      "adult": false,
      "known_for_department": "Acting"
    },
    {
      "id": 6465,
      "name": "Grace Zabriskie",
      "profile_path": "/19tr5IbzCmv4x5B3WFlG1RQPwXu.jpg",
      "popularity": 9.197,
      "adult": false,
      "known_for_department": "Acting"
    },
    {
      "id": 592925,
      "name": "Saralisa Volm",
      "profile_path": "/hS0sQgJnWGK08ugweOjUHaxQxGV.jpg",
      "popularity": 9.195,
      "adult": false,
      "known_for_department": "Directing"
    },
    {
      "id": 1028454,
      "name": "Emma Fuhrmann",
      "profile_path": "/g65GKrbFaAVI1i0m10hjJm0JyD1.jpg",
      "popularity": 9.194,
      "adult": false,
      "known_for_department": "Acting"
    },
    {
      "id": 51580,
      "name": "Janine Turner",
      "profile_path": "/sstY4R6okeEKWfhFkwCF5dWoCiq.jpg",
      "popularity": 9.194,
      "adult": false,
      "known_for_department": "Acting"
    }
  ]
}