{
  "page": 468,
  "total_results": 10000,
  "total_pages": 500,
  "results": [
    {
      "id": 66586,
      "name": "Mariah Carey",
      "profile_path": "/5abhvNcfjv7Bhj0Jdqbgy9CwOvC.jpg",
      "popularity": 7.19,
      "adult": false,
      "known_for_department": "Acting"
    },
    {
      "id": 62054,
      "name": "Faith Ford",
      "profile_path": "/8FMAHz9LD7xCnmeX8rkkNknXqhy.jpg",
      "popularity": 7.19,
      "adult": false,
      "known_for_department": "Acting"
    },
    {
      "id": 38584,
      "name": "Olivia Pascal",
      "profile_path": "/wJEsxjzRJGPmVmEP3Vrl65cusne.jpg",
      "popularity": 7.19,
      "adult": false,
      "known_for_department": "Acting"
    },
    {
      "id": 14262,
      "name": "Capucine",
      "profile_path": "/irP5xNwI5j2pG2FNAGcVa67F98C.jpg",
      "popularity": 7.19,
      "adult": false,
      "known_for_department": "Acting"
    },
    {
      "id": 1686837,
      "name": "Lina El Arabi",
      "profile_path": "/sSzeygZyJ9z5walSnY0jAjcOhYO.jpg",
      "popularity": 7.189,
      "adult": false,
      "known_for_department": "Acting"
    },
    {
      "id": 212141,
      "name": "Kristen Harris",
      "profile_path": "/jbu0VJaJtw0awZ9J6ObAQiIcG8s.jpg",
      "popularity": 7.189,
      "adult": false,
      "known_for_department": "Acting"
    },
    {
      "id": 119145,
      "name": "Hiro Shimono",
      "profile_path": "/i5CaaqKmHH0vKCloqZyrCwn5mWy.jpg",
      "popularity": 7.189,
      "adult": false,
      "known_for_department": "Acting"
    },
    {
      "id": 55549,
      "name": "Liz Torres",
      "profile_path": "/gGPWtG1ZbtZC73w9zjUED26jZIH.jpg",
      "popularity": 7.189,
      "adult": false,
      "known_for_department": "Acting"
    },
    {
      "id": 1240427,
      "name": "Lucian Msamati",
      "profile_path": "/vGPnCNjSL4JwVQ4yqh0XLK2GpXM.jpg",
      "popularity": 7.188,
      "adult": false,
      "known_for_department": "Acting"
    },
    {
      "id": 1159954,
      "name": "Benjamin Lavernhe",
      "profile_path": "/e0wFxLvNHS0XmdRKpMeIytDFZmO.jpg",
      "popularity": 7.188,
      "adult": false,
      "known_for_department": "Acting"
    },
    {
      "id": 84996,
      "name": "Yoo Hae-jin",
      "profile_path": "/y6L2EsmnbnCFxCgfHR2oeL7oQoo.jpg",
      "popularity": 7.188,
      "adult": false,
      "known_for_department": "Acting"
    },
    {
      "id": 7663,
      "name": "Teresa Wright",
      "profile_path": "/3zwmqPnX7Y5UAcuVTCyz59HdHgK.jpg",
      "popularity": 7.186,
      "adult": false,
      "known_for_department": "Acting"
    },
    {
      "id": 1511,
      "name": "Harry Earles",
      "profile_path": "/yQtJnvqYQ3tH3U6o4xqS4weZ14b.jpg",
      "popularity": 7.185,
      "adult": false,
      "known_for_department": "Acting"
    },
    {
      "id": 932,
      "name": "John Logan",
      "profile_path": "/nsece2qBIAOFvavyXc89HlIqrLK.jpg",
      "popularity": 7.185,
      "adult": false,
      "known_for_department": "Writing"
    },
    {
      "id": 1621189,
      "name": "Chandler Kinney",
      "profile_path": "/zTmwFNsuSknDY98weDiRH3yMPA0.jpg",
      "popularity": 7.184,
      "adult": false,
      "known_for_department": "Acting"
    },
    {
      "id": 17919,
      "name": "Taral Hicks",
      "profile_path": "/vospKzNf1QPbToCg4aN26BzT8o6.jpg",
      "popularity": 7.184,
      "adult": false,
      "known_for_department": "Acting"
    },
    {
      "id": 1475796,
      "name": "Blair Penner",
      "profile_path": "/dc85NPt3qunqq5rca9NYGYqLUf6.jpg",
      "popularity": 7.183,
      "adult": false,
      "known_for_department": "Acting"
    },
    {
      "id": 107531,
      "name": "Jun Matsumoto",
      "profile_path": "/3baNO7NwuOOLMfaZfY4tt64ST3g.jpg",
      "popularity": 7.183,
      "adult": false,
      "known_for_department": "Acting"
    },
    {
      "id": 105647,
      "name": "Justine Bateman",
      "profile_path": "/rYEbU778cutjGORs5uxebYehhyy.jpg",
      "popularity": 7.183,
      "adult": false,
      "known_for_department": "Acting"
    },
    {
      "id": 80461,
      "name": "Yu Jun-sang",
      "profile_path": "/sRI7h5AsI9RMMvQWM4ef560aAeY.jpg",
      "popularity": 7.183,
      "adult": false,
      "known_for_department": "Acting"
    }
  ]
}