{
  "page": 35,
  "total_results": 10000,
  "total_pages": 500,
  "results": [
    {
      "id": 4139,
      "name": "Tom Skerritt",
      "profile_path": "/fzfFrbdRPnAYaE0h3OD1PsMtiy8.jpg",
      "popularity": 25.837,
      "adult": false,
      "known_for_department": "Acting"
    },
    {
      "id": 14592,
      "name": "BD Wong",
      "profile_path": "/w7Hs9m6ocS2qlibvrLOvmyCKbAN.jpg",
      "popularity": 25.817,
      "adult": false,
      "known_for_department": "Acting"
    },
    {
      "id": 114,
      "name": "Orlando Bloom",
      "profile_path": "/lwQoA0qJTCZ6l2FH6PjmhRQjiaB.jpg",
      "popularity": 25.808,
      "adult": false,
      "known_for_department": "Acting"
    },
    {
      "id": 7056,
      "name": "Emma Thompson",
      "profile_path": "/zQ0hWHh3tzaOOziPbABQI8s9WCu.jpg",
      "popularity": 25.8,
      "adult": false,
      "known_for_department": "Acting"
    },
    {
      "id": 10959,
      "name": "Shia LaBeouf",
      "profile_path": "/frYAEeYMi9jdt9MIjGA8vCr5yUC.jpg",
      "popularity": 25.798,
      "adult": false,
      "known_for_department": "Acting"
    },
    {
      "id": 12851,
      "name": "Ally Sheedy",
      "profile_path": "/lS0wc4tOstj7jOMoWnQDYc1aESC.jpg",
      "popularity": 25.779,
      "adult": false,
      "known_for_department": "Acting"
    },
    {
      "id": 1397246,
      "name": "Barış Arduç",
      "profile_path": "/2YsDp14BBgNPdwBdv9fGIS0FLjm.jpg",
      "popularity": 25.768,
      "adult": false,
      "known_for_department": "Acting"
    },
    {
      "id": 31362,
      "name": "Ian Bohen",
      "profile_path": "/qEi3UXB3rx9vithYZPtqW3U5e3L.jpg",
      "popularity": 25.764,
      "adult": false,
      "known_for_department": "Acting"
    },
    {
      "id": 4038,
      "name": "Susan Sarandon",
      "profile_path": "/sMbg2gnpbccjfRQrQ6Vz0O77Xrh.jpg",
      "popularity": 25.755,
      "adult": false,
      "known_for_department": "Acting"
    },
    {
      "id": 10696,
      "name": "Famke Janssen",
      "profile_path": "/uvZGwNsLqe9NyA57Qlt46IkO8Bd.jpg",
      "popularity": 25.754,
      "adult": false,
      "known_for_department": "Acting"
    },
    {
      "id": 83860,
      "name": "Aldis Hodge",
      "profile_path": "/jPpnaAGFXaIeOrRNUHIHxk3fIJL.jpg",
      "popularity": 25.748,
      "adult": false,
      "known_for_department": "Acting"
    },
    {
      "id": 54415,
      "name": "Josh Gad",
      "profile_path": "/17iKlfWZBDTAucqjkhRKHr9xjIz.jpg",
      "popularity": 25.745,
      "adult": false,
      "known_for_department": "Acting"
    },
    {
      "id": 1182725,
      "name": "Manny Montana",
      "profile_path": "/EUoD5EalyUDHZtRZCnosRqhMi.jpg",
      "popularity": 25.728,
      "adult": false,
      "known_for_department": "Acting"
    },
    {
      "id": 56446,
      "name": "John Cena",
      "profile_path": "/rgB2eIOt7WyQjdgJCOuESdDlrjg.jpg",
      "popularity": 25.713,
      "adult": false,
      "known_for_department": "Acting"
    },
    {
      "id": 57854,
      "name": "Cheryl Hines",
      "profile_path": "/aOp8EZEKrY9Fz3GhOyJYlLOcfxg.jpg",
      "popularity": 25.702,
      "adult": false,
      "known_for_department": "Acting"
    },
    {
      "id": 2390029,
      "name": "Ren Chengwei",
      "profile_path": "/aWIJHtSpL998kbWzbWBY03GMHEW.jpg",
      "popularity": 25.689,
      "adult": false,
      "known_for_department": "Acting"
    },
    {
      "id": 11317,
      "name": "Natascha McElhone",
      "profile_path": "/9pxaoasotR1pdCXYSfN1pkm0geO.jpg",
      "popularity": 25.688,
      "adult": false,
      "known_for_department": "Acting"
    },
    {
      "id": 221018,
      "name": "Dan Stevens",
      "profile_path": "/fFsgginZKH527o38ZfdDxuzx7Ew.jpg",
      "popularity": 25.687,
      "adult": false,
      "known_for_department": "Acting"
    },
    {
      "id": 1254435,
      "name": "Peyton List",
      "profile_path": "/5p8KwRgBUYVcKBKTYFdD30o6dAc.jpg",
      "popularity": 25.685,
      "adult": false,
      "known_for_department": "Acting"
    },
    {
      "id": 527313,
      "name": "Taissa Farmiga",
      "profile_path": "/kC2Movbs6uEF8DdDhvyHizQHuru.jpg",
      "popularity": 25.665,
      "adult": false,
      "known_for_department": "Acting"
    }
  ]
}