{
  "page": 280,
  "total_results": 10000,
  "total_pages": 500,
  "results": [
    {
      "id": 1210610,
      "name": "Olivia Luccardi",
      "profile_path": "/fB1hlwIp9Ye4HvHJzn6GMlZqgl.jpg",
      "popularity": 11.144,
      "adult": false,
      "known_for_department": "Acting"
    },
    {
      "id": 127387,
      "name": "Yuri Lowenthal",
      "profile_path": "/41mC1hbV8XNVsqUmRrBFwHNHVp.jpg",
      "popularity": 11.143,
      "adult": false,
      "known_for_department": "Acting"
    },
    {
      "id": 1701993,
      "name": "Lee Joo-young",
      "profile_path": "/qItCRSPDO5VvAgueUHNEbg86ZMz.jpg",
      "popularity": 11.141,
      "adult": false,
      "known_for_department": "Acting"
    },
    {
      "id": 971299,
      "name": "Griffin Gluck",
      "profile_path": "/j7KSBKYLgnLxkZfhQ679HRSDIjj.jpg",
      "popularity": 11.141,
      "adult": false,
      "known_for_department": "Acting"
    },
    {
      "id": 4274,
      "name": "Miou-Miou",
      "profile_path": "/kjQD9nNjcakYxOmXq1IG66y1RtU.jpg",
      "popularity": 11.14,
      "adult": false,
      "known_for_department": "Acting"
    },
    {
      "id": 131519,
      "name": "Rihanna",
      "profile_path": "/idQMtwmB3LMvNXMfod6vIBzXvDg.jpg",
      "popularity": 11.138,
      "adult": false,
      "known_for_department": "Acting"
    },
    {
      "id": 67711,
      "name": "French Stewart",
      "profile_path": "/58v2ob0bzhvTIBwLcLx8SKgrwPh.jpg",
      "popularity": 11.138,
      "adult": false,
      "known_for_department": "Acting"
    },
    {
      "id": 11045,
      "name": "Ola Rapace",
      "profile_path": "/kIzSsc3txeo2xfKGbAxQ9ZZIX8J.jpg",
      "popularity": 11.137,
      "adult": false,
      "known_for_department": "Acting"
    },
    {
      "id": 3982,
      "name": "Xander Berkeley",
      "profile_path": "/oBoKGfngGGZmSVGFslphYjc23WO.jpg",
      "popularity": 11.136,
      "adult": false,
      "known_for_department": "Acting"
    },
    {
      "id": 1676565,
      "name": "Ahn Se-ha",
      "profile_path": "/ah6E27lc3UJrLPLArSEsgY4GXCu.jpg",
      "popularity": 11.134,
      "adult": false,
      "known_for_department": "Acting"
    },
    {
      "id": 104646,
      "name": "Barbara Niven",
      "profile_path": "/dqLkAlpIMlJsI6tN95kqGHUxtBK.jpg",
      "popularity": 11.134,
      "adult": false,
      "known_for_department": "Acting"
    },
    {
      "id": 33807,
      "name": "George Eastman",
      "profile_path": "/aE8C5uGqystShl13VcrZSjcraJ5.jpg",
      "popularity": 11.134,
      "adult": false,
      "known_for_department": "Acting"
    },
    {
      "id": 1988291,
      "name": "Ong Seong-wu",
      "profile_path": "/4g1G3l9AmQlntojYnebc7MUOaQe.jpg",
      "popularity": 11.133,
      "adult": false,
      "known_for_department": "Acting"
    },
    {
      "id": 6105,
      "name": "Richard Lewis",
      "profile_path": "/cr688BUIVm9yLXB2fqwiYKt1f2J.jpg",
      "popularity": 11.133,
      "adult": false,
      "known_for_department": "Acting"
    },
    {
      "id": 1679828,
      "name": "Toni Garrn",
      "profile_path": "/7KhsLOldVVLVL0sOsBtasXmTdKu.jpg",
      "popularity": 11.131,
      "adult": false,
      "known_for_department": "Acting"
    },
    {
      "id": 1004806,
      "name": "Engin Akyürek",
      "profile_path": "/ykHobj9HvKIunrH6xiFCG26c3CJ.jpg",
      "popularity": 11.13,
      "adult": false,
      "known_for_department": "Acting"
    },
    {
      "id": 119243,
      "name": "Bunta Sugawara",
      "profile_path": "/lHPLlP8zNwGMmcUI8rGks5vp8Vn.jpg",
      "popularity": 11.13,
      "adult": false,
      "known_for_department": "Acting"
    },
    {
      "id": 12931,
      "name": "Rita Wilson",
      "profile_path": "/3c22ZCpoXjLbxA6NZerxIbQXDpu.jpg",
      "popularity": 11.13,
      "adult": false,
      "known_for_department": "Acting"
    },
    {
      "id": 35980,
      "name": "Brooke Langton",
      "profile_path": "/7vNdKFRgedVWfRiZps26PlaVwtI.jpg",
      "popularity": 11.128,
      "adult": false,
      "known_for_department": "Acting"
    },
    {
      "id": 1320678,
      "name": "Jun Shison",
      "profile_path": "/eaYnTyb5eWnBtsnBGfxTyTVYK8O.jpg",
      "popularity": 11.127,
      "adult": false,
      "known_for_department": "Acting"
    }
  ]
}