{
  "page": 86,
  "total_results": 10000,
  "total_pages": 500,
  "results": [
    {
      "id": 35769,
      "name": "Christopher Masterson",
      "profile_path": "/vDpW40I1UMul7j4ZwGylPuWHteC.jpg",
      "popularity": 19.859,
      "adult": false,
      "known_for_department": "Acting"
    },
    {
      "id": 34398,
      "name": "Bill Fagerbakke",
      "profile_path": "/wOZl6yPLhDyqGf8T6WJO4Vc1FYt.jpg",
      "popularity": 19.859,
      "adult": false,
      "known_for_department": "Acting"
    },
    {
      "id": 18920,
      "name": "Patricia Velásquez",
      "profile_path": "/51Ve74pQUnR6tv3faE8LKUFZa9I.jpg",
      "popularity": 19.852,
      "adult": false,
      "known_for_department": "Acting"
    },
    {
      "id": 291263,
      "name": "Jordan Peele",
      "profile_path": "/hQzDPiMQtO4GqtKj4CcuUBoYaJD.jpg",
      "popularity": 19.85,
      "adult": false,
      "known_for_department": "Directing"
    },
    {
      "id": 9657,
      "name": "Patrick Warburton",
      "profile_path": "/eLqDtbFYmlTxov9vT9Dwldn839v.jpg",
      "popularity": 19.836,
      "adult": false,
      "known_for_department": "Acting"
    },
    {
      "id": 93252,
      "name": "Kim Hae-sook",
      "profile_path": "/gbWb5gXuhGCnTSogCrmMPD65F8w.jpg",
      "popularity": 19.825,
      "adult": false,
      "known_for_department": "Acting"
    },
    {
      "id": 14592,
      "name": "BD Wong",
      "profile_path": "/w7Hs9m6ocS2qlibvrLOvmyCKbAN.jpg",
      "popularity": 19.818,
      "adult": false,
      "known_for_department": "Acting"
    },
    {
      "id": 7486,
      "name": "Michael Wincott",
      "profile_path": "/z6FtWACKaIivi0khxM6vEHoUH0.jpg",
      "popularity": 19.813,
      "adult": false,
      "known_for_department": "Acting"
    },
    {
      "id": 54014,
      "name": "David Hayman",
      "profile_path": "/gTwOhUXKzdHn4CEO4VEPyJHleb1.jpg",
      "popularity": 19.811,
      "adult": false,
      "known_for_department": "Acting"
    },
    {
      "id": 18980,
      "name": "Katey Sagal",
      "profile_path": "/jdnBWdXlQG2Q2F6v9MPJkaWQ9Vd.jpg",
      "popularity": 19.809,
      "adult": false,
      "known_for_department": "Acting"
    },
    {
      "id": 16560,
      "name": "David Caruso",
      "profile_path": "/7XjPzadIBQ0mIVwVT7o87B7NkJJ.jpg",
      "popularity": 19.807,
      "adult": false,
      "known_for_department": "Acting"
    },
    {
      "id": 1957,
      "name": "Sophie Marceau",
      "profile_path": "/ggYd5jtI9mNB0VRY05EeY8fN2nX.jpg",
      "popularity": 19.8,
      "adult": false,
      "known_for_department": "Acting"
    },
    {
      "id": 550843,
      "name": "Elizabeth Olsen",
      "profile_path": "/wIU675y4dofIDVuhaNWPizJNtep.jpg",
      "popularity": 19.789,
      "adult": false,
      "known_for_department": "Acting"
    },
    {
      "id": 1670,
      "name": "Daniel Mays",
      "profile_path": "/2qmA5mXnhA7Nelu2BTbJTvzq35u.jpg",
      "popularity": 19.78,
      "adult": false,
      "known_for_department": "Acting"
    },
    {
      "id": 144344,
      "name": "Emily Cox",
      "profile_path": "/iypZYnKcR3MGtKOkwD9KDlVnRCl.jpg",
      "popularity": 19.779,
      "adult": false,
      "known_for_department": "Acting"
    },
    {
      "id": 1572347,
      "name": "Jeon Bae-soo",
      "profile_path": "/3jH7s2IUz7sgRRYlrd0soBfA8PE.jpg",
      "popularity": 19.778,
      "adult": false,
      "known_for_department": "Acting"
    },
    {
      "id": 21625,
      "name": "Molly Ringwald",
      "profile_path": "/eXRphPiX18t8C3nCoOuxQFNegqP.jpg",
      "popularity": 19.775,
      "adult": false,
      "known_for_department": "Acting"
    },
    {
      "id": 1222298,
      "name": "Bridget Regan",
      "profile_path": "/ri1kEBkWa9ShTYbV2iJAFa0V4VU.jpg",
      "popularity": 19.768,
      "adult": false,
      "known_for_department": "Acting"
    },
    {
      "id": 67015,
      "name": "Michael Gross",
      "profile_path": "/qznUukUDTLDjRqbP3GdcMYqYSiI.jpg",
      "popularity": 19.765,
      "adult": false,
      "known_for_department": "Acting"
    },
    {
      "id": 11064,
      "name": "David Strathairn",
      "profile_path": "/fhkvTcrCDPTAclTnE7sqQS1NZKq.jpg",
      "popularity": 19.763,
      "adult": false,
      "known_for_department": "Acting"
    }
  ]
}