{
  "page": 358,
  "total_results": 10000,
  "total_pages": 500,
  "results": [
    {
      "id": 1225895,
      "name": "Graham Wardle",
      "profile_path": "/2KVVAncndDYICg11tQialplWOev.jpg",
      "popularity": 8.394,
      "adult": false,
      "known_for_department": "Acting"
    },
    {
      "id": 239507,
      "name": "Asami Ogawa",
      "profile_path": "/Ar5rDel8pIzh59KEL1bJrUayFbM.jpg",
      "popularity": 8.394,
      "adult": false,
      "known_for_department": "Acting"
    },
    {
      "id": 10681,
      "name": "Wayne Newton",
      "profile_path": "/v888Enog3fIBHXO5jYSS09BvJIj.jpg",
      "popularity": 8.394,
      "adult": false,
      "known_for_department": "Acting"
    },
    {
      "id": 28743,
      "name": "John Lynch",
      "profile_path": "/4TG8HYZ5SEFh1Yk5CCG4fXD55j9.jpg",
      "popularity": 8.393,
      "adult": false,
      "known_for_department": "Acting"
    },
    {
      "id": 79757,
      "name": "Ville Virtanen",
      "profile_path": "/8MdixCyOV8YRh9YySQwXPtGPwz5.jpg",
      "popularity": 8.391,
      "adult": false,
      "known_for_department": "Acting"
    },
    {
      "id": 1068259,
      "name": "Marco Grazzini",
      "profile_path": "/i6QSn9wssoabEmDLsEIH6e7xaSs.jpg",
      "popularity": 8.39,
      "adult": false,
      "known_for_department": "Acting"
    },
    {
      "id": 45446,
      "name": "Megan Follows",
      "profile_path": "/ujKoDCJZ5tp4nSU2rw9LfbrP9ny.jpg",
      "popularity": 8.389,
      "adult": false,
      "known_for_department": "Acting"
    },
    {
      "id": 16407,
      "name": "Roger Rees",
      "profile_path": "/qKWG7oxTL1JGzTzHLacsNLDAbNs.jpg",
      "popularity": 8.389,
      "adult": false,
      "known_for_department": "Acting"
    },
    {
      "id": 9707,
      "name": "Ayumi Ito",
      "profile_path": "/5Lon3bBtHjiFCyNLpiDNI2oVinj.jpg",
      "popularity": 8.389,
      "adult": false,
      "known_for_department": "Acting"
    },
    {
      "id": 20495,
      "name": "Jeff Fahey",
      "profile_path": "/zRu1ZmM7ekKwKbmXn3U0VjD8Wyd.jpg",
      "popularity": 8.388,
      "adult": false,
      "known_for_department": "Acting"
    },
    {
      "id": 693,
      "name": "Roshan Seth",
      "profile_path": "/4TbHkaZxPegaTns250cVXr8F91F.jpg",
      "popularity": 8.387,
      "adult": false,
      "known_for_department": "Acting"
    },
    {
      "id": 93527,
      "name": "Kelly Rowland",
      "profile_path": "/xBBhuEmno3vygtdpnL5D6MtOKmo.jpg",
      "popularity": 8.386,
      "adult": false,
      "known_for_department": "Acting"
    },
    {
      "id": 2922,
      "name": "Boris Karloff",
      "profile_path": "/fVi0QkiziavXB8HnWk5NzRcnCO1.jpg",
      "popularity": 8.386,
      "adult": false,
      "known_for_department": "Acting"
    },
    {
      "id": 1305990,
      "name": "Maryana Spivak",
      "profile_path": "/bs1TeJ9jg7NkegKwtWOxRFfMI6x.jpg",
      "popularity": 8.384,
      "adult": false,
      "known_for_department": "Acting"
    },
    {
      "id": 1284084,
      "name": "Evan Jonigkeit",
      "profile_path": "/qinqtgVOe2vEt9xl4DP88oSaZZp.jpg",
      "popularity": 8.384,
      "adult": false,
      "known_for_department": "Acting"
    },
    {
      "id": 1393180,
      "name": "Madisyn Shipman",
      "profile_path": "/490oN5ldGzzKIcdzTsxwIYTzF2L.jpg",
      "popularity": 8.382,
      "adult": false,
      "known_for_department": "Acting"
    },
    {
      "id": 160728,
      "name": "Julie Gregg",
      "profile_path": "/8Kx71BnZNtpzb86jH7fcArWhJBh.jpg",
      "popularity": 8.382,
      "adult": false,
      "known_for_department": "Acting"
    },
    {
      "id": 72309,
      "name": "Kathryn Hunter",
      "profile_path": "/cVXR004q75laRSuayzpvw6iaQkU.jpg",
      "popularity": 8.382,
      "adult": false,
      "known_for_department": "Acting"
    },
    {
      "id": 1326172,
      "name": "Lee Kwang-soo",
      "profile_path": "/iH7lAoq5MjDPyQr2GMoU9QTRBOi.jpg",
      "popularity": 8.381,
      "adult": false,
      "known_for_department": "Acting"
    },
    {
      "id": 154784,
      "name": "Dominic Fumusa",
      "profile_path": "/cggOfZTrfQTRfmLJURaPQfk6jdS.jpg",
      "popularity": 8.381,
      "adult": false,
      "known_for_department": "Acting"
    }
  ]
}