{
  "page": 115,
  "total_results": 10000,
  "total_pages": 500,
  "results": [
    {
      "id": 9139,
      "name": "Celia Imrie",
      "profile_path": "/eEtVfESOVnkkdPLYkyQpalEwAwj.jpg",
      "popularity": 15.133,
      "adult": false,
      "known_for_department": "Acting"
    },
    {
      "id": 34195,
      "name": "Jayma Mays",
      "profile_path": "/n8tY5eVXje0vXTws66YAdEeHMy5.jpg",
      "popularity": 15.132,
      "adult": false,
      "known_for_department": "Acting"
    },
    {
      "id": 18391,
      "name": "Lee Marvin",
      "profile_path": "/bXVCrjGbGhPg6mgDi9OIrp5jK9b.jpg",
      "popularity": 15.127,
      "adult": false,
      "known_for_department": "Acting"
    },
    {
      "id": 7467,
      "name": "David Fincher",
      "profile_path": "/tpEczFclQZeKAiCeKZZ0adRvtfz.jpg",
      "popularity": 15.123,
      "adult": false,
      "known_for_department": "Directing"
    },
    {
      "id": 66586,
      "name": "Mariah Carey",
      "profile_path": "/5abhvNcfjv7Bhj0Jdqbgy9CwOvC.jpg",
      "popularity": 15.122,
      "adult": false,
      "known_for_department": "Acting"
    },
    {
      "id": 1313583,
      "name": "Levi Miller",
      "profile_path": "/n7yuMduWZpBuKHjW25X9G2miTKl.jpg",
      "popularity": 15.118,
      "adult": false,
      "known_for_department": "Acting"
    },
    {
      "id": 240150,
      "name": "Derek Yee Tung-Sing",
      "profile_path": "/26JnjQSEugt9XpHiNO67oaFgnyG.jpg",
      "popularity": 15.105,
      "adult": false,
      "known_for_department": "Acting"
    },
    {
      "id": 83141,
      "name": "Paul Wesley",
      "profile_path": "/hBQ8yYZpjRNDbzfR0r83VTmPooJ.jpg",
      "popularity": 15.099,
      "adult": false,
      "known_for_department": "Acting"
    },
    {
      "id": 26469,
      "name": "Holly Marie Combs",
      "profile_path": "/smZy91UWhB8bZib6A28kTQ8w9sT.jpg",
      "popularity": 15.096,
      "adult": false,
      "known_for_department": "Acting"
    },
    {
      "id": 589722,
      "name": "Teresa Ruiz",
      "profile_path": "/bu0bGNDzIpaVfrOBBb1PERirBB9.jpg",
      "popularity": 15.094,
      "adult": false,
      "known_for_department": "Acting"
    },
    {
      "id": 13,
      "name": "Albert Brooks",
      "profile_path": "/8iDSGu5l93N7benjf6b3AysBore.jpg",
      "popularity": 15.09,
      "adult": false,
      "known_for_department": "Acting"
    },
    {
      "id": 1255487,
      "name": "Tsubasa Honda",
      "profile_path": "/1xdR7FXHc3zeRrMyy5qHlDQr9Ou.jpg",
      "popularity": 15.089,
      "adult": false,
      "known_for_department": "Acting"
    },
    {
      "id": 7036,
      "name": "Eric Stoltz",
      "profile_path": "/p9ZBOGVpIFgtywjgHqRkJsZEG18.jpg",
      "popularity": 15.089,
      "adult": false,
      "known_for_department": "Acting"
    },
    {
      "id": 366,
      "name": "James Mangold",
      "profile_path": "/pk0GDjn99crNwR4qgCCEokDYd71.jpg",
      "popularity": 15.083,
      "adult": false,
      "known_for_department": "Directing"
    },
    {
      "id": 97406,
      "name": "Natalie Zea",
      "profile_path": "/7Bn3WMi9VYmXVaZaS7PBfbGXqZj.jpg",
      "popularity": 15.082,
      "adult": false,
      "known_for_department": "Acting"
    },
    {
      "id": 1271681,
      "name": "Sunny Sandler",
      "profile_path": "/jbAcAKA5u6QD8Uz3nKETqXsRgrh.jpg",
      "popularity": 15.081,
      "adult": false,
      "known_for_department": "Acting"
    },
    {
      "id": 38561,
      "name": "Kelly Brook",
      "profile_path": "/nQViqXs3FkBcKz9ILIzLBmrDaDk.jpg",
      "popularity": 15.08,
      "adult": false,
      "known_for_department": "Acting"
    },
    {
      "id": 65838,
      "name": "Jeremy Sumpter",
      "profile_path": "/xP3SCz6C9yXQZUutbmeQ6BPtPFc.jpg",
      "popularity": 15.079,
      "adult": false,
      "known_for_department": "Acting"
    },
    {
      "id": 21127,
      "name": "Bobby Cannavale",
      "profile_path": "/gYQwTbEj5IBPYKLGKgrsNGrWAMl.jpg",
      "popularity": 15.077,
      "adult": false,
      "known_for_department": "Acting"
    },
    {
      "id": 91520,
      "name": "Michiel Huisman",
      "profile_path": "/y33jnMTqHaAMabZwy9BeE1TYZ00.jpg",
      "popularity": 15.072,
      "adult": false,
      "known_for_department": "Acting"
    }
  ]
}