{
  "page": 109,
  "total_results": 10000,
  "total_pages": 500,
  "results": [
    {
      "id": 1875841,
      "name": "Jennie Kim",
      "profile_path": "/17A6a2ZJQWXbMTPfhpTNBQhtDv7.jpg",
      "popularity": 15.582,
      "adult": false,
      "known_for_department": "Acting"
    },
    {
      "id": 36042,
      "name": "Rachel Ward",
      "profile_path": "/8jksGCUaR1MgWSo2nqxY7SCSyYj.jpg",
      "popularity": 15.579,
      "adult": false,
      "known_for_department": "Acting"
    },
    {
      "id": 8335,
      "name": "Kim Coates",
      "profile_path": "/brhVd2vTTBJNpM2ZrOFc6SnXCAd.jpg",
      "popularity": 15.575,
      "adult": false,
      "known_for_department": "Acting"
    },
    {
      "id": 3491,
      "name": "Thomas Kretschmann",
      "profile_path": "/7M0P39a3CVA22dJyv5YQEkTThU7.jpg",
      "popularity": 15.575,
      "adult": false,
      "known_for_department": "Acting"
    },
    {
      "id": 1565127,
      "name": "Yurina Yanagi",
      "profile_path": "/smWoyDfRk48OasZlolGokD8iYq0.jpg",
      "popularity": 15.571,
      "adult": false,
      "known_for_department": "Acting"
    },
    {
      "id": 1936932,
      "name": "Alicia Agneson",
      "profile_path": "/a3IrkRmyqbm7NltqvN7ilWZZkx0.jpg",
      "popularity": 15.568,
      "adult": false,
      "known_for_department": "Acting"
    },
    {
      "id": 59696,
      "name": "Trieste Kelly Dunn",
      "profile_path": "/1aDD3hUKkWStw5pugBdRQ2vQ4QG.jpg",
      "popularity": 15.568,
      "adult": false,
      "known_for_department": "Acting"
    },
    {
      "id": 39388,
      "name": "Amy Ryan",
      "profile_path": "/bItqd1QUNpdegjBXNaVuFFPEZU4.jpg",
      "popularity": 15.566,
      "adult": false,
      "known_for_department": "Acting"
    },
    {
      "id": 1494506,
      "name": "Breanne Hill",
      "profile_path": "/vPepNisMvgt5Sn9MA32YZ1LJ5mZ.jpg",
      "popularity": 15.564,
      "adult": false,
      "known_for_department": "Acting"
    },
    {
      "id": 3464,
      "name": "Julie Dawn Cole",
      "profile_path": "/ajIuAtzX0WmQK4lJNb15oyBExz4.jpg",
      "popularity": 15.564,
      "adult": false,
      "known_for_department": "Acting"
    },
    {
      "id": 212285,
      "name": "Jack Whitehall",
      "profile_path": "/qBHLpjH3Dad9ZoZsrcMplIPwkHC.jpg",
      "popularity": 15.56,
      "adult": false,
      "known_for_department": "Acting"
    },
    {
      "id": 1294982,
      "name": "Paul Walter Hauser",
      "profile_path": "/x2RVFwCGTdkwAGeVG5GQJmjxGh5.jpg",
      "popularity": 15.559,
      "adult": false,
      "known_for_department": "Acting"
    },
    {
      "id": 7676,
      "name": "William Atherton",
      "profile_path": "/cYGr02PJqEh96DOWVm3kKHRRZzT.jpg",
      "popularity": 15.544,
      "adult": false,
      "known_for_department": "Acting"
    },
    {
      "id": 1063,
      "name": "Lea Thompson",
      "profile_path": "/85E9NTEfkRdUdK4kTrrnk5of25w.jpg",
      "popularity": 15.541,
      "adult": false,
      "known_for_department": "Acting"
    },
    {
      "id": 5588,
      "name": "Alicia Silverstone",
      "profile_path": "/pyxqkP4i0ubVdoRe5hoiiiwkHkb.jpg",
      "popularity": 15.54,
      "adult": false,
      "known_for_department": "Acting"
    },
    {
      "id": 1768965,
      "name": "Sofia Wylie",
      "profile_path": "/6zmcoLXpDWZXV2nDgNfWoCThmbo.jpg",
      "popularity": 15.539,
      "adult": false,
      "known_for_department": "Acting"
    },
    {
      "id": 13333,
      "name": "Vanessa Redgrave",
      "profile_path": "/d40DWvfq40LZlJZESk3wWGYU5oa.jpg",
      "popularity": 15.534,
      "adult": false,
      "known_for_department": "Acting"
    },
    {
      "id": 1834433,
      "name": "Hani",
      "profile_path": "/6TZ49EFsCbA9eD1Y4BO9T0Ejpbr.jpg",
      "popularity": 15.529,
      "adult": false,
      "known_for_department": "Acting"
    },
    {
      "id": 122408,
      "name": "Lee Joon-gi",
      "profile_path": "/tHPJUgGiQRWt1Bh7ymqmmJ2zKF6.jpg",
      "popularity": 15.529,
      "adult": false,
      "known_for_department": "Acting"
    },
    {
      "id": 221773,
      "name": "Saori Hayami",
      "profile_path": "/idFQBETcsRV7Uy7InV2x9e2iFWq.jpg",
      "popularity": 15.514,
      "adult": false,
      "known_for_department": "Acting"
    }
  ]
}