{
  "page": 367,
  "total_results": 10000,
  "total_pages": 500,
  "results": [
    {
      "id": 109621,
      "name": "Rekha",
      "profile_path": "/6Ewl0EYECDfwArTWVnINpRqEw9P.jpg",
      "popularity": 8.219,
      "adult": false,
      "known_for_department": "Acting"
    },
    {
      "id": 656,
      "name": "Denholm Elliott",
      "profile_path": "/knXXDDYckQ0yQsR0OFbEL8O8RtF.jpg",
      "popularity": 9.419,
      "adult": false,
      "known_for_department": "Acting"
    },
    {
      "id": 62597,
      "name": "Peter MacKenzie",
      "profile_path": "/cIh0AFTpukyo7O7I4AeWpGnFpic.jpg",
      "popularity": 10.619,
      "adult": false,
      "known_for_department": "Acting"
    },
    {
      "id": 3013234,
      "name": "Brady Hepner",
      "profile_path": "",
      "popularity": 10.06,
      "adult": false,
      "known_for_department": "Acting"
    },
    {
      "id": 8979,
      "name": "Patrick Malahide",
      "profile_path": "/ae0AJ8FbJireYPQyglIxNucjqIy.jpg",
      "popularity": 9.418,
      "adult": false,
      "known_for_department": "Acting"
    },
    {
      "id": 2741103,
      "name": "Aitana Villacieros",
      "profile_path": "/zZNdtIc1L1WUcL5QGG4hj6f9tPr.jpg",
      "popularity": 9.817,
      "adult": false,
      "known_for_department": "Acting"
    },
    {
      "id": 71536,
      "name": "Matthew Wood",
      "profile_path": "/u1UjHLTeS5Dregg85A3GICf7Nkf.jpg",
      "popularity": 9.017,
      "adult": false,
      "known_for_department": "Sound"
    },
    {
      "id": 1377670,
      "name": "Glenn Fleshler",
      "profile_path": "/x1Cef2yPZS7bJTwxI7DX3q0HNcv.jpg",
      "popularity": 7.417,
      "adult": false,
      "known_for_department": "Acting"
    },
    {
      "id": 26713,
      "name": "Chuck Russell",
      "profile_path": "/vppcXI2uPEfsBK7vHEXJVrSuup1.jpg",
      "popularity": 7.817,
      "adult": false,
      "known_for_department": "Directing"
    },
    {
      "id": 2139719,
      "name": "Claudia Gusmano",
      "profile_path": "/s50ShhULGEy4FOFI7ootzH3XIC3.jpg",
      "popularity": 9.817,
      "adult": false,
      "known_for_department": "Acting"
    },
    {
      "id": 123879,
      "name": "Matt Nable",
      "profile_path": "/jSu8gDagYzRATvOl1APVixQc9ZR.jpg",
      "popularity": 14.077,
      "adult": false,
      "known_for_department": "Acting"
    },
    {
      "id": 1668193,
      "name": "Riku Hagiwara",
      "profile_path": "/jdYmCGXPcK4YdSbPfUaZVAqUIBJ.jpg",
      "popularity": 12.216,
      "adult": false,
      "known_for_department": "Acting"
    },
    {
      "id": 1423301,
      "name": "Maurizio Lombardi",
      "profile_path": "/v7Usor4G9gKUspMDgiKSEWCRN1Z.jpg",
      "popularity": 6.032,
      "adult": false,
      "known_for_department": "Acting"
    },
    {
      "id": 1260914,
      "name": "Laura Galán",
      "profile_path": "/hrCZt7cAYMYLd3XdfoIvvTYHZXC.jpg",
      "popularity": 9.416,
      "adult": false,
      "known_for_department": "Acting"
    },
    {
      "id": 111640,
      "name": "Munetaka Aoki",
      "profile_path": "/l5GdFPBBz717Kiimyqp5ieaglVo.jpg",
      "popularity": 10.216,
      "adult": false,
      "known_for_department": "Acting"
    },
    {
      "id": 1108,
      "name": "Shane Black",
      "profile_path": "/fafBg8LjtQqsXyFg8ZgW7DHQXKt.jpg",
      "popularity": 10.616,
      "adult": false,
      "known_for_department": "Writing"
    },
    {
      "id": 78804,
      "name": "Jocelin Donahue",
      "profile_path": "/eQXBzPjo9K8MG9TVOoQDNoHEFwv.jpg",
      "popularity": 9.015,
      "adult": false,
      "known_for_department": "Acting"
    },
    {
      "id": 1365670,
      "name": "Jin Hye-Kyung",
      "profile_path": "/lqf3Vmqfvw77QgsDS26OXaLET8v.jpg",
      "popularity": 7.015,
      "adult": false,
      "known_for_department": "Acting"
    },
    {
      "id": 122815,
      "name": "Julie Lee",
      "profile_path": "/q4fo9Ai8QRDc8o128uzVyBehEGX.jpg",
      "popularity": 10.215,
      "adult": false,
      "known_for_department": "Acting"
    },
    {
      "id": 1193327,
      "name": "Alvin Greenman",
      "profile_path": "",
      "popularity": 7.014,
      "adult": false,
      "known_for_department": "Acting"
    }
  ]
}