{
  "page": 201,
  "total_results": 10000,
  "total_pages": 500,
  "results": [
    {
      "id": 84752,
      "name": "Park Si-yeon",
      "profile_path": "/iaP44f9OYuHoLKi2Mhyo27LdBlJ.jpg",
      "popularity": 12.841,
      "adult": false,
      "known_for_department": "Acting"
    },
    {
      "id": 8253,
      "name": "Robert Ryan",
      "profile_path": "/hQslaHI5bSdUHMnauG8JeiIPluz.jpg",
      "popularity": 11.241,
      "adult": false,
      "known_for_department": "Acting"
    },
    {
      "id": 8949,
      "name": "Peter Fonda",
      "profile_path": "/dgorN06SQ9ZNL2NY3I7BNxg93lc.jpg",
      "popularity": 13.257,
      "adult": false,
      "known_for_department": "Acting"
    },
    {
      "id": 21908,
      "name": "Aaron Kwok",
      "profile_path": "/zlMfNJwmAyuBdD9bPHLC4fk3SkR.jpg",
      "popularity": 8.44,
      "adult": false,
      "known_for_department": "Acting"
    },
    {
      "id": 54722,
      "name": "Laura Marano",
      "profile_path": "/fBCtQ1kAcQkEr6f5HGN8Q5687Qq.jpg",
      "popularity": 13.251,
      "adult": false,
      "known_for_department": "Acting"
    },
    {
      "id": 29220,
      "name": "Amanda Bynes",
      "profile_path": "/jr4s2VByipNS3L3E3KK0i2UtDPk.jpg",
      "popularity": 12.84,
      "adult": false,
      "known_for_department": "Acting"
    },
    {
      "id": 19803,
      "name": "Leonardo Sbaraglia",
      "profile_path": "/jCpIcRZ2Md8iO5PnYYytGCKC2T5.jpg",
      "popularity": 10.839,
      "adult": false,
      "known_for_department": "Acting"
    },
    {
      "id": 145989,
      "name": "Ji Jin-hee",
      "profile_path": "/7O6u0vn1SafFgcyJwP4rJwBfvaR.jpg",
      "popularity": 6.838,
      "adult": false,
      "known_for_department": "Acting"
    },
    {
      "id": 60460,
      "name": "A.J. Buckley",
      "profile_path": "/arGsJN4HuiNpFsRsNX81fDX1KJj.jpg",
      "popularity": 13.245,
      "adult": false,
      "known_for_department": "Acting"
    },
    {
      "id": 1381537,
      "name": "Marcus Rosner",
      "profile_path": "/8O5Y5kEcIeom3dcp6hA0e6x7vLs.jpg",
      "popularity": 9.457,
      "adult": false,
      "known_for_department": "Acting"
    },
    {
      "id": 9825,
      "name": "Saffron Burrows",
      "profile_path": "/2qMLZh9XWquBt7TZF9wmDiOtJdm.jpg",
      "popularity": 13.237,
      "adult": false,
      "known_for_department": "Acting"
    },
    {
      "id": 17052,
      "name": "Topher Grace",
      "profile_path": "/tgF5PeH4xwz32FjB80n5aFiuHX.jpg",
      "popularity": 9.237,
      "adult": false,
      "known_for_department": "Acting"
    },
    {
      "id": 2092738,
      "name": "Shreya Dhanwanthary",
      "profile_path": "/dSWHYuEWjPzczAzdLFgYHt3Y5Dd.jpg",
      "popularity": 9.453,
      "adult": false,
      "known_for_department": "Acting"
    },
    {
      "id": 17051,
      "name": "James Franco",
      "profile_path": "/rShzuvrQJJQJ6lXDn3IQX4o0iCE.jpg",
      "popularity": 8.036,
      "adult": false,
      "known_for_department": "Acting"
    },
    {
      "id": 109701,
      "name": "Barbara Hale",
      "profile_path": "/7ORAxB1D30kQesqWHN7RU8zxNMi.jpg",
      "popularity": 13.233,
      "adult": false,
      "known_for_department": "Acting"
    },
    {
      "id": 114463,
      "name": "Michelle Jenner",
      "profile_path": "/g3JyHqwBcV7g1ds3dHtWkDXyXqb.jpg",
      "popularity": 13.231,
      "adult": false,
      "known_for_department": "Acting"
    },
    {
      "id": 72494,
      "name": "Rie Miyazawa",
      "profile_path": "/s8z4HKhkPBT80UF1DxVDpzgGPPg.jpg",
      "popularity": 12.435,
      "adult": false,
      "known_for_department": "Acting"
    },
    {
      "id": 51671,
      "name": "Susie Porter",
      "profile_path": "/ynlvVxiKsmzJ5L7Rj6Kcntnczzh.jpg",
      "popularity": 6.435,
      "adult": false,
      "known_for_department": "Acting"
    },
    {
      "id": 1156305,
      "name": "Arnas Fedaravicius",
      "profile_path": "/7WfcGugvkuPqEzu0cUJBeJPt1lD.jpg",
      "popularity": 6.434,
      "adult": false,
      "known_for_department": "Acting"
    },
    {
      "id": 2174509,
      "name": "Mason Gooding",
      "profile_path": "/bmlry1xqBzNgv8Chm783ss93Cvg.jpg",
      "popularity": 9.445,
      "adult": false,
      "known_for_department": "Acting"
    }
  ]
}