{
  "page": 252,
  "total_results": 10000,
  "total_pages": 500,
  "results": [
    {
      "id": 1666,
      "name": "Julie Christie",
      "profile_path": "/siAi4XZhDPP8LRgbByzwLqVaLIQ.jpg",
      "popularity": 9.979,
      "adult": false,
      "known_for_department": "Acting"
    },
    {
      "id": 21688,
      "name": "Bae Doona",
      "profile_path": "/4NrnwPEeOWWfgyoxIXQybBDtJ5d.jpg",
      "popularity": 9.978,
      "adult": false,
      "known_for_department": "Acting"
    },
    {
      "id": 1514065,
      "name": "Charlotte McKinney",
      "profile_path": "/kKus50JDqKtrWLqururLUArHhxo.jpg",
      "popularity": 9.977,
      "adult": false,
      "known_for_department": "Acting"
    },
    {
      "id": 2108181,
      "name": "Ines Høysæter Asserson",
      "profile_path": "/fs2Kgd4RpfiWxHXulX1wnRAknjq.jpg",
      "popularity": 9.975,
      "adult": false,
      "known_for_department": "Acting"
    },
    {
      "id": 141823,
      "name": "Tisha Campbell-Martin",
      "profile_path": "/keuc8jAfEM2fRce0P8FvLclwlYg.jpg",
      "popularity": 9.975,
      "adult": false,
      "known_for_department": "Acting"
    },
    {
      "id": 1963917,
      "name": "Uğur Aslan",
      "profile_path": "/vu8PJMZGMGI57zYCDAwsWM5mdt.jpg",
      "popularity": 9.971,
      "adult": false,
      "known_for_department": "Acting"
    },
    {
      "id": 235184,
      "name": "Rena Murakami",
      "profile_path": "/9uKzS9rjQEU5CZw7GrDMDqRULGr.jpg",
      "popularity": 9.971,
      "adult": false,
      "known_for_department": "Acting"
    },
    {
      "id": 116278,
      "name": "Brian Tee",
      "profile_path": "/aTouFlcx3enc2AfP4caKr3Rv8gi.jpg",
      "popularity": 9.971,
      "adult": false,
      "known_for_department": "Acting"
    },
    {
      "id": 999817,
      "name": "Olivia Taylor Dudley",
      "profile_path": "/dcYv3aYSMNbGcYHehUjeEg1UwqY.jpg",
      "popularity": 9.97,
      "adult": false,
      "known_for_department": "Acting"
    },
    {
      "id": 13566,
      "name": "Edward G. Robinson",
      "profile_path": "/UkZdBmDs7Qw8caX7PlF1Spk8kR.jpg",
      "popularity": 9.968,
      "adult": false,
      "known_for_department": "Acting"
    },
    {
      "id": 1664895,
      "name": "Yoon Park",
      "profile_path": "/tVcCKYAgfWWosil8zfk2rKmtFEv.jpg",
      "popularity": 9.965,
      "adult": false,
      "known_for_department": "Acting"
    },
    {
      "id": 1651019,
      "name": "Burak Çelik",
      "profile_path": "/veN3x0qdxSfcvE8Mt2DjYEhkpPC.jpg",
      "popularity": 9.965,
      "adult": false,
      "known_for_department": "Acting"
    },
    {
      "id": 62439,
      "name": "David Belle",
      "profile_path": "/1Q6a9NUPE2MPNThLJK5WaY64lro.jpg",
      "popularity": 9.964,
      "adult": false,
      "known_for_department": "Acting"
    },
    {
      "id": 1164111,
      "name": "Alba August",
      "profile_path": "/faKNsiEqDt7OdYoHs6S3Y38bQ6.jpg",
      "popularity": 9.962,
      "adult": false,
      "known_for_department": "Acting"
    },
    {
      "id": 14974,
      "name": "Barbara Stanwyck",
      "profile_path": "/y9BX4FNoFBjP2HPcs8rlzqXjJbu.jpg",
      "popularity": 9.961,
      "adult": false,
      "known_for_department": "Acting"
    },
    {
      "id": 1744894,
      "name": "Alice Dufour",
      "profile_path": "/6IIxIwQ4CLFZeQV6jvrAfCHtGQT.jpg",
      "popularity": 9.96,
      "adult": false,
      "known_for_department": "Acting"
    },
    {
      "id": 237237,
      "name": "Hikaru Wakana",
      "profile_path": "/fEMbnqEgjSPdRgNAHiayUde3OJ3.jpg",
      "popularity": 9.96,
      "adult": false,
      "known_for_department": "Acting"
    },
    {
      "id": 26473,
      "name": "Fisher Stevens",
      "profile_path": "/vfyZMT3t3mGTloYGrC7T3QhGkwp.jpg",
      "popularity": 9.96,
      "adult": false,
      "known_for_department": "Acting"
    },
    {
      "id": 1168909,
      "name": "Nao Toyama",
      "profile_path": "/1tl5iuYb2VvCfTzC9iPaBxASrXs.jpg",
      "popularity": 9.959,
      "adult": false,
      "known_for_department": "Acting"
    },
    {
      "id": 3134,
      "name": "Tamlyn Tomita",
      "profile_path": "/c9wvQRvHWGrYE2fDz9SiEcqAcWC.jpg",
      "popularity": 9.959,
      "adult": false,
      "known_for_department": "Acting"
    }
  ]
}