{
  "page": 129,
  "total_results": 10000,
  "total_pages": 500,
  "results": [
    {
      "id": 582512,
      "name": "Anna Chipovskaya",
      "profile_path": "/sEvuuclZdZ8wP8quzclCQrzud7Z.jpg",
      "popularity": 14.271,
      "adult": false,
      "known_for_department": "Acting"
    },
    {
      "id": 109046,
      "name": "Tiya Sircar",
      "profile_path": "/ySOwYAheNWApnu9TBJkziNthMA6.jpg",
      "popularity": 14.271,
      "adult": false,
      "known_for_department": "Acting"
    },
    {
      "id": 1296667,
      "name": "Maaya Uchida",
      "profile_path": "/tQAV6JsPWQ4H9u4kg1iuL5TKIif.jpg",
      "popularity": 14.267,
      "adult": false,
      "known_for_department": "Acting"
    },
    {
      "id": 4029,
      "name": "Bob Gunton",
      "profile_path": "/rr2KDCKK4t0f5YhZibCpLCAsJxc.jpg",
      "popularity": 14.265,
      "adult": false,
      "known_for_department": "Acting"
    },
    {
      "id": 2242772,
      "name": "Annelise Cepero",
      "profile_path": "/vxtWQFZF70gsaDyHA6y2uQnEWgO.jpg",
      "popularity": 14.264,
      "adult": false,
      "known_for_department": "Acting"
    },
    {
      "id": 1230532,
      "name": "Marie-France Lambert",
      "profile_path": "/4NRANe33FhRDfImHRhv4bhdwYEz.jpg",
      "popularity": 14.263,
      "adult": false,
      "known_for_department": "Acting"
    },
    {
      "id": 20746,
      "name": "Justin Chambers",
      "profile_path": "/5UGtBemc4GPaCWjCwVR3YYmIlzV.jpg",
      "popularity": 14.263,
      "adult": false,
      "known_for_department": "Acting"
    },
    {
      "id": 7676,
      "name": "William Atherton",
      "profile_path": "/cYGr02PJqEh96DOWVm3kKHRRZzT.jpg",
      "popularity": 14.263,
      "adult": false,
      "known_for_department": "Acting"
    },
    {
      "id": 1768965,
      "name": "Sofia Wylie",
      "profile_path": "/6zmcoLXpDWZXV2nDgNfWoCThmbo.jpg",
      "popularity": 14.262,
      "adult": false,
      "known_for_department": "Acting"
    },
    {
      "id": 551937,
      "name": "Stella Hall",
      "profile_path": "/hxhaDkZbgOGJ56qZUI7sHMTXVtV.jpg",
      "popularity": 14.256,
      "adult": false,
      "known_for_department": "Acting"
    },
    {
      "id": 50217,
      "name": "Michael Kelly",
      "profile_path": "/riyeGgTnSWGZGJ9k9qK38lfclz1.jpg",
      "popularity": 14.248,
      "adult": false,
      "known_for_department": "Acting"
    },
    {
      "id": 76110,
      "name": "Stephen Amell",
      "profile_path": "/gN8cpnUaPIzWhVufahmzV0dwOgp.jpg",
      "popularity": 14.246,
      "adult": false,
      "known_for_department": "Acting"
    },
    {
      "id": 1262750,
      "name": "Charlotte Vega",
      "profile_path": "/legWa5GpB82M3KunyFjXPopkSc7.jpg",
      "popularity": 14.244,
      "adult": false,
      "known_for_department": "Acting"
    },
    {
      "id": 19189,
      "name": "Elizabeth Berkley",
      "profile_path": "/gYz3ZeNWPI7aP21eB2OWrILE1KM.jpg",
      "popularity": 14.239,
      "adult": false,
      "known_for_department": "Acting"
    },
    {
      "id": 5602,
      "name": "David Lynch",
      "profile_path": "/9xRmptsf4kuEbDpCwl80VpnGg4K.jpg",
      "popularity": 14.239,
      "adult": false,
      "known_for_department": "Directing"
    },
    {
      "id": 118616,
      "name": "Robert Sheehan",
      "profile_path": "/2rum1TvJyB13RMERueiH1MrBmjZ.jpg",
      "popularity": 14.238,
      "adult": false,
      "known_for_department": "Acting"
    },
    {
      "id": 1058633,
      "name": "Peri Baumeister",
      "profile_path": "/bfWBGT1b8kB22hhUc4WQWWUvzln.jpg",
      "popularity": 14.237,
      "adult": false,
      "known_for_department": "Acting"
    },
    {
      "id": 19119,
      "name": "Mélanie Laurent",
      "profile_path": "/i99ogEo4gQyanCmHWYYoS6hsUqL.jpg",
      "popularity": 14.237,
      "adult": false,
      "known_for_department": "Acting"
    },
    {
      "id": 1181426,
      "name": "Valorie Curry",
      "profile_path": "/jqBKANtzMt7xsmrTZ3be1sx9Ejv.jpg",
      "popularity": 14.234,
      "adult": false,
      "known_for_department": "Acting"
    },
    {
      "id": 67378,
      "name": "Travis Tedford",
      "profile_path": "/mVfFFVKhxADeJgyZkdmUmWTY9R1.jpg",
      "popularity": 14.23,
      "adult": false,
      "known_for_department": "Acting"
    }
  ]
}