{
  "page": 353,
  "total_results": 10000,
  "total_pages": 500,
  "results": [
    {
      "id": 68278,
      "name": "Peter Mensah",
      "profile_path": "/t94TFc6f71AUmZFqdaQfjr7LTRp.jpg",
      "popularity": 8.536,
      "adult": false,
      "known_for_department": "Acting"
    },
    {
      "id": 1710705,
      "name": "Sayoko Nakajima",
      "profile_path": "",
      "popularity": 8.533,
      "adult": false,
      "known_for_department": "Acting"
    },
    {
      "id": 40175,
      "name": "Polly Bergen",
      "profile_path": "/hCB4n0vVQIX60ZIRtUCqDfC5JRL.jpg",
      "popularity": 8.533,
      "adult": false,
      "known_for_department": "Acting"
    },
    {
      "id": 19161,
      "name": "Sandrine Bonnaire",
      "profile_path": "/iTHkJuVdFcAuZZtBH2frKTeujKG.jpg",
      "popularity": 8.533,
      "adult": false,
      "known_for_department": "Acting"
    },
    {
      "id": 72202,
      "name": "Shidô Nakamura",
      "profile_path": "/5cKT5ZDLyfEuZycVu7kLRDuMRPE.jpg",
      "popularity": 8.532,
      "adult": false,
      "known_for_department": "Acting"
    },
    {
      "id": 34844,
      "name": "Monet Mazur",
      "profile_path": "/lAtfjOKAmi2BjvXZDtznbZ3rAb1.jpg",
      "popularity": 8.531,
      "adult": false,
      "known_for_department": "Acting"
    },
    {
      "id": 126698,
      "name": "Kenji Nojima",
      "profile_path": "/nRSPVjDkdpnrQabnK5mENH118zN.jpg",
      "popularity": 8.53,
      "adult": false,
      "known_for_department": "Acting"
    },
    {
      "id": 1360198,
      "name": "Kunjue Li",
      "profile_path": "/5CRYan9EEfOOzyg2LiTQij0OvE9.jpg",
      "popularity": 8.528,
      "adult": false,
      "known_for_department": "Acting"
    },
    {
      "id": 90683,
      "name": "Georgina Reilly",
      "profile_path": "/bNLXDfDNV4AOmAuktORHiRqgpYt.jpg",
      "popularity": 8.527,
      "adult": false,
      "known_for_department": "Acting"
    },
    {
      "id": 19361,
      "name": "Thibault de Montalembert",
      "profile_path": "/3faDVXNbgVD16GZ247IaZIcNXdl.jpg",
      "popularity": 8.527,
      "adult": false,
      "known_for_department": "Acting"
    },
    {
      "id": 11111,
      "name": "Lucy Davis",
      "profile_path": "/A1ymILbxQA5w5TduCNaU0xD9C5a.jpg",
      "popularity": 8.527,
      "adult": false,
      "known_for_department": "Acting"
    },
    {
      "id": 982,
      "name": "Sting",
      "profile_path": "/y6gpCAf6LTHcqFXEZ2udXJkucAm.jpg",
      "popularity": 8.527,
      "adult": false,
      "known_for_department": "Acting"
    },
    {
      "id": 1497423,
      "name": "Mio Miyatake",
      "profile_path": "/cYsq40NINqkxqaqQtfFRVeAGxym.jpg",
      "popularity": 8.526,
      "adult": false,
      "known_for_department": "Acting"
    },
    {
      "id": 1016073,
      "name": "Hélène Zimmer",
      "profile_path": "/nhsMaWOuSPpMBRVUscUYHkL2fCk.jpg",
      "popularity": 8.526,
      "adult": false,
      "known_for_department": "Writing"
    },
    {
      "id": 1360654,
      "name": "Sarah Hunter",
      "profile_path": "/kZyj9y8DTaLRcUf07PtKBWY2MSv.jpg",
      "popularity": 8.524,
      "adult": false,
      "known_for_department": "Acting"
    },
    {
      "id": 24299,
      "name": "Jean-Claude Brialy",
      "profile_path": "/1R8I5fJhnPc13eKBPY11Bdp3YsY.jpg",
      "popularity": 8.524,
      "adult": false,
      "known_for_department": "Acting"
    },
    {
      "id": 1709047,
      "name": "Cailey Fleming",
      "profile_path": "/yLxcuUA1Fc1AByNQY0cZ5wrxT1S.jpg",
      "popularity": 8.522,
      "adult": false,
      "known_for_department": "Acting"
    },
    {
      "id": 1467887,
      "name": "Zerrin Egeliler",
      "profile_path": "/d9stlM00abQTvfxSRsSmk6gieKw.jpg",
      "popularity": 8.522,
      "adult": false,
      "known_for_department": "Acting"
    },
    {
      "id": 1877835,
      "name": "Iyana Halley",
      "profile_path": "/4L27vsUPVNDbDWPYtndqLfkt5uA.jpg",
      "popularity": 8.521,
      "adult": false,
      "known_for_department": "Acting"
    },
    {
      "id": 1141894,
      "name": "Cristiano Ronaldo",
      "profile_path": "/hAsxOYVLzHIteHwqWYGYJrO0WlC.jpg",
      "popularity": 8.521,
      "adult": false,
      "known_for_department": "Acting"
    }
  ]
}