{
  "page": 410,
  "total_results": 10000,
  "total_pages": 500,
  "results": [
    {
      "id": 2435264,
      "name": "Takana Shirai",
      "profile_path": "",
      "popularity": 9.135,
      "adult": false,
      "known_for_department": "Visual Effects"
    },
    {
      "id": 1998163,
      "name": "Jeon Hye-won",
      "profile_path": "/bIqO91hdUa2DBpo3Lzx9WiQW1ik.jpg",
      "popularity": 9.135,
      "adult": false,
      "known_for_department": "Acting"
    },
    {
      "id": 1167375,
      "name": "Alex Roe",
      "profile_path": "/n3EVRACN3XEuOzrWK3TTn791gWo.jpg",
      "popularity": 9.135,
      "adult": false,
      "known_for_department": "Acting"
    },
    {
      "id": 154694,
      "name": "Alex Black",
      "profile_path": "/mgenA1xwMvCDQjOQ14mJdFnxXJH.jpg",
      "popularity": 9.135,
      "adult": false,
      "known_for_department": "Acting"
    },
    {
      "id": 145360,
      "name": "David Lee McInnis",
      "profile_path": "/rtv36lS3xKRuuasVIgPIziruCoA.jpg",
      "popularity": 9.135,
      "adult": false,
      "known_for_department": "Acting"
    },
    {
      "id": 221978,
      "name": "Iwan Rheon",
      "profile_path": "/5af7sYrJcVmOcQhMxcNLZHlUZyi.jpg",
      "popularity": 9.134,
      "adult": false,
      "known_for_department": "Acting"
    },
    {
      "id": 13243,
      "name": "Glenn Shadix",
      "profile_path": "/zTu0Fh0ohLIvFnEXiRvhe91T3Wg.jpg",
      "popularity": 9.132,
      "adult": false,
      "known_for_department": "Acting"
    },
    {
      "id": 1686,
      "name": "Takeshi Kusao",
      "profile_path": "/gDiYLUdl9zXXJmhE0bAuB1Jm3FJ.jpg",
      "popularity": 9.132,
      "adult": false,
      "known_for_department": "Acting"
    },
    {
      "id": 101028,
      "name": "Michelle Borth",
      "profile_path": "/yRbadj0es3dVWnuMcNF4SpMKypJ.jpg",
      "popularity": 9.13,
      "adult": false,
      "known_for_department": "Acting"
    },
    {
      "id": 13401,
      "name": "Peter Mark Richman",
      "profile_path": "/4sRK2iHXPNTkFANNPLn9hHlG0n5.jpg",
      "popularity": 9.13,
      "adult": false,
      "known_for_department": "Acting"
    },
    {
      "id": 2179,
      "name": "Suzy Amis",
      "profile_path": "/zmxGcr3RkqX7AWizlTefWtMfjKe.jpg",
      "popularity": 9.13,
      "adult": false,
      "known_for_department": "Acting"
    },
    {
      "id": 20604,
      "name": "Janice Rule",
      "profile_path": "/di6R0wCJQ1wL7rt3lYRWqBuOdsH.jpg",
      "popularity": 9.128,
      "adult": false,
      "known_for_department": "Acting"
    },
    {
      "id": 33485,
      "name": "Ron Underwood",
      "profile_path": "/3MxNvsTCxQIuAmEnmr5lRgxS20G.jpg",
      "popularity": 9.127,
      "adult": false,
      "known_for_department": "Directing"
    },
    {
      "id": 1507471,
      "name": "Len Blavatnik",
      "profile_path": "/wRTPDTUO8SmVo6DHK97dXzRE6Hw.jpg",
      "popularity": 9.125,
      "adult": false,
      "known_for_department": "Production"
    },
    {
      "id": 157321,
      "name": "William Christopher",
      "profile_path": "/cHzfv3vvBFmtPjCH0GrECwWu3uc.jpg",
      "popularity": 9.125,
      "adult": false,
      "known_for_department": "Acting"
    },
    {
      "id": 78124,
      "name": "François Civil",
      "profile_path": "/vSkggoDmEHl820VMBzpGkjARU2z.jpg",
      "popularity": 9.125,
      "adult": false,
      "known_for_department": "Acting"
    },
    {
      "id": 31613,
      "name": "Lorenza Guerrieri",
      "profile_path": "/9WbCH4wvjYyRub5xpD8znsPSrej.jpg",
      "popularity": 9.125,
      "adult": false,
      "known_for_department": "Acting"
    },
    {
      "id": 1326056,
      "name": "Bella Dayne",
      "profile_path": "/8fWktaJ2TM5gckri7RNUFSugtnm.jpg",
      "popularity": 9.124,
      "adult": false,
      "known_for_department": "Acting"
    },
    {
      "id": 208659,
      "name": "Madison McKinley",
      "profile_path": "/Ar3v9nvBrUS4SSWQlmdNEtfLGbP.jpg",
      "popularity": 9.124,
      "adult": false,
      "known_for_department": "Acting"
    },
    {
      "id": 238512,
      "name": "Morten Harket",
      "profile_path": "/9da6TMZYeu1heuq9bzyEjfGW7RT.jpg",
      "popularity": 9.122,
      "adult": false,
      "known_for_department": "Acting"
    }
  ]
}