{
  "page": 139,
  "total_results": 10000,
  "total_pages": 500,
  "results": [
    {
      "id": 1458942,
      "name": "Yuko Araki",
      "profile_path": "/8RZR3OuxqQMpVJJNN11IdI5j1u6.jpg",
      "popularity": 16.531,
      "adult": false,
      "known_for_department": "Acting"
    },
    {
      "id": 2518,
      "name": "Gregg Henry",
      "profile_path": "/j17nuAFulrbYP34g4Qw8SZRDNUo.jpg",
      "popularity": 16.531,
      "adult": false,
      "known_for_department": "Acting"
    },
    {
      "id": 1039678,
      "name": "David Midthunder",
      "profile_path": "/uL16j6FK7JKOwmEUi7gK9L1q3gG.jpg",
      "popularity": 16.53,
      "adult": false,
      "known_for_department": "Acting"
    },
    {
      "id": 7904,
      "name": "Billy Crystal",
      "profile_path": "/6QNyXn8NPQDEctSuDLgg5AHmsiR.jpg",
      "popularity": 16.53,
      "adult": false,
      "known_for_department": "Acting"
    },
    {
      "id": 96624,
      "name": "Rachel Boston",
      "profile_path": "/lXsexhIX8oMhPnO85M0ocL0GhC2.jpg",
      "popularity": 16.528,
      "adult": false,
      "known_for_department": "Acting"
    },
    {
      "id": 190391,
      "name": "Patricia Routledge",
      "profile_path": "/3qmUCLpZ5bJ9pw7DiS4idEEzugn.jpg",
      "popularity": 16.524,
      "adult": false,
      "known_for_department": "Acting"
    },
    {
      "id": 18345,
      "name": "Brenda Fricker",
      "profile_path": "/dz8ylU8ZJtNyPr31URy2p3lCaok.jpg",
      "popularity": 16.523,
      "adult": false,
      "known_for_department": "Acting"
    },
    {
      "id": 94330,
      "name": "David Bradley",
      "profile_path": "/uu275GxZrHfqcaBJx6DeSuHEYWy.jpg",
      "popularity": 16.515,
      "adult": false,
      "known_for_department": "Acting"
    },
    {
      "id": 219708,
      "name": "Audrey Fleurot",
      "profile_path": "/83wsYI6oRWrtkcKr7ozobh1VWrm.jpg",
      "popularity": 16.514,
      "adult": false,
      "known_for_department": "Acting"
    },
    {
      "id": 18286,
      "name": "Nona Gaye",
      "profile_path": "/2g6BDp6dUB6ql5xKEhY07IhxGkc.jpg",
      "popularity": 16.508,
      "adult": false,
      "known_for_department": "Acting"
    },
    {
      "id": 1494194,
      "name": "Sophia Anne Caruso",
      "profile_path": "/oaNyIX7rsgpkseTjDTch4BeKfiz.jpg",
      "popularity": 16.507,
      "adult": false,
      "known_for_department": "Acting"
    },
    {
      "id": 40009,
      "name": "Matt Frewer",
      "profile_path": "/5yQeoDfwsSOnO8H2g8UjPLg6buG.jpg",
      "popularity": 16.507,
      "adult": false,
      "known_for_department": "Acting"
    },
    {
      "id": 1817307,
      "name": "Montana Jordan",
      "profile_path": "/xFmmWQPCSR3LHS6VNL6sti7FDow.jpg",
      "popularity": 16.505,
      "adult": false,
      "known_for_department": "Acting"
    },
    {
      "id": 86905,
      "name": "Caroline Rhea",
      "profile_path": "/o3qlndBREZLOUrX9s0KEyjspBEJ.jpg",
      "popularity": 16.505,
      "adult": false,
      "known_for_department": "Acting"
    },
    {
      "id": 235731,
      "name": "Kim So-hyun",
      "profile_path": "/4rmnKUGykuYKBDPsmypYKrklw64.jpg",
      "popularity": 16.502,
      "adult": false,
      "known_for_department": "Acting"
    },
    {
      "id": 23789,
      "name": "Sebastian Roché",
      "profile_path": "/cP3RxXiMeMyhhNpacoXZskbcNKa.jpg",
      "popularity": 16.502,
      "adult": false,
      "known_for_department": "Acting"
    },
    {
      "id": 36819,
      "name": "Hayley Mills",
      "profile_path": "/ktiKpWhBy1O4F9DtB1YxUf3uGA1.jpg",
      "popularity": 16.493,
      "adult": false,
      "known_for_department": "Acting"
    },
    {
      "id": 1939676,
      "name": "Drew Starkey",
      "profile_path": "/vKDIk7HNOnDQs4uJoHwbkJPD9ua.jpg",
      "popularity": 16.49,
      "adult": false,
      "known_for_department": "Acting"
    },
    {
      "id": 562730,
      "name": "Danila Kozlovsky",
      "profile_path": "/burD0f0IEOj6FyU5Zokf6VLhHKe.jpg",
      "popularity": 16.489,
      "adult": false,
      "known_for_department": "Acting"
    },
    {
      "id": 15416,
      "name": "Richard Masur",
      "profile_path": "/eTKFP76mnSgIhoknfxtebqnWb6K.jpg",
      "popularity": 16.489,
      "adult": false,
      "known_for_department": "Acting"
    }
  ]
}