{
  "page": 40,
  "total_results": 10000,
  "total_pages": 500,
  "results": [
    {
      "id": 5344,
      "name": "Meg Ryan",
      "profile_path": "/veFWqcGqFiKdYMJ6uqYdabK9Jma.jpg",
      "popularity": 24.611,
      "adult": false,
      "known_for_department": "Acting"
    },
    {
      "id": 3490247,
      "name": "Denise Esteban",
      "profile_path": "/oWfSxfnjrBL1j4kkZmiMdOK2dJ0.jpg",
      "popularity": 24.603,
      "adult": false,
      "known_for_department": "Acting"
    },
    {
      "id": 56890,
      "name": "Malcolm McDowell",
      "profile_path": "/hL8ep4Hqj6izX7IlzE7Bbcfq62w.jpg",
      "popularity": 24.601,
      "adult": false,
      "known_for_department": "Acting"
    },
    {
      "id": 1292329,
      "name": "Kimberley Sustad",
      "profile_path": "/w6LpI0W09gvGqthPvVBwCf3WF6c.jpg",
      "popularity": 24.591,
      "adult": false,
      "known_for_department": "Acting"
    },
    {
      "id": 1130555,
      "name": "Tanner Buchanan",
      "profile_path": "/sjxBAWkL5aSdd6GHozWEAjEA64u.jpg",
      "popularity": 24.59,
      "adult": false,
      "known_for_department": "Acting"
    },
    {
      "id": 7248,
      "name": "Cliff Curtis",
      "profile_path": "/3D6qz8vL6DWHAO3HeXeaSuwxq3s.jpg",
      "popularity": 24.569,
      "adult": false,
      "known_for_department": "Acting"
    },
    {
      "id": 2219,
      "name": "Tobey Maguire",
      "profile_path": "/kOJelnLSb89SeivbOCt1l94Hz2d.jpg",
      "popularity": 24.549,
      "adult": false,
      "known_for_department": "Acting"
    },
    {
      "id": 55934,
      "name": "Taika Waititi",
      "profile_path": "/lxbNTecxOIlV4roX02RT4Ga2Rn2.jpg",
      "popularity": 24.544,
      "adult": false,
      "known_for_department": "Directing"
    },
    {
      "id": 91351,
      "name": "Sarah Hyland",
      "profile_path": "/iJBshYABkUfkfFZTFo4gM00HauA.jpg",
      "popularity": 24.537,
      "adult": false,
      "known_for_department": "Acting"
    },
    {
      "id": 21163,
      "name": "Gary Cole",
      "profile_path": "/gPxHlVK9vNQSa5DkTFKYvLMASdE.jpg",
      "popularity": 24.508,
      "adult": false,
      "known_for_department": "Acting"
    },
    {
      "id": 1308445,
      "name": "Carrie Coon",
      "profile_path": "/kbuScim9S6q2UKP1jCpp5UZB0P5.jpg",
      "popularity": 24.48,
      "adult": false,
      "known_for_department": "Acting"
    },
    {
      "id": 559195,
      "name": "Tobias Santelmann",
      "profile_path": "/wDsLQNsG4WWvwE6pwtV0FhL5JZt.jpg",
      "popularity": 24.477,
      "adult": false,
      "known_for_department": "Acting"
    },
    {
      "id": 77948,
      "name": "Selena Gomez",
      "profile_path": "/vp4NRiwGTtpgFkqi0nCMuVVUW82.jpg",
      "popularity": 24.459,
      "adult": false,
      "known_for_department": "Acting"
    },
    {
      "id": 58791,
      "name": "Patrick Fabian",
      "profile_path": "/dPlWxVLSycsiRiduKQYSJUkBrPN.jpg",
      "popularity": 24.455,
      "adult": false,
      "known_for_department": "Acting"
    },
    {
      "id": 234235,
      "name": "Gaite Jansen",
      "profile_path": "/9qv1Ocy9I1FLXVo3UeJqBzfu58V.jpg",
      "popularity": 24.422,
      "adult": false,
      "known_for_department": "Acting"
    },
    {
      "id": 51992,
      "name": "Odette Annable",
      "profile_path": "/zbEaTdg8a7USjfH5LxaU2U3W6Zb.jpg",
      "popularity": 24.403,
      "adult": false,
      "known_for_department": "Acting"
    },
    {
      "id": 17288,
      "name": "Michael Fassbender",
      "profile_path": "/e7SxBHtAxTyNE4GdOrHD7kqkukm.jpg",
      "popularity": 24.4,
      "adult": false,
      "known_for_department": "Acting"
    },
    {
      "id": 12132,
      "name": "Michael Rooker",
      "profile_path": "/9x1AQ8Kqw88L39FMNcy26GQlj06.jpg",
      "popularity": 24.369,
      "adult": false,
      "known_for_department": "Acting"
    },
    {
      "id": 3087,
      "name": "Robert Duvall",
      "profile_path": "/ybMmK25h4IVtfE7qrnlVp47RQlh.jpg",
      "popularity": 24.364,
      "adult": false,
      "known_for_department": "Acting"
    },
    {
      "id": 117995,
      "name": "Alissa Skovbye",
      "profile_path": "/smnFa3aKNJyzwtYmGQThBsXHG4J.jpg",
      "popularity": 24.343,
      "adult": false,
      "known_for_department": "Acting"
    }
  ]
}