{
  "page": 364,
  "total_results": 10000,
  "total_pages": 500,
  "results": [
    {
      "id": 2047966,
      "name": "Jesse Rutherford",
      "profile_path": "/3TGRIKNCISFl19wzi5FnyOvgziH.jpg",
      "popularity": 9.234,
      "adult": false,
      "known_for_department": "Acting"
    },
    {
      "id": 1209257,
      "name": "Rana Morrison",
      "profile_path": "",
      "popularity": 9.234,
      "adult": false,
      "known_for_department": "Acting"
    },
    {
      "id": 18471,
      "name": "Anthony Anderson",
      "profile_path": "/reO1OjwFdtXmiO4LMDaBj6eatzK.jpg",
      "popularity": 9.234,
      "adult": false,
      "known_for_department": "Acting"
    },
    {
      "id": 1290462,
      "name": "Natalia Belitski",
      "profile_path": "/7ZEIVNV9IbvQzOf0iOFZaYaewtZ.jpg",
      "popularity": 9.233,
      "adult": false,
      "known_for_department": "Acting"
    },
    {
      "id": 26857,
      "name": "Philip Martin Brown",
      "profile_path": "/dhgv8B6eyfUiDbrfGpWRdl8XnUP.jpg",
      "popularity": 9.233,
      "adult": false,
      "known_for_department": "Acting"
    },
    {
      "id": 38129,
      "name": "Robert Fuller",
      "profile_path": "/pDrDechryrHA4nBXBYgOlJoq4S3.jpg",
      "popularity": 9.232,
      "adult": false,
      "known_for_department": "Acting"
    },
    {
      "id": 2045545,
      "name": "Lisa Ambalavanar",
      "profile_path": "/8bVWbpkqCBlE4G01fEpqJDpOvXK.jpg",
      "popularity": 9.231,
      "adult": false,
      "known_for_department": "Acting"
    },
    {
      "id": 1353821,
      "name": "Ko Sung-hee",
      "profile_path": "/62V0jFhQd7HJRCbjQ58oVmN4FuI.jpg",
      "popularity": 9.231,
      "adult": false,
      "known_for_department": "Acting"
    },
    {
      "id": 53820,
      "name": "Michael C. Hall",
      "profile_path": "/7zUMGoujuev5PUwwv4Gl6ikB50k.jpg",
      "popularity": 9.231,
      "adult": false,
      "known_for_department": "Acting"
    },
    {
      "id": 51390,
      "name": "Emily Bergl",
      "profile_path": "/rZSSCh9fuiRM9imp9BfZt3qq6In.jpg",
      "popularity": 9.228,
      "adult": false,
      "known_for_department": "Acting"
    },
    {
      "id": 1325034,
      "name": "Sora Amamiya",
      "profile_path": "/4ZZcdFH4QgbIC8AeJ3BLG1ue7G5.jpg",
      "popularity": 9.227,
      "adult": false,
      "known_for_department": "Acting"
    },
    {
      "id": 1523242,
      "name": "Bobby Schofield",
      "profile_path": "/phqatTkA0OZBgpVNMLOfk7Ca6gV.jpg",
      "popularity": 9.226,
      "adult": false,
      "known_for_department": "Acting"
    },
    {
      "id": 129759,
      "name": "Reg Rogers",
      "profile_path": "/3VqnWd3d5BnnxxyAEnQ85mdOaG2.jpg",
      "popularity": 9.226,
      "adult": false,
      "known_for_department": "Acting"
    },
    {
      "id": 8351,
      "name": "Frederic Forrest",
      "profile_path": "/mEHEX8n5D2iA52GgQ9v95IZmokQ.jpg",
      "popularity": 9.226,
      "adult": false,
      "known_for_department": "Acting"
    },
    {
      "id": 8162,
      "name": "Gary Scott Thompson",
      "profile_path": "/e2dMfqFvRsOXgWZ1VToYLmos17y.jpg",
      "popularity": 9.226,
      "adult": false,
      "known_for_department": "Writing"
    },
    {
      "id": 3648366,
      "name": "Nuttarat Tangwai",
      "profile_path": "/uWWj9Zj3uixTRc8VHp8goeVrFZc.jpg",
      "popularity": 9.222,
      "adult": false,
      "known_for_department": "Acting"
    },
    {
      "id": 121426,
      "name": "Okan Yalabık",
      "profile_path": "/q1oqGeFycbSCCcC7c4avpUf5VtV.jpg",
      "popularity": 9.221,
      "adult": false,
      "known_for_department": "Acting"
    },
    {
      "id": 5524,
      "name": "Andrew Adamson",
      "profile_path": "/qqIAVKAe5LHRbPyZUlptsqlo4Kb.jpg",
      "popularity": 9.221,
      "adult": false,
      "known_for_department": "Production"
    },
    {
      "id": 1291,
      "name": "Philip Wiegratz",
      "profile_path": "/jVGKw04FoBN8QX0PNfP32xh8dgA.jpg",
      "popularity": 9.22,
      "adult": false,
      "known_for_department": "Acting"
    },
    {
      "id": 200043,
      "name": "Kurt Sutter",
      "profile_path": "/A4c9xpj2VuZXGvSv6z1S912Xwnd.jpg",
      "popularity": 9.219,
      "adult": false,
      "known_for_department": "Writing"
    }
  ]
}