{
  "page": 25,
  "total_results": 10000,
  "total_pages": 500,
  "results": [
    {
      "id": 13445,
      "name": "Tia Carrere",
      "profile_path": "/rnHioNQkSmBAMgEBseu9bu6vw9l.jpg",
      "popularity": 30.066,
      "adult": false,
      "known_for_department": "Acting"
    },
    {
      "id": 57829,
      "name": "Anthony LaPaglia",
      "profile_path": "/vpowJYbuleOtdQtrFgPUPT4dSJl.jpg",
      "popularity": 30.05,
      "adult": false,
      "known_for_department": "Acting"
    },
    {
      "id": 59860,
      "name": "Alice Eve",
      "profile_path": "/tJUSx0Cw7pCnRsCWbGTX2POiTKM.jpg",
      "popularity": 30.035,
      "adult": false,
      "known_for_department": "Acting"
    },
    {
      "id": 3136,
      "name": "Salma Hayek",
      "profile_path": "/a1VhN6kvw4tuRrIvGnvAjHAWnD5.jpg",
      "popularity": 30.002,
      "adult": false,
      "known_for_department": "Acting"
    },
    {
      "id": 37014,
      "name": "Lauren German",
      "profile_path": "/wlfew4J9O6fOhizjjQtqUeT36Jb.jpg",
      "popularity": 29.997,
      "adult": false,
      "known_for_department": "Acting"
    },
    {
      "id": 221192,
      "name": "Kathryn Newton",
      "profile_path": "/26OEa0uS8552sVJakaCEHYvqOao.jpg",
      "popularity": 29.99,
      "adult": false,
      "known_for_department": "Acting"
    },
    {
      "id": 205307,
      "name": "Lucy Hale",
      "profile_path": "/rvSeEjRBAO72XcenSJy8f7Aw3cT.jpg",
      "popularity": 29.988,
      "adult": false,
      "known_for_department": "Acting"
    },
    {
      "id": 88995,
      "name": "Adrianne Palicki",
      "profile_path": "/3qpWQ5d2XxvZuoZDsGgZUsOI60q.jpg",
      "popularity": 29.984,
      "adult": false,
      "known_for_department": "Acting"
    },
    {
      "id": 72985,
      "name": "Ramón Rodríguez",
      "profile_path": "/1gobmVevxCWVhV7s6J2B0oWPDZj.jpg",
      "popularity": 29.963,
      "adult": false,
      "known_for_department": "Acting"
    },
    {
      "id": 20212,
      "name": "Dermot Mulroney",
      "profile_path": "/5gJszOF45KMPB5tmAbKdK0qgQBx.jpg",
      "popularity": 29.96,
      "adult": false,
      "known_for_department": "Acting"
    },
    {
      "id": 1817,
      "name": "Linda Cardellini",
      "profile_path": "/bcycvynDprC1rrhBNrnBjn5uOUd.jpg",
      "popularity": 29.953,
      "adult": false,
      "known_for_department": "Acting"
    },
    {
      "id": 1331457,
      "name": "Sofia Carson",
      "profile_path": "/v6N7ZrwG7C7fII2hOzfzPFNMtK.jpg",
      "popularity": 29.929,
      "adult": false,
      "known_for_department": "Acting"
    },
    {
      "id": 3380426,
      "name": "Sarocha Chankimha",
      "profile_path": "/s7yYGre0hNEsAf8CFnT1UJ27so6.jpg",
      "popularity": 29.925,
      "adult": false,
      "known_for_department": "Acting"
    },
    {
      "id": 15277,
      "name": "Jon Favreau",
      "profile_path": "/8MtRRnEHaBSw8Ztdl8saXiw1egP.jpg",
      "popularity": 29.778,
      "adult": false,
      "known_for_department": "Acting"
    },
    {
      "id": 192944,
      "name": "Tom Ellis",
      "profile_path": "/zhjIyqpk5bsYgxsh5bSeS6VZtHm.jpg",
      "popularity": 29.714,
      "adult": false,
      "known_for_department": "Acting"
    },
    {
      "id": 18702,
      "name": "Mark Dacascos",
      "profile_path": "/trOACuJz1KzhB51qe6asaxRuxrh.jpg",
      "popularity": 29.686,
      "adult": false,
      "known_for_department": "Acting"
    },
    {
      "id": 1428070,
      "name": "Isabela Merced",
      "profile_path": "/zfLScjMHJWkGMzvDZmb1tpsBHuk.jpg",
      "popularity": 29.647,
      "adult": false,
      "known_for_department": "Acting"
    },
    {
      "id": 1834241,
      "name": "Kim Se-jeong",
      "profile_path": "/zJSTuTn2mwOxGum7JXOyDjyV3IU.jpg",
      "popularity": 29.503,
      "adult": false,
      "known_for_department": "Acting"
    },
    {
      "id": 2050456,
      "name": "Dylan Wang",
      "profile_path": "/lj0KGutrA0MSJxgsjNzvIGMDnFX.jpg",
      "popularity": 29.492,
      "adult": false,
      "known_for_department": "Acting"
    },
    {
      "id": 14887,
      "name": "Paddy Considine",
      "profile_path": "/96bZA8JRDjBgCE7ZHHgOMPmykc4.jpg",
      "popularity": 29.467,
      "adult": false,
      "known_for_department": "Acting"
    }
  ]
}