{
  "page": 237,
  "total_results": 10000,
  "total_pages": 500,
  "results": [
    {
      "id": 1278160,
      "name": "Kim Won-hae",
      "profile_path": "/nWZGktRe2Ele7fLxZt8e492oRir.jpg",
      "popularity": 12.73,
      "adult": false,
      "known_for_department": "Acting"
    },
    {
      "id": 87662,
      "name": "Issey Takahashi",
      "profile_path": "/xGtRDeAIAlZh9wJffMjRHMc790P.jpg",
      "popularity": 12.73,
      "adult": false,
      "known_for_department": "Acting"
    },
    {
      "id": 8396,
      "name": "Tom 'Tiny' Lister Jr.",
      "profile_path": "/i1seZDiLC3AKrAYqfFSln6ZGNmF.jpg",
      "popularity": 12.73,
      "adult": false,
      "known_for_department": "Acting"
    },
    {
      "id": 22075,
      "name": "Reggie Lee",
      "profile_path": "/lSQME9J4uNkTuN38F6yfDkrU3Oi.jpg",
      "popularity": 12.729,
      "adult": false,
      "known_for_department": "Acting"
    },
    {
      "id": 1538879,
      "name": "Jett Klyne",
      "profile_path": "/6F7fGR6iQFzKNFfHCCYZbg82Alk.jpg",
      "popularity": 12.728,
      "adult": false,
      "known_for_department": "Acting"
    },
    {
      "id": 32458,
      "name": "Gabriel Mann",
      "profile_path": "/mrqiMfwoQnLBGGP3zvfHrwPKHJW.jpg",
      "popularity": 12.726,
      "adult": false,
      "known_for_department": "Acting"
    },
    {
      "id": 1546282,
      "name": "Natasha Rothwell",
      "profile_path": "/x5KdL3QoS4YuozVpfuPsu3MLwwf.jpg",
      "popularity": 12.725,
      "adult": false,
      "known_for_department": "Acting"
    },
    {
      "id": 1645312,
      "name": "Kate Rachesky",
      "profile_path": "/vTDjoDoDkXxhjXmCLtTgw4nu9Wy.jpg",
      "popularity": 12.724,
      "adult": false,
      "known_for_department": "Acting"
    },
    {
      "id": 112278,
      "name": "Wataru Takagi",
      "profile_path": "/amccLvyTl5JP7T9F05BojgQedNw.jpg",
      "popularity": 12.721,
      "adult": false,
      "known_for_department": "Acting"
    },
    {
      "id": 71861,
      "name": "Liliana Mumy",
      "profile_path": "/rjwfUdZYb1P7y2DR8pekZ5tusHZ.jpg",
      "popularity": 12.721,
      "adult": false,
      "known_for_department": "Acting"
    },
    {
      "id": 1308586,
      "name": "Chino Darín",
      "profile_path": "/f3oYgbZQPNH1P2Q55j4v4DdzZNu.jpg",
      "popularity": 12.719,
      "adult": false,
      "known_for_department": "Acting"
    },
    {
      "id": 12438,
      "name": "Bob Balaban",
      "profile_path": "/tLUlpF9EDxxRh6nM8AZ5BsPKc2B.jpg",
      "popularity": 12.716,
      "adult": false,
      "known_for_department": "Acting"
    },
    {
      "id": 934159,
      "name": "Eric André",
      "profile_path": "/e9XlcFnZQiBSQ1vISQVyTOrkIaq.jpg",
      "popularity": 12.714,
      "adult": false,
      "known_for_department": "Acting"
    },
    {
      "id": 51894,
      "name": "J. A. Bayona",
      "profile_path": "/cnbbnS7K8Uu6yohAfSRHv5Kxc7r.jpg",
      "popularity": 12.712,
      "adult": false,
      "known_for_department": "Directing"
    },
    {
      "id": 427,
      "name": "Sandra Ellis Lafferty",
      "profile_path": "/qXtkUrpygfb05IWl0hZHkf0VgJZ.jpg",
      "popularity": 12.712,
      "adult": false,
      "known_for_department": "Acting"
    },
    {
      "id": 586757,
      "name": "Adèle Exarchopoulos",
      "profile_path": "/zlto2xvsdzLnfzoZNnS6txzNO5l.jpg",
      "popularity": 12.709,
      "adult": false,
      "known_for_department": "Acting"
    },
    {
      "id": 55466,
      "name": "James Corden",
      "profile_path": "/xGB0gfZ48M27gQjjL7inJIh1Pqj.jpg",
      "popularity": 12.709,
      "adult": false,
      "known_for_department": "Acting"
    },
    {
      "id": 1323109,
      "name": "Aisling Franciosi",
      "profile_path": "/g6qewxM4EEg02HUTLUw9KGkLdNj.jpg",
      "popularity": 12.707,
      "adult": false,
      "known_for_department": "Acting"
    },
    {
      "id": 1251285,
      "name": "Alina Foley",
      "profile_path": "/6fwTCOYHwUtBNr6Ni3dyZvcnCmw.jpg",
      "popularity": 12.706,
      "adult": false,
      "known_for_department": "Acting"
    },
    {
      "id": 4610,
      "name": "John Landis",
      "profile_path": "/nXKdxxELgAaGecCpxAWCoj6TV3f.jpg",
      "popularity": 12.706,
      "adult": false,
      "known_for_department": "Directing"
    }
  ]
}