{
  "page": 87,
  "total_results": 10000,
  "total_pages": 500,
  "results": [
    {
      "id": 70962,
      "name": "Donatella Damiani",
      "profile_path": "/7Z7y4kJgNHGut67ftaRdi8vnclE.jpg",
      "popularity": 17.439,
      "adult": false,
      "known_for_department": "Acting"
    },
    {
      "id": 1948459,
      "name": "Yuko Ono",
      "profile_path": "/eUcfcgFDHfJjQLpo58rPssIxKRR.jpg",
      "popularity": 17.437,
      "adult": false,
      "known_for_department": "Acting"
    },
    {
      "id": 172069,
      "name": "Chadwick Boseman",
      "profile_path": "/nL16SKfyP1b7Hk6LsuWiqMfbdb8.jpg",
      "popularity": 17.436,
      "adult": false,
      "known_for_department": "Acting"
    },
    {
      "id": 10680,
      "name": "Talisa Soto",
      "profile_path": "/tpEGbGgASne8m1iHzncuxdSLIkX.jpg",
      "popularity": 17.433,
      "adult": false,
      "known_for_department": "Acting"
    },
    {
      "id": 970753,
      "name": "Maite Perroni",
      "profile_path": "/ghbXlNZ4qEqVleKGGQ6mxanXr7x.jpg",
      "popularity": 17.428,
      "adult": false,
      "known_for_department": "Acting"
    },
    {
      "id": 52760,
      "name": "Alan Dale",
      "profile_path": "/3BcpSoKBOwHX0wxaPZpOJ5buO89.jpg",
      "popularity": 17.426,
      "adult": false,
      "known_for_department": "Acting"
    },
    {
      "id": 1581,
      "name": "Mary McDonnell",
      "profile_path": "/qqdaaFLEPXbB8thVJJkYJ4WoAuj.jpg",
      "popularity": 17.426,
      "adult": false,
      "known_for_department": "Acting"
    },
    {
      "id": 80352,
      "name": "Noel Fisher",
      "profile_path": "/rBD5Iwt9WITaUKGk1oxSPLjjpm2.jpg",
      "popularity": 17.419,
      "adult": false,
      "known_for_department": "Acting"
    },
    {
      "id": 2719,
      "name": "Brian Thompson",
      "profile_path": "/qooSjBMA1P85JhBpHlwmmisGroO.jpg",
      "popularity": 17.414,
      "adult": false,
      "known_for_department": "Acting"
    },
    {
      "id": 207,
      "name": "Tom Wilkinson",
      "profile_path": "/d5yLk0PK8q7EKR3E3G2txO758IW.jpg",
      "popularity": 17.413,
      "adult": false,
      "known_for_department": "Acting"
    },
    {
      "id": 7623,
      "name": "Sam Raimi",
      "profile_path": "/8gssvwiPrFRuFRlr5ruKx68k1Jl.jpg",
      "popularity": 17.409,
      "adult": false,
      "known_for_department": "Directing"
    },
    {
      "id": 3623,
      "name": "Elena Anaya",
      "profile_path": "/hSkjzOfvRQ8DUJdhWveIKgRlyXb.jpg",
      "popularity": 17.409,
      "adult": false,
      "known_for_department": "Acting"
    },
    {
      "id": 1814297,
      "name": "Lee Soo",
      "profile_path": "/lTFqzIB2GuHDjZh9LidNERWdCXg.jpg",
      "popularity": 17.404,
      "adult": false,
      "known_for_department": "Acting"
    },
    {
      "id": 589722,
      "name": "Teresa Ruiz",
      "profile_path": "/bu0bGNDzIpaVfrOBBb1PERirBB9.jpg",
      "popularity": 17.403,
      "adult": false,
      "known_for_department": "Acting"
    },
    {
      "id": 1902,
      "name": "Dianne Wiest",
      "profile_path": "/axqtFLgJNNz0N9i443USHCOvrmY.jpg",
      "popularity": 17.402,
      "adult": false,
      "known_for_department": "Acting"
    },
    {
      "id": 2714,
      "name": "Lance Henriksen",
      "profile_path": "/1PkFmD5HdjmRa2DumtwINnnAjTH.jpg",
      "popularity": 17.396,
      "adult": false,
      "known_for_department": "Acting"
    },
    {
      "id": 5309,
      "name": "Judi Dench",
      "profile_path": "/cpna5VGvAxuKuC31xJPBKy9zbnv.jpg",
      "popularity": 17.395,
      "adult": false,
      "known_for_department": "Acting"
    },
    {
      "id": 9221,
      "name": "Donald Pleasence",
      "profile_path": "/eVJGFCd8ikP6w0XjkuiTbsm65eD.jpg",
      "popularity": 17.389,
      "adult": false,
      "known_for_department": "Acting"
    },
    {
      "id": 947,
      "name": "Hans Zimmer",
      "profile_path": "/tpQnDeHY15szIXvpnhlprufz4d.jpg",
      "popularity": 17.383,
      "adult": false,
      "known_for_department": "Sound"
    },
    {
      "id": 10983,
      "name": "Richard Griffiths",
      "profile_path": "/EuV0DyZ5nBh3ZAUWjEqdWlt8sK.jpg",
      "popularity": 17.382,
      "adult": false,
      "known_for_department": "Acting"
    }
  ]
}