{
  "page": 15,
  "total_results": 10000,
  "total_pages": 500,
  "results": [
    {
      "id": 19,
      "name": "Allison Janney",
      "profile_path": "/hpBKWV1jjoXQbr1s0iUZTSvw582.jpg",
      "popularity": 35.608,
      "adult": false,
      "known_for_department": "Acting"
    },
    {
      "id": 16851,
      "name": "Josh Brolin",
      "profile_path": "/onuJtTCrPB63F72VXAD2izpzLFt.jpg",
      "popularity": 35.534,
      "adult": false,
      "known_for_department": "Acting"
    },
    {
      "id": 74428,
      "name": "Tim McGraw",
      "profile_path": "/prKoPyWZDQYHZeTmFqvMW0EFWDB.jpg",
      "popularity": 35.495,
      "adult": false,
      "known_for_department": "Acting"
    },
    {
      "id": 996701,
      "name": "Miles Teller",
      "profile_path": "/cg3LW0xX6RKr8dmescxq1bepcb5.jpg",
      "popularity": 35.424,
      "adult": false,
      "known_for_department": "Acting"
    },
    {
      "id": 11705,
      "name": "Michelle Monaghan",
      "profile_path": "/1orX1Q1YLodyxdXBSRJMDoDUi12.jpg",
      "popularity": 35.329,
      "adult": false,
      "known_for_department": "Acting"
    },
    {
      "id": 204,
      "name": "Kate Winslet",
      "profile_path": "/e3tdop3WhseRnn8KwMVLAV25Ybv.jpg",
      "popularity": 35.245,
      "adult": false,
      "known_for_department": "Acting"
    },
    {
      "id": 1336,
      "name": "Jet Li",
      "profile_path": "/7d4hgOzFW7CWPcE92eTSEFRSObC.jpg",
      "popularity": 35.193,
      "adult": false,
      "known_for_department": "Acting"
    },
    {
      "id": 41421,
      "name": "Jennifer Morrison",
      "profile_path": "/i6dkHIME0BOPhbcPESHZND3vmtk.jpg",
      "popularity": 35.054,
      "adult": false,
      "known_for_department": "Acting"
    },
    {
      "id": 227454,
      "name": "Alicia Vikander",
      "profile_path": "/9pmHTbXeRxUF51jJKthmHI49u9z.jpg",
      "popularity": 35.049,
      "adult": false,
      "known_for_department": "Acting"
    },
    {
      "id": 1949148,
      "name": "Laura Surrich",
      "profile_path": "/fbXZxpfIYjN0uexfAELkOVPx1bi.jpg",
      "popularity": 34.989,
      "adult": false,
      "known_for_department": "Acting"
    },
    {
      "id": 1312450,
      "name": "Melanie Zanetti",
      "profile_path": "/lbUQ7ilvBtWMU23reKsHg3jRmsf.jpg",
      "popularity": 34.918,
      "adult": false,
      "known_for_department": "Acting"
    },
    {
      "id": 1281,
      "name": "Freddie Highmore",
      "profile_path": "/4haqYYQJFhFe9Poqb26Xpuj1VJk.jpg",
      "popularity": 34.606,
      "adult": false,
      "known_for_department": "Acting"
    },
    {
      "id": 1156913,
      "name": "Kelly Rohrbach",
      "profile_path": "/jmp1SZ0H30atVZrrguBWRD3vjX3.jpg",
      "popularity": 34.518,
      "adult": false,
      "known_for_department": "Acting"
    },
    {
      "id": 169586,
      "name": "Vanessa Marcil",
      "profile_path": "/e2bgnPVavuJfFyO84ny8eGhQ6iP.jpg",
      "popularity": 34.476,
      "adult": false,
      "known_for_department": "Acting"
    },
    {
      "id": 10982,
      "name": "Harry Melling",
      "profile_path": "/b0pHwi2MeqxEpeWnF4Llihu53aJ.jpg",
      "popularity": 34.392,
      "adult": false,
      "known_for_department": "Acting"
    },
    {
      "id": 2358048,
      "name": "Kim Ji-ah",
      "profile_path": "/6pco6HFAJA48ZgEMNwRHaEBlhsN.jpg",
      "popularity": 34.386,
      "adult": false,
      "known_for_department": "Acting"
    },
    {
      "id": 112371,
      "name": "April Bowlby",
      "profile_path": "/c5Yk2tqApmbmKXHoPbYQauXssED.jpg",
      "popularity": 34.386,
      "adult": false,
      "known_for_department": "Acting"
    },
    {
      "id": 2295,
      "name": "Mickey Rourke",
      "profile_path": "/ztkU5t4kahTEule4ZFzfa0H3bi7.jpg",
      "popularity": 34.385,
      "adult": false,
      "known_for_department": "Acting"
    },
    {
      "id": 501,
      "name": "Dakota Fanning",
      "profile_path": "/6bNiiHnZZfA7YYIxO5FszvNFBlI.jpg",
      "popularity": 34.351,
      "adult": false,
      "known_for_department": "Acting"
    },
    {
      "id": 776,
      "name": "Eddie Murphy",
      "profile_path": "/35NneLV2mx3c4eHptwcCMDmihik.jpg",
      "popularity": 34.302,
      "adult": false,
      "known_for_department": "Acting"
    }
  ]
}