{
  "page": 202,
  "total_results": 10000,
  "total_pages": 500,
  "results": [
    {
      "id": 1541266,
      "name": "Poppy Drayton",
      "profile_path": "/mx81cyurTIGDtoWcNPcK4fDKxAu.jpg",
      "popularity": 13.112,
      "adult": false,
      "known_for_department": "Acting"
    },
    {
      "id": 9111,
      "name": "Peter Graves",
      "profile_path": "/4Zyc3GHgmA0302cOziQa0HCwEmD.jpg",
      "popularity": 13.111,
      "adult": false,
      "known_for_department": "Acting"
    },
    {
      "id": 968089,
      "name": "Emma Dumont",
      "profile_path": "/yV7JHUXX4XGMfzhVIoj1iq0DMLB.jpg",
      "popularity": 13.11,
      "adult": false,
      "known_for_department": "Acting"
    },
    {
      "id": 5727,
      "name": "Diedrich Bader",
      "profile_path": "/j3ARZGysag7RZ96ISYBAu51GpnK.jpg",
      "popularity": 13.11,
      "adult": false,
      "known_for_department": "Acting"
    },
    {
      "id": 39574,
      "name": "Deborah Shelton",
      "profile_path": "/xvdBc5dG1gseCG2Y9wGdriFU7La.jpg",
      "popularity": 13.107,
      "adult": false,
      "known_for_department": "Acting"
    },
    {
      "id": 1225953,
      "name": "Sterling K. Brown",
      "profile_path": "/vjFATaJfAyBie56J4Qv2DQ9Dyem.jpg",
      "popularity": 13.106,
      "adult": false,
      "known_for_department": "Acting"
    },
    {
      "id": 70668,
      "name": "Danny Kaye",
      "profile_path": "/uHe4AuRJRWbCcCaURE33FnA6X2Q.jpg",
      "popularity": 13.106,
      "adult": false,
      "known_for_department": "Acting"
    },
    {
      "id": 116367,
      "name": "Rudolph Valentino",
      "profile_path": "/eX4g6CfvtqS5lCjua25JItO7puT.jpg",
      "popularity": 13.103,
      "adult": false,
      "known_for_department": "Acting"
    },
    {
      "id": 1776040,
      "name": "Asia Kate Dillon",
      "profile_path": "/jJutYe9XAaCrHyKGi3nIpCOwwkR.jpg",
      "popularity": 13.098,
      "adult": false,
      "known_for_department": "Acting"
    },
    {
      "id": 1206317,
      "name": "Yuki Ono",
      "profile_path": "/oEx13CbNLsHzURdYafkFJYXDjfm.jpg",
      "popularity": 13.098,
      "adult": false,
      "known_for_department": "Acting"
    },
    {
      "id": 1865300,
      "name": "Jung Ga-ram",
      "profile_path": "/vKk9FIHPRQlHXnxFZKTGVLHcIRV.jpg",
      "popularity": 13.093,
      "adult": false,
      "known_for_department": "Acting"
    },
    {
      "id": 74427,
      "name": "John Hensley",
      "profile_path": "/9iKjAq8aTnHxW4LBPAUnRtwBurY.jpg",
      "popularity": 13.093,
      "adult": false,
      "known_for_department": "Acting"
    },
    {
      "id": 239258,
      "name": "Hazal Kaya",
      "profile_path": "/tiCrfO8qQe74NvP7OeAoF2wXQAO.jpg",
      "popularity": 13.091,
      "adult": false,
      "known_for_department": "Acting"
    },
    {
      "id": 104410,
      "name": "June Chadwick",
      "profile_path": "/erU3RGLRvOSeHQZJJ7ccSafBJKF.jpg",
      "popularity": 13.091,
      "adult": false,
      "known_for_department": "Acting"
    },
    {
      "id": 5589,
      "name": "John Glover",
      "profile_path": "/aPmq20MXqFALrUxaaJoC2Xonumo.jpg",
      "popularity": 13.09,
      "adult": false,
      "known_for_department": "Acting"
    },
    {
      "id": 1546997,
      "name": "Lizzie Boys",
      "profile_path": "/2Ojr4CBvvNykuZyeXPjiHDIDhaV.jpg",
      "popularity": 13.089,
      "adult": false,
      "known_for_department": "Acting"
    },
    {
      "id": 56676,
      "name": "Michael Welch",
      "profile_path": "/zx5GKHpBxYHY09ik818HTcJhu.jpg",
      "popularity": 13.088,
      "adult": false,
      "known_for_department": "Acting"
    },
    {
      "id": 15196,
      "name": "David Hemmings",
      "profile_path": "/44De37NQX5Lcr7jfttNqwP9Sspq.jpg",
      "popularity": 13.087,
      "adult": false,
      "known_for_department": "Acting"
    },
    {
      "id": 115128,
      "name": "Bo Burnham",
      "profile_path": "/xMAatohXadCfz9ipvqvIaTLwOmV.jpg",
      "popularity": 13.083,
      "adult": false,
      "known_for_department": "Acting"
    },
    {
      "id": 855,
      "name": "Lee Remick",
      "profile_path": "/90TB8k134kouctQkNU641aHkiHm.jpg",
      "popularity": 13.082,
      "adult": false,
      "known_for_department": "Acting"
    }
  ]
}