{
  "page": 207,
  "total_results": 10000,
  "total_pages": 500,
  "results": [
    {
      "id": 90496,
      "name": "Masako Nozawa",
      "profile_path": "/jxbXdejmPoiKnNoQz7Dkb80qC26.jpg",
      "popularity": 11.713,
      "adult": false,
      "known_for_department": "Acting"
    },
    {
      "id": 148996,
      "name": "Brittany Ashton Holmes",
      "profile_path": "/8wV95voN0vX7CSTbwaQV87Ty7cM.jpg",
      "popularity": 11.712,
      "adult": false,
      "known_for_department": "Acting"
    },
    {
      "id": 83036,
      "name": "Park Bo-young",
      "profile_path": "/zqz3Ymdiet0VC5UD0jReoiJMPkw.jpg",
      "popularity": 11.709,
      "adult": false,
      "known_for_department": "Acting"
    },
    {
      "id": 133694,
      "name": "Rika Adachi",
      "profile_path": "/7fh0GfJxmHIXHeaNI3hVesSD36Z.jpg",
      "popularity": 11.708,
      "adult": false,
      "known_for_department": "Acting"
    },
    {
      "id": 33292,
      "name": "Brooke Nevin",
      "profile_path": "/xt9ps5BkPMB5NSZbdQUfPIADork.jpg",
      "popularity": 11.708,
      "adult": false,
      "known_for_department": "Acting"
    },
    {
      "id": 588183,
      "name": "Silvia Alonso",
      "profile_path": "/AgXsHxxSBOy9JmtWy5o8y3cKprY.jpg",
      "popularity": 11.706,
      "adult": false,
      "known_for_department": "Acting"
    },
    {
      "id": 74932,
      "name": "Paige Turco",
      "profile_path": "/k1GyxA5YmN5qUpH5YzIe2zAoGgP.jpg",
      "popularity": 11.705,
      "adult": false,
      "known_for_department": "Acting"
    },
    {
      "id": 1445671,
      "name": "Nicholas Phillips",
      "profile_path": "",
      "popularity": 11.703,
      "adult": false,
      "known_for_department": "Acting"
    },
    {
      "id": 212044,
      "name": "Natalie Knepp",
      "profile_path": "/uRkFCGFRl1L2F3VQ1ijUxbc27XI.jpg",
      "popularity": 11.701,
      "adult": false,
      "known_for_department": "Acting"
    },
    {
      "id": 114463,
      "name": "Michelle Jenner",
      "profile_path": "/g3JyHqwBcV7g1ds3dHtWkDXyXqb.jpg",
      "popularity": 11.699,
      "adult": false,
      "known_for_department": "Acting"
    },
    {
      "id": 65568,
      "name": "James B. Sikking",
      "profile_path": "/vovQGuc3Lcw6h7xECd2OhBCx78q.jpg",
      "popularity": 11.697,
      "adult": false,
      "known_for_department": "Acting"
    },
    {
      "id": 62716,
      "name": "B. J. Harrison",
      "profile_path": "/wKQzk78i0nCdSASDFwma0z1tZsv.jpg",
      "popularity": 11.693,
      "adult": false,
      "known_for_department": "Acting"
    },
    {
      "id": 60698,
      "name": "Tracy Nelson",
      "profile_path": "/5FxbqWi4nJrkyBc1aprGxljMO9h.jpg",
      "popularity": 11.693,
      "adult": false,
      "known_for_department": "Acting"
    },
    {
      "id": 1635842,
      "name": "Dean S. Jagger",
      "profile_path": "/lLLLqscRNnbFC7GQNqYIQ5WsoCJ.jpg",
      "popularity": 11.691,
      "adult": false,
      "known_for_department": "Acting"
    },
    {
      "id": 80137,
      "name": "Diane Franklin",
      "profile_path": "/xvMGJAUPS0xrxMH3mkHGq6G1zjF.jpg",
      "popularity": 11.691,
      "adult": false,
      "known_for_department": "Acting"
    },
    {
      "id": 1849954,
      "name": "Wolfgang Novogratz",
      "profile_path": "/3OaqoIKyLik5BPcHVNnWLzpW9qV.jpg",
      "popularity": 11.687,
      "adult": false,
      "known_for_department": "Acting"
    },
    {
      "id": 1419914,
      "name": "Mai Shiraishi",
      "profile_path": "/AdGp3r4nDVIcTQ0G848BIRk2MBe.jpg",
      "popularity": 11.687,
      "adult": false,
      "known_for_department": "Acting"
    },
    {
      "id": 159431,
      "name": "Annie Wersching",
      "profile_path": "/xOTYKQp0pn7Q1XBgtbzo2yj6uWd.jpg",
      "popularity": 11.687,
      "adult": false,
      "known_for_department": "Acting"
    },
    {
      "id": 35824,
      "name": "Alice Cooper",
      "profile_path": "/w3DuyqNVaKFsbTPxOKjLAGb2InO.jpg",
      "popularity": 11.687,
      "adult": false,
      "known_for_department": "Acting"
    },
    {
      "id": 34947,
      "name": "Kevin Conroy",
      "profile_path": "/4MVApMiARrecuVjTCPfi6Z7biLW.jpg",
      "popularity": 11.685,
      "adult": false,
      "known_for_department": "Acting"
    }
  ]
}