{
  "page": 351,
  "total_results": 10000,
  "total_pages": 500,
  "results": [
    {
      "id": 500045,
      "name": "David Oakes",
      "profile_path": "/7NtAET6hvuQTGFAzfchTr3Z4iJ.jpg",
      "popularity": 8.787,
      "adult": false,
      "known_for_department": "Acting"
    },
    {
      "id": 2424471,
      "name": "Sawanee Utoomma",
      "profile_path": "/vfr0G13M34r56brKpQ6eJxdp6RZ.jpg",
      "popularity": 8.786,
      "adult": false,
      "known_for_department": "Acting"
    },
    {
      "id": 1469394,
      "name": "Aomi Muyock",
      "profile_path": "/4kMMdIUMHzB25GHMKk0YMcZIpJN.jpg",
      "popularity": 8.786,
      "adult": false,
      "known_for_department": "Acting"
    },
    {
      "id": 2022,
      "name": "Catherine Hicks",
      "profile_path": "/eGgCeUbtsq69nCPG1w7vU7DzJpO.jpg",
      "popularity": 8.786,
      "adult": false,
      "known_for_department": "Acting"
    },
    {
      "id": 1731961,
      "name": "Ruairí O'Connor",
      "profile_path": "/abf9bZJgMnpeCNsp18Aj2y80WOc.jpg",
      "popularity": 8.785,
      "adult": false,
      "known_for_department": "Acting"
    },
    {
      "id": 59843,
      "name": "Paul Scheer",
      "profile_path": "/76c6ieidSECRslxVX4ZA5WBdz40.jpg",
      "popularity": 8.785,
      "adult": false,
      "known_for_department": "Acting"
    },
    {
      "id": 1222751,
      "name": "Gillian Alexy",
      "profile_path": "/j02m4gz3AWe9vLwsy4h2hVSBwXF.jpg",
      "popularity": 8.784,
      "adult": false,
      "known_for_department": "Acting"
    },
    {
      "id": 104894,
      "name": "Jamie Luner",
      "profile_path": "/oNlfauLLlRJ3lgSPiF3BepDkr6A.jpg",
      "popularity": 8.784,
      "adult": false,
      "known_for_department": "Acting"
    },
    {
      "id": 104912,
      "name": "Jessica Morris",
      "profile_path": "/vnRqsSs1iZenoGCJGc0vdUgjg7A.jpg",
      "popularity": 8.782,
      "adult": false,
      "known_for_department": "Acting"
    },
    {
      "id": 61218,
      "name": "Abby Brammell",
      "profile_path": "/9Ma7FW2GiErRca8LK8U21N47Uh2.jpg",
      "popularity": 8.782,
      "adult": false,
      "known_for_department": "Acting"
    },
    {
      "id": 583034,
      "name": "Luise Heyer",
      "profile_path": "/ffPzIu201oXjT1R0RCW4loZaxQA.jpg",
      "popularity": 8.781,
      "adult": false,
      "known_for_department": "Acting"
    },
    {
      "id": 12080,
      "name": "Conrad Vernon",
      "profile_path": "/c7MIz3sy6UPhBh9YnThd7j8ypdl.jpg",
      "popularity": 8.781,
      "adult": false,
      "known_for_department": "Acting"
    },
    {
      "id": 11901,
      "name": "Dennis Franz",
      "profile_path": "/kbSUcfAbhV1kWuDtLhH5CQwcbJQ.jpg",
      "popularity": 8.781,
      "adult": false,
      "known_for_department": "Acting"
    },
    {
      "id": 9033,
      "name": "Christopher McQuarrie",
      "profile_path": "/82W339V8turXUdaCajqOyekxhmD.jpg",
      "popularity": 8.781,
      "adult": false,
      "known_for_department": "Writing"
    },
    {
      "id": 44038,
      "name": "Nancy Allen",
      "profile_path": "/lgCqBlGhgxTNINoYeDhxhLUuLf.jpg",
      "popularity": 8.78,
      "adult": false,
      "known_for_department": "Acting"
    },
    {
      "id": 20814,
      "name": "Gregory Smith",
      "profile_path": "/5qwhNXC5SZf3D7e1i6iNFvcp91P.jpg",
      "popularity": 8.78,
      "adult": false,
      "known_for_department": "Acting"
    },
    {
      "id": 2368172,
      "name": "Lewin Lloyd",
      "profile_path": "/oENFdIdiILwPZmKVNJ0ud5JCcNl.jpg",
      "popularity": 8.779,
      "adult": false,
      "known_for_department": "Acting"
    },
    {
      "id": 1334541,
      "name": "Kang Ki-doong",
      "profile_path": "/488XqSA5N6bEb55yzKFmABERS92.jpg",
      "popularity": 8.777,
      "adult": false,
      "known_for_department": "Acting"
    },
    {
      "id": 1333812,
      "name": "Barbara Wallace",
      "profile_path": "/eBXpiV5eYtPYln9Wa2badsNu78u.jpg",
      "popularity": 8.777,
      "adult": false,
      "known_for_department": "Acting"
    },
    {
      "id": 5685,
      "name": "Barbara Steele",
      "profile_path": "/m5rKaeUo5kwTBqZpBonzfPwkuIn.jpg",
      "popularity": 8.777,
      "adult": false,
      "known_for_department": "Acting"
    }
  ]
}