{
  "page": 222,
  "total_results": 10000,
  "total_pages": 500,
  "results": [
    {
      "id": 153847,
      "name": "Mark Brandon",
      "profile_path": "/tlghFTHocWRGd010vni5ZhbvlVp.jpg",
      "popularity": 12.008,
      "adult": false,
      "known_for_department": "Acting"
    },
    {
      "id": 33850,
      "name": "Erin Gray",
      "profile_path": "/5EKbWSPCXfSNL7FwkXTuZ2xMcq5.jpg",
      "popularity": 12.008,
      "adult": false,
      "known_for_department": "Acting"
    },
    {
      "id": 587676,
      "name": "朴赫权",
      "profile_path": "/pigJfp2H6bcnW5qEZ2KOaI4PSEI.jpg",
      "popularity": 12.006,
      "adult": false,
      "known_for_department": "Acting"
    },
    {
      "id": 13550,
      "name": "Elias Koteas",
      "profile_path": "/luevjlGy0tYQbAbcz0mVxCYqegH.jpg",
      "popularity": 12.006,
      "adult": false,
      "known_for_department": "Acting"
    },
    {
      "id": 82096,
      "name": "Jessica Paré",
      "profile_path": "/cSFFjPJPMUiDrFsLRwmkC5XSXit.jpg",
      "popularity": 12.002,
      "adult": false,
      "known_for_department": "Acting"
    },
    {
      "id": 1496393,
      "name": "Beanie Feldstein",
      "profile_path": "/zeqMJb6TcxIEUhgjDigse5WD2a1.jpg",
      "popularity": 12.001,
      "adult": false,
      "known_for_department": "Acting"
    },
    {
      "id": 1257600,
      "name": "Kim Ji-hun",
      "profile_path": "/k9Uq26mNkRzoPMu5jGfVoxS3M2V.jpg",
      "popularity": 11.998,
      "adult": false,
      "known_for_department": "Acting"
    },
    {
      "id": 150952,
      "name": "Misako Renbutsu",
      "profile_path": "/gi3eKsmjPbfpSr2k5ukH1sLJGKp.jpg",
      "popularity": 11.998,
      "adult": false,
      "known_for_department": "Acting"
    },
    {
      "id": 6951,
      "name": "W. Earl Brown",
      "profile_path": "/oBHcJc65nUmopx6lVc9ZvYYARZz.jpg",
      "popularity": 11.996,
      "adult": false,
      "known_for_department": "Acting"
    },
    {
      "id": 68559,
      "name": "Gary Daniels",
      "profile_path": "/60RqnmK1eAICJgbmA0YtMef6iys.jpg",
      "popularity": 11.995,
      "adult": false,
      "known_for_department": "Acting"
    },
    {
      "id": 52947,
      "name": "Tim Kang",
      "profile_path": "/Ae7qMN6fJTut145qpeSn1NOu8yx.jpg",
      "popularity": 11.993,
      "adult": false,
      "known_for_department": "Acting"
    },
    {
      "id": 1483976,
      "name": "Maddie Ziegler",
      "profile_path": "/lVNeL2gTjKCti1pbjrqdmePMwGB.jpg",
      "popularity": 11.991,
      "adult": false,
      "known_for_department": "Acting"
    },
    {
      "id": 58544,
      "name": "Neal Huff",
      "profile_path": "/9AZJ2b5QvyTYb8gLPXDfVbU7YYD.jpg",
      "popularity": 11.991,
      "adult": false,
      "known_for_department": "Acting"
    },
    {
      "id": 1392625,
      "name": "Kate Phillips",
      "profile_path": "/b8u5SAMAg0p1x7D4wXbr8F1JWJT.jpg",
      "popularity": 11.988,
      "adult": false,
      "known_for_department": "Acting"
    },
    {
      "id": 59148,
      "name": "Leigh Zimmerman",
      "profile_path": "/49uoWe6Z2VAf7lK7Vtua2IE8Ujy.jpg",
      "popularity": 11.988,
      "adult": false,
      "known_for_department": "Acting"
    },
    {
      "id": 1348015,
      "name": "Hana Sugisaki",
      "profile_path": "/uMdZegIX39id7QdYfnYPkpdFLFo.jpg",
      "popularity": 11.987,
      "adult": false,
      "known_for_department": "Acting"
    },
    {
      "id": 55784,
      "name": "Yosuke Eguchi",
      "profile_path": "/lRLNrQ4Nv4CdWxWwAUQsu3p3NGR.jpg",
      "popularity": 11.987,
      "adult": false,
      "known_for_department": "Acting"
    },
    {
      "id": 5531,
      "name": "Kiran Shah",
      "profile_path": "/cBE8YAZeCMVUu4eAxr6PNUmNjCh.jpg",
      "popularity": 11.983,
      "adult": false,
      "known_for_department": "Acting"
    },
    {
      "id": 211484,
      "name": "Natalie Alyn Lind",
      "profile_path": "/sDqAe7MmMSUcafUISD6O0CykaUr.jpg",
      "popularity": 11.982,
      "adult": false,
      "known_for_department": "Acting"
    },
    {
      "id": 133451,
      "name": "Aya Cash",
      "profile_path": "/kanvrW5ZdAS2MFmS0Pj9pSdR7p9.jpg",
      "popularity": 11.982,
      "adult": false,
      "known_for_department": "Acting"
    }
  ]
}