{
  "page": 121,
  "total_results": 10000,
  "total_pages": 500,
  "results": [
    {
      "id": 35742,
      "name": "Shah Rukh Khan",
      "profile_path": "/d8jQehnCiGuLhZbs1DyB2uDu5BA.jpg",
      "popularity": 14.422,
      "adult": false,
      "known_for_department": "Acting"
    },
    {
      "id": 1816917,
      "name": "Natacha Karam",
      "profile_path": "/9lbNoQ6LxPHPqbdIHhXTMHhebrM.jpg",
      "popularity": 14.42,
      "adult": false,
      "known_for_department": "Acting"
    },
    {
      "id": 33663,
      "name": "Donald Trump",
      "profile_path": "/oDmVFoqIzxOyZejGjy3J5QrUmjM.jpg",
      "popularity": 14.417,
      "adult": false,
      "known_for_department": "Acting"
    },
    {
      "id": 4520,
      "name": "William Forsythe",
      "profile_path": "/35BXHugSG931iVPbHn6W9SNXNY1.jpg",
      "popularity": 14.417,
      "adult": false,
      "known_for_department": "Acting"
    },
    {
      "id": 70903,
      "name": "Marc Warren",
      "profile_path": "/sIsnids6kyarj8QjMrlA1j9p08n.jpg",
      "popularity": 14.414,
      "adult": false,
      "known_for_department": "Acting"
    },
    {
      "id": 52139,
      "name": "Seth MacFarlane",
      "profile_path": "/f58Rhr2Wf3T5O2kVJo7VVnXzekR.jpg",
      "popularity": 14.404,
      "adult": false,
      "known_for_department": "Acting"
    },
    {
      "id": 76793,
      "name": "Irrfan Khan",
      "profile_path": "/qkA9PpWJRw3rNjVkWfNZdwLvRZx.jpg",
      "popularity": 14.402,
      "adult": false,
      "known_for_department": "Acting"
    },
    {
      "id": 36169,
      "name": "Cheryl Ladd",
      "profile_path": "/s6L9CSbyT99sn5YK0bugJGLstnb.jpg",
      "popularity": 14.402,
      "adult": false,
      "known_for_department": "Acting"
    },
    {
      "id": 4252,
      "name": "Tony Shalhoub",
      "profile_path": "/1zfBSuAmOr1xXjNg4WzFWPm5B0Z.jpg",
      "popularity": 14.401,
      "adult": false,
      "known_for_department": "Acting"
    },
    {
      "id": 30554,
      "name": "Ken Curtis",
      "profile_path": "/fhHDWoZszx76Gcr2WGgcoiCPqAA.jpg",
      "popularity": 14.394,
      "adult": false,
      "known_for_department": "Acting"
    },
    {
      "id": 69616,
      "name": "Bianca Kajlich",
      "profile_path": "/jdTR7YCTimMJJE4Rp1VkPAN5WcR.jpg",
      "popularity": 14.391,
      "adult": false,
      "known_for_department": "Acting"
    },
    {
      "id": 2256407,
      "name": "Shin Ye-eun",
      "profile_path": "/aSqjgvIuHZJMq0n5TNtKQ9Nr0DP.jpg",
      "popularity": 14.388,
      "adult": false,
      "known_for_department": "Acting"
    },
    {
      "id": 65196,
      "name": "Nadine Velazquez",
      "profile_path": "/uARYneOeME6qChGb029BAUQuHuM.jpg",
      "popularity": 14.382,
      "adult": false,
      "known_for_department": "Acting"
    },
    {
      "id": 51873,
      "name": "Maggie Lawson",
      "profile_path": "/9AZEDpnDrOMkCf9hqWhY4szrv3X.jpg",
      "popularity": 14.38,
      "adult": false,
      "known_for_department": "Acting"
    },
    {
      "id": 36586,
      "name": "Paulina Gaitán",
      "profile_path": "/7gAjy13R2hm7C1NkCOPS8j4CWCp.jpg",
      "popularity": 14.38,
      "adult": false,
      "known_for_department": "Acting"
    },
    {
      "id": 10409,
      "name": "Shelley Duvall",
      "profile_path": "/6lG3fmyhXatvyAG4X9WxwMWoPUS.jpg",
      "popularity": 14.376,
      "adult": false,
      "known_for_department": "Acting"
    },
    {
      "id": 87571,
      "name": "Jennifer Robertson",
      "profile_path": "/rcW3yjiTterP25AB1K2oXnnlvqS.jpg",
      "popularity": 14.375,
      "adult": false,
      "known_for_department": "Acting"
    },
    {
      "id": 4813,
      "name": "Béatrice Dalle",
      "profile_path": "/pkHDYnYnNepShunyInM5QQKwXWa.jpg",
      "popularity": 14.373,
      "adult": false,
      "known_for_department": "Acting"
    },
    {
      "id": 32798,
      "name": "Elisabeth Moss",
      "profile_path": "/vZDe22EtLtcHvPr28l4ZM0b7qjG.jpg",
      "popularity": 14.372,
      "adult": false,
      "known_for_department": "Acting"
    },
    {
      "id": 21356,
      "name": "D.B. Woodside",
      "profile_path": "/xdyGewr108rQWojpYlKw2QjrxCz.jpg",
      "popularity": 14.371,
      "adult": false,
      "known_for_department": "Acting"
    }
  ]
}