{
  "page": 244,
  "total_results": 10000,
  "total_pages": 500,
  "results": [
    {
      "id": 1862434,
      "name": "Jacob McCarthy",
      "profile_path": "/kU6N4Z2L7f3mFeSZnrnmFE0k4ZZ.jpg",
      "popularity": 11.908,
      "adult": false,
      "known_for_department": "Acting"
    },
    {
      "id": 80864,
      "name": "Kimiko Yo",
      "profile_path": "/g1NZGtCzJKpqgdjNbNYaKBPyYRw.jpg",
      "popularity": 11.908,
      "adult": false,
      "known_for_department": "Acting"
    },
    {
      "id": 154883,
      "name": "Bodhi Elfman",
      "profile_path": "/jQSJxARZYfznOKIDvBdYhXeFMvP.jpg",
      "popularity": 11.906,
      "adult": false,
      "known_for_department": "Acting"
    },
    {
      "id": 36218,
      "name": "Andrew Divoff",
      "profile_path": "/7jdGolskoipA8HRJHjLdCLzc7Zs.jpg",
      "popularity": 11.906,
      "adult": false,
      "known_for_department": "Acting"
    },
    {
      "id": 4589,
      "name": "Benjamin Bratt",
      "profile_path": "/hBenHPT4iJEG2kt5z2TOGnkRZwh.jpg",
      "popularity": 11.906,
      "adult": false,
      "known_for_department": "Acting"
    },
    {
      "id": 42247,
      "name": "Renee Rea",
      "profile_path": "/iG7aya7vYSIfZ8tu6wbjBulWL5H.jpg",
      "popularity": 11.905,
      "adult": false,
      "known_for_department": "Acting"
    },
    {
      "id": 1761615,
      "name": "Scarlett Fernandez",
      "profile_path": "/7VzxmjSRnL2hwfBPPq9zM7aEU3A.jpg",
      "popularity": 11.902,
      "adult": false,
      "known_for_department": "Acting"
    },
    {
      "id": 1164259,
      "name": "Kylie Rogers",
      "profile_path": "/quoGTsdyjmm3V6J7E33Oo7nSgKU.jpg",
      "popularity": 11.9,
      "adult": false,
      "known_for_department": "Acting"
    },
    {
      "id": 43277,
      "name": "Joanne Kelly",
      "profile_path": "/2kgAGdnIA9kzufAFfBO0U8h2FAD.jpg",
      "popularity": 11.9,
      "adult": false,
      "known_for_department": "Acting"
    },
    {
      "id": 587675,
      "name": "Yoo Yeon-seok",
      "profile_path": "/cB95no6uPnMu5FdlVWK3cO9k5xR.jpg",
      "popularity": 11.899,
      "adult": false,
      "known_for_department": "Acting"
    },
    {
      "id": 59449,
      "name": "Paula Marshall",
      "profile_path": "/rBmk7DDOYHempHWrPnijRvPDFaW.jpg",
      "popularity": 11.897,
      "adult": false,
      "known_for_department": "Acting"
    },
    {
      "id": 6648,
      "name": "Ingmar Bergman",
      "profile_path": "/nkmOaXNRoioViN9OQf2n9Iu6akA.jpg",
      "popularity": 11.897,
      "adult": false,
      "known_for_department": "Directing"
    },
    {
      "id": 1624,
      "name": "Cheng Pei-pei",
      "profile_path": "/hCNEbZe4q8iThE5enRwFkTBVkDb.jpg",
      "popularity": 11.897,
      "adult": false,
      "known_for_department": "Acting"
    },
    {
      "id": 506085,
      "name": "Sami Gayle",
      "profile_path": "/qdzSYk6tKvM9optzABPkfOcxFZ2.jpg",
      "popularity": 11.892,
      "adult": false,
      "known_for_department": "Acting"
    },
    {
      "id": 1533946,
      "name": "Clark Olofsson",
      "profile_path": "/tUtxaTshEarI8PcEN4hcy3sj7KV.jpg",
      "popularity": 11.89,
      "adult": false,
      "known_for_department": "Writing"
    },
    {
      "id": 155209,
      "name": "Matthew Morrison",
      "profile_path": "/u3CA6kqhpPVhK3zLD7yW0UfCyWt.jpg",
      "popularity": 11.89,
      "adult": false,
      "known_for_department": "Acting"
    },
    {
      "id": 998412,
      "name": "Oh Jung-se",
      "profile_path": "/oIqRAdI5e777odhOJl6e4Jc9ADj.jpg",
      "popularity": 11.886,
      "adult": false,
      "known_for_department": "Acting"
    },
    {
      "id": 1237976,
      "name": "Kim Tae-hee",
      "profile_path": "/vFZZ2Gsu416CCD4QkYyVocgOa7C.jpg",
      "popularity": 11.885,
      "adult": false,
      "known_for_department": "Acting"
    },
    {
      "id": 19429,
      "name": "Bruce Lee",
      "profile_path": "/uUC3N3sIuFLD0ZpNyc58NxW1Pzf.jpg",
      "popularity": 11.885,
      "adult": false,
      "known_for_department": "Acting"
    },
    {
      "id": 172156,
      "name": "Patch Darragh",
      "profile_path": "/pLYaRnY2l61DphIUYZvLSlZZfGJ.jpg",
      "popularity": 11.882,
      "adult": false,
      "known_for_department": "Acting"
    }
  ]
}