{
  "page": 332,
  "total_results": 10000,
  "total_pages": 500,
  "results": [
    {
      "id": 17764,
      "name": "Charles S. Dutton",
      "profile_path": "/eNLs4JLILqSY50Tq5QMkrlBxD0H.jpg",
      "popularity": 9.186,
      "adult": false,
      "known_for_department": "Acting"
    },
    {
      "id": 62127,
      "name": "Lonette McKee",
      "profile_path": "/evzHYM9rEZvorrngaQ0JnObblEx.jpg",
      "popularity": 9.185,
      "adult": false,
      "known_for_department": "Acting"
    },
    {
      "id": 35745,
      "name": "Preity Zinta",
      "profile_path": "/uaY2M3goYsp0QpNenharmIqnMvy.jpg",
      "popularity": 9.185,
      "adult": false,
      "known_for_department": "Acting"
    },
    {
      "id": 1256851,
      "name": "Maryjun Takahashi",
      "profile_path": "/b7GUrHp4shlPSgOIJ9JuHWjri8I.jpg",
      "popularity": 9.183,
      "adult": false,
      "known_for_department": "Acting"
    },
    {
      "id": 53655,
      "name": "Eva Cobo",
      "profile_path": "/5fgkLGwnhy08xyw2CvmtVwG63Bg.jpg",
      "popularity": 9.183,
      "adult": false,
      "known_for_department": "Acting"
    },
    {
      "id": 168610,
      "name": "Kathleen Munroe",
      "profile_path": "/co8l2AzgtCnx4SgJpcqDrIfIxli.jpg",
      "popularity": 9.181,
      "adult": false,
      "known_for_department": "Acting"
    },
    {
      "id": 78041,
      "name": "Kirk Cameron",
      "profile_path": "/oloVIPnlEBff1gXmzGlY7Fk1KWn.jpg",
      "popularity": 9.181,
      "adult": false,
      "known_for_department": "Acting"
    },
    {
      "id": 56038,
      "name": "April Clough",
      "profile_path": "",
      "popularity": 9.181,
      "adult": false,
      "known_for_department": "Acting"
    },
    {
      "id": 3086,
      "name": "Richard S. Castellano",
      "profile_path": "/1vr75BdHWret81vuSJ3ugiCBkxw.jpg",
      "popularity": 9.179,
      "adult": false,
      "known_for_department": "Acting"
    },
    {
      "id": 104522,
      "name": "Aoi Miyazaki",
      "profile_path": "/8J2i8Da2FmqMsDqSlndEpzkPQYd.jpg",
      "popularity": 9.176,
      "adult": false,
      "known_for_department": "Acting"
    },
    {
      "id": 1598251,
      "name": "Leyla Lydia Tuğutlu",
      "profile_path": "/5hGBE9l7zmcmpWxCRuT9KWmWsUs.jpg",
      "popularity": 9.174,
      "adult": false,
      "known_for_department": "Acting"
    },
    {
      "id": 1286919,
      "name": "Jayne Trcka",
      "profile_path": "/jbJhPpkBA4IDqvJGx7ospexqTBZ.jpg",
      "popularity": 9.174,
      "adult": false,
      "known_for_department": "Acting"
    },
    {
      "id": 13640,
      "name": "Harvey Korman",
      "profile_path": "/cE5X1OAa6iDOo3JKj9uM8kHwQQI.jpg",
      "popularity": 9.173,
      "adult": false,
      "known_for_department": "Acting"
    },
    {
      "id": 79929,
      "name": "Pauline Moran",
      "profile_path": "/vNBv9Nb0dwdeJwLpFrJqKzDLgXN.jpg",
      "popularity": 9.171,
      "adult": false,
      "known_for_department": "Acting"
    },
    {
      "id": 20818,
      "name": "Allen Covert",
      "profile_path": "/7n3euonyxM0wOGfk0T50pgHo06v.jpg",
      "popularity": 9.17,
      "adult": false,
      "known_for_department": "Acting"
    },
    {
      "id": 10929,
      "name": "Ruta Lee",
      "profile_path": "/biYH39Od59w3Y13x5h5oEBqZbVV.jpg",
      "popularity": 9.17,
      "adult": false,
      "known_for_department": "Acting"
    },
    {
      "id": 9029,
      "name": "Stephen Rea",
      "profile_path": "/8Ej68YWZ8P2Wwf2a0UXibqq9Mu9.jpg",
      "popularity": 9.17,
      "adult": false,
      "known_for_department": "Acting"
    },
    {
      "id": 148096,
      "name": "Miles Heizer",
      "profile_path": "/fQeByexqxm2W6u9p1bMRNy12VtH.jpg",
      "popularity": 9.169,
      "adult": false,
      "known_for_department": "Acting"
    },
    {
      "id": 88698,
      "name": "Chelsea Kane",
      "profile_path": "/yYN0NtxO0hB6FVfZma84pWSXdbw.jpg",
      "popularity": 9.168,
      "adult": false,
      "known_for_department": "Acting"
    },
    {
      "id": 2504878,
      "name": "Meenakshi Chaudhary",
      "profile_path": "/v24tqs9Y6uhnADG62fuWaM30xGj.jpg",
      "popularity": 9.167,
      "adult": false,
      "known_for_department": "Acting"
    }
  ]
}