{
  "page": 128,
  "total_results": 10000,
  "total_pages": 500,
  "results": [
    {
      "id": 124112,
      "name": "Charles Parnell",
      "profile_path": "/5cxJNdHIzDiqHRfC6uKgk4ssEqC.jpg",
      "popularity": 14.861,
      "adult": false,
      "known_for_department": "Acting"
    },
    {
      "id": 1161,
      "name": "Mary Elizabeth Mastrantonio",
      "profile_path": "/vbZ1E557K5oj34xLHR5ErO8wPCi.jpg",
      "popularity": 14.86,
      "adult": false,
      "known_for_department": "Acting"
    },
    {
      "id": 10727,
      "name": "John Hannah",
      "profile_path": "/iBMshh31YpMZPX3M3vUoL8itBa5.jpg",
      "popularity": 14.858,
      "adult": false,
      "known_for_department": "Acting"
    },
    {
      "id": 237968,
      "name": "Raju Sundaram",
      "profile_path": "/zNnOzgKlosRdmO4bG8aDMAYEWWs.jpg",
      "popularity": 14.855,
      "adult": false,
      "known_for_department": "Crew"
    },
    {
      "id": 2367724,
      "name": "Julio Peña",
      "profile_path": "/6XzcRQ1pZAdDsqqvWr330QoOJtG.jpg",
      "popularity": 14.848,
      "adult": false,
      "known_for_department": "Acting"
    },
    {
      "id": 16108,
      "name": "Lee Meriwether",
      "profile_path": "/8KMAQXWV3dUBThivDqvpiUjAM8B.jpg",
      "popularity": 14.848,
      "adult": false,
      "known_for_department": "Acting"
    },
    {
      "id": 1473995,
      "name": "Darren Wang",
      "profile_path": "/3CDx0mIClEqcUt8E6ToEkdQypzK.jpg",
      "popularity": 14.845,
      "adult": false,
      "known_for_department": "Acting"
    },
    {
      "id": 3417,
      "name": "Tony Goldwyn",
      "profile_path": "/m4CJX4QwjZsdYJKe8OJamLRnlQh.jpg",
      "popularity": 14.844,
      "adult": false,
      "known_for_department": "Acting"
    },
    {
      "id": 690,
      "name": "Ke Huy Quan",
      "profile_path": "/12Nty7ZxuJXoANc5qDQ7U6gYhnI.jpg",
      "popularity": 14.843,
      "adult": false,
      "known_for_department": "Acting"
    },
    {
      "id": 515875,
      "name": "Lesley-Ann Brandt",
      "profile_path": "/fW2ITcpENpNnHf4wuNltf3PSQTk.jpg",
      "popularity": 14.841,
      "adult": false,
      "known_for_department": "Acting"
    },
    {
      "id": 115146,
      "name": "Dominique McElligott",
      "profile_path": "/99Pbu6HYwrBcX10RDf7ttUh6fO9.jpg",
      "popularity": 14.834,
      "adult": false,
      "known_for_department": "Acting"
    },
    {
      "id": 1291350,
      "name": "Tony Revolori",
      "profile_path": "/tSF6XmXDikrKZbFUeoDnafXxKjT.jpg",
      "popularity": 14.831,
      "adult": false,
      "known_for_department": "Acting"
    },
    {
      "id": 23229,
      "name": "Carice van Houten",
      "profile_path": "/wcyc5upHVhIF9cl1DrWgjlmKWSX.jpg",
      "popularity": 14.828,
      "adult": false,
      "known_for_department": "Acting"
    },
    {
      "id": 63522,
      "name": "Sofía Vergara",
      "profile_path": "/kLkzvEwCUHwqBu4SXBo3pd7si7P.jpg",
      "popularity": 14.826,
      "adult": false,
      "known_for_department": "Acting"
    },
    {
      "id": 1467350,
      "name": "J.R. Ramirez",
      "profile_path": "/nNSMr1fuFjRFTu6QcxPCZGkyyI9.jpg",
      "popularity": 14.819,
      "adult": false,
      "known_for_department": "Acting"
    },
    {
      "id": 228969,
      "name": "Roxanne McKee",
      "profile_path": "/6yIEG1guFsPIHTT3UsagYVrG6Am.jpg",
      "popularity": 14.818,
      "adult": false,
      "known_for_department": "Acting"
    },
    {
      "id": 119143,
      "name": "Kana Hanazawa",
      "profile_path": "/5bK9ttcRydQBWmyZp7gXDmJYOPF.jpg",
      "popularity": 14.818,
      "adult": false,
      "known_for_department": "Acting"
    },
    {
      "id": 1234,
      "name": "Tara Reid",
      "profile_path": "/s7BRT4eypYGJxV4qeO1iMYFrnCq.jpg",
      "popularity": 14.818,
      "adult": false,
      "known_for_department": "Acting"
    },
    {
      "id": 61852,
      "name": "Nicholas Gonzalez",
      "profile_path": "/z4fwpWWZNpqLXOvtFMgc1s3DMB1.jpg",
      "popularity": 14.817,
      "adult": false,
      "known_for_department": "Acting"
    },
    {
      "id": 781,
      "name": "Paul Reiser",
      "profile_path": "/v3e5TClep4ugMdU4qSRiKbvLr3B.jpg",
      "popularity": 14.815,
      "adult": false,
      "known_for_department": "Acting"
    }
  ]
}