{
  "page": 169,
  "total_results": 10000,
  "total_pages": 500,
  "results": [
    {
      "id": 214556,
      "name": "Indiana Evans",
      "profile_path": "/rZHqKjXYPFndiri2rVTzHfYSVBc.jpg",
      "popularity": 14.313,
      "adult": false,
      "known_for_department": "Acting"
    },
    {
      "id": 118331,
      "name": "Pavel Priluchnyy",
      "profile_path": "/7dW6NrRSitLwvbeapueKM092VgA.jpg",
      "popularity": 14.312,
      "adult": false,
      "known_for_department": "Acting"
    },
    {
      "id": 9210,
      "name": "Jeff Perry",
      "profile_path": "/cC2tK2X3hY8RBM2ebp1BvpWTUqG.jpg",
      "popularity": 14.312,
      "adult": false,
      "known_for_department": "Acting"
    },
    {
      "id": 55256,
      "name": "Julie Ann Emery",
      "profile_path": "/A29Nmt41IREXVNMk02cCxN9Ba6i.jpg",
      "popularity": 14.307,
      "adult": false,
      "known_for_department": "Acting"
    },
    {
      "id": 12110,
      "name": "Amy Sedaris",
      "profile_path": "/uOqDhpe44mYMFvj8TRFPQh3tk1P.jpg",
      "popularity": 14.307,
      "adult": false,
      "known_for_department": "Acting"
    },
    {
      "id": 1168934,
      "name": "Shuhei Nomura",
      "profile_path": "/ln5j2CcBsnbHMjyMicQiXp6uTtF.jpg",
      "popularity": 14.301,
      "adult": false,
      "known_for_department": "Acting"
    },
    {
      "id": 1146,
      "name": "Julie Delpy",
      "profile_path": "/rd40f4QpAUUne3hMaUhHrZtcK2c.jpg",
      "popularity": 14.3,
      "adult": false,
      "known_for_department": "Acting"
    },
    {
      "id": 2100209,
      "name": "Tripti Dimri",
      "profile_path": "/fiyFyDfJ6t8hSgK49B1g18J13KE.jpg",
      "popularity": 14.298,
      "adult": false,
      "known_for_department": "Acting"
    },
    {
      "id": 140367,
      "name": "Evanna Lynch",
      "profile_path": "/mebDQC5FnPVYYRxqmhCVVdl8fVM.jpg",
      "popularity": 14.295,
      "adult": false,
      "known_for_department": "Acting"
    },
    {
      "id": 2641,
      "name": "Martin Landau",
      "profile_path": "/fMbPtGS0tRs5uiMU9EJXrmwjcnt.jpg",
      "popularity": 14.288,
      "adult": false,
      "known_for_department": "Acting"
    },
    {
      "id": 1778846,
      "name": "Raveena Ravi",
      "profile_path": "/bQsUHwGTFW95zMXC1AoVYiAd3Dl.jpg",
      "popularity": 14.286,
      "adult": false,
      "known_for_department": "Acting"
    },
    {
      "id": 70962,
      "name": "Donatella Damiani",
      "profile_path": "/7Z7y4kJgNHGut67ftaRdi8vnclE.jpg",
      "popularity": 14.286,
      "adult": false,
      "known_for_department": "Acting"
    },
    {
      "id": 6199,
      "name": "Miriam Margolyes",
      "profile_path": "/93k0aFwiuDT5sIS3oTX1jKgUYXE.jpg",
      "popularity": 14.286,
      "adult": false,
      "known_for_department": "Acting"
    },
    {
      "id": 1275,
      "name": "Billy Drago",
      "profile_path": "/zvIdwHPjqzmqPaSJShF9gShPbHr.jpg",
      "popularity": 14.286,
      "adult": false,
      "known_for_department": "Acting"
    },
    {
      "id": 11280,
      "name": "Ben Miles",
      "profile_path": "/mT3BqoFUkyktXLvefQA6VxaGHJz.jpg",
      "popularity": 14.282,
      "adult": false,
      "known_for_department": "Acting"
    },
    {
      "id": 150440,
      "name": "Gülçin Santırcıoğlu",
      "profile_path": "/aY8Ct67J2bz9rmTLsMQE1Dy9MFs.jpg",
      "popularity": 14.28,
      "adult": false,
      "known_for_department": "Acting"
    },
    {
      "id": 110945,
      "name": "Scott Michael Foster",
      "profile_path": "/eFn8ixpNNBNFJahkCpBGrfRuiYB.jpg",
      "popularity": 14.277,
      "adult": false,
      "known_for_department": "Acting"
    },
    {
      "id": 33286,
      "name": "Matthew Settle",
      "profile_path": "/69D3JqJslcqJ1lqwcet2zGRAr7n.jpg",
      "popularity": 14.277,
      "adult": false,
      "known_for_department": "Acting"
    },
    {
      "id": 25539,
      "name": "Shonda Rhimes",
      "profile_path": "/pIQbVxfjNwZ0DaAjo3q107nng1b.jpg",
      "popularity": 14.276,
      "adult": false,
      "known_for_department": "Writing"
    },
    {
      "id": 4483,
      "name": "Dustin Hoffman",
      "profile_path": "/yFjTzJHE6AFbwQifOlnNDzmiwlq.jpg",
      "popularity": 14.275,
      "adult": false,
      "known_for_department": "Acting"
    }
  ]
}