{
  "page": 6,
  "total_results": 10000,
  "total_pages": 500,
  "results": [
    {
      "id": 228,
      "name": "Ed Harris",
      "profile_path": "/ryF0KkljweLhPkQ70x6w3u9Qjjj.jpg",
      "popularity": 58.428,
      "adult": false,
      "known_for_department": "Acting"
    },
    {
      "id": 4517,
      "name": "Joe Pesci",
      "profile_path": "/4AO0Rwdg2ky8Usmgzgj0dvhy7Zw.jpg",
      "popularity": 58.205,
      "adult": false,
      "known_for_department": "Acting"
    },
    {
      "id": 524,
      "name": "Natalie Portman",
      "profile_path": "/zE90yInhhU8fLz1HgWpB9KPvGnE.jpg",
      "popularity": 58.184,
      "adult": false,
      "known_for_department": "Acting"
    },
    {
      "id": 115440,
      "name": "Sydney Sweeney",
      "profile_path": "/afr2eoktU4lFYtmtfKo05EbQdXo.jpg",
      "popularity": 58.032,
      "adult": false,
      "known_for_department": "Acting"
    },
    {
      "id": 3713,
      "name": "Frances Fisher",
      "profile_path": "/tsyGcoXGRNM8KGLpLG3OuxAyxx2.jpg",
      "popularity": 58.019,
      "adult": false,
      "known_for_department": "Acting"
    },
    {
      "id": 566331,
      "name": "Oona Chaplin",
      "profile_path": "/8OVfD7mPFGntaSjEb4sqCUNieTQ.jpg",
      "popularity": 57.804,
      "adult": false,
      "known_for_department": "Acting"
    },
    {
      "id": 109513,
      "name": "Alexandra Daddario",
      "profile_path": "/lh5zibQXYH1MNqkuX8TmxyNYHhK.jpg",
      "popularity": 57.51,
      "adult": false,
      "known_for_department": "Acting"
    },
    {
      "id": 5576,
      "name": "Val Kilmer",
      "profile_path": "/szMi36EOoCuMYeYO9eYqRefEnKo.jpg",
      "popularity": 57.445,
      "adult": false,
      "known_for_department": "Acting"
    },
    {
      "id": 17276,
      "name": "Gerard Butler",
      "profile_path": "/rTO5opVC3Gs6hPYAxWSP9eEjogi.jpg",
      "popularity": 57.419,
      "adult": false,
      "known_for_department": "Acting"
    },
    {
      "id": 39658,
      "name": "Sally Hawkins",
      "profile_path": "/1dtDq82dM2YQ17lBL4ZKPJo5LKw.jpg",
      "popularity": 57.376,
      "adult": false,
      "known_for_department": "Acting"
    },
    {
      "id": 136532,
      "name": "Matt Smith",
      "profile_path": "/b3AYe7kkImkB35CoYwlUqHnJGF8.jpg",
      "popularity": 57.347,
      "adult": false,
      "known_for_department": "Acting"
    },
    {
      "id": 934,
      "name": "Russell Crowe",
      "profile_path": "/mGTtPuwE8OR00tkJGmVLJmt8KpW.jpg",
      "popularity": 57.31,
      "adult": false,
      "known_for_department": "Acting"
    },
    {
      "id": 7399,
      "name": "Ben Stiller",
      "profile_path": "/scgpxhI05JpdNXXfmpK6z0rPOWN.jpg",
      "popularity": 57.261,
      "adult": false,
      "known_for_department": "Acting"
    },
    {
      "id": 9273,
      "name": "Amy Adams",
      "profile_path": "/bp7PLjL2fHVuLRFsw6ccpGrGjrA.jpg",
      "popularity": 57.065,
      "adult": false,
      "known_for_department": "Acting"
    },
    {
      "id": 58021,
      "name": "Tinto Brass",
      "profile_path": "/80Uuq79rcYL1FgBPHAEHzAACQFa.jpg",
      "popularity": 57.056,
      "adult": false,
      "known_for_department": "Directing"
    },
    {
      "id": 2231,
      "name": "Samuel L. Jackson",
      "profile_path": "/nCJJ3NVksYNxIzEHcyC1XziwPVj.jpg",
      "popularity": 57.031,
      "adult": false,
      "known_for_department": "Acting"
    },
    {
      "id": 117642,
      "name": "Jason Momoa",
      "profile_path": "/6dEFBpZH8C8OijsynkSajQT99Pb.jpg",
      "popularity": 56.959,
      "adult": false,
      "known_for_department": "Acting"
    },
    {
      "id": 16483,
      "name": "Sylvester Stallone",
      "profile_path": "/qDRGPAcQoW8Wuig9bvoLpHwf1gU.jpg",
      "popularity": 56.862,
      "adult": false,
      "known_for_department": "Acting"
    },
    {
      "id": 1019,
      "name": "Mads Mikkelsen",
      "profile_path": "/ntwPvV4GKGGHO3I7LcHMwhXfsw9.jpg",
      "popularity": 56.431,
      "adult": false,
      "known_for_department": "Acting"
    },
    {
      "id": 12835,
      "name": "Vin Diesel",
      "profile_path": "/nZdVry7lnUkE24PnXakok9okvL4.jpg",
      "popularity": 56.426,
      "adult": false,
      "known_for_department": "Acting"
    }
  ]
}