{
  "page": 363,
  "total_results": 10000,
  "total_pages": 500,
  "results": [
    {
      "id": 116351,
      "name": "Lydia Shum Tin-Ha",
      "profile_path": "/kBBSrBpD9NcrQJ6AR8gxAqZIvk9.jpg",
      "popularity": 8.556,
      "adult": false,
      "known_for_department": "Acting"
    },
    {
      "id": 92326,
      "name": "Constance Marie",
      "profile_path": "/4s5IKXj9gKHwNWjm8o5LgAkBVal.jpg",
      "popularity": 8.556,
      "adult": false,
      "known_for_department": "Acting"
    },
    {
      "id": 59185,
      "name": "Kendall Cross",
      "profile_path": "/97d4hAGHcgExV1QR3nTXdChu7Ll.jpg",
      "popularity": 8.555,
      "adult": false,
      "known_for_department": "Acting"
    },
    {
      "id": 51864,
      "name": "Kasi Lemmons",
      "profile_path": "/hof1zuo2FRj83xNuJWl1sWUPMtS.jpg",
      "popularity": 8.555,
      "adult": false,
      "known_for_department": "Acting"
    },
    {
      "id": 80112,
      "name": "Sylvester McCoy",
      "profile_path": "/y7spOkUTzwf7WYgeGeNMnvBjStd.jpg",
      "popularity": 8.554,
      "adult": false,
      "known_for_department": "Acting"
    },
    {
      "id": 60652,
      "name": "Darren Shahlavi",
      "profile_path": "/rQ1myylNtn8CiLlKDtI0vW4TdP7.jpg",
      "popularity": 8.554,
      "adult": false,
      "known_for_department": "Acting"
    },
    {
      "id": 1247956,
      "name": "Yuto Uemura",
      "profile_path": "/boQMSI9WA5x2LYDEsiq0udeKMNe.jpg",
      "popularity": 8.55,
      "adult": false,
      "known_for_department": "Acting"
    },
    {
      "id": 21369,
      "name": "Gloria Reuben",
      "profile_path": "/7Ttd3nj1M9P8YE9LzCvGZcvPUQR.jpg",
      "popularity": 8.55,
      "adult": false,
      "known_for_department": "Acting"
    },
    {
      "id": 19855,
      "name": "Suzuka Ohgo",
      "profile_path": "/9lnTlEwU7qeTUl9gSFADyKFZjbN.jpg",
      "popularity": 8.55,
      "adult": false,
      "known_for_department": "Acting"
    },
    {
      "id": 4758,
      "name": "Joely Fisher",
      "profile_path": "/aHJxw4cbpoxvi7LNbnuA1c6jPPO.jpg",
      "popularity": 8.549,
      "adult": false,
      "known_for_department": "Acting"
    },
    {
      "id": 77260,
      "name": "Paul Anka",
      "profile_path": "/8Qx0tMaYEPAWkUOwOnsnm4lZad5.jpg",
      "popularity": 8.548,
      "adult": false,
      "known_for_department": "Acting"
    },
    {
      "id": 26996,
      "name": "Patricia Heaton",
      "profile_path": "/1iQoh3R98mC16WzMMZCru9ZcssK.jpg",
      "popularity": 8.548,
      "adult": false,
      "known_for_department": "Acting"
    },
    {
      "id": 2638304,
      "name": "Fiona Palomo",
      "profile_path": "/oQ9hiKvvr4gG3bnTFyzHP9jO5o6.jpg",
      "popularity": 8.547,
      "adult": false,
      "known_for_department": "Acting"
    },
    {
      "id": 69289,
      "name": "Shin Eun-kyung",
      "profile_path": "/5byW92WgWudOaKHnyevnd4NSy8K.jpg",
      "popularity": 8.547,
      "adult": false,
      "known_for_department": "Acting"
    },
    {
      "id": 18662,
      "name": "Erin Daniels",
      "profile_path": "/cp4NlgaY3sXH0cRwOm7meBL4uBc.jpg",
      "popularity": 8.547,
      "adult": false,
      "known_for_department": "Acting"
    },
    {
      "id": 240194,
      "name": "Kao Pao-shu",
      "profile_path": "/kqKf57mL7zP1GW0AYIk52gd7ZiC.jpg",
      "popularity": 8.546,
      "adult": false,
      "known_for_department": "Acting"
    },
    {
      "id": 78320,
      "name": "Bryan Callen",
      "profile_path": "/dYlYyeKLC6jXl6twAIsqYQCnFlp.jpg",
      "popularity": 8.546,
      "adult": false,
      "known_for_department": "Acting"
    },
    {
      "id": 118374,
      "name": "Gaius Charles",
      "profile_path": "/jv3yclr8GMW0krvEIF9k5F298KU.jpg",
      "popularity": 8.543,
      "adult": false,
      "known_for_department": "Acting"
    },
    {
      "id": 94430,
      "name": "Erica Gimpel",
      "profile_path": "/9rEGsUqlbVJexRZ2TTxc0UIGY5P.jpg",
      "popularity": 8.543,
      "adult": false,
      "known_for_department": "Acting"
    },
    {
      "id": 10581,
      "name": "Rich Sommer",
      "profile_path": "/tqpwfXczNvvel5Dep5ejUD4X9ie.jpg",
      "popularity": 8.543,
      "adult": false,
      "known_for_department": "Acting"
    }
  ]
}