{
  "page": 245,
  "total_results": 10000,
  "total_pages": 500,
  "results": [
    {
      "id": 1610940,
      "name": "Lewis Tan",
      "profile_path": "/lkW8gh20BuwzHecXqYH1eRVuWpb.jpg",
      "popularity": 10.344,
      "adult": false,
      "known_for_department": "Acting"
    },
    {
      "id": 1803286,
      "name": "Gideon Adlon",
      "profile_path": "/l8BSlg87Mn75n28P2aXzot6G0pi.jpg",
      "popularity": 10.343,
      "adult": false,
      "known_for_department": "Acting"
    },
    {
      "id": 98215,
      "name": "Matt Gerald",
      "profile_path": "/k5iEsYWb1Prho4IO2xGTFaIwKu1.jpg",
      "popularity": 10.341,
      "adult": false,
      "known_for_department": "Acting"
    },
    {
      "id": 80760,
      "name": "Rochelle Aytes",
      "profile_path": "/9njTma1gJ4RNoT1P1QkCeI7Mcdr.jpg",
      "popularity": 10.341,
      "adult": false,
      "known_for_department": "Acting"
    },
    {
      "id": 58791,
      "name": "Patrick Fabian",
      "profile_path": "/dPlWxVLSycsiRiduKQYSJUkBrPN.jpg",
      "popularity": 10.341,
      "adult": false,
      "known_for_department": "Acting"
    },
    {
      "id": 3157671,
      "name": "Savannah La Rain",
      "profile_path": "/4nmRxlUHYQ7eMnAkj3cpzuyvRsR.jpg",
      "popularity": 10.34,
      "adult": false,
      "known_for_department": "Acting"
    },
    {
      "id": 3317,
      "name": "Takeshi Kitano",
      "profile_path": "/9fyYreFJT8CPe8Ok2y1LE0btNYS.jpg",
      "popularity": 10.34,
      "adult": false,
      "known_for_department": "Acting"
    },
    {
      "id": 101,
      "name": "Leonor Watling",
      "profile_path": "/uyEM3c37lL90by5vmuOk0XZQ83O.jpg",
      "popularity": 10.34,
      "adult": false,
      "known_for_department": "Acting"
    },
    {
      "id": 45864,
      "name": "Cody Burger",
      "profile_path": "",
      "popularity": 10.338,
      "adult": false,
      "known_for_department": "Acting"
    },
    {
      "id": 1259762,
      "name": "Emjay Anthony",
      "profile_path": "/q8lsX9MmYrf9UOpRUZy4ZkziIyO.jpg",
      "popularity": 10.336,
      "adult": false,
      "known_for_department": "Acting"
    },
    {
      "id": 14518,
      "name": "Ray Collins",
      "profile_path": "/aafy1UvizCKmf8is7gTfAJc43wP.jpg",
      "popularity": 10.334,
      "adult": false,
      "known_for_department": "Acting"
    },
    {
      "id": 1501341,
      "name": "Cheng Yi",
      "profile_path": "/1PpowpEdaNKgBFahS3HbikxjxR7.jpg",
      "popularity": 10.333,
      "adult": false,
      "known_for_department": "Acting"
    },
    {
      "id": 66717,
      "name": "Anthony Wong",
      "profile_path": "/7UYRnOZXSmJFcQGPBUSFbyY07zZ.jpg",
      "popularity": 10.332,
      "adult": false,
      "known_for_department": "Acting"
    },
    {
      "id": 209723,
      "name": "Eve Harlow",
      "profile_path": "/iXwYkiU3IgxYfaPuU8nFzFYWyqI.jpg",
      "popularity": 10.326,
      "adult": false,
      "known_for_department": "Acting"
    },
    {
      "id": 51544,
      "name": "Mare Winningham",
      "profile_path": "/nXawdsVgNQp4Q41vu735nvajIT9.jpg",
      "popularity": 10.326,
      "adult": false,
      "known_for_department": "Acting"
    },
    {
      "id": 71467,
      "name": "Matt O'Leary",
      "profile_path": "/xTjZWML92P7dMrlFTdyHIfaDgTv.jpg",
      "popularity": 10.323,
      "adult": false,
      "known_for_department": "Acting"
    },
    {
      "id": 1575028,
      "name": "Hazal Filiz Küçükköse",
      "profile_path": "/uLRFiox5Xch4SVdfatHTNfzx0kH.jpg",
      "popularity": 10.322,
      "adult": false,
      "known_for_department": "Acting"
    },
    {
      "id": 108889,
      "name": "Jay Harrington",
      "profile_path": "/aLIVOcm0ylX4DMGVvzebNyiLmeW.jpg",
      "popularity": 10.322,
      "adult": false,
      "known_for_department": "Acting"
    },
    {
      "id": 17347,
      "name": "Marshall Allman",
      "profile_path": "/2frJJdV7p1z7WspoPmUw3ehqdjI.jpg",
      "popularity": 10.321,
      "adult": false,
      "known_for_department": "Acting"
    },
    {
      "id": 1080195,
      "name": "Vicky Krieps",
      "profile_path": "/AdcQCdKeZTJ3TYNOzUEEnjTRdmA.jpg",
      "popularity": 10.318,
      "adult": false,
      "known_for_department": "Acting"
    }
  ]
}