{
  "page": 466,
  "total_results": 10000,
  "total_pages": 500,
  "results": [
    {
      "id": 146516,
      "name": "Josie Loren",
      "profile_path": "/vZJc51rwheOC0TCdUkA4KM1UfXu.jpg",
      "popularity": 7.429,
      "adult": false,
      "known_for_department": "Acting"
    },
    {
      "id": 128851,
      "name": "Aleksandra Ursulyak",
      "profile_path": "/lqQQSOiB72QbFbtwOmFBHWtbFi2.jpg",
      "popularity": 7.429,
      "adult": false,
      "known_for_department": "Acting"
    },
    {
      "id": 116931,
      "name": "Jennifer Pudavick",
      "profile_path": "/w05dMTiZ1x8gQy56MoWdgZZEuBu.jpg",
      "popularity": 7.429,
      "adult": false,
      "known_for_department": "Acting"
    },
    {
      "id": 26466,
      "name": "Caroline Kava",
      "profile_path": "/eORoASDF7YvmmKUQ883gYjyzmPU.jpg",
      "popularity": 7.429,
      "adult": false,
      "known_for_department": "Acting"
    },
    {
      "id": 1274964,
      "name": "Edward Ruttle",
      "profile_path": "/hoR2honm6hZec1cr0hI5GnUjP7A.jpg",
      "popularity": 7.428,
      "adult": false,
      "known_for_department": "Acting"
    },
    {
      "id": 168925,
      "name": "Nadine Ellis",
      "profile_path": "/gPOmQXlC6VhmyJPwwaOcb8cnlw9.jpg",
      "popularity": 7.427,
      "adult": false,
      "known_for_department": "Acting"
    },
    {
      "id": 104978,
      "name": "Helena af Sandeberg",
      "profile_path": "/oMEyxwADJwC5k0Br0XLeswdUxlm.jpg",
      "popularity": 7.427,
      "adult": false,
      "known_for_department": "Acting"
    },
    {
      "id": 84046,
      "name": "Riko Narumi",
      "profile_path": "/ui95qu4LvvUgvM05cleNE1tsEvf.jpg",
      "popularity": 7.427,
      "adult": false,
      "known_for_department": "Acting"
    },
    {
      "id": 33533,
      "name": "David Rasche",
      "profile_path": "/bWPhfa4m8pXVneP1gf37xvuMUCA.jpg",
      "popularity": 7.426,
      "adult": false,
      "known_for_department": "Acting"
    },
    {
      "id": 471356,
      "name": "Elina Garanca",
      "profile_path": "/2Vj7Yx4vbcXxFBkvsxsH08KjmME.jpg",
      "popularity": 7.424,
      "adult": false,
      "known_for_department": "Acting"
    },
    {
      "id": 2453134,
      "name": "Jaroslav Kubera",
      "profile_path": "/TlsGsWZtRgJUqLKyFhtlFFxA2D.jpg",
      "popularity": 7.423,
      "adult": false,
      "known_for_department": "Acting"
    },
    {
      "id": 1230847,
      "name": "Justin Spitzer",
      "profile_path": "/7LiIHJLBv6Li1lmASD6mrigtKPo.jpg",
      "popularity": 7.423,
      "adult": false,
      "known_for_department": "Writing"
    },
    {
      "id": 1143308,
      "name": "Rakul Preet Singh",
      "profile_path": "/4n4MmOFNyxKc4qMfzyapglvDDlF.jpg",
      "popularity": 7.423,
      "adult": false,
      "known_for_department": "Acting"
    },
    {
      "id": 131724,
      "name": "Adrienne Bailon-Houghton",
      "profile_path": "/9UA8xg1CFlAxbo1dl5WLtm74KeI.jpg",
      "popularity": 7.423,
      "adult": false,
      "known_for_department": "Acting"
    },
    {
      "id": 118022,
      "name": "Donald Woods",
      "profile_path": "/wkfb6UhL62JxqyEUP7YAz5jgOJ3.jpg",
      "popularity": 7.423,
      "adult": false,
      "known_for_department": "Acting"
    },
    {
      "id": 1041410,
      "name": "Charmian Carr",
      "profile_path": "/b9WvC3wmiONTTMiUwRNL7XZdOkP.jpg",
      "popularity": 7.422,
      "adult": false,
      "known_for_department": "Acting"
    },
    {
      "id": 27267,
      "name": "Rebecca Pidgeon",
      "profile_path": "/c8nJjBpB7zYtdnEY1GNPtUSophZ.jpg",
      "popularity": 7.422,
      "adult": false,
      "known_for_department": "Acting"
    },
    {
      "id": 238609,
      "name": "Maya Stojan",
      "profile_path": "/nxHQa6syD3xqjnnlKNwOie6zp5G.jpg",
      "popularity": 7.421,
      "adult": false,
      "known_for_department": "Acting"
    },
    {
      "id": 1236264,
      "name": "Liu Tao",
      "profile_path": "/8OlTZvZoXqT96Powhph4sML805V.jpg",
      "popularity": 7.419,
      "adult": false,
      "known_for_department": "Acting"
    },
    {
      "id": 15565,
      "name": "Jennifer Hudson",
      "profile_path": "/kxVtkVJP3zHidnIzkf1jUV1yJxo.jpg",
      "popularity": 7.419,
      "adult": false,
      "known_for_department": "Acting"
    }
  ]
}