{
  "page": 406,
  "total_results": 10000,
  "total_pages": 500,
  "results": [
    {
      "id": 1907999,
      "name": "Yoo Ri",
      "profile_path": "",
      "popularity": 6.307,
      "adult": false,
      "known_for_department": "Acting"
    },
    {
      "id": 1584273,
      "name": "Dilan Çiçek Deniz",
      "profile_path": "/wj7il56BPBRXtaFVj7cejXpg578.jpg",
      "popularity": 6.307,
      "adult": false,
      "known_for_department": "Acting"
    },
    {
      "id": 187857,
      "name": "Toby Leonard Moore",
      "profile_path": "/hR3vkEjSymdt23NYfcO2axUFMe1.jpg",
      "popularity": 3.892,
      "adult": false,
      "known_for_department": "Acting"
    },
    {
      "id": 28010,
      "name": "David Ogden Stiers",
      "profile_path": "/cgCTQt3RZVkhkusG77l4HwHEH6A.jpg",
      "popularity": 8.828,
      "adult": false,
      "known_for_department": "Acting"
    },
    {
      "id": 25258,
      "name": "Rossy de Palma",
      "profile_path": "/3IH9ZBUcFNwBr8IcS1RZhMKTpeg.jpg",
      "popularity": 8.828,
      "adult": false,
      "known_for_department": "Acting"
    },
    {
      "id": 1156183,
      "name": "Ashly Burch",
      "profile_path": "/iINzNKiIGbjoee6tJKb8xMWog45.jpg",
      "popularity": 8.827,
      "adult": false,
      "known_for_department": "Acting"
    },
    {
      "id": 2280476,
      "name": "Shirine Boutella",
      "profile_path": "/4qBT877sIjMLycDBmahEpL1nwEk.jpg",
      "popularity": 6.304,
      "adult": false,
      "known_for_department": "Acting"
    },
    {
      "id": 205179,
      "name": "Danny Pudi",
      "profile_path": "/w0zT8Y2dQHU8FgV03NJoHJE6tmD.jpg",
      "popularity": 7.891,
      "adult": false,
      "known_for_department": "Acting"
    },
    {
      "id": 134699,
      "name": "Stella Gonet",
      "profile_path": "/cUmDfX4fNvtAl5199HUc29ZDsAc.jpg",
      "popularity": 7.091,
      "adult": false,
      "known_for_department": "Acting"
    },
    {
      "id": 66606,
      "name": "George Wendt",
      "profile_path": "/noQKS06TbuPJQ9o91CzKbEvTwZR.jpg",
      "popularity": 8.826,
      "adult": false,
      "known_for_department": "Acting"
    },
    {
      "id": 1251100,
      "name": "Shion Takeuchi",
      "profile_path": "/4l87QnF5Fdm7iUk3CJHt5aKBljw.jpg",
      "popularity": 8.824,
      "adult": false,
      "known_for_department": "Writing"
    },
    {
      "id": 3785,
      "name": "Jack Palance",
      "profile_path": "/sRr2YPa1IElRE1vG1PQcgLrS9om.jpg",
      "popularity": 8.824,
      "adult": false,
      "known_for_department": "Acting"
    },
    {
      "id": 1077805,
      "name": "Ana Ayora",
      "profile_path": "/6mo946WfFCeCvHFjglr00nDI4KD.jpg",
      "popularity": 5.091,
      "adult": false,
      "known_for_department": "Acting"
    },
    {
      "id": 163930,
      "name": "Martha Millan",
      "profile_path": "/ed6mq0swtBx99HU9mpl5TnyZEUA.jpg",
      "popularity": 4.69,
      "adult": false,
      "known_for_department": "Acting"
    },
    {
      "id": 86905,
      "name": "Caroline Rhea",
      "profile_path": "/o3qlndBREZLOUrX9s0KEyjspBEJ.jpg",
      "popularity": 8.821,
      "adult": false,
      "known_for_department": "Acting"
    },
    {
      "id": 64731,
      "name": "Tiffany Paulsen",
      "profile_path": "/8xJqAYlky3Fht5OuJP802i2TYGB.jpg",
      "popularity": 5.89,
      "adult": false,
      "known_for_department": "Writing"
    },
    {
      "id": 766,
      "name": "Ashraf Barhom",
      "profile_path": "/nLEExmNJZsFCT29AyUSAFSSZ5gb.jpg",
      "popularity": 5.89,
      "adult": false,
      "known_for_department": "Acting"
    },
    {
      "id": 1041347,
      "name": "Kimi Katkar",
      "profile_path": "/qImIXtXDkx8MjCakQlk7mvOsucy.jpg",
      "popularity": 5.89,
      "adult": false,
      "known_for_department": "Acting"
    },
    {
      "id": 151432,
      "name": "Boris McGiver",
      "profile_path": "/mwVp5Pt7gMhEHPsijU8niPRljiW.jpg",
      "popularity": 5.89,
      "adult": false,
      "known_for_department": "Acting"
    },
    {
      "id": 135944,
      "name": "Alexandre Willaume",
      "profile_path": "/9idbbstYInVyKSpbDaLMjwwRFns.jpg",
      "popularity": 6.689,
      "adult": false,
      "known_for_department": "Acting"
    }
  ]
}