{
  "page": 491,
  "total_results": 10000,
  "total_pages": 500,
  "results": [
    {
      "id": 21175,
      "name": "Michel Blanc",
      "profile_path": "/p3cRVFvUPcsbcLw1x6G1ulgVBH5.jpg",
      "popularity": 7.142,
      "adult": false,
      "known_for_department": "Acting"
    },
    {
      "id": 20301,
      "name": "Justin Kirk",
      "profile_path": "/68QWfaIoOYy4QzjnjiXPXxnpT6u.jpg",
      "popularity": 7.142,
      "adult": false,
      "known_for_department": "Acting"
    },
    {
      "id": 1254014,
      "name": "Armelle Deutsch",
      "profile_path": "/dtXNgjGz34oZfpNoi0AFG2jD5NW.jpg",
      "popularity": 7.14,
      "adult": false,
      "known_for_department": "Acting"
    },
    {
      "id": 12406,
      "name": "Paul Le Mat",
      "profile_path": "/9xDY0RR2ocB2wyPVaSaSMFAgoPf.jpg",
      "popularity": 7.14,
      "adult": false,
      "known_for_department": "Acting"
    },
    {
      "id": 1756,
      "name": "Stephen Collins",
      "profile_path": "/ncig7dxNlbR6URDY4nUHkh008Mx.jpg",
      "popularity": 7.14,
      "adult": false,
      "known_for_department": "Acting"
    },
    {
      "id": 584542,
      "name": "Julia Sarah Stone",
      "profile_path": "/6PV9ZU6Xv7w1N2Pb8R9t9V9pIIa.jpg",
      "popularity": 7.139,
      "adult": false,
      "known_for_department": "Acting"
    },
    {
      "id": 51894,
      "name": "J. A. Bayona",
      "profile_path": "/cnbbnS7K8Uu6yohAfSRHv5Kxc7r.jpg",
      "popularity": 7.139,
      "adult": false,
      "known_for_department": "Directing"
    },
    {
      "id": 10356,
      "name": "Marika Green",
      "profile_path": "/u1KMdWcSHCHCmflZeYtQjdp5Sez.jpg",
      "popularity": 7.139,
      "adult": false,
      "known_for_department": "Acting"
    },
    {
      "id": 1186076,
      "name": "Philippe Lacheau",
      "profile_path": "/2ev0Ip2vNnC5UYe10gJNcApahZ4.jpg",
      "popularity": 7.138,
      "adult": false,
      "known_for_department": "Acting"
    },
    {
      "id": 140918,
      "name": "Sakura Tange",
      "profile_path": "/3vw8xqbgwRV0x919yd6HiR5YcIJ.jpg",
      "popularity": 7.138,
      "adult": false,
      "known_for_department": "Acting"
    },
    {
      "id": 82857,
      "name": "Jasper Pääkkönen",
      "profile_path": "/1oUV4hCV5N3RI3sbY4pxt41QCr9.jpg",
      "popularity": 7.138,
      "adult": false,
      "known_for_department": "Acting"
    },
    {
      "id": 132739,
      "name": "Jordan Chan",
      "profile_path": "/8UcFu65f6w00chLdX1w31CGhsEh.jpg",
      "popularity": 7.136,
      "adult": false,
      "known_for_department": "Acting"
    },
    {
      "id": 37928,
      "name": "Chung Seo-kyung",
      "profile_path": "/puBGFSws4gSME2OhBUgzbcooOjQ.jpg",
      "popularity": 7.136,
      "adult": false,
      "known_for_department": "Writing"
    },
    {
      "id": 2424471,
      "name": "Sawanee Utoomma",
      "profile_path": "/vfr0G13M34r56brKpQ6eJxdp6RZ.jpg",
      "popularity": 7.135,
      "adult": false,
      "known_for_department": "Acting"
    },
    {
      "id": 223938,
      "name": "Tamer Hosny",
      "profile_path": "/31CCvoNLwcJMtfYVF1jZ4Goxfn.jpg",
      "popularity": 7.135,
      "adult": false,
      "known_for_department": "Acting"
    },
    {
      "id": 120351,
      "name": "Ken Mitsuishi",
      "profile_path": "/rFvma7dorrI3HJUGMVqSnFjLyfN.jpg",
      "popularity": 7.135,
      "adult": false,
      "known_for_department": "Acting"
    },
    {
      "id": 52602,
      "name": "Rob Morrow",
      "profile_path": "/2n3lF3BFehzegyF3elvrb06S01S.jpg",
      "popularity": 7.135,
      "adult": false,
      "known_for_department": "Acting"
    },
    {
      "id": 1095950,
      "name": "Kazuma Yamane",
      "profile_path": "/u3DhiNcmU883wvzGgVU3FT9ZO8O.jpg",
      "popularity": 7.134,
      "adult": false,
      "known_for_department": "Acting"
    },
    {
      "id": 77521,
      "name": "Christoph Sanders",
      "profile_path": "/3XJjZ3Yvkqj0YucwSsOTQUnqT8l.jpg",
      "popularity": 7.134,
      "adult": false,
      "known_for_department": "Acting"
    },
    {
      "id": 1696351,
      "name": "Nicolas Cantu",
      "profile_path": "/z17tShU2jwKAA0HPU7JPFzPe63G.jpg",
      "popularity": 7.133,
      "adult": false,
      "known_for_department": "Acting"
    }
  ]
}