{
  "page": 297,
  "total_results": 10000,
  "total_pages": 500,
  "results": [
    {
      "id": 71403,
      "name": "Rob Riggle",
      "profile_path": "/hQgOp8vWxl6KPZbqzKSSL4k6G1j.jpg",
      "popularity": 8.739,
      "adult": false,
      "known_for_department": "Acting"
    },
    {
      "id": 4570,
      "name": "Emily Hampshire",
      "profile_path": "/vYlecHv7jzLcq24Um6ME8Jn1gMt.jpg",
      "popularity": 8.739,
      "adult": false,
      "known_for_department": "Acting"
    },
    {
      "id": 2293,
      "name": "Frank Miller",
      "profile_path": "/2eqqLG9Sv4i1ZlM14wY2LTTEbld.jpg",
      "popularity": 8.739,
      "adult": false,
      "known_for_department": "Writing"
    },
    {
      "id": 141974,
      "name": "Saadet Işıl Aksoy",
      "profile_path": "/iteNzdG3N3WR1wBQPFwNw6AxzK9.jpg",
      "popularity": 8.737,
      "adult": false,
      "known_for_department": "Acting"
    },
    {
      "id": 127260,
      "name": "Louise Sorel",
      "profile_path": "/mx4jNWZ4ZZ2Z2AVyxlbfyvcmsAD.jpg",
      "popularity": 8.737,
      "adult": false,
      "known_for_department": "Acting"
    },
    {
      "id": 85178,
      "name": "Christa Campbell",
      "profile_path": "/hkYXdekehh0ulFdAoloO8lnX3iq.jpg",
      "popularity": 8.736,
      "adult": false,
      "known_for_department": "Acting"
    },
    {
      "id": 38026,
      "name": "Chris Noth",
      "profile_path": "/9awGeDN5MSbSefDMAyMglm96vcy.jpg",
      "popularity": 8.736,
      "adult": false,
      "known_for_department": "Acting"
    },
    {
      "id": 80280,
      "name": "Michael Treanor",
      "profile_path": "/cUCjgVVDjVjP6TSesfrU0u0FxXs.jpg",
      "popularity": 8.735,
      "adult": false,
      "known_for_department": "Acting"
    },
    {
      "id": 55584,
      "name": "Ingvar Sigurdsson",
      "profile_path": "/rRzLj3miinQxIpPxJUzMdV9ZJb6.jpg",
      "popularity": 8.734,
      "adult": false,
      "known_for_department": "Acting"
    },
    {
      "id": 12217,
      "name": "Jay Mohr",
      "profile_path": "/eBlRdaQk6y8w7AHKb0YYpe4eEWv.jpg",
      "popularity": 8.734,
      "adult": false,
      "known_for_department": "Acting"
    },
    {
      "id": 60074,
      "name": "Jeff Garlin",
      "profile_path": "/8shJOwynglerVVxhOKbvDYTThBd.jpg",
      "popularity": 8.733,
      "adult": false,
      "known_for_department": "Acting"
    },
    {
      "id": 2097313,
      "name": "Yana Enzhaeva",
      "profile_path": "/ufyMPwnWmDnUb4f2szbKP6QD9Sq.jpg",
      "popularity": 8.73,
      "adult": false,
      "known_for_department": "Acting"
    },
    {
      "id": 106836,
      "name": "Alonna Shaw",
      "profile_path": "/mgKOOY18bTKQ0N0DL9vLPbkGKiN.jpg",
      "popularity": 8.73,
      "adult": false,
      "known_for_department": "Acting"
    },
    {
      "id": 3754,
      "name": "Mel Ferrer",
      "profile_path": "/hWYjmKZ5uk1PLxfgedTNnTa6tP9.jpg",
      "popularity": 8.729,
      "adult": false,
      "known_for_department": "Acting"
    },
    {
      "id": 1680347,
      "name": "Cree Cicchino",
      "profile_path": "/emNMxPc9ABEmmWsxSVWOMonrhzW.jpg",
      "popularity": 8.728,
      "adult": false,
      "known_for_department": "Acting"
    },
    {
      "id": 159386,
      "name": "Kristoffer Polaha",
      "profile_path": "/m4bwq7WE2lESK16QskibtrHnpQW.jpg",
      "popularity": 8.728,
      "adult": false,
      "known_for_department": "Acting"
    },
    {
      "id": 1246931,
      "name": "Kim Gyu-ri",
      "profile_path": "/q48drWt7V9pARReR3gRcB3Qf0q9.jpg",
      "popularity": 8.726,
      "adult": false,
      "known_for_department": "Acting"
    },
    {
      "id": 79087,
      "name": "Robin Weigert",
      "profile_path": "/ifGimfhXs7WIyDJMIX8kJtUte88.jpg",
      "popularity": 8.726,
      "adult": false,
      "known_for_department": "Acting"
    },
    {
      "id": 1376782,
      "name": "Lizze Broadway",
      "profile_path": "/jNiBKdpx0QRuERFczT9IB7JgF0R.jpg",
      "popularity": 8.725,
      "adult": false,
      "known_for_department": "Acting"
    },
    {
      "id": 25655,
      "name": "Zoe Telford",
      "profile_path": "/3oFNtRDlyUURPukWLSgkyc5rFk6.jpg",
      "popularity": 8.725,
      "adult": false,
      "known_for_department": "Acting"
    }
  ]
}