{
  "page": 384,
  "total_results": 10000,
  "total_pages": 500,
  "results": [
    {
      "id": 4728,
      "name": "Kevin Chapman",
      "profile_path": "/sCUwtlhaT2MspHCUx2veRAA9ZXx.jpg",
      "popularity": 8.153,
      "adult": false,
      "known_for_department": "Acting"
    },
    {
      "id": 1090824,
      "name": "Lilia Cuntapay",
      "profile_path": "/ifLfyZMiddAJ8sPaXGWzsTASrn6.jpg",
      "popularity": 8.152,
      "adult": false,
      "known_for_department": "Acting"
    },
    {
      "id": 58293,
      "name": "Alex McArthur",
      "profile_path": "/aZk9kZUDTZJwsJGBVRORPdCTrcy.jpg",
      "popularity": 8.152,
      "adult": false,
      "known_for_department": "Acting"
    },
    {
      "id": 84617,
      "name": "Zelda Williams",
      "profile_path": "/hkd0wsMDfbLowS2ALvPlZSxVtPg.jpg",
      "popularity": 8.151,
      "adult": false,
      "known_for_department": "Acting"
    },
    {
      "id": 59090,
      "name": "Nichole Hiltz",
      "profile_path": "/1zTyls4VrMgF371SDnL5SaI2dn0.jpg",
      "popularity": 8.151,
      "adult": false,
      "known_for_department": "Acting"
    },
    {
      "id": 11128,
      "name": "Arthur Kennedy",
      "profile_path": "/fDbTcQYSLDjfGetwF1mEwdFLSnG.jpg",
      "popularity": 8.151,
      "adult": false,
      "known_for_department": "Acting"
    },
    {
      "id": 145121,
      "name": "Pierre Niney",
      "profile_path": "/aMsGsnRPet7pZ2ppAxaRdBz4yGU.jpg",
      "popularity": 8.15,
      "adult": false,
      "known_for_department": "Acting"
    },
    {
      "id": 143664,
      "name": "Elizaveta Arzamasova",
      "profile_path": "/2Ccbrd41XBcJknz3H9BNodTVhCK.jpg",
      "popularity": 8.149,
      "adult": false,
      "known_for_department": "Acting"
    },
    {
      "id": 88698,
      "name": "Chelsea Kane",
      "profile_path": "/yYN0NtxO0hB6FVfZma84pWSXdbw.jpg",
      "popularity": 8.149,
      "adult": false,
      "known_for_department": "Acting"
    },
    {
      "id": 103593,
      "name": "Renee Griffin",
      "profile_path": "/bFlDuUo3spSlI4NZWFzmFfPkuBP.jpg",
      "popularity": 8.148,
      "adult": false,
      "known_for_department": "Acting"
    },
    {
      "id": 162503,
      "name": "Selenis Leyva",
      "profile_path": "/nTiw98CjQt1wKToT1K1jGBcui95.jpg",
      "popularity": 8.147,
      "adult": false,
      "known_for_department": "Acting"
    },
    {
      "id": 93177,
      "name": "Lee Ross",
      "profile_path": "/sQNOXntZ677YC9686kUl1NWGP18.jpg",
      "popularity": 8.146,
      "adult": false,
      "known_for_department": "Acting"
    },
    {
      "id": 25245,
      "name": "Jacky Cheung",
      "profile_path": "/eoh2sI1IBYmQSuIapr32EUbl3Nw.jpg",
      "popularity": 8.146,
      "adult": false,
      "known_for_department": "Acting"
    },
    {
      "id": 9257,
      "name": "Bruno Kirby",
      "profile_path": "/jhzDyVIXoccsSmhkNgrneLAeUYG.jpg",
      "popularity": 8.144,
      "adult": false,
      "known_for_department": "Acting"
    },
    {
      "id": 20220,
      "name": "Elden Henson",
      "profile_path": "/f4oYBfzNTgZUbp8B15rkmYAzdy5.jpg",
      "popularity": 8.143,
      "adult": false,
      "known_for_department": "Acting"
    },
    {
      "id": 1789952,
      "name": "Harry Collett",
      "profile_path": "/f7IHEisWZxSW82tzXuGW4GMubyw.jpg",
      "popularity": 8.141,
      "adult": false,
      "known_for_department": "Acting"
    },
    {
      "id": 1631759,
      "name": "Alexander Petrov",
      "profile_path": "/GGzZvqrHxRKNAhiZHm7oPX1e3o.jpg",
      "popularity": 8.14,
      "adult": false,
      "known_for_department": "Acting"
    },
    {
      "id": 186007,
      "name": "Vicki Michelle",
      "profile_path": "/eNyoHpNqTimPXDi6rVxb2nJjLzR.jpg",
      "popularity": 8.14,
      "adult": false,
      "known_for_department": "Acting"
    },
    {
      "id": 25848,
      "name": "Rudolf Martin",
      "profile_path": "/hoAVxstMxMYr38EBvpc5eH3wR41.jpg",
      "popularity": 8.14,
      "adult": false,
      "known_for_department": "Acting"
    },
    {
      "id": 17580,
      "name": "John Vernon",
      "profile_path": "/gcDiT7lbejFskdFMEx5syWSRfnj.jpg",
      "popularity": 8.14,
      "adult": false,
      "known_for_department": "Acting"
    }
  ]
}