{
  "page": 348,
  "total_results": 10000,
  "total_pages": 500,
  "results": [
    {
      "id": 9112,
      "name": "Neville Brand",
      "profile_path": "/ndh2KmCzWtIQ9MQO0xoTOZDCQZk.jpg",
      "popularity": 10.348,
      "adult": false,
      "known_for_department": "Acting"
    },
    {
      "id": 55673,
      "name": "Troy Gentile",
      "profile_path": "/lC2BtCSI5lcaJribUjTRXg1cCuW.jpg",
      "popularity": 10.347,
      "adult": false,
      "known_for_department": "Acting"
    },
    {
      "id": 1428395,
      "name": "Jessica Lowe",
      "profile_path": "/vnqHQ43u3QsW5X2KDjxvl0uhOJA.jpg",
      "popularity": 10.346,
      "adult": false,
      "known_for_department": "Acting"
    },
    {
      "id": 69378,
      "name": "Kim Sang-kyung",
      "profile_path": "/5VKIhf0ZVxqtrZfyMPbubZz3INr.jpg",
      "popularity": 10.345,
      "adult": false,
      "known_for_department": "Acting"
    },
    {
      "id": 55037,
      "name": "Jeremy Kemp",
      "profile_path": "/lXKzFH9PM3H0JDlRcgMkw6FWq3i.jpg",
      "popularity": 10.345,
      "adult": false,
      "known_for_department": "Acting"
    },
    {
      "id": 35322,
      "name": "Alan Hale Jr.",
      "profile_path": "/13hyaSRqAe9LTkGTp4iEyZQO5Il.jpg",
      "popularity": 10.345,
      "adult": false,
      "known_for_department": "Acting"
    },
    {
      "id": 18270,
      "name": "Orlando Jones",
      "profile_path": "/1BxjIvQRmekROnIEMYBele9pJi6.jpg",
      "popularity": 10.344,
      "adult": false,
      "known_for_department": "Acting"
    },
    {
      "id": 52718,
      "name": "Andrew Francis",
      "profile_path": "/lvmgsIzCobciX8vDAX8wyBVDryq.jpg",
      "popularity": 10.343,
      "adult": false,
      "known_for_department": "Acting"
    },
    {
      "id": 11716,
      "name": "Matthew Lawrence",
      "profile_path": "/bYbqDCNMGGJHmVHD55ur2VIAO8c.jpg",
      "popularity": 10.343,
      "adult": false,
      "known_for_department": "Acting"
    },
    {
      "id": 81164,
      "name": "Danneel Ackles",
      "profile_path": "/7W3CZ4xMJure0ZiqYLAqPVvkbWK.jpg",
      "popularity": 10.342,
      "adult": false,
      "known_for_department": "Acting"
    },
    {
      "id": 211484,
      "name": "Natalie Alyn Lind",
      "profile_path": "/sDqAe7MmMSUcafUISD6O0CykaUr.jpg",
      "popularity": 10.34,
      "adult": false,
      "known_for_department": "Acting"
    },
    {
      "id": 1704640,
      "name": "Brooklynn Prince",
      "profile_path": "/47fAcFO1YZfjEGvhLps2a2HlNJ2.jpg",
      "popularity": 10.339,
      "adult": false,
      "known_for_department": "Acting"
    },
    {
      "id": 548375,
      "name": "Michael Rainey Jr.",
      "profile_path": "/5U6wNx2LAggfwK6gi6OYL3rGOvl.jpg",
      "popularity": 10.339,
      "adult": false,
      "known_for_department": "Acting"
    },
    {
      "id": 1540602,
      "name": "Alexa Nisenson",
      "profile_path": "/bHB5NZw9W5BgggAcDPZP8FTpgeh.jpg",
      "popularity": 10.338,
      "adult": false,
      "known_for_department": "Acting"
    },
    {
      "id": 14001,
      "name": "Chill Wills",
      "profile_path": "/AuPtl5YaRlHzGYPdCZHIKqdFyJG.jpg",
      "popularity": 10.337,
      "adult": false,
      "known_for_department": "Acting"
    },
    {
      "id": 5050,
      "name": "Yaphet Kotto",
      "profile_path": "/2n1yspH4FaDcQ98x81AxCu5A7Ea.jpg",
      "popularity": 10.335,
      "adult": false,
      "known_for_department": "Acting"
    },
    {
      "id": 2049744,
      "name": "Sri Sudha Bhimireddy",
      "profile_path": "/slqG5jqj6IbufTJuN8uNakMTh3g.jpg",
      "popularity": 10.333,
      "adult": false,
      "known_for_department": "Acting"
    },
    {
      "id": 58319,
      "name": "Jason Scott Lee",
      "profile_path": "/7jObZCM3diuPV0WlKkzOd4uE2CJ.jpg",
      "popularity": 10.333,
      "adult": false,
      "known_for_department": "Acting"
    },
    {
      "id": 1223438,
      "name": "Sarah Dumont",
      "profile_path": "/lW6Qxv5OYfHxdwy7UIalIjpdL07.jpg",
      "popularity": 10.332,
      "adult": false,
      "known_for_department": "Acting"
    },
    {
      "id": 1230842,
      "name": "Leslie David Baker",
      "profile_path": "/9h3xlV5IYqKinlQCW1ouU7sjwWF.jpg",
      "popularity": 10.331,
      "adult": false,
      "known_for_department": "Acting"
    }
  ]
}