{
  "page": 288,
  "total_results": 10000,
  "total_pages": 500,
  "results": [
    {
      "id": 84840,
      "name": "Eiichiro Oda",
      "profile_path": "",
      "popularity": 10.217,
      "adult": false,
      "known_for_department": "Writing"
    },
    {
      "id": 1309781,
      "name": "Kelly McCormack",
      "profile_path": "/ffEdq9DRH1pRUWRqkHdZC4oSrMi.jpg",
      "popularity": 10.216,
      "adult": false,
      "known_for_department": "Acting"
    },
    {
      "id": 44567,
      "name": "Tobias Moretti",
      "profile_path": "/qSD66hUYQSdgFgs93Tr9WaQNMTo.jpg",
      "popularity": 10.214,
      "adult": false,
      "known_for_department": "Acting"
    },
    {
      "id": 41422,
      "name": "Jesse Spencer",
      "profile_path": "/4A86Y3ZkcTUESQ1XMYiA66peQ3M.jpg",
      "popularity": 10.214,
      "adult": false,
      "known_for_department": "Acting"
    },
    {
      "id": 2067860,
      "name": "Jeon Yeo-been",
      "profile_path": "/l28uxiGDMyZjQMRvhfNCtkydmpK.jpg",
      "popularity": 10.213,
      "adult": false,
      "known_for_department": "Acting"
    },
    {
      "id": 150,
      "name": "RZA",
      "profile_path": "/2PVYCKXb1X3PLawJNoYGLN1x0In.jpg",
      "popularity": 10.213,
      "adult": false,
      "known_for_department": "Sound"
    },
    {
      "id": 3058259,
      "name": "Nicolas Maupas",
      "profile_path": "/uBi4qzjqqISeScbWDUyBgFx5cdx.jpg",
      "popularity": 10.212,
      "adult": false,
      "known_for_department": "Acting"
    },
    {
      "id": 1371656,
      "name": "Stéphane Caillard",
      "profile_path": "/kqNGXWT09nCDEROAFPkWlUgSZ2n.jpg",
      "popularity": 10.212,
      "adult": false,
      "known_for_department": "Acting"
    },
    {
      "id": 154988,
      "name": "Marisa Ramirez",
      "profile_path": "/cLCsOVNka47oCZ778vHmkj4esvv.jpg",
      "popularity": 10.212,
      "adult": false,
      "known_for_department": "Acting"
    },
    {
      "id": 1255699,
      "name": "Natsumi Takamori",
      "profile_path": "/7H3JLslSkMYR60cxZ27atHanl1j.jpg",
      "popularity": 10.21,
      "adult": false,
      "known_for_department": "Acting"
    },
    {
      "id": 208259,
      "name": "Crystal Mantecon",
      "profile_path": "/q4WFBh2U6evfTtbvZo8E6VWRsA0.jpg",
      "popularity": 10.21,
      "adult": false,
      "known_for_department": "Acting"
    },
    {
      "id": 2909208,
      "name": "Kina Yazaki",
      "profile_path": "",
      "popularity": 10.208,
      "adult": false,
      "known_for_department": "Acting"
    },
    {
      "id": 7863,
      "name": "Tantoo Cardinal",
      "profile_path": "/v4OxVfmt8mxrgf37Fs1JDdWemoV.jpg",
      "popularity": 10.208,
      "adult": false,
      "known_for_department": "Acting"
    },
    {
      "id": 1357223,
      "name": "Mike Shara",
      "profile_path": "/tZAGNwrfP1sRGvoYZtaVNvIIXtP.jpg",
      "popularity": 10.207,
      "adult": false,
      "known_for_department": "Acting"
    },
    {
      "id": 4303,
      "name": "Ward Bond",
      "profile_path": "/296v3SK2u6HHxG3IXGVeklJt7dk.jpg",
      "popularity": 10.206,
      "adult": false,
      "known_for_department": "Acting"
    },
    {
      "id": 1586047,
      "name": "Owen Teague",
      "profile_path": "/dEFXrRmXOULWI0dorfT08IjK49P.jpg",
      "popularity": 10.205,
      "adult": false,
      "known_for_department": "Acting"
    },
    {
      "id": 119241,
      "name": "Junichi Okada",
      "profile_path": "/3yXXQB0vn5IW63quew3le0LTPdn.jpg",
      "popularity": 10.205,
      "adult": false,
      "known_for_department": "Acting"
    },
    {
      "id": 2804996,
      "name": "Jung Sung-il",
      "profile_path": "/cP0vEFV5aL8D9mntwlFWP5pcTQo.jpg",
      "popularity": 10.202,
      "adult": false,
      "known_for_department": "Acting"
    },
    {
      "id": 74290,
      "name": "Travis Van Winkle",
      "profile_path": "/thanvrjfpP9h8E9QmPbtutZoEHa.jpg",
      "popularity": 10.202,
      "adult": false,
      "known_for_department": "Acting"
    },
    {
      "id": 67028,
      "name": "Hugh Fraser",
      "profile_path": "/reQgxV9DPvYWwicHIYsppn40mPt.jpg",
      "popularity": 10.202,
      "adult": false,
      "known_for_department": "Acting"
    }
  ]
}