{
  "page": 65,
  "total_results": 10000,
  "total_pages": 500,
  "results": [
    {
      "id": 1581,
      "name": "Mary McDonnell",
      "profile_path": "/qqdaaFLEPXbB8thVJJkYJ4WoAuj.jpg",
      "popularity": 22.499,
      "adult": false,
      "known_for_department": "Acting"
    },
    {
      "id": 55398,
      "name": "Ashley Jensen",
      "profile_path": "/ukGtNrFyiVV21ScQvyeORWCtk5Z.jpg",
      "popularity": 22.495,
      "adult": false,
      "known_for_department": "Acting"
    },
    {
      "id": 933271,
      "name": "Eve Hewson",
      "profile_path": "/Dj3osDr5zSP7uMtBBbbUeIgRMu.jpg",
      "popularity": 22.492,
      "adult": false,
      "known_for_department": "Acting"
    },
    {
      "id": 3361,
      "name": "George Sanders",
      "profile_path": "/5tzdY4lCnfbLZU8Wblp5xfjn10B.jpg",
      "popularity": 22.491,
      "adult": false,
      "known_for_department": "Acting"
    },
    {
      "id": 35319,
      "name": "Sylvia Kristel",
      "profile_path": "/9CoitH6zdr5FTBLh6FJZHnzkunc.jpg",
      "popularity": 22.463,
      "adult": false,
      "known_for_department": "Acting"
    },
    {
      "id": 564844,
      "name": "Park Byung-eun",
      "profile_path": "/wIHxqfHxH1DSQ4u5hQBYdQne6p1.jpg",
      "popularity": 22.459,
      "adult": false,
      "known_for_department": "Acting"
    },
    {
      "id": 1223726,
      "name": "Robbie Amell",
      "profile_path": "/qRDwwBVJmYk7yhlo8VwRMook4yd.jpg",
      "popularity": 22.441,
      "adult": false,
      "known_for_department": "Acting"
    },
    {
      "id": 1182597,
      "name": "Denise Gough",
      "profile_path": "/uGs5oHN1MK4tmU850fCw7d3Nx0h.jpg",
      "popularity": 22.431,
      "adult": false,
      "known_for_department": "Acting"
    },
    {
      "id": 25934,
      "name": "David Boreanaz",
      "profile_path": "/oO619MACIfz7YoPiIGXYOfamhOE.jpg",
      "popularity": 22.426,
      "adult": false,
      "known_for_department": "Acting"
    },
    {
      "id": 129101,
      "name": "Lance Reddick",
      "profile_path": "/22mVtEXZbpt0J7S0LhIhdkfRrZV.jpg",
      "popularity": 22.422,
      "adult": false,
      "known_for_department": "Acting"
    },
    {
      "id": 14888,
      "name": "Bruce McGill",
      "profile_path": "/9zF43TgWiO3AlKC4I48S7ZK09lK.jpg",
      "popularity": 22.42,
      "adult": false,
      "known_for_department": "Acting"
    },
    {
      "id": 21595,
      "name": "Alyson Hannigan",
      "profile_path": "/aKSbDKRlinaviQIkkg3mYXCVaGQ.jpg",
      "popularity": 22.412,
      "adult": false,
      "known_for_department": "Acting"
    },
    {
      "id": 4778,
      "name": "Melinda Dillon",
      "profile_path": "/fefn6cQaU05EuklP25foT4xOc7I.jpg",
      "popularity": 22.403,
      "adult": false,
      "known_for_department": "Acting"
    },
    {
      "id": 11678,
      "name": "Rainn Wilson",
      "profile_path": "/rEDRAFYX5n2JKJh9EKILX42klA5.jpg",
      "popularity": 22.386,
      "adult": false,
      "known_for_department": "Acting"
    },
    {
      "id": 25503,
      "name": "Mandy Patinkin",
      "profile_path": "/ykKV39t79fm6I88m8CjZFu0oBDU.jpg",
      "popularity": 22.375,
      "adult": false,
      "known_for_department": "Acting"
    },
    {
      "id": 215055,
      "name": "Steven Yeun",
      "profile_path": "/5XU0L0drBa7JlGrLg2w3LhAgjG0.jpg",
      "popularity": 22.369,
      "adult": false,
      "known_for_department": "Acting"
    },
    {
      "id": 1537686,
      "name": "Naomi Ackie",
      "profile_path": "/vVHuadobY2lFRSYFJJK91T0WbZ9.jpg",
      "popularity": 22.364,
      "adult": false,
      "known_for_department": "Acting"
    },
    {
      "id": 21702,
      "name": "Ming-Na Wen",
      "profile_path": "/eqCzFF83It56cUdjpskzvg8jgq.jpg",
      "popularity": 22.364,
      "adult": false,
      "known_for_department": "Acting"
    },
    {
      "id": 30084,
      "name": "Anna Torv",
      "profile_path": "/iZqO7oMqMeCFUcC5LgpIT3LTNPx.jpg",
      "popularity": 22.363,
      "adult": false,
      "known_for_department": "Acting"
    },
    {
      "id": 29221,
      "name": "Brittany Snow",
      "profile_path": "/vbcVzoIhSScfJ2XQWFVpB9jS7IV.jpg",
      "popularity": 22.341,
      "adult": false,
      "known_for_department": "Acting"
    }
  ]
}