{
  "page": 481,
  "total_results": 10000,
  "total_pages": 500,
  "results": [
    {
      "id": 59662,
      "name": "Joanna Going",
      "profile_path": "/cqYMJFlkkAc2n1FTGaOmom4IFFL.jpg",
      "popularity": 7.177,
      "adult": false,
      "known_for_department": "Acting"
    },
    {
      "id": 40345,
      "name": "Don Bluth",
      "profile_path": "/vzeIEidWO7v2Dfw7iMv3Xjnmfwd.jpg",
      "popularity": 7.177,
      "adult": false,
      "known_for_department": "Directing"
    },
    {
      "id": 1557181,
      "name": "Wi Ha-jun",
      "profile_path": "/tEZuIaMESdBw4LfNq3vshGR4VlP.jpg",
      "popularity": 7.176,
      "adult": false,
      "known_for_department": "Acting"
    },
    {
      "id": 1474032,
      "name": "Turlough Convery",
      "profile_path": "/comNqH43CXrweE6L5kpuyRLHLi9.jpg",
      "popularity": 7.176,
      "adult": false,
      "known_for_department": "Acting"
    },
    {
      "id": 66580,
      "name": "Scott Adsit",
      "profile_path": "/vbbuugUWrZhxA7ASWYiGqdZ6Dtf.jpg",
      "popularity": 7.176,
      "adult": false,
      "known_for_department": "Acting"
    },
    {
      "id": 1306314,
      "name": "Megan Ferguson",
      "profile_path": "/sOMnQseEYw6uQTPjBpYsw93QDOO.jpg",
      "popularity": 7.175,
      "adult": false,
      "known_for_department": "Acting"
    },
    {
      "id": 1186027,
      "name": "Alicia Vela-Bailey",
      "profile_path": "/2isB8x0wahPz4sZ8QSX7Up4iDq9.jpg",
      "popularity": 7.175,
      "adult": false,
      "known_for_department": "Acting"
    },
    {
      "id": 1326874,
      "name": "Choi Soo-young",
      "profile_path": "/kUdGf6i3Qcto9px3lAlxTMBeBs9.jpg",
      "popularity": 7.174,
      "adult": false,
      "known_for_department": "Acting"
    },
    {
      "id": 207606,
      "name": "Alessandra Ambrosio",
      "profile_path": "/9yzpehMa3oRs0ETkUHrtLV6HjT4.jpg",
      "popularity": 7.174,
      "adult": false,
      "known_for_department": "Acting"
    },
    {
      "id": 128560,
      "name": "Travis Hammer",
      "profile_path": "/oiYzy7turdp3GICqprkIBOwaNg.jpg",
      "popularity": 7.174,
      "adult": false,
      "known_for_department": "Acting"
    },
    {
      "id": 77299,
      "name": "Julius Carry",
      "profile_path": "/x9rg0WCIzb1HnesZOcn6fnIRi04.jpg",
      "popularity": 7.174,
      "adult": false,
      "known_for_department": "Acting"
    },
    {
      "id": 1444597,
      "name": "Henrik Holm",
      "profile_path": "/8YLsiugksip21pAvvxJzCtqdury.jpg",
      "popularity": 7.173,
      "adult": false,
      "known_for_department": "Acting"
    },
    {
      "id": 47733,
      "name": "Zoë Tapper",
      "profile_path": "/qLJ4jYVTV0MMMiu3XRlmQrh5AxQ.jpg",
      "popularity": 7.173,
      "adult": false,
      "known_for_department": "Acting"
    },
    {
      "id": 127720,
      "name": "Jung Yu-mi",
      "profile_path": "/pU8iBcZHhuc4kQe6HHZVcommefG.jpg",
      "popularity": 7.172,
      "adult": false,
      "known_for_department": "Acting"
    },
    {
      "id": 18706,
      "name": "Meredith Salenger",
      "profile_path": "/8lOt7vQQkrZWmjg0STb4D7umIta.jpg",
      "popularity": 7.172,
      "adult": false,
      "known_for_department": "Acting"
    },
    {
      "id": 1693247,
      "name": "Maria Bopp",
      "profile_path": "/nAa5K36P8FG3Mb48INmVOjVodCd.jpg",
      "popularity": 7.171,
      "adult": false,
      "known_for_department": "Acting"
    },
    {
      "id": 1154054,
      "name": "Corey Hawkins",
      "profile_path": "/habqxQgt2ouTrrrjpbTfL6YVH7C.jpg",
      "popularity": 7.171,
      "adult": false,
      "known_for_department": "Acting"
    },
    {
      "id": 64908,
      "name": "LisaGay Hamilton",
      "profile_path": "/dO5gRWDHNYeIT1EhIe2TitQUwYT.jpg",
      "popularity": 7.171,
      "adult": false,
      "known_for_department": "Acting"
    },
    {
      "id": 14575,
      "name": "Barbara Nichols",
      "profile_path": "/1sgk7EqBUInEGT1uBLbhNE92njs.jpg",
      "popularity": 7.171,
      "adult": false,
      "known_for_department": "Acting"
    },
    {
      "id": 6951,
      "name": "W. Earl Brown",
      "profile_path": "/oBHcJc65nUmopx6lVc9ZvYYARZz.jpg",
      "popularity": 7.171,
      "adult": false,
      "known_for_department": "Acting"
    }
  ]
}