{
  "page": 278,
  "total_results": 10000,
  "total_pages": 500,
  "results": [
    {
      "id": 94482,
      "name": "Natasha Calis",
      "profile_path": "/6pnuZuVyTWq0GFHSpdvDGL1urhs.jpg",
      "popularity": 10.788,
      "adult": false,
      "known_for_department": "Acting"
    },
    {
      "id": 61983,
      "name": "Jason Marsden",
      "profile_path": "/53aVh2ka0b4ZyR8dO8hBTQxQ9hc.jpg",
      "popularity": 10.788,
      "adult": false,
      "known_for_department": "Acting"
    },
    {
      "id": 30488,
      "name": "Miguel Sandoval",
      "profile_path": "/v5tHxTkgOqcdWgjoEhUj0a50NIK.jpg",
      "popularity": 10.786,
      "adult": false,
      "known_for_department": "Acting"
    },
    {
      "id": 175615,
      "name": "Mauricio Ochmann",
      "profile_path": "/joRSO6Dw2RcnjVirFjg2s7mJvjq.jpg",
      "popularity": 10.785,
      "adult": false,
      "known_for_department": "Acting"
    },
    {
      "id": 25167,
      "name": "Arthur Conan Doyle",
      "profile_path": "/c5A6KV9sxIT40aveuz9T40vPvHw.jpg",
      "popularity": 10.785,
      "adult": false,
      "known_for_department": "Writing"
    },
    {
      "id": 63474,
      "name": "Charles Shaughnessy",
      "profile_path": "/dTgLchpZE68noJYkgKa43QijGnL.jpg",
      "popularity": 10.784,
      "adult": false,
      "known_for_department": "Acting"
    },
    {
      "id": 1677547,
      "name": "Marta Timofeeva",
      "profile_path": "/s8m1TnbNh6qjB0Vo6ILmUeXltnB.jpg",
      "popularity": 10.783,
      "adult": false,
      "known_for_department": "Acting"
    },
    {
      "id": 59296,
      "name": "Daniella Alonso",
      "profile_path": "/8uiJDYHs3ZwzdpJiirRdcBmltBU.jpg",
      "popularity": 10.783,
      "adult": false,
      "known_for_department": "Acting"
    },
    {
      "id": 1796473,
      "name": "Pirapat Watthanasetsiri",
      "profile_path": "/c8BdFQhaV6O7JUfrD3l5W3VA7CW.jpg",
      "popularity": 10.778,
      "adult": false,
      "known_for_department": "Acting"
    },
    {
      "id": 35236,
      "name": "Hunter Parrish",
      "profile_path": "/6wLY0152iu5EHZLEjuLfBQ6ArBg.jpg",
      "popularity": 10.778,
      "adult": false,
      "known_for_department": "Acting"
    },
    {
      "id": 33713,
      "name": "Jordan Lund",
      "profile_path": "/hrq0Mlj9Z42m9SpiOk5jXJNIrF6.jpg",
      "popularity": 10.776,
      "adult": false,
      "known_for_department": "Acting"
    },
    {
      "id": 27397,
      "name": "Anton Lesser",
      "profile_path": "/rKDn8ZHuIxl4Z3LLbUxvHdCOk0U.jpg",
      "popularity": 10.776,
      "adult": false,
      "known_for_department": "Acting"
    },
    {
      "id": 1139,
      "name": "Florence Pernel",
      "profile_path": "/fqrv9hguDX9xtjlQnZuABOVSoka.jpg",
      "popularity": 10.774,
      "adult": false,
      "known_for_department": "Acting"
    },
    {
      "id": 1924,
      "name": "Jeroen Krabbé",
      "profile_path": "/r26lZKUeLIaUt8DMotm4mdc4EaY.jpg",
      "popularity": 10.771,
      "adult": false,
      "known_for_department": "Acting"
    },
    {
      "id": 131273,
      "name": "Melissa Sue Anderson",
      "profile_path": "/vy4xBjjnAO4rGK9gxzY7gHW08LY.jpg",
      "popularity": 10.77,
      "adult": false,
      "known_for_department": "Acting"
    },
    {
      "id": 111678,
      "name": "Thomas Middleditch",
      "profile_path": "/2c15BQ6DWSiDSBTRjvdsp8X4AAe.jpg",
      "popularity": 10.77,
      "adult": false,
      "known_for_department": "Acting"
    },
    {
      "id": 51936,
      "name": "Lindy Booth",
      "profile_path": "/5vT2mIIGTM7XQx4utAyRjW1aRPW.jpg",
      "popularity": 10.77,
      "adult": false,
      "known_for_department": "Acting"
    },
    {
      "id": 14723,
      "name": "Vicki Lewis",
      "profile_path": "/x0LqiqXF53vLYX4O4Chpd1EWw8u.jpg",
      "popularity": 10.77,
      "adult": false,
      "known_for_department": "Acting"
    },
    {
      "id": 1048617,
      "name": "Eva Bourne",
      "profile_path": "/6ffc2hb06weHm8hL001OJwrHMdF.jpg",
      "popularity": 10.767,
      "adult": false,
      "known_for_department": "Acting"
    },
    {
      "id": 204392,
      "name": "Cristin Milioti",
      "profile_path": "/jRkZ1k2kZGnKhCJ3iqA9Pf8p17c.jpg",
      "popularity": 10.766,
      "adult": false,
      "known_for_department": "Acting"
    }
  ]
}