{
  "page": 401,
  "total_results": 10000,
  "total_pages": 500,
  "results": [
    {
      "id": 1294982,
      "name": "Paul Walter Hauser",
      "profile_path": "/x2RVFwCGTdkwAGeVG5GQJmjxGh5.jpg",
      "popularity": 8.975,
      "adult": false,
      "known_for_department": "Acting"
    },
    {
      "id": 2043430,
      "name": "Jenna Davis",
      "profile_path": "/yxcMtwv61e7jikKDbDrSs6g0nvA.jpg",
      "popularity": 8.974,
      "adult": false,
      "known_for_department": "Acting"
    },
    {
      "id": 1257753,
      "name": "Paloma Kwiatkowski",
      "profile_path": "/nvMkEC7kISakRzb71gVYqOiZ408.jpg",
      "popularity": 8.974,
      "adult": false,
      "known_for_department": "Acting"
    },
    {
      "id": 108215,
      "name": "Allu Arjun",
      "profile_path": "/gAoo56sKx2u4jp3rtDiNeflBJAR.jpg",
      "popularity": 8.974,
      "adult": false,
      "known_for_department": "Acting"
    },
    {
      "id": 7351,
      "name": "Ana Claudia Talancón",
      "profile_path": "/es8No01z8G0MFX2KeiAa2ouRfCD.jpg",
      "popularity": 8.974,
      "adult": false,
      "known_for_department": "Acting"
    },
    {
      "id": 116436,
      "name": "Soleil Moon Frye",
      "profile_path": "/j3PW3GlJYyPj77mK9VAXZXlFCVv.jpg",
      "popularity": 8.973,
      "adult": false,
      "known_for_department": "Acting"
    },
    {
      "id": 83123,
      "name": "Kim Jung-eun",
      "profile_path": "/nwIBuWmUOgY4Y2Z9IcUeX1JdeVL.jpg",
      "popularity": 8.973,
      "adult": false,
      "known_for_department": "Acting"
    },
    {
      "id": 1102427,
      "name": "Steven Cree",
      "profile_path": "/oH9uSQMJPdFHeVggqvMwheW7nZl.jpg",
      "popularity": 8.97,
      "adult": false,
      "known_for_department": "Acting"
    },
    {
      "id": 32791,
      "name": "Brian Keith",
      "profile_path": "/6T6BWdpIxEAVrhTrmvt3xRDuwYd.jpg",
      "popularity": 8.97,
      "adult": false,
      "known_for_department": "Acting"
    },
    {
      "id": 19855,
      "name": "Suzuka Ohgo",
      "profile_path": "/9lnTlEwU7qeTUl9gSFADyKFZjbN.jpg",
      "popularity": 8.97,
      "adult": false,
      "known_for_department": "Acting"
    },
    {
      "id": 3801,
      "name": "Tracey Walter",
      "profile_path": "/9aALfdCcP0PDYcBmqB6auHF0Eud.jpg",
      "popularity": 8.97,
      "adult": false,
      "known_for_department": "Acting"
    },
    {
      "id": 2410230,
      "name": "Shaina West",
      "profile_path": "/A2XMk7PktS7s8AeGfv30dEFCdlL.jpg",
      "popularity": 8.968,
      "adult": false,
      "known_for_department": "Acting"
    },
    {
      "id": 1011019,
      "name": "Jared Abrahamson",
      "profile_path": "/3hShByAdCj1Qom9mXeeqJL9zu8d.jpg",
      "popularity": 8.968,
      "adult": false,
      "known_for_department": "Acting"
    },
    {
      "id": 6178,
      "name": "Roy Thinnes",
      "profile_path": "/581qcQkgDkbifnYLIsVoxGCNdU9.jpg",
      "popularity": 8.968,
      "adult": false,
      "known_for_department": "Acting"
    },
    {
      "id": 65198,
      "name": "Kane Kosugi",
      "profile_path": "/zjU1zHGGlAK3yzL3cjc8lBUqrrr.jpg",
      "popularity": 8.967,
      "adult": false,
      "known_for_department": "Acting"
    },
    {
      "id": 1164487,
      "name": "Princess Anne",
      "profile_path": "/nQ051YvpE7IzmmGSITbxYkcqag.jpg",
      "popularity": 8.964,
      "adult": false,
      "known_for_department": "Acting"
    },
    {
      "id": 26996,
      "name": "Patricia Heaton",
      "profile_path": "/1iQoh3R98mC16WzMMZCru9ZcssK.jpg",
      "popularity": 8.964,
      "adult": false,
      "known_for_department": "Acting"
    },
    {
      "id": 1704579,
      "name": "Shuya Sophia Cai",
      "profile_path": "/ihdMC7BORUxqJWEsiRkJI7KddHA.jpg",
      "popularity": 8.963,
      "adult": false,
      "known_for_department": "Acting"
    },
    {
      "id": 61364,
      "name": "Ashley Walters",
      "profile_path": "/nVHxwibsSNIQsc1GkafMbceF1Uq.jpg",
      "popularity": 8.963,
      "adult": false,
      "known_for_department": "Acting"
    },
    {
      "id": 134082,
      "name": "Amy Pietz",
      "profile_path": "/yt9SEBl3gd29YZoDl2qCGOs0mhN.jpg",
      "popularity": 8.962,
      "adult": false,
      "known_for_department": "Acting"
    }
  ]
}