{
  "page": 414,
  "total_results": 10000,
  "total_pages": 500,
  "results": [
    {
      "id": 19361,
      "name": "Thibault de Montalembert",
      "profile_path": "/3faDVXNbgVD16GZ247IaZIcNXdl.jpg",
      "popularity": 8.447,
      "adult": false,
      "known_for_department": "Acting"
    },
    {
      "id": 1880562,
      "name": "Oddgeir Thune",
      "profile_path": "/j67kxbvZ8L31C65XSFEqyxXBKaJ.jpg",
      "popularity": 8.446,
      "adult": false,
      "known_for_department": "Acting"
    },
    {
      "id": 17497,
      "name": "Romain Duris",
      "profile_path": "/2pFMVxyKbVkULNWqXbqFb3TV7zK.jpg",
      "popularity": 8.446,
      "adult": false,
      "known_for_department": "Acting"
    },
    {
      "id": 83434,
      "name": "Gary Crosby",
      "profile_path": "/cM08MZdFGhK3K9zEmN2w3RnWBdb.jpg",
      "popularity": 8.445,
      "adult": false,
      "known_for_department": "Acting"
    },
    {
      "id": 2221605,
      "name": "Sonia Priss",
      "profile_path": "/r8n8tpOtuVpn1oQwOv8n4VtR8Lg.jpg",
      "popularity": 8.443,
      "adult": false,
      "known_for_department": "Acting"
    },
    {
      "id": 1185787,
      "name": "Liu Yan",
      "profile_path": "/iTimJWpWDGmnnPs13v7Fgy2mIpL.jpg",
      "popularity": 8.443,
      "adult": false,
      "known_for_department": "Acting"
    },
    {
      "id": 142290,
      "name": "Mark Killeen",
      "profile_path": "/dcsHqbZXmCsQE8Vcw3jufx8C8FX.jpg",
      "popularity": 8.443,
      "adult": false,
      "known_for_department": "Acting"
    },
    {
      "id": 96862,
      "name": "Hu Jun",
      "profile_path": "/f7g3zcMI6RAuWTaWMF9hxdoBtQg.jpg",
      "popularity": 8.443,
      "adult": false,
      "known_for_department": "Acting"
    },
    {
      "id": 1324296,
      "name": "Yasemin Kay Allen",
      "profile_path": "/gYigFf5WDnMBG3SCDVuyQpNyQCK.jpg",
      "popularity": 8.442,
      "adult": false,
      "known_for_department": "Acting"
    },
    {
      "id": 137904,
      "name": "Anni-Frid Lyngstad",
      "profile_path": "/2bM3C2AiaIi7varkKweLXgYW4vj.jpg",
      "popularity": 8.442,
      "adult": false,
      "known_for_department": "Acting"
    },
    {
      "id": 9871,
      "name": "Ursula Andress",
      "profile_path": "/sRBkBuq2Ev6IwlUHvypTGHiyLA0.jpg",
      "popularity": 8.442,
      "adult": false,
      "known_for_department": "Acting"
    },
    {
      "id": 76999,
      "name": "Jess Weixler",
      "profile_path": "/2X0PjIXMLPjm7opUGEq8X5lvqjV.jpg",
      "popularity": 8.44,
      "adult": false,
      "known_for_department": "Acting"
    },
    {
      "id": 138770,
      "name": "Cassidy Freeman",
      "profile_path": "/6QooKF97oaUoIrW2lbx36aYYGZH.jpg",
      "popularity": 8.439,
      "adult": false,
      "known_for_department": "Acting"
    },
    {
      "id": 13688,
      "name": "Karin Viard",
      "profile_path": "/quIomRrFBxXq32K5MBuvaTR3xBk.jpg",
      "popularity": 8.439,
      "adult": false,
      "known_for_department": "Acting"
    },
    {
      "id": 76944,
      "name": "Maxine Peake",
      "profile_path": "/6H2yLBIQDWgDmBkS5exDHGlZgqt.jpg",
      "popularity": 8.438,
      "adult": false,
      "known_for_department": "Acting"
    },
    {
      "id": 33487,
      "name": "Patricia Wettig",
      "profile_path": "/e90WEPSvdrCqBJrpH4LAsR1UBp4.jpg",
      "popularity": 8.438,
      "adult": false,
      "known_for_department": "Acting"
    },
    {
      "id": 5616,
      "name": "Everett McGill",
      "profile_path": "/4LMEfVrkkifznxMtrQjDINJazts.jpg",
      "popularity": 8.438,
      "adult": false,
      "known_for_department": "Acting"
    },
    {
      "id": 1520451,
      "name": "Josie Totah",
      "profile_path": "/125iM9BTPVDfRjKGVSqmvgeGsai.jpg",
      "popularity": 8.435,
      "adult": false,
      "known_for_department": "Acting"
    },
    {
      "id": 146098,
      "name": "Zhang Yi",
      "profile_path": "/wh2ljaHbXvjSdp8WnJn5O3bLLwq.jpg",
      "popularity": 8.435,
      "adult": false,
      "known_for_department": "Acting"
    },
    {
      "id": 15098,
      "name": "June Foray",
      "profile_path": "/6s5sWcOPGtVdbMFtZwkWadArj2I.jpg",
      "popularity": 8.434,
      "adult": false,
      "known_for_department": "Acting"
    }
  ]
}