{
  "page": 232,
  "total_results": 10000,
  "total_pages": 500,
  "results": [
    {
      "id": 1266271,
      "name": "Yuki Mamiya",
      "profile_path": "/np0YnsqTM7Olkcgw0Br7Cre7ypu.jpg",
      "popularity": 9.521,
      "adult": false,
      "known_for_department": "Acting"
    },
    {
      "id": 212833,
      "name": "Nicky Whelan",
      "profile_path": "/5uleEujk5NgfsSSGOacvQLJmlV9.jpg",
      "popularity": 9.518,
      "adult": false,
      "known_for_department": "Acting"
    },
    {
      "id": 239574,
      "name": "Eugenio Derbez",
      "profile_path": "/6o1w3mYF947N6TTakQXcs3NNy4w.jpg",
      "popularity": 9.517,
      "adult": false,
      "known_for_department": "Acting"
    },
    {
      "id": 1881105,
      "name": "Lily Newmark",
      "profile_path": "/eptZSYgdDbYjdIfsLwSyEizmSmx.jpg",
      "popularity": 9.514,
      "adult": false,
      "known_for_department": "Acting"
    },
    {
      "id": 115290,
      "name": "Lee Sun-kyun",
      "profile_path": "/p8ryrexuoVqHA9qyC3HDXnlasvD.jpg",
      "popularity": 9.514,
      "adult": false,
      "known_for_department": "Acting"
    },
    {
      "id": 68750,
      "name": "Robert Townsend",
      "profile_path": "/mp5rFo3iJrOGWJa2GnaqZ8WzPvS.jpg",
      "popularity": 9.514,
      "adult": false,
      "known_for_department": "Acting"
    },
    {
      "id": 10822,
      "name": "Stephen Dorff",
      "profile_path": "/kuFyGa2HZB7hAQTUn3WKlgKAVjm.jpg",
      "popularity": 9.514,
      "adult": false,
      "known_for_department": "Acting"
    },
    {
      "id": 1459772,
      "name": "Nam Joo-hyuk",
      "profile_path": "/zQdkQio6SyNpKoudDLc17BRQDGD.jpg",
      "popularity": 9.51,
      "adult": false,
      "known_for_department": "Acting"
    },
    {
      "id": 1922807,
      "name": "Hu Yitian",
      "profile_path": "/3TdSv9FWbImvJO65I2z8GEcU791.jpg",
      "popularity": 9.509,
      "adult": false,
      "known_for_department": "Acting"
    },
    {
      "id": 22384,
      "name": "John Amos",
      "profile_path": "/b2zYGkMG28wYDHC9CunfYAeoeMQ.jpg",
      "popularity": 9.509,
      "adult": false,
      "known_for_department": "Acting"
    },
    {
      "id": 1535,
      "name": "Brian Doyle-Murray",
      "profile_path": "/1sDChfTscA1mone1uSJVPtbFn4l.jpg",
      "popularity": 9.509,
      "adult": false,
      "known_for_department": "Acting"
    },
    {
      "id": 1795984,
      "name": "Sadie Munroe",
      "profile_path": "/ahzTxQpDuUaGmdABA8miiS8eBzb.jpg",
      "popularity": 9.507,
      "adult": false,
      "known_for_department": "Acting"
    },
    {
      "id": 1284,
      "name": "Noah Taylor",
      "profile_path": "/a9VuohmpqbvcYflOpi0F3ck8L2j.jpg",
      "popularity": 9.506,
      "adult": false,
      "known_for_department": "Acting"
    },
    {
      "id": 1248340,
      "name": "Haruka Tomatsu",
      "profile_path": "/geVvuA2zMGE5xzfc20aDelJSelu.jpg",
      "popularity": 9.504,
      "adult": false,
      "known_for_department": "Acting"
    },
    {
      "id": 72857,
      "name": "Anna Madeley",
      "profile_path": "/AeJzif36VlCz1QqpMhKWnlCugXf.jpg",
      "popularity": 9.504,
      "adult": false,
      "known_for_department": "Acting"
    },
    {
      "id": 1436114,
      "name": "Hülya Darcan",
      "profile_path": "/nTVBBicwUHgUBXprWbDlNcXU14G.jpg",
      "popularity": 9.502,
      "adult": false,
      "known_for_department": "Acting"
    },
    {
      "id": 1251169,
      "name": "Saygın Soysal",
      "profile_path": "/lSHCmGaZq0zMxZZ8HKke7qDBiwc.jpg",
      "popularity": 9.502,
      "adult": false,
      "known_for_department": "Acting"
    },
    {
      "id": 43903,
      "name": "Carly Pope",
      "profile_path": "/mydviAWOyI2uZNs4rpeoVyPHiKU.jpg",
      "popularity": 9.502,
      "adult": false,
      "known_for_department": "Acting"
    },
    {
      "id": 16217,
      "name": "Lynn Whitfield",
      "profile_path": "/wXSwJplyOgANJKTRvOAsvqURbP0.jpg",
      "popularity": 9.502,
      "adult": false,
      "known_for_department": "Acting"
    },
    {
      "id": 74427,
      "name": "John Hensley",
      "profile_path": "/9iKjAq8aTnHxW4LBPAUnRtwBurY.jpg",
      "popularity": 9.501,
      "adult": false,
      "known_for_department": "Acting"
    }
  ]
}