{
  "page": 371,
  "total_results": 10000,
  "total_pages": 500,
  "results": [
    {
      "id": 1142724,
      "name": "Stephanie Corneliussen",
      "profile_path": "/1GHECMoMmSkKiYkzRp0VsYxh6kJ.jpg",
      "popularity": 9.318,
      "adult": false,
      "known_for_department": "Acting"
    },
    {
      "id": 21354,
      "name": "Russell Wong",
      "profile_path": "/5S4ITB3tELBnfi0PFr9CWo9rmuZ.jpg",
      "popularity": 9.197,
      "adult": false,
      "known_for_department": "Acting"
    },
    {
      "id": 2124,
      "name": "Iman",
      "profile_path": "/xhJ7gUVUP1TzkC4RuNStV1Bzng1.jpg",
      "popularity": 7.197,
      "adult": false,
      "known_for_department": "Acting"
    },
    {
      "id": 52997,
      "name": "Rob Corddry",
      "profile_path": "/AjCLr5ZjP6iiP8D6SHQVCZ720nA.jpg",
      "popularity": 9.316,
      "adult": false,
      "known_for_department": "Acting"
    },
    {
      "id": 44865,
      "name": "Tom Baker",
      "profile_path": "/ql8lv7SdpjRLQ3gahIAmEqTyu6g.jpg",
      "popularity": 4.796,
      "adult": false,
      "known_for_department": "Acting"
    },
    {
      "id": 8634,
      "name": "Jack Webb",
      "profile_path": "/rUeuDfNK9yhsXklXwONbt2X4w2M.jpg",
      "popularity": 3.992,
      "adult": false,
      "known_for_department": "Acting"
    },
    {
      "id": 1286,
      "name": "Julia Winter",
      "profile_path": "/3HKwgDkcPIVipD7PV1WaJtrUxzu.jpg",
      "popularity": 4.796,
      "adult": false,
      "known_for_department": "Acting"
    },
    {
      "id": 1781079,
      "name": "Towa Araki",
      "profile_path": "/m852DtyivE1jY8luUI4bYMRpFWy.jpg",
      "popularity": 6.653,
      "adult": false,
      "known_for_department": "Acting"
    },
    {
      "id": 1161369,
      "name": "Amy Wren",
      "profile_path": "/mTHXHg4F5NPEA5bLzOBE5cm5v3Q.jpg",
      "popularity": 7.196,
      "adult": false,
      "known_for_department": "Acting"
    },
    {
      "id": 141450,
      "name": "Mel Smith",
      "profile_path": "/vynnJ4jWZvGRClXTN4kFQqTEIdn.jpg",
      "popularity": 5.996,
      "adult": false,
      "known_for_department": "Acting"
    },
    {
      "id": 43135,
      "name": "Fiona Glascott",
      "profile_path": "/ycQDw5inFim750oXlmzix0RVoYt.jpg",
      "popularity": 3.996,
      "adult": false,
      "known_for_department": "Acting"
    },
    {
      "id": 11669,
      "name": "Jimmy Fallon",
      "profile_path": "/h9kYouEP6VrM8GkS2jl7jMDKbwu.jpg",
      "popularity": 5.596,
      "adult": false,
      "known_for_department": "Acting"
    },
    {
      "id": 1299287,
      "name": "Jin Goo",
      "profile_path": "/jL0bhHE8vIEomP1Zdz3a0ryXXgk.jpg",
      "popularity": 6.651,
      "adult": false,
      "known_for_department": "Acting"
    },
    {
      "id": 1181310,
      "name": "Andrew Santino",
      "profile_path": "/oMIPMiKGFfWURfgFpBjqoU6T8xA.jpg",
      "popularity": 6.795,
      "adult": false,
      "known_for_department": "Acting"
    },
    {
      "id": 69033,
      "name": "Vivian Wu",
      "profile_path": "/6XLjcLxICMms0YLS4tpUNg8GhHR.jpg",
      "popularity": 3.995,
      "adult": false,
      "known_for_department": "Acting"
    },
    {
      "id": 66762,
      "name": "Charlie Yeung",
      "profile_path": "/cWXC4u3dq4Ck8iIVdTT7mRsUFM8.jpg",
      "popularity": 8.795,
      "adult": false,
      "known_for_department": "Acting"
    },
    {
      "id": 53647,
      "name": "Lainie Kazan",
      "profile_path": "/y3ZsHv8X84FYpGxM8x8nOlJk4qZ.jpg",
      "popularity": 7.195,
      "adult": false,
      "known_for_department": "Acting"
    },
    {
      "id": 33241,
      "name": "Michael Gaston",
      "profile_path": "/lXhqiW4J1n9bnbfwz0Kdf2sjGLU.jpg",
      "popularity": 9.311,
      "adult": false,
      "known_for_department": "Acting"
    },
    {
      "id": 2749,
      "name": "James Dean",
      "profile_path": "/5oaDvEoQssXlDt1KSQVl0M4rgBn.jpg",
      "popularity": 9.309,
      "adult": false,
      "known_for_department": "Acting"
    },
    {
      "id": 2324407,
      "name": "Zhang Xiyuan",
      "profile_path": "/f8mPDDFEqhIe72bXqeTss2MOH8e.jpg",
      "popularity": 6.648,
      "adult": false,
      "known_for_department": "Acting"
    }
  ]
}