{
  "page": 453,
  "total_results": 10000,
  "total_pages": 500,
  "results": [
    {
      "id": 199529,
      "name": "Jordan Long",
      "profile_path": "/ew39mDa4vhhylYnRg5nC8USOwTf.jpg",
      "popularity": 7.972,
      "adult": false,
      "known_for_department": "Acting"
    },
    {
      "id": 48328,
      "name": "May Warden",
      "profile_path": "/bq25SH9r5ghwALevsv5KjC4sYdu.jpg",
      "popularity": 7.972,
      "adult": false,
      "known_for_department": "Acting"
    },
    {
      "id": 30367,
      "name": "Alisan Porter",
      "profile_path": "/4T0hDFlwViLCQ2JCIEBnab9kwht.jpg",
      "popularity": 7.972,
      "adult": false,
      "known_for_department": "Acting"
    },
    {
      "id": 13243,
      "name": "Glenn Shadix",
      "profile_path": "/zTu0Fh0ohLIvFnEXiRvhe91T3Wg.jpg",
      "popularity": 7.972,
      "adult": false,
      "known_for_department": "Acting"
    },
    {
      "id": 1230692,
      "name": "Andee Frizzell",
      "profile_path": "/dF8roZOxElK0T49lgkranhtcRB2.jpg",
      "popularity": 7.971,
      "adult": false,
      "known_for_department": "Acting"
    },
    {
      "id": 47058,
      "name": "Lisa Thornhill",
      "profile_path": "/hmHXGVMxkoceiVdIaRtwCxaMXxn.jpg",
      "popularity": 7.971,
      "adult": false,
      "known_for_department": "Acting"
    },
    {
      "id": 4202,
      "name": "Miranda Garrison",
      "profile_path": "",
      "popularity": 7.971,
      "adult": false,
      "known_for_department": "Acting"
    },
    {
      "id": 94854,
      "name": "Tom Nowicki",
      "profile_path": "/b823hpQ5FzQeom8Sj6DJ81ezVWQ.jpg",
      "popularity": 7.97,
      "adult": false,
      "known_for_department": "Acting"
    },
    {
      "id": 237020,
      "name": "Alexandra Roach",
      "profile_path": "/3XUgMLTeJ25qMSBYl7fJbGbD7Jj.jpg",
      "popularity": 7.969,
      "adult": false,
      "known_for_department": "Acting"
    },
    {
      "id": 42238,
      "name": "Taimie Hannum",
      "profile_path": "/1uHlcpbDCFZtp5Ld9tGAm4b3eXp.jpg",
      "popularity": 7.969,
      "adult": false,
      "known_for_department": "Acting"
    },
    {
      "id": 15812,
      "name": "Roger Allers",
      "profile_path": "/sdFyM5FNcJuMv7knrz6swaIHXIJ.jpg",
      "popularity": 7.969,
      "adult": false,
      "known_for_department": "Writing"
    },
    {
      "id": 10921,
      "name": "Charles Laughton",
      "profile_path": "/uRjU0xwv87A7ZEIX4GS38Xw0W2v.jpg",
      "popularity": 7.969,
      "adult": false,
      "known_for_department": "Acting"
    },
    {
      "id": 2177,
      "name": "Lloyd Bridges",
      "profile_path": "/3dUJhLyaOl32mOU9HBpgTniLNJc.jpg",
      "popularity": 7.969,
      "adult": false,
      "known_for_department": "Acting"
    },
    {
      "id": 1105808,
      "name": "Tori Matsuzaka",
      "profile_path": "/8JcMm3al3gySuay2EiW3CI19Apj.jpg",
      "popularity": 7.968,
      "adult": false,
      "known_for_department": "Acting"
    },
    {
      "id": 84422,
      "name": "Carolyn McCormick",
      "profile_path": "/203YNdKZVySGvxeEcRA8dABBUyO.jpg",
      "popularity": 7.966,
      "adult": false,
      "known_for_department": "Acting"
    },
    {
      "id": 66524,
      "name": "Noureen DeWulf",
      "profile_path": "/6q1Qee80j3GOib6EVKfYqBu6HS1.jpg",
      "popularity": 7.965,
      "adult": false,
      "known_for_department": "Acting"
    },
    {
      "id": 1379749,
      "name": "Cecep Arif Rahman",
      "profile_path": "/n5V0iZrpuim3jUd9BH0e9vIuq5g.jpg",
      "popularity": 7.964,
      "adult": false,
      "known_for_department": "Acting"
    },
    {
      "id": 2270672,
      "name": "Shim Dal-gi",
      "profile_path": "/oBMk5lIoGrCSwUM88bLcC7VWRSv.jpg",
      "popularity": 7.963,
      "adult": false,
      "known_for_department": "Acting"
    },
    {
      "id": 963429,
      "name": "Iris Apatow",
      "profile_path": "/12hYdiBlxXLh98oDjvyOrGAqoEN.jpg",
      "popularity": 7.963,
      "adult": false,
      "known_for_department": "Acting"
    },
    {
      "id": 77260,
      "name": "Paul Anka",
      "profile_path": "/8Qx0tMaYEPAWkUOwOnsnm4lZad5.jpg",
      "popularity": 7.963,
      "adult": false,
      "known_for_department": "Acting"
    }
  ]
}