{
  "page": 264,
  "total_results": 10000,
  "total_pages": 500,
  "results": [
    {
      "id": 52480,
      "name": "Eddie Kaye Thomas",
      "profile_path": "/glUDeCvXfoLXgE0JJ5CboDpFW4R.jpg",
      "popularity": 11.048,
      "adult": false,
      "known_for_department": "Acting"
    },
    {
      "id": 40381,
      "name": "Joyce Jameson",
      "profile_path": "/wSkhDflX3GiIMx8AQx0gKKwxE9m.jpg",
      "popularity": 11.048,
      "adult": false,
      "known_for_department": "Acting"
    },
    {
      "id": 87822,
      "name": "Damon Wayans Jr.",
      "profile_path": "/f6gNg71Js9XqCiXUtyFyXXbJ9ni.jpg",
      "popularity": 11.045,
      "adult": false,
      "known_for_department": "Acting"
    },
    {
      "id": 68842,
      "name": "John Cho",
      "profile_path": "/5rg7nhrZnv9fIqnB2V43mCqnKgL.jpg",
      "popularity": 11.044,
      "adult": false,
      "known_for_department": "Acting"
    },
    {
      "id": 1161660,
      "name": "Mitsu Dan",
      "profile_path": "/4f1cZIwhbBNmxA93eAlzoJyJfta.jpg",
      "popularity": 11.043,
      "adult": false,
      "known_for_department": "Acting"
    },
    {
      "id": 3796,
      "name": "Michael Gough",
      "profile_path": "/owcwnV6dymBd9YIQKDPzVA5EtZX.jpg",
      "popularity": 11.042,
      "adult": false,
      "known_for_department": "Acting"
    },
    {
      "id": 2005172,
      "name": "Wyatt Shears",
      "profile_path": "/w9QkpSjOFhoL7psmQI0mCvuLbpw.jpg",
      "popularity": 11.041,
      "adult": false,
      "known_for_department": "Acting"
    },
    {
      "id": 1834631,
      "name": "Edward Chen",
      "profile_path": "/e0E2I39lxGJCvvvWySHXz6TLwzT.jpg",
      "popularity": 11.039,
      "adult": false,
      "known_for_department": "Acting"
    },
    {
      "id": 829372,
      "name": "Michael Mando",
      "profile_path": "/qLCDUTgbtLdND4HW8aUsDY28gcm.jpg",
      "popularity": 11.037,
      "adult": false,
      "known_for_department": "Acting"
    },
    {
      "id": 1262750,
      "name": "Charlotte Vega",
      "profile_path": "/legWa5GpB82M3KunyFjXPopkSc7.jpg",
      "popularity": 11.036,
      "adult": false,
      "known_for_department": "Acting"
    },
    {
      "id": 64141,
      "name": "David Gordon Green",
      "profile_path": "/fJqIVaVwLeFBlZKQTDbzbcvV4XZ.jpg",
      "popularity": 11.036,
      "adult": false,
      "known_for_department": "Directing"
    },
    {
      "id": 20240,
      "name": "Zoë Wanamaker",
      "profile_path": "/keFC6KG1ewLW0ZaP7YkmLVECRrQ.jpg",
      "popularity": 11.036,
      "adult": false,
      "known_for_department": "Acting"
    },
    {
      "id": 233975,
      "name": "Ingrid Steeger",
      "profile_path": "/cdz3aiIK2gNGDopnAurx8rj5uK5.jpg",
      "popularity": 11.035,
      "adult": false,
      "known_for_department": "Acting"
    },
    {
      "id": 142113,
      "name": "Vanessa Morgan",
      "profile_path": "/jTCOwpHG8tUaMZW0nO8G2P586O3.jpg",
      "popularity": 11.035,
      "adult": false,
      "known_for_department": "Acting"
    },
    {
      "id": 1043662,
      "name": "Jordana Largy",
      "profile_path": "/a6NAez2SywVsklnNzbkquFEmcST.jpg",
      "popularity": 11.034,
      "adult": false,
      "known_for_department": "Acting"
    },
    {
      "id": 42195,
      "name": "Kristy McNichol",
      "profile_path": "/ueFE8vLWqg2Q39Zw4OzKjHwGPq7.jpg",
      "popularity": 11.034,
      "adult": false,
      "known_for_department": "Acting"
    },
    {
      "id": 3229,
      "name": "Arliss Howard",
      "profile_path": "/zDBEVA7Skrje3A8bmR2VOJRwkZc.jpg",
      "popularity": 11.034,
      "adult": false,
      "known_for_department": "Acting"
    },
    {
      "id": 55541,
      "name": "Eddie Cibrian",
      "profile_path": "/swcAPvqyUlcn1SfVwcEBzhlFqVP.jpg",
      "popularity": 11.032,
      "adult": false,
      "known_for_department": "Acting"
    },
    {
      "id": 84854,
      "name": "Jung Joon-ho",
      "profile_path": "/nWvJeFnFQYfh2M8LbRsb2AUUSda.jpg",
      "popularity": 11.031,
      "adult": false,
      "known_for_department": "Acting"
    },
    {
      "id": 235767,
      "name": "Colin O'Donoghue",
      "profile_path": "/jxdxsSd1cNY3bXqhVwe7BWNjsJ8.jpg",
      "popularity": 11.028,
      "adult": false,
      "known_for_department": "Acting"
    }
  ]
}