{
  "page": 162,
  "total_results": 10000,
  "total_pages": 500,
  "results": [
    {
      "id": 20738,
      "name": "Song Kang-ho",
      "profile_path": "/dyWUKQlNyr7SUAjo58VZXvPODkr.jpg",
      "popularity": 13.026,
      "adult": false,
      "known_for_department": "Acting"
    },
    {
      "id": 236695,
      "name": "John Boyega",
      "profile_path": "/Aso09k70hwBmO9pqMNUespCx0m2.jpg",
      "popularity": 13.02,
      "adult": false,
      "known_for_department": "Acting"
    },
    {
      "id": 41223,
      "name": "Linda Purl",
      "profile_path": "/sSUxjP2ylr4pbQRgLB6qSoXWhfa.jpg",
      "popularity": 13.02,
      "adult": false,
      "known_for_department": "Acting"
    },
    {
      "id": 1530921,
      "name": "Miku Ito",
      "profile_path": "/kP7JBvveQO9ucYpmOvUNcW5RLAp.jpg",
      "popularity": 13.014,
      "adult": false,
      "known_for_department": "Acting"
    },
    {
      "id": 98591,
      "name": "Belinda Gavin",
      "profile_path": "/mKaV0ClUBBl6oJtPPEGW5BK48ej.jpg",
      "popularity": 13.013,
      "adult": false,
      "known_for_department": "Acting"
    },
    {
      "id": 3266,
      "name": "Joe Mantegna",
      "profile_path": "/hFE8VNAykfZnvZjRhatVwjVXkZv.jpg",
      "popularity": 13.013,
      "adult": false,
      "known_for_department": "Acting"
    },
    {
      "id": 724,
      "name": "Cynthia Rhodes",
      "profile_path": "/sqLHvm1kKfIn17RZDgzNVrhNrvK.jpg",
      "popularity": 13.01,
      "adult": false,
      "known_for_department": "Acting"
    },
    {
      "id": 41240,
      "name": "Yvonne De Carlo",
      "profile_path": "/cldx7C9iQlVJIdrPWbGlu2HidVW.jpg",
      "popularity": 13.007,
      "adult": false,
      "known_for_department": "Acting"
    },
    {
      "id": 229932,
      "name": "Golshifteh Farahani",
      "profile_path": "/DuAPmZxZlX25m57pJy16WbIyKM.jpg",
      "popularity": 13.005,
      "adult": false,
      "known_for_department": "Acting"
    },
    {
      "id": 212604,
      "name": "Adam DeVine",
      "profile_path": "/8zU8zMs7cpjVzkBXis6I3wO3YeQ.jpg",
      "popularity": 13.004,
      "adult": false,
      "known_for_department": "Acting"
    },
    {
      "id": 66442,
      "name": "Tamsin Egerton",
      "profile_path": "/n7iso71As9F3H5LtESDjiqJ6e7s.jpg",
      "popularity": 13.003,
      "adult": false,
      "known_for_department": "Acting"
    },
    {
      "id": 1515478,
      "name": "Mena Massoud",
      "profile_path": "/3Ng1Cxcln1tAMcgBY8L6aXNgGdV.jpg",
      "popularity": 13.002,
      "adult": false,
      "known_for_department": "Acting"
    },
    {
      "id": 164094,
      "name": "Marin Ireland",
      "profile_path": "/jAIOQNraHjvIAdqk81QDV5Phupp.jpg",
      "popularity": 13,
      "adult": false,
      "known_for_department": "Acting"
    },
    {
      "id": 142192,
      "name": "Ryan O'Nan",
      "profile_path": "/xssj1D7mG2bJnkREk8o4JymDDB8.jpg",
      "popularity": 12.99,
      "adult": false,
      "known_for_department": "Acting"
    },
    {
      "id": 1787992,
      "name": "Go Min-si",
      "profile_path": "/tgBb9dDyewLlautcmJH9KSXZz1O.jpg",
      "popularity": 12.989,
      "adult": false,
      "known_for_department": "Acting"
    },
    {
      "id": 3410972,
      "name": "Janelle Tee",
      "profile_path": "/75owDFQePmBdG4NxdWh9HG6TSVe.jpg",
      "popularity": 12.984,
      "adult": false,
      "known_for_department": "Acting"
    },
    {
      "id": 1423269,
      "name": "Anikha Surendran",
      "profile_path": "/unw5AO67lKGndi365OnvGxx3IkD.jpg",
      "popularity": 12.981,
      "adult": false,
      "known_for_department": "Acting"
    },
    {
      "id": 1165384,
      "name": "Gaia Weiss",
      "profile_path": "/oGOA33Sj0i8WlVUGO6fE0jg0ZgV.jpg",
      "popularity": 12.979,
      "adult": false,
      "known_for_department": "Acting"
    },
    {
      "id": 2187124,
      "name": "Wan Peng",
      "profile_path": "/q6vKHvMGqDiUnKX1vZNnRYhezAJ.jpg",
      "popularity": 12.978,
      "adult": false,
      "known_for_department": "Acting"
    },
    {
      "id": 76512,
      "name": "Jason Clarke",
      "profile_path": "/jGMOmi7LxpSO6842gJOZKt1gs9N.jpg",
      "popularity": 12.976,
      "adult": false,
      "known_for_department": "Acting"
    }
  ]
}