{
  "page": 441,
  "total_results": 10000,
  "total_pages": 500,
  "results": [
    {
      "id": 1243837,
      "name": "Meryem Uzerli",
      "profile_path": "/4NWUwawfcGwtXtzrApnfOB9lxxl.jpg",
      "popularity": 7.774,
      "adult": false,
      "known_for_department": "Acting"
    },
    {
      "id": 123532,
      "name": "Rick Gomez",
      "profile_path": "/gmVYPHJgmRVIzhaVYMns4kgBVqm.jpg",
      "popularity": 7.773,
      "adult": false,
      "known_for_department": "Acting"
    },
    {
      "id": 95697,
      "name": "Dileep Rao",
      "profile_path": "/jRNn8SZqFXuI5wOOlHwYsWh0hXs.jpg",
      "popularity": 7.773,
      "adult": false,
      "known_for_department": "Acting"
    },
    {
      "id": 1253157,
      "name": "Filiz Ahmet",
      "profile_path": "/uaD96eFkJrYjCotiH4XoIbFyUAx.jpg",
      "popularity": 7.772,
      "adult": false,
      "known_for_department": "Acting"
    },
    {
      "id": 67028,
      "name": "Hugh Fraser",
      "profile_path": "/reQgxV9DPvYWwicHIYsppn40mPt.jpg",
      "popularity": 7.772,
      "adult": false,
      "known_for_department": "Acting"
    },
    {
      "id": 19119,
      "name": "Mélanie Laurent",
      "profile_path": "/i99ogEo4gQyanCmHWYYoS6hsUqL.jpg",
      "popularity": 7.772,
      "adult": false,
      "known_for_department": "Acting"
    },
    {
      "id": 4942,
      "name": "John Diehl",
      "profile_path": "/xM1Jj1dtdJsHuhdAVb2VTG2vhFl.jpg",
      "popularity": 7.772,
      "adult": false,
      "known_for_department": "Acting"
    },
    {
      "id": 2622627,
      "name": "Freddie Wise",
      "profile_path": "/eOkdT4f8qBMCHqcup3T5mObp7zC.jpg",
      "popularity": 7.771,
      "adult": false,
      "known_for_department": "Acting"
    },
    {
      "id": 129759,
      "name": "Reg Rogers",
      "profile_path": "/3VqnWd3d5BnnxxyAEnQ85mdOaG2.jpg",
      "popularity": 7.771,
      "adult": false,
      "known_for_department": "Acting"
    },
    {
      "id": 73454,
      "name": "Kristen Hager",
      "profile_path": "/u0f2qDsQeW51hmX9T9hMrMhOSdR.jpg",
      "popularity": 7.771,
      "adult": false,
      "known_for_department": "Acting"
    },
    {
      "id": 34849,
      "name": "Ted Demme",
      "profile_path": "/gAzwOACFPvmoSWM87ru8u4vLA9N.jpg",
      "popularity": 7.77,
      "adult": false,
      "known_for_department": "Directing"
    },
    {
      "id": 129984,
      "name": "Glynis Davies",
      "profile_path": "/mB0tt7lc3Wg2aR34Ful6ZQGkh1H.jpg",
      "popularity": 7.769,
      "adult": false,
      "known_for_department": "Acting"
    },
    {
      "id": 33011,
      "name": "Rick Zumwalt",
      "profile_path": "/1qqPlFcp1tZNf3EDeFRlqknPbr5.jpg",
      "popularity": 7.769,
      "adult": false,
      "known_for_department": "Acting"
    },
    {
      "id": 212913,
      "name": "Nathan Kress",
      "profile_path": "/3DAchXVcQvqxsrsRFcYrjZZXxnb.jpg",
      "popularity": 7.768,
      "adult": false,
      "known_for_department": "Acting"
    },
    {
      "id": 1581103,
      "name": "Stefania Spampinato",
      "profile_path": "/61pCRHj7vYtAQNg4Yd3dQkc9cgZ.jpg",
      "popularity": 7.767,
      "adult": false,
      "known_for_department": "Acting"
    },
    {
      "id": 2382043,
      "name": "Matilda Lawler",
      "profile_path": "/5zxaZn7l3ulurRy6SW6vRcS8meV.jpg",
      "popularity": 7.765,
      "adult": false,
      "known_for_department": "Acting"
    },
    {
      "id": 50446,
      "name": "Anja Kling",
      "profile_path": "/RGhJFP6AbtgmXCbykmRykIQXaw.jpg",
      "popularity": 7.765,
      "adult": false,
      "known_for_department": "Acting"
    },
    {
      "id": 1850227,
      "name": "Zheng Hehuizi",
      "profile_path": "/9jIqaBLoSoW3swsMcuqBSif1t5k.jpg",
      "popularity": 7.764,
      "adult": false,
      "known_for_department": "Acting"
    },
    {
      "id": 659,
      "name": "Wolf Kahler",
      "profile_path": "/gQ0YrheFHs9ANmADCvr7ioyM9yR.jpg",
      "popularity": 7.764,
      "adult": false,
      "known_for_department": "Acting"
    },
    {
      "id": 30233,
      "name": "Rosalind Russell",
      "profile_path": "/rM7cjXZv9ikJ3QOOqK2muzMhHsE.jpg",
      "popularity": 7.763,
      "adult": false,
      "known_for_department": "Acting"
    }
  ]
}