{
  "page": 446,
  "total_results": 10000,
  "total_pages": 500,
  "results": [
    {
      "id": 1277364,
      "name": "Jack Griffo",
      "profile_path": "/j7trzRGKcNqhnFwrw65thR1e3qU.jpg",
      "popularity": 7.6,
      "adult": false,
      "known_for_department": "Acting"
    },
    {
      "id": 556829,
      "name": "Chrissie Chau",
      "profile_path": "/6xqULglqa6oxanRzfg4tmAr7SkB.jpg",
      "popularity": 7.599,
      "adult": false,
      "known_for_department": "Acting"
    },
    {
      "id": 27995,
      "name": "Barbara Crampton",
      "profile_path": "/yXIEQiWM3hhgqmx2bJfRTp9341f.jpg",
      "popularity": 7.599,
      "adult": false,
      "known_for_department": "Acting"
    },
    {
      "id": 148641,
      "name": "Vincent Larusso",
      "profile_path": "/inRy5jxYXvfe0jSVXj2p8j8duwK.jpg",
      "popularity": 7.598,
      "adult": false,
      "known_for_department": "Acting"
    },
    {
      "id": 62760,
      "name": "Zena Grey",
      "profile_path": "/SBW956hHZzP401zqD2sum4RDpe.jpg",
      "popularity": 7.598,
      "adult": false,
      "known_for_department": "Acting"
    },
    {
      "id": 2161,
      "name": "Debra Hill",
      "profile_path": "/bpRZDGXm25CUqcejx2bAe1lf2QI.jpg",
      "popularity": 7.598,
      "adult": false,
      "known_for_department": "Production"
    },
    {
      "id": 2177190,
      "name": "Keith L. Williams",
      "profile_path": "/xf5Bi0OrbUNwI8FnjrllHZ4tYYY.jpg",
      "popularity": 7.597,
      "adult": false,
      "known_for_department": "Acting"
    },
    {
      "id": 40390,
      "name": "Michael Conrad",
      "profile_path": "/vDWbe7FoDPozw8hnx1Zoo4IgYFZ.jpg",
      "popularity": 7.597,
      "adult": false,
      "known_for_department": "Acting"
    },
    {
      "id": 150296,
      "name": "Mayumi Ogawa",
      "profile_path": "/nogqLjSrdILCA32HLtQ1NEAxcYI.jpg",
      "popularity": 7.596,
      "adult": false,
      "known_for_department": "Acting"
    },
    {
      "id": 117549,
      "name": "Adrienne Posta",
      "profile_path": "/2tg2zHZ9s0XVEhqs235L5DDKbf0.jpg",
      "popularity": 7.596,
      "adult": false,
      "known_for_department": "Acting"
    },
    {
      "id": 72024,
      "name": "Malcolm D. Lee",
      "profile_path": "/aae8K7qO5XYployiStHbAMMbahM.jpg",
      "popularity": 7.596,
      "adult": false,
      "known_for_department": "Directing"
    },
    {
      "id": 34018,
      "name": "Quim Gutiérrez",
      "profile_path": "/17Mo65PvdiG8dN2nIyH5rK0qMHz.jpg",
      "popularity": 7.596,
      "adult": false,
      "known_for_department": "Acting"
    },
    {
      "id": 82956,
      "name": "Darcy DeMoss",
      "profile_path": "/gZ7zwXvXyy4jn00y6Krp0gSzmk2.jpg",
      "popularity": 7.595,
      "adult": false,
      "known_for_department": "Acting"
    },
    {
      "id": 3206842,
      "name": "Matthew Duckett",
      "profile_path": "/wwKG6T8mJwqeiLDqXVndImq9pAz.jpg",
      "popularity": 7.594,
      "adult": false,
      "known_for_department": "Acting"
    },
    {
      "id": 551463,
      "name": "Mike Flanagan",
      "profile_path": "/85q5HSDoltjvg1ES0eToNlLjfPB.jpg",
      "popularity": 7.594,
      "adult": false,
      "known_for_department": "Directing"
    },
    {
      "id": 65101,
      "name": "Michael Learned",
      "profile_path": "/wQQY6IqdmPA6JyUpyAGKN7aVBCF.jpg",
      "popularity": 7.593,
      "adult": false,
      "known_for_department": "Acting"
    },
    {
      "id": 1806227,
      "name": "Jessie Pinnick",
      "profile_path": "/p1mRcGbQw3bqENkxBEKvh8ckAkD.jpg",
      "popularity": 7.592,
      "adult": false,
      "known_for_department": "Acting"
    },
    {
      "id": 1658375,
      "name": "Andrew Koji",
      "profile_path": "/oU53nWLQ6wFHzERwSi1fD53LxZB.jpg",
      "popularity": 7.592,
      "adult": false,
      "known_for_department": "Acting"
    },
    {
      "id": 210126,
      "name": "Michaela McManus",
      "profile_path": "/qMyZNTcrejnIQf7pQnpJp2yxVuD.jpg",
      "popularity": 7.592,
      "adult": false,
      "known_for_department": "Acting"
    },
    {
      "id": 87257,
      "name": "Cary Joji Fukunaga",
      "profile_path": "/qhrtYCUM2NEaqVP3oB7vqkOTpx0.jpg",
      "popularity": 7.592,
      "adult": false,
      "known_for_department": "Directing"
    }
  ]
}