{
  "page": 370,
  "total_results": 10000,
  "total_pages": 500,
  "results": [
    {
      "id": 175628,
      "name": "Marta DuBois",
      "profile_path": "/kUmj0ooPSyrEEVg7MMAYFkgrO6a.jpg",
      "popularity": 9.311,
      "adult": false,
      "known_for_department": "Acting"
    },
    {
      "id": 162606,
      "name": "Ryan Stiles",
      "profile_path": "/awUGig6kHCKlZ0oXunMxvGwNFEt.jpg",
      "popularity": 9.311,
      "adult": false,
      "known_for_department": "Acting"
    },
    {
      "id": 56367,
      "name": "Naomi Campbell",
      "profile_path": "/szSm9TgGVS8clzNQFGyWDfaq6OG.jpg",
      "popularity": 9.311,
      "adult": false,
      "known_for_department": "Acting"
    },
    {
      "id": 24661,
      "name": "Dyson Lovell",
      "profile_path": "",
      "popularity": 9.311,
      "adult": false,
      "known_for_department": "Production"
    },
    {
      "id": 7002,
      "name": "Luke Kirby",
      "profile_path": "/jyR24wKg77yJg2O2RTzyRdcNAYq.jpg",
      "popularity": 9.311,
      "adult": false,
      "known_for_department": "Acting"
    },
    {
      "id": 290,
      "name": "Christopher Plummer",
      "profile_path": "/iZh3s9Vy9vYD4DYnAda6C1kdeco.jpg",
      "popularity": 9.309,
      "adult": false,
      "known_for_department": "Acting"
    },
    {
      "id": 156675,
      "name": "Lauren Hodges",
      "profile_path": "/qhWtFM6E7tqLrBm0N6giZdkRTLy.jpg",
      "popularity": 9.308,
      "adult": false,
      "known_for_department": "Acting"
    },
    {
      "id": 1238956,
      "name": "Ana Patricia Rojo",
      "profile_path": "/ah7IYfohcfa3TZMurxktqoKUK5H.jpg",
      "popularity": 9.307,
      "adult": false,
      "known_for_department": "Acting"
    },
    {
      "id": 1981044,
      "name": "Sophie Thatcher",
      "profile_path": "/okXTnyp4de4qDvq4FQ468AKE0JS.jpg",
      "popularity": 9.306,
      "adult": false,
      "known_for_department": "Acting"
    },
    {
      "id": 1663674,
      "name": "Vera Cherny",
      "profile_path": "/xB9YuOCLm6IaAUpW73EApoAUiZA.jpg",
      "popularity": 9.302,
      "adult": false,
      "known_for_department": "Acting"
    },
    {
      "id": 35232,
      "name": "Pat Carroll",
      "profile_path": "/r7JwQ9wmolpgPUFz8iSmgPy0SbH.jpg",
      "popularity": 9.302,
      "adult": false,
      "known_for_department": "Acting"
    },
    {
      "id": 31114,
      "name": "Lilia Skala",
      "profile_path": "/veiuZGexvC0tnyp8KmU5fWeVE9f.jpg",
      "popularity": 9.302,
      "adult": false,
      "known_for_department": "Acting"
    },
    {
      "id": 117087,
      "name": "Larry Sullivan",
      "profile_path": "/oNYTlrHyNEF9Ls2BnwQ0cKSWpUJ.jpg",
      "popularity": 9.3,
      "adult": false,
      "known_for_department": "Acting"
    },
    {
      "id": 33816,
      "name": "Marina Malfatti",
      "profile_path": "/vW6U0N4H9vzPalcCbM6shtYTJAJ.jpg",
      "popularity": 9.3,
      "adult": false,
      "known_for_department": "Acting"
    },
    {
      "id": 1776137,
      "name": "Gianni Decenzo",
      "profile_path": "/aqbQh0hMt5vRbdhErs32bybr7Ah.jpg",
      "popularity": 9.299,
      "adult": false,
      "known_for_department": "Acting"
    },
    {
      "id": 65239,
      "name": "Susan Ward",
      "profile_path": "/twyHi3L6BcAzpPkjEoYVP4pYMCM.jpg",
      "popularity": 9.299,
      "adult": false,
      "known_for_department": "Acting"
    },
    {
      "id": 52291,
      "name": "Tegan Moss",
      "profile_path": "/cL5x8rK0L6cMMZbfgrqMKEMtCPj.jpg",
      "popularity": 9.299,
      "adult": false,
      "known_for_department": "Acting"
    },
    {
      "id": 240169,
      "name": "Lily Li Li-Li",
      "profile_path": "/85kJkwgqnzsY9n5bpBAKp3C3MRf.jpg",
      "popularity": 9.298,
      "adult": false,
      "known_for_department": "Acting"
    },
    {
      "id": 182287,
      "name": "John Barrowman",
      "profile_path": "/kDx4ynZwEUtBgomulnCEO9mLobU.jpg",
      "popularity": 9.298,
      "adult": false,
      "known_for_department": "Acting"
    },
    {
      "id": 50234,
      "name": "Donna Mills",
      "profile_path": "/9GbcmJlKxGM8OJFsg4FCVkEsxRd.jpg",
      "popularity": 9.298,
      "adult": false,
      "known_for_department": "Acting"
    }
  ]
}