{
  "page": 248,
  "total_results": 10000,
  "total_pages": 500,
  "results": [
    {
      "id": 16429,
      "name": "Jacob Vargas",
      "profile_path": "/7vhfV1Drin4yzpsIDPWomGosM1h.jpg",
      "popularity": 10.621,
      "adult": false,
      "known_for_department": "Acting"
    },
    {
      "id": 1524100,
      "name": "Tom Blyth",
      "profile_path": "/gdZWnmo05iDr3yu5WtuB5iR78C8.jpg",
      "popularity": 10.62,
      "adult": false,
      "known_for_department": "Acting"
    },
    {
      "id": 29092,
      "name": "Bryan Brown",
      "profile_path": "/x0NqVqpJSET0oVdJxbbwwd7hrFA.jpg",
      "popularity": 10.62,
      "adult": false,
      "known_for_department": "Acting"
    },
    {
      "id": 32915,
      "name": "Lara Wendel",
      "profile_path": "/qsyeG0DpjRuE342SuItNYXqvoRd.jpg",
      "popularity": 10.617,
      "adult": false,
      "known_for_department": "Acting"
    },
    {
      "id": 1615061,
      "name": "Tina Tamashiro",
      "profile_path": "/u2OfpoFq4ZFaWnuCuH0JSpTo6hr.jpg",
      "popularity": 10.616,
      "adult": false,
      "known_for_department": "Acting"
    },
    {
      "id": 87579,
      "name": "Natalie Krill",
      "profile_path": "/iXcAX1tDHeWwmD8BI4htTdV3Z2p.jpg",
      "popularity": 10.615,
      "adult": false,
      "known_for_department": "Acting"
    },
    {
      "id": 70254,
      "name": "Donald Gibb",
      "profile_path": "/3SGqGltQ6J0LUJ84DZTdWSMh8O8.jpg",
      "popularity": 10.615,
      "adult": false,
      "known_for_department": "Acting"
    },
    {
      "id": 119241,
      "name": "Junichi Okada",
      "profile_path": "/3yXXQB0vn5IW63quew3le0LTPdn.jpg",
      "popularity": 10.614,
      "adult": false,
      "known_for_department": "Acting"
    },
    {
      "id": 1470911,
      "name": "Jamie Demetriou",
      "profile_path": "/owXXYV1MNijRAVJV2Q47WEWT9Wv.jpg",
      "popularity": 10.613,
      "adult": false,
      "known_for_department": "Acting"
    },
    {
      "id": 119248,
      "name": "Daniel Sharman",
      "profile_path": "/8ESi3BUMWmFlxs1LmybHd4PF76j.jpg",
      "popularity": 10.612,
      "adult": false,
      "known_for_department": "Acting"
    },
    {
      "id": 234102,
      "name": "Maria Erwolter",
      "profile_path": "/4iHA0bA5jhjWTLnIeMGmsWLfHSS.jpg",
      "popularity": 10.61,
      "adult": false,
      "known_for_department": "Acting"
    },
    {
      "id": 1381257,
      "name": "Nazan Kesal",
      "profile_path": "/u5bL6Cpgjun4PSuniYv2q3wDF1.jpg",
      "popularity": 10.608,
      "adult": false,
      "known_for_department": "Acting"
    },
    {
      "id": 54918,
      "name": "Vincent Elbaz",
      "profile_path": "/uj2N223BJ1V78W8mNK20M3IGYus.jpg",
      "popularity": 10.606,
      "adult": false,
      "known_for_department": "Acting"
    },
    {
      "id": 1981,
      "name": "Alfre Woodard",
      "profile_path": "/70AVFDROBAeVhWDEMKWfXPpBVYq.jpg",
      "popularity": 10.606,
      "adult": false,
      "known_for_department": "Acting"
    },
    {
      "id": 1996906,
      "name": "Tamara Smart",
      "profile_path": "/gS86gVJrGrciTryb0QY1zWehPZQ.jpg",
      "popularity": 10.604,
      "adult": false,
      "known_for_department": "Acting"
    },
    {
      "id": 3491,
      "name": "Thomas Kretschmann",
      "profile_path": "/7M0P39a3CVA22dJyv5YQEkTThU7.jpg",
      "popularity": 10.603,
      "adult": false,
      "known_for_department": "Acting"
    },
    {
      "id": 9126,
      "name": "Edward Fox",
      "profile_path": "/mRAgZvRscftn6roAKdLQwrrrWrS.jpg",
      "popularity": 10.602,
      "adult": false,
      "known_for_department": "Acting"
    },
    {
      "id": 2169,
      "name": "Michael Jeter",
      "profile_path": "/pNBf8X56wCOHH7cArsMYJuke4fO.jpg",
      "popularity": 10.599,
      "adult": false,
      "known_for_department": "Acting"
    },
    {
      "id": 1282045,
      "name": "Uğur Güneş",
      "profile_path": "/1Honk8GOcASvntmc1U29l02TTGo.jpg",
      "popularity": 10.597,
      "adult": false,
      "known_for_department": "Acting"
    },
    {
      "id": 1236,
      "name": "Mark Pellegrino",
      "profile_path": "/r0XnI7sUWzShVwnHw3ncSPxw0Tv.jpg",
      "popularity": 10.596,
      "adult": false,
      "known_for_department": "Acting"
    }
  ]
}