{
  "page": 5,
  "total_results": 10000,
  "total_pages": 500,
  "results": [
    {
      "id": 4808,
      "name": "Giancarlo Esposito",
      "profile_path": "/lBvDQZjxhIGMbH61iHnqerpbqHc.jpg",
      "popularity": 60.3,
      "adult": false,
      "known_for_department": "Acting"
    },
    {
      "id": 77700,
      "name": "Travis Fimmel",
      "profile_path": "/i6wEoE9P6PgYe75g6QT8Y7JjX6n.jpg",
      "popularity": 59.964,
      "adult": false,
      "known_for_department": "Acting"
    },
    {
      "id": 17276,
      "name": "Gerard Butler",
      "profile_path": "/rTO5opVC3Gs6hPYAxWSP9eEjogi.jpg",
      "popularity": 59.873,
      "adult": false,
      "known_for_department": "Acting"
    },
    {
      "id": 3627,
      "name": "Paz Vega",
      "profile_path": "/fNLlJysFd5f0Q8Lj20EZpU8BiRN.jpg",
      "popularity": 59.581,
      "adult": false,
      "known_for_department": "Acting"
    },
    {
      "id": 1501573,
      "name": "Park Sun-ho",
      "profile_path": "/c6mlezwClOIxNmqe58Z4PckLTWv.jpg",
      "popularity": 59.263,
      "adult": false,
      "known_for_department": "Acting"
    },
    {
      "id": 1011904,
      "name": "Gwendoline Christie",
      "profile_path": "/kmlv5i02n3zKryBr2W3kSeWVKTD.jpg",
      "popularity": 58.764,
      "adult": false,
      "known_for_department": "Acting"
    },
    {
      "id": 1301092,
      "name": "Tanaya Beatty",
      "profile_path": "/nQQd9rpMxYM2MshYlOSV0PfffPP.jpg",
      "popularity": 58.58,
      "adult": false,
      "known_for_department": "Acting"
    },
    {
      "id": 1230,
      "name": "John Goodman",
      "profile_path": "/yyYqoyKHO7hE1zpgEV2XlqYWcNV.jpg",
      "popularity": 58.559,
      "adult": false,
      "known_for_department": "Acting"
    },
    {
      "id": 26723,
      "name": "Katheryn Winnick",
      "profile_path": "/vQSqH3ybDWZHZIqX4NZKhOCXAhQ.jpg",
      "popularity": 58.529,
      "adult": false,
      "known_for_department": "Acting"
    },
    {
      "id": 1177942,
      "name": "Kento Yamazaki",
      "profile_path": "/wKVMmoQrE4ZWPMy1nGXIDZ8CmZb.jpg",
      "popularity": 58.407,
      "adult": false,
      "known_for_department": "Acting"
    },
    {
      "id": 119592,
      "name": "Aubrey Plaza",
      "profile_path": "/4pPvrQmrzQCYpgLo8WM1AW8myoe.jpg",
      "popularity": 58.259,
      "adult": false,
      "known_for_department": "Acting"
    },
    {
      "id": 1119117,
      "name": "Katsuhiko Fujii",
      "profile_path": "",
      "popularity": 57.825,
      "adult": false,
      "known_for_department": "Directing"
    },
    {
      "id": 3713,
      "name": "Frances Fisher",
      "profile_path": "/tsyGcoXGRNM8KGLpLG3OuxAyxx2.jpg",
      "popularity": 57.815,
      "adult": false,
      "known_for_department": "Acting"
    },
    {
      "id": 8210,
      "name": "Wes Bentley",
      "profile_path": "/oDjtxTiEuCdyrcAtlCOEWUjhsaT.jpg",
      "popularity": 57.668,
      "adult": false,
      "known_for_department": "Acting"
    },
    {
      "id": 1015824,
      "name": "Ayame Misaki",
      "profile_path": "/7ViHWgrPifqwjMTGrzS7XI32VZs.jpg",
      "popularity": 57.506,
      "adult": false,
      "known_for_department": "Acting"
    },
    {
      "id": 11661,
      "name": "Kate Hudson",
      "profile_path": "/vCSuPFndH3sbCYZdi1pMiKvzRIp.jpg",
      "popularity": 57.49,
      "adult": false,
      "known_for_department": "Acting"
    },
    {
      "id": 1202689,
      "name": "Jessica Henwick",
      "profile_path": "/hRrEqDIWlov1FvYRmBN2vLaAxyl.jpg",
      "popularity": 56.988,
      "adult": false,
      "known_for_department": "Acting"
    },
    {
      "id": 58021,
      "name": "Tinto Brass",
      "profile_path": "/80Uuq79rcYL1FgBPHAEHzAACQFa.jpg",
      "popularity": 56.949,
      "adult": false,
      "known_for_department": "Directing"
    },
    {
      "id": 92614,
      "name": "Dawn Olivieri",
      "profile_path": "/tet7ZVbzhLWwT44m9j94folyl5N.jpg",
      "popularity": 56.888,
      "adult": false,
      "known_for_department": "Acting"
    },
    {
      "id": 1195939,
      "name": "Ayaka Miyoshi",
      "profile_path": "/62oahK2mc58X5sNrxyhCVXKryIx.jpg",
      "popularity": 56.382,
      "adult": false,
      "known_for_department": "Acting"
    }
  ]
}