{
  "page": 454,
  "total_results": 10000,
  "total_pages": 500,
  "results": [
    {
      "id": 1379386,
      "name": "Max Mittelman",
      "profile_path": "/zQqiIgestpxssPrUXQXkY2Sq0y8.jpg",
      "popularity": 7.301,
      "adult": false,
      "known_for_department": "Acting"
    },
    {
      "id": 36216,
      "name": "Cynthia Watros",
      "profile_path": "/iVWPrP0j4SQlfSjnB03P6Ud5OrS.jpg",
      "popularity": 7.301,
      "adult": false,
      "known_for_department": "Acting"
    },
    {
      "id": 5847,
      "name": "David Kross",
      "profile_path": "/jRFxrLwiroTbGedG9uyXZghgxlX.jpg",
      "popularity": 7.301,
      "adult": false,
      "known_for_department": "Acting"
    },
    {
      "id": 3212104,
      "name": "Park Seo-ham",
      "profile_path": "/uUFxDA9iRHVziPx8S4KGiDcXuYx.jpg",
      "popularity": 7.3,
      "adult": false,
      "known_for_department": "Acting"
    },
    {
      "id": 2870602,
      "name": "Hong Seung-hee",
      "profile_path": "/iF8vAp98sUh0CQ07mhrCB4euHPR.jpg",
      "popularity": 7.3,
      "adult": false,
      "known_for_department": "Acting"
    },
    {
      "id": 1314972,
      "name": "Athmeeya Rajan",
      "profile_path": "/xoRwDLXMoKxAFX5XTApSS5cdElu.jpg",
      "popularity": 7.3,
      "adult": false,
      "known_for_department": "Acting"
    },
    {
      "id": 1110009,
      "name": "Lane Edwards",
      "profile_path": "/xVppeOsTZnpbK9JsanFrXKb8pDQ.jpg",
      "popularity": 7.3,
      "adult": false,
      "known_for_department": "Acting"
    },
    {
      "id": 10780,
      "name": "Serena Scott Thomas",
      "profile_path": "/98oEsiUoJ4yocCKvdURzhvPnsw3.jpg",
      "popularity": 7.3,
      "adult": false,
      "known_for_department": "Acting"
    },
    {
      "id": 1846543,
      "name": "Go Na-Hee",
      "profile_path": "/rISKRJz1T2KuQRZlUmlxUfQ1brF.jpg",
      "popularity": 7.299,
      "adult": false,
      "known_for_department": "Acting"
    },
    {
      "id": 19207,
      "name": "Timothy Bottoms",
      "profile_path": "/e0SKyrvvyJFZWx3QFzI4qAkWi8E.jpg",
      "popularity": 7.299,
      "adult": false,
      "known_for_department": "Acting"
    },
    {
      "id": 88619,
      "name": "Shenae Grimes-Beech",
      "profile_path": "/u7igdyXsEHxlLybIuZ9K8Inrt54.jpg",
      "popularity": 7.298,
      "adult": false,
      "known_for_department": "Acting"
    },
    {
      "id": 41557,
      "name": "Ever Carradine",
      "profile_path": "/fL23W2vjdaVS91s9c6AKjvB94aW.jpg",
      "popularity": 7.298,
      "adult": false,
      "known_for_department": "Acting"
    },
    {
      "id": 589340,
      "name": "Huang Yi",
      "profile_path": "/AZMBqGQOmNqb6ScgunLhC5KNdW.jpg",
      "popularity": 7.297,
      "adult": false,
      "known_for_department": "Acting"
    },
    {
      "id": 2369771,
      "name": "Kim Si-eun",
      "profile_path": "/ffG6awnRhK1IwWsprvpWtwrpwhI.jpg",
      "popularity": 7.296,
      "adult": false,
      "known_for_department": "Acting"
    },
    {
      "id": 1049742,
      "name": "Jade Pettyjohn",
      "profile_path": "/crsqGImbWxWovyywoRqbfni2V3J.jpg",
      "popularity": 7.296,
      "adult": false,
      "known_for_department": "Acting"
    },
    {
      "id": 937314,
      "name": "Osvaldo Benavides",
      "profile_path": "/X9LyPdJUmB89SCC1va6ehcO0OR.jpg",
      "popularity": 7.296,
      "adult": false,
      "known_for_department": "Acting"
    },
    {
      "id": 457386,
      "name": "Arian Moayed",
      "profile_path": "/vL5eKRzDGdMyQJpzODD6lfg42LV.jpg",
      "popularity": 7.296,
      "adult": false,
      "known_for_department": "Acting"
    },
    {
      "id": 2455272,
      "name": "Jayme Lawson",
      "profile_path": "/rT6ZNBhYZaRMQ6dxCTillClDO4J.jpg",
      "popularity": 7.295,
      "adult": false,
      "known_for_department": "Acting"
    },
    {
      "id": 95896,
      "name": "Dervla Kirwan",
      "profile_path": "/6ZReeKzRaWMDzlfRbJcqelAfPZ6.jpg",
      "popularity": 7.295,
      "adult": false,
      "known_for_department": "Acting"
    },
    {
      "id": 52457,
      "name": "Eileen Pedde",
      "profile_path": "/unjd0sAVtNhdIJAxzx49RfeVevy.jpg",
      "popularity": 7.295,
      "adult": false,
      "known_for_department": "Acting"
    }
  ]
}