{
  "page": 276,
  "total_results": 10000,
  "total_pages": 500,
  "results": [
    {
      "id": 153591,
      "name": "Joy Harmon",
      "profile_path": "/8QNg1B9K5DujwaoDK9yWWNVRinz.jpg",
      "popularity": 9.034,
      "adult": false,
      "known_for_department": "Acting"
    },
    {
      "id": 3977,
      "name": "Joe Morton",
      "profile_path": "/w7rGWWSGKWWukojLbZOQJ5yh9jv.jpg",
      "popularity": 9.033,
      "adult": false,
      "known_for_department": "Acting"
    },
    {
      "id": 43231,
      "name": "Paul Blackthorne",
      "profile_path": "/3OC1M0rKJO8B3JpwAeavk5EAscl.jpg",
      "popularity": 9.032,
      "adult": false,
      "known_for_department": "Acting"
    },
    {
      "id": 35956,
      "name": "Laura Antonelli",
      "profile_path": "/6pwHBvKtro1jcJmXdotKB3ShUQZ.jpg",
      "popularity": 9.032,
      "adult": false,
      "known_for_department": "Acting"
    },
    {
      "id": 1859758,
      "name": "Park Kyung-hye",
      "profile_path": "/cLyqYwsA3z0O3RcZJwqmgExcVCT.jpg",
      "popularity": 9.031,
      "adult": false,
      "known_for_department": "Acting"
    },
    {
      "id": 70690,
      "name": "Ken Lo",
      "profile_path": "/aecWmrSbnZTTnBJ8vgyNAaphOLp.jpg",
      "popularity": 9.031,
      "adult": false,
      "known_for_department": "Acting"
    },
    {
      "id": 4581,
      "name": "Steve Coogan",
      "profile_path": "/tT7OXc2qA6hlREHXdwGLp0XihzA.jpg",
      "popularity": 9.031,
      "adult": false,
      "known_for_department": "Acting"
    },
    {
      "id": 2863171,
      "name": "Vihaan Samat",
      "profile_path": "/jvSwyuQFQ7QSWnlO0GtuoQz3pyw.jpg",
      "popularity": 9.029,
      "adult": false,
      "known_for_department": "Acting"
    },
    {
      "id": 58198,
      "name": "Chris Farley",
      "profile_path": "/aThcYZHo97pKQkCYVZz6LaRx10L.jpg",
      "popularity": 9.029,
      "adult": false,
      "known_for_department": "Acting"
    },
    {
      "id": 6573,
      "name": "William Sadler",
      "profile_path": "/xC9sijoDnjS3oDZ5eszcGKHKAOp.jpg",
      "popularity": 9.029,
      "adult": false,
      "known_for_department": "Acting"
    },
    {
      "id": 1416494,
      "name": "T. K. Kala",
      "profile_path": "/2TTBIO2x3BrjUcHYl69ELkC12jp.jpg",
      "popularity": 9.026,
      "adult": false,
      "known_for_department": "Acting"
    },
    {
      "id": 16896,
      "name": "James Garner",
      "profile_path": "/hiPky3VwIOAlmPhJwzRovEsGDrI.jpg",
      "popularity": 9.026,
      "adult": false,
      "known_for_department": "Acting"
    },
    {
      "id": 9140,
      "name": "James Faulkner",
      "profile_path": "/wMDpbctF9cAL5nYnSL6AcXUTG5K.jpg",
      "popularity": 9.026,
      "adult": false,
      "known_for_department": "Acting"
    },
    {
      "id": 21278,
      "name": "Alan Alda",
      "profile_path": "/6ccCKFhXiMmjLoiFDyJaU4eJaQO.jpg",
      "popularity": 9.025,
      "adult": false,
      "known_for_department": "Acting"
    },
    {
      "id": 1206963,
      "name": "Kyung Soo-jin",
      "profile_path": "/mSitZjt2bwIdUpD7UNCXw9Aj9Y8.jpg",
      "popularity": 9.024,
      "adult": false,
      "known_for_department": "Acting"
    },
    {
      "id": 172847,
      "name": "Bruce Dawson",
      "profile_path": "/ivdTRe6KjWZX7gN35EUk4RvvfIR.jpg",
      "popularity": 9.024,
      "adult": false,
      "known_for_department": "Acting"
    },
    {
      "id": 42571,
      "name": "Susan Lynch",
      "profile_path": "/sTl2Tn2nzLRjKdk0CKMBb87Gz8X.jpg",
      "popularity": 9.023,
      "adult": false,
      "known_for_department": "Acting"
    },
    {
      "id": 81178,
      "name": "Charlie Adler",
      "profile_path": "/hVENHdlEqsX6vhBW4MTpfYEFFQ3.jpg",
      "popularity": 9.022,
      "adult": false,
      "known_for_department": "Acting"
    },
    {
      "id": 56356,
      "name": "Gina Philips",
      "profile_path": "/xwghO5XyUbQDnM6tdenXi5MvkGn.jpg",
      "popularity": 9.022,
      "adult": false,
      "known_for_department": "Acting"
    },
    {
      "id": 90596,
      "name": "Katie Featherston",
      "profile_path": "/zfoprDirNsWxvxDKvRzUyPXKGR6.jpg",
      "popularity": 9.021,
      "adult": false,
      "known_for_department": "Acting"
    }
  ]
}