{
  "page": 64,
  "total_results": 10000,
  "total_pages": 500,
  "results": [
    {
      "id": 352,
      "name": "Dennis Haysbert",
      "profile_path": "/e8wLUoY29UDB5RAAglp8vPttUHr.jpg",
      "popularity": 20.562,
      "adult": false,
      "known_for_department": "Acting"
    },
    {
      "id": 1039305,
      "name": "Kasumi Arimura",
      "profile_path": "/wgRmACLMYhZWmMOaGUmUUMYPDTG.jpg",
      "popularity": 20.54,
      "adult": false,
      "known_for_department": "Acting"
    },
    {
      "id": 26054,
      "name": "Claudia Black",
      "profile_path": "/eIYn2naiftYwPnclwcYgyWkEtuA.jpg",
      "popularity": 20.535,
      "adult": false,
      "known_for_department": "Acting"
    },
    {
      "id": 129101,
      "name": "Lance Reddick",
      "profile_path": "/7itmzy8XrhWrBOTpNWqXc3l61ly.jpg",
      "popularity": 20.532,
      "adult": false,
      "known_for_department": "Acting"
    },
    {
      "id": 11357,
      "name": "Bruce Campbell",
      "profile_path": "/p9335ljr7luOWsfwZSOlsIzFJKE.jpg",
      "popularity": 20.532,
      "adult": false,
      "known_for_department": "Acting"
    },
    {
      "id": 14409,
      "name": "David Schwimmer",
      "profile_path": "/vcQ59lsEzrniYMapfA7InnI4Vgk.jpg",
      "popularity": 20.531,
      "adult": false,
      "known_for_department": "Acting"
    },
    {
      "id": 4941,
      "name": "Alessandro Nivola",
      "profile_path": "/6simAB2dFVjjaNqx2qhSBRQpfmA.jpg",
      "popularity": 20.529,
      "adult": false,
      "known_for_department": "Acting"
    },
    {
      "id": 3037,
      "name": "Richard Dreyfuss",
      "profile_path": "/q2BPu6zWwFtnzQfpl4fgbKqURXM.jpg",
      "popularity": 20.528,
      "adult": false,
      "known_for_department": "Acting"
    },
    {
      "id": 586286,
      "name": "Hera Hilmar",
      "profile_path": "/hPrpOpQrJ0Ksh62NHFmKon4vEtr.jpg",
      "popularity": 20.516,
      "adult": false,
      "known_for_department": "Acting"
    },
    {
      "id": 2117434,
      "name": "Victoria Pedretti",
      "profile_path": "/axmjxpDn7nAB7FqV7k6lu5VczVg.jpg",
      "popularity": 20.511,
      "adult": false,
      "known_for_department": "Acting"
    },
    {
      "id": 893,
      "name": "Tony Scott",
      "profile_path": "/zEEbiNa8Pqw3U6pZ8Z2y3dlJJnC.jpg",
      "popularity": 20.479,
      "adult": false,
      "known_for_department": "Directing"
    },
    {
      "id": 119143,
      "name": "Kana Hanazawa",
      "profile_path": "/5bK9ttcRydQBWmyZp7gXDmJYOPF.jpg",
      "popularity": 20.475,
      "adult": false,
      "known_for_department": "Acting"
    },
    {
      "id": 16560,
      "name": "David Caruso",
      "profile_path": "/7XjPzadIBQ0mIVwVT7o87B7NkJJ.jpg",
      "popularity": 20.473,
      "adult": false,
      "known_for_department": "Acting"
    },
    {
      "id": 84613,
      "name": "Madeline Zima",
      "profile_path": "/6hmUs5Q1EETapn32yKNt3c3i1sn.jpg",
      "popularity": 20.467,
      "adult": false,
      "known_for_department": "Acting"
    },
    {
      "id": 8924,
      "name": "Frank Langella",
      "profile_path": "/vO2NQUrG2qDtQVWK2IalrFKUYcj.jpg",
      "popularity": 20.462,
      "adult": false,
      "known_for_department": "Acting"
    },
    {
      "id": 29930,
      "name": "Ivana Miličević",
      "profile_path": "/furpjcSjTMOq8XKO0mu7Za84Gk2.jpg",
      "popularity": 20.459,
      "adult": false,
      "known_for_department": "Acting"
    },
    {
      "id": 78875,
      "name": "Louis Koo",
      "profile_path": "/yQuDBTzm7xWlJICNvl20OmcJP80.jpg",
      "popularity": 20.452,
      "adult": false,
      "known_for_department": "Acting"
    },
    {
      "id": 123846,
      "name": "Debby Ryan",
      "profile_path": "/hYMnrAO1fZx9tPmIM8xajliVT1N.jpg",
      "popularity": 20.447,
      "adult": false,
      "known_for_department": "Acting"
    },
    {
      "id": 1829122,
      "name": "Ewan Mitchell",
      "profile_path": "/v1PqysDnx5umfA2DqGyjwuAxc9C.jpg",
      "popularity": 20.444,
      "adult": false,
      "known_for_department": "Acting"
    },
    {
      "id": 4154,
      "name": "Brenda Blethyn",
      "profile_path": "/yUq4vKJ3SmvDZNKvXmA4OdXehDj.jpg",
      "popularity": 20.434,
      "adult": false,
      "known_for_department": "Acting"
    }
  ]
}