{
  "page": 165,
  "total_results": 10000,
  "total_pages": 500,
  "results": [
    {
      "id": 94797,
      "name": "Dichen Lachman",
      "profile_path": "/96RTQAmcdl16ouztMrv7T177EyC.jpg",
      "popularity": 13.062,
      "adult": false,
      "known_for_department": "Acting"
    },
    {
      "id": 69010,
      "name": "Brad Davis",
      "profile_path": "/2AMxog90ng7gHyw1DOwI4HPpppw.jpg",
      "popularity": 13.06,
      "adult": false,
      "known_for_department": "Acting"
    },
    {
      "id": 526,
      "name": "Lukas Haas",
      "profile_path": "/vabZQXlAhyW2GxQfDM1PhKURA8.jpg",
      "popularity": 13.06,
      "adult": false,
      "known_for_department": "Acting"
    },
    {
      "id": 40945,
      "name": "Jim Dale",
      "profile_path": "/jY39nfl69anaIrHcCLQUyOKOccz.jpg",
      "popularity": 13.055,
      "adult": false,
      "known_for_department": "Acting"
    },
    {
      "id": 58707,
      "name": "Sunny Mabrey",
      "profile_path": "/kY4QiKUYVBfCV7SJaWstug7hVE7.jpg",
      "popularity": 13.052,
      "adult": false,
      "known_for_department": "Acting"
    },
    {
      "id": 6195,
      "name": "Harold Perrineau",
      "profile_path": "/wytpGqpMRm2dOFTmLW9HU6wCuz1.jpg",
      "popularity": 13.046,
      "adult": false,
      "known_for_department": "Acting"
    },
    {
      "id": 2761889,
      "name": "Victoria White",
      "profile_path": "/7ij0anmXowWcNbTHLo2buUiTWSy.jpg",
      "popularity": 13.044,
      "adult": false,
      "known_for_department": "Acting"
    },
    {
      "id": 42276,
      "name": "Rupert Penry-Jones",
      "profile_path": "/4qRzWtQtxjbSZKOrV68hDQWGZgE.jpg",
      "popularity": 13.044,
      "adult": false,
      "known_for_department": "Acting"
    },
    {
      "id": 15899,
      "name": "Jenifer Lewis",
      "profile_path": "/htrTYcoJQQpSYo6BrRehe3h46vo.jpg",
      "popularity": 13.044,
      "adult": false,
      "known_for_department": "Acting"
    },
    {
      "id": 31164,
      "name": "Adewale Akinnuoye-Agbaje",
      "profile_path": "/zdtwVtVmmm7VzYfu8xH7mbuTvrH.jpg",
      "popularity": 13.042,
      "adult": false,
      "known_for_department": "Acting"
    },
    {
      "id": 1959397,
      "name": "Dua Lipa",
      "profile_path": "/bsu3VxYaa8XgdH2ftPlO9DUsfun.jpg",
      "popularity": 13.04,
      "adult": false,
      "known_for_department": "Acting"
    },
    {
      "id": 33741,
      "name": "Rita Hayworth",
      "profile_path": "/k92fu0gVAY98kFGXgIZmdquroFQ.jpg",
      "popularity": 13.039,
      "adult": false,
      "known_for_department": "Acting"
    },
    {
      "id": 1368254,
      "name": "Sumire Uesaka",
      "profile_path": "/AbouCe2WVBHvMlBm9NnG7GHyJpa.jpg",
      "popularity": 13.037,
      "adult": false,
      "known_for_department": "Acting"
    },
    {
      "id": 58791,
      "name": "Patrick Fabian",
      "profile_path": "/dPlWxVLSycsiRiduKQYSJUkBrPN.jpg",
      "popularity": 13.035,
      "adult": false,
      "known_for_department": "Acting"
    },
    {
      "id": 151383,
      "name": "John Ducey",
      "profile_path": "/iAWEzIuVHOcvVdBdI3uAbvxUlTT.jpg",
      "popularity": 13.033,
      "adult": false,
      "known_for_department": "Acting"
    },
    {
      "id": 206905,
      "name": "Jeremy Allen White",
      "profile_path": "/8XXSfvmOX2ux0niV2uvzaD92ywm.jpg",
      "popularity": 13.03,
      "adult": false,
      "known_for_department": "Acting"
    },
    {
      "id": 27726,
      "name": "Don Knotts",
      "profile_path": "/cr1eyblxpQe4LBafMMuQ6BuOGzR.jpg",
      "popularity": 13.03,
      "adult": false,
      "known_for_department": "Acting"
    },
    {
      "id": 1425019,
      "name": "Laia Costa",
      "profile_path": "/i1L1tb5a8bdea4Zx0mAj260Fpde.jpg",
      "popularity": 13.029,
      "adult": false,
      "known_for_department": "Acting"
    },
    {
      "id": 2253047,
      "name": "Banks Repeta",
      "profile_path": "/xx6aE6A1RnsDjtDd32CyGecr5tx.jpg",
      "popularity": 13.028,
      "adult": false,
      "known_for_department": "Acting"
    },
    {
      "id": 24658,
      "name": "Suso Cecchi d'Amico",
      "profile_path": "/2it2PNMhCxKY2Q2VrX98fnrtJt8.jpg",
      "popularity": 13.027,
      "adult": false,
      "known_for_department": "Writing"
    }
  ]
}