{
  "page": 459,
  "total_results": 10000,
  "total_pages": 500,
  "results": [
    {
      "id": 2267329,
      "name": "Ava Russo",
      "profile_path": "/5C2SQuhmy0syjo5OV90QZHztKkB.jpg",
      "popularity": 7.694,
      "adult": false,
      "known_for_department": "Acting"
    },
    {
      "id": 1510022,
      "name": "Gong Seung-yeon",
      "profile_path": "/hnXhPa1BESzeHntj1OeosAzvF8A.jpg",
      "popularity": 7.694,
      "adult": false,
      "known_for_department": "Acting"
    },
    {
      "id": 2396870,
      "name": "Yang Chaoyue",
      "profile_path": "/fIqlPh8S13ttFRTnHC2XZnmGc4C.jpg",
      "popularity": 7.693,
      "adult": false,
      "known_for_department": "Acting"
    },
    {
      "id": 1914669,
      "name": "Juliet Donenfeld",
      "profile_path": "/y6A7Mf7uBU8nzC8LKL5Et33WdDy.jpg",
      "popularity": 7.693,
      "adult": false,
      "known_for_department": "Acting"
    },
    {
      "id": 147232,
      "name": "Annabel Wright",
      "profile_path": "/2DZ2pql0bbgfhLnuRH8zPGfXQl1.jpg",
      "popularity": 7.693,
      "adult": false,
      "known_for_department": "Acting"
    },
    {
      "id": 73926,
      "name": "Jördis Triebel",
      "profile_path": "/uD2Pd5MRxfHs68nB5CfDkCej9rC.jpg",
      "popularity": 7.693,
      "adult": false,
      "known_for_department": "Acting"
    },
    {
      "id": 2740207,
      "name": "Swell Ariel Or",
      "profile_path": "",
      "popularity": 7.692,
      "adult": false,
      "known_for_department": "Acting"
    },
    {
      "id": 550683,
      "name": "Kim Hee-won",
      "profile_path": "/sDCxskfmmNidOjV2LwsWh9dAVbN.jpg",
      "popularity": 7.692,
      "adult": false,
      "known_for_department": "Acting"
    },
    {
      "id": 11492,
      "name": "Clark Gable",
      "profile_path": "/bN06QeVin5gH9u0Lvcqp4df8uT5.jpg",
      "popularity": 7.691,
      "adult": false,
      "known_for_department": "Acting"
    },
    {
      "id": 2663160,
      "name": "Yeon Joo",
      "profile_path": "/2vCV0thyj9Q4Yl9FjRP9dzJPbCi.jpg",
      "popularity": 7.69,
      "adult": false,
      "known_for_department": "Acting"
    },
    {
      "id": 1366062,
      "name": "Olaf Johannessen",
      "profile_path": "/gCegIXXTsjX3VYUqhPGFQ4ZZgzP.jpg",
      "popularity": 7.69,
      "adult": false,
      "known_for_department": "Acting"
    },
    {
      "id": 2369241,
      "name": "Elias Salonen",
      "profile_path": "/pqDYrChduu6DJnlxoSPKMVWZGOf.jpg",
      "popularity": 7.689,
      "adult": false,
      "known_for_department": "Acting"
    },
    {
      "id": 19803,
      "name": "Leonardo Sbaraglia",
      "profile_path": "/jCpIcRZ2Md8iO5PnYYytGCKC2T5.jpg",
      "popularity": 7.689,
      "adult": false,
      "known_for_department": "Acting"
    },
    {
      "id": 1018945,
      "name": "Fumi Nikaido",
      "profile_path": "/tqxgrZdOpx2FuTJYlhago4fttI3.jpg",
      "popularity": 7.688,
      "adult": false,
      "known_for_department": "Acting"
    },
    {
      "id": 1058023,
      "name": "Joseph Russo",
      "profile_path": "/58NBKsraW585IA1T1FTRX9SRsm5.jpg",
      "popularity": 7.687,
      "adult": false,
      "known_for_department": "Acting"
    },
    {
      "id": 1052349,
      "name": "Andrea Del Rosario",
      "profile_path": "/koqSBQmvUwAoy9YlIbgq2n5j8vt.jpg",
      "popularity": 7.687,
      "adult": false,
      "known_for_department": "Acting"
    },
    {
      "id": 1222210,
      "name": "Patrick O'Connell",
      "profile_path": "/nnpGHTcelH0DMdVjfEd4i2KOh3B.jpg",
      "popularity": 7.686,
      "adult": false,
      "known_for_department": "Acting"
    },
    {
      "id": 42222,
      "name": "Kim Dawson",
      "profile_path": "/e2xUZkAPb2Ep3iYcR9KPoFVSWU2.jpg",
      "popularity": 7.686,
      "adult": false,
      "known_for_department": "Acting"
    },
    {
      "id": 55983,
      "name": "Jim Henson",
      "profile_path": "/93vzGW2kWwmAJ8HpbErzKMHXDME.jpg",
      "popularity": 7.685,
      "adult": false,
      "known_for_department": "Directing"
    },
    {
      "id": 556,
      "name": "Emma Thomas",
      "profile_path": "/6GemtNCy856iLho6WRsFASxQTAp.jpg",
      "popularity": 7.685,
      "adult": false,
      "known_for_department": "Production"
    }
  ]
}