{
  "page": 205,
  "total_results": 10000,
  "total_pages": 500,
  "results": [
    {
      "id": 66,
      "name": "Chris Tucker",
      "profile_path": "/xtAK4hFyDjSYhZ9oRhppuVcLi80.jpg",
      "popularity": 10.32,
      "adult": false,
      "known_for_department": "Acting"
    },
    {
      "id": 110475,
      "name": "Brett Dier",
      "profile_path": "/lJhlX6bQfzUStVPOA2UWgKyK85s.jpg",
      "popularity": 10.319,
      "adult": false,
      "known_for_department": "Acting"
    },
    {
      "id": 2026050,
      "name": "Emmy Raver-Lampman",
      "profile_path": "/cBkHUBzqoqrnkxDXWlqQmm91pD2.jpg",
      "popularity": 10.318,
      "adult": false,
      "known_for_department": "Acting"
    },
    {
      "id": 1791508,
      "name": "Freya Parker",
      "profile_path": "/k2nXbHWHjrheQ1k4TdPpWeecGu3.jpg",
      "popularity": 10.318,
      "adult": false,
      "known_for_department": "Acting"
    },
    {
      "id": 73926,
      "name": "Jördis Triebel",
      "profile_path": "/uD2Pd5MRxfHs68nB5CfDkCej9rC.jpg",
      "popularity": 10.318,
      "adult": false,
      "known_for_department": "Acting"
    },
    {
      "id": 14672,
      "name": "Michael Winslow",
      "profile_path": "/uSRS2MOI1fNFAdvUgrhatBvfsvv.jpg",
      "popularity": 10.318,
      "adult": false,
      "known_for_department": "Acting"
    },
    {
      "id": 1246,
      "name": "Emily Mortimer",
      "profile_path": "/eh0AebcU5ag535e3KLb6ydWR09d.jpg",
      "popularity": 10.317,
      "adult": false,
      "known_for_department": "Acting"
    },
    {
      "id": 1259493,
      "name": "Esther Supreeleela",
      "profile_path": "/qL1NLM4tPynGmvH1ARa3kKB4sQS.jpg",
      "popularity": 10.316,
      "adult": false,
      "known_for_department": "Acting"
    },
    {
      "id": 1196822,
      "name": "Jessica De Gouw",
      "profile_path": "/pu09eASIUzHPJZMfHPkpFqDZ2RR.jpg",
      "popularity": 10.316,
      "adult": false,
      "known_for_department": "Acting"
    },
    {
      "id": 18461,
      "name": "Nick Chinlund",
      "profile_path": "/lRmgWDIXqBTneGbKlJNSFyiis1e.jpg",
      "popularity": 10.316,
      "adult": false,
      "known_for_department": "Acting"
    },
    {
      "id": 1425934,
      "name": "Nicholas Galitzine",
      "profile_path": "/i5coqGhvx8wjPXT76W3n3fHwgi0.jpg",
      "popularity": 10.315,
      "adult": false,
      "known_for_department": "Acting"
    },
    {
      "id": 23458,
      "name": "Charlie Cox",
      "profile_path": "/jBHDZ8MA4I7krNQx4IfqdfPfleD.jpg",
      "popularity": 10.314,
      "adult": false,
      "known_for_department": "Acting"
    },
    {
      "id": 7303,
      "name": "Vera Miles",
      "profile_path": "/9PDTsJnBfrAlvVPOBBFS3ehN8lD.jpg",
      "popularity": 10.314,
      "adult": false,
      "known_for_department": "Acting"
    },
    {
      "id": 1616155,
      "name": "Linnea Berthelsen",
      "profile_path": "/u2UOvGHI4IoVfJmtP1I8F68VR50.jpg",
      "popularity": 10.313,
      "adult": false,
      "known_for_department": "Acting"
    },
    {
      "id": 1976054,
      "name": "Rachel Sennott",
      "profile_path": "/fI9Fu7s5KHkdcYWQMAZW4PMY7h2.jpg",
      "popularity": 10.311,
      "adult": false,
      "known_for_department": "Acting"
    },
    {
      "id": 128,
      "name": "Philippa Boyens",
      "profile_path": "/vfPQnrMZ87uPjyJYrSkQtqI6c0H.jpg",
      "popularity": 10.308,
      "adult": false,
      "known_for_department": "Writing"
    },
    {
      "id": 1615316,
      "name": "Lee Hak-joo",
      "profile_path": "/9PuGmzY1nm8uYYiOanEKJHEcdbZ.jpg",
      "popularity": 10.307,
      "adult": false,
      "known_for_department": "Acting"
    },
    {
      "id": 152302,
      "name": "Alexa Nikolas",
      "profile_path": "/q33Xb1spwjfOiVBxyhLJTpUdSm4.jpg",
      "popularity": 10.306,
      "adult": false,
      "known_for_department": "Acting"
    },
    {
      "id": 85672,
      "name": "Shabana Azmi",
      "profile_path": "/oZIL1OPo7163tOpyRUapyRDejT1.jpg",
      "popularity": 10.304,
      "adult": false,
      "known_for_department": "Acting"
    },
    {
      "id": 18262,
      "name": "Richard Riehle",
      "profile_path": "/wgjBsgpzRvardVXZhNGixSw63g2.jpg",
      "popularity": 10.304,
      "adult": false,
      "known_for_department": "Acting"
    }
  ]
}