{
  "page": 17,
  "total_results": 10000,
  "total_pages": 500,
  "results": [
    {
      "id": 8210,
      "name": "Wes Bentley",
      "profile_path": "/oDjtxTiEuCdyrcAtlCOEWUjhsaT.jpg",
      "popularity": 37.571,
      "adult": false,
      "known_for_department": "Acting"
    },
    {
      "id": 20189,
      "name": "Amy Smart",
      "profile_path": "/byLbVH8smwtJ5L6S7VoWmNf9yxn.jpg",
      "popularity": 37.515,
      "adult": false,
      "known_for_department": "Acting"
    },
    {
      "id": 18269,
      "name": "Brendan Fraser",
      "profile_path": "/xyO4PoiwY4Is5c0Qk4wKkcV909I.jpg",
      "popularity": 37.5,
      "adult": false,
      "known_for_department": "Acting"
    },
    {
      "id": 140,
      "name": "Lucy Liu",
      "profile_path": "/9nbtjqsx3De7hO2XDtrBQ7M9VCH.jpg",
      "popularity": 37.496,
      "adult": false,
      "known_for_department": "Acting"
    },
    {
      "id": 1230,
      "name": "John Goodman",
      "profile_path": "/yyYqoyKHO7hE1zpgEV2XlqYWcNV.jpg",
      "popularity": 37.412,
      "adult": false,
      "known_for_department": "Acting"
    },
    {
      "id": 30613,
      "name": "Keith Carradine",
      "profile_path": "/5gayZWGqjTAVJXr1bXovk3oqOxW.jpg",
      "popularity": 37.32,
      "adult": false,
      "known_for_department": "Acting"
    },
    {
      "id": 488,
      "name": "Steven Spielberg",
      "profile_path": "/tZxcg19YQ3e8fJ0pOs7hjlnmmr6.jpg",
      "popularity": 37.309,
      "adult": false,
      "known_for_department": "Directing"
    },
    {
      "id": 77700,
      "name": "Travis Fimmel",
      "profile_path": "/i6wEoE9P6PgYe75g6QT8Y7JjX6n.jpg",
      "popularity": 37.218,
      "adult": false,
      "known_for_department": "Acting"
    },
    {
      "id": 34486,
      "name": "Ashley Johnson",
      "profile_path": "/8s36QwB7Zq3PrbY1W6a6ctTFFoe.jpg",
      "popularity": 37.214,
      "adult": false,
      "known_for_department": "Acting"
    },
    {
      "id": 1204,
      "name": "Julia Roberts",
      "profile_path": "/AhQMyQ10kz5g8Y3Fp54GPhgDxQS.jpg",
      "popularity": 37.13,
      "adult": false,
      "known_for_department": "Acting"
    },
    {
      "id": 15852,
      "name": "Ashley Judd",
      "profile_path": "/dofk0Y9YnGfoakFOonxoyFD7LOC.jpg",
      "popularity": 37.013,
      "adult": false,
      "known_for_department": "Acting"
    },
    {
      "id": 24045,
      "name": "Joseph Gordon-Levitt",
      "profile_path": "/dhv9f3AaozOjpvjAwVzOWlmmT2V.jpg",
      "popularity": 37.011,
      "adult": false,
      "known_for_department": "Acting"
    },
    {
      "id": 4495,
      "name": "Steve Carell",
      "profile_path": "/dzJtsLspH5Bf8Tvw7OQC47ETNfJ.jpg",
      "popularity": 36.988,
      "adult": false,
      "known_for_department": "Acting"
    },
    {
      "id": 84223,
      "name": "Anna Kendrick",
      "profile_path": "/zxYcN7MG1rifJNFIDCJUPKLSAnw.jpg",
      "popularity": 36.897,
      "adult": false,
      "known_for_department": "Acting"
    },
    {
      "id": 12851,
      "name": "Ally Sheedy",
      "profile_path": "/lS0wc4tOstj7jOMoWnQDYc1aESC.jpg",
      "popularity": 36.856,
      "adult": false,
      "known_for_department": "Acting"
    },
    {
      "id": 27578,
      "name": "Elliot Page",
      "profile_path": "/596bLvD4iEz8VGc6TOEhzmPwTMe.jpg",
      "popularity": 36.836,
      "adult": false,
      "known_for_department": "Acting"
    },
    {
      "id": 12656,
      "name": "Joanne Whalley",
      "profile_path": "/ItU1ROQkWkzabwdFG3H4VndgBb.jpg",
      "popularity": 36.799,
      "adult": false,
      "known_for_department": "Acting"
    },
    {
      "id": 19498,
      "name": "Jon Bernthal",
      "profile_path": "/2NZGL8ukRncF55S3seNn14Zj84i.jpg",
      "popularity": 36.687,
      "adult": false,
      "known_for_department": "Acting"
    },
    {
      "id": 92614,
      "name": "Dawn Olivieri",
      "profile_path": "/tet7ZVbzhLWwT44m9j94folyl5N.jpg",
      "popularity": 36.622,
      "adult": false,
      "known_for_department": "Acting"
    },
    {
      "id": 62105,
      "name": "Kerry Condon",
      "profile_path": "/8l5zehb9sc9cgRCLD713rf5Xmz3.jpg",
      "popularity": 36.607,
      "adult": false,
      "known_for_department": "Acting"
    }
  ]
}