{
  "page": 113,
  "total_results": 10000,
  "total_pages": 500,
  "results": [
    {
      "id": 1919403,
      "name": "Thea Green Lundberg",
      "profile_path": "/ypq8DaSJF9DNF1bLmKkRO9kuJSH.jpg",
      "popularity": 15.749,
      "adult": false,
      "known_for_department": "Acting"
    },
    {
      "id": 236048,
      "name": "Rosie Huntington-Whiteley",
      "profile_path": "/oq5iX2VoLGF41P5DmNDNJcczESR.jpg",
      "popularity": 15.746,
      "adult": false,
      "known_for_department": "Acting"
    },
    {
      "id": 388,
      "name": "Jim Broadbent",
      "profile_path": "/jTyvGwwR1NFpvgDhcmuWZCM241w.jpg",
      "popularity": 15.744,
      "adult": false,
      "known_for_department": "Acting"
    },
    {
      "id": 2993237,
      "name": "Rajsi Verma",
      "profile_path": "/iXswVyBIknN50ajV99oYnWfEje1.jpg",
      "popularity": 15.741,
      "adult": false,
      "known_for_department": "Acting"
    },
    {
      "id": 59373,
      "name": "Mélanie Thierry",
      "profile_path": "/dtzfVWfyWgnlgwpzgA4uXDrBcTI.jpg",
      "popularity": 15.74,
      "adult": false,
      "known_for_department": "Acting"
    },
    {
      "id": 574378,
      "name": "Amber Rose Revah",
      "profile_path": "/cThPovs1j59Vs5iejgLqUZRBchv.jpg",
      "popularity": 15.736,
      "adult": false,
      "known_for_department": "Acting"
    },
    {
      "id": 207401,
      "name": "Leven Rambin",
      "profile_path": "/91uzRkoDXsvGl22HNerdSe6NhU.jpg",
      "popularity": 15.735,
      "adult": false,
      "known_for_department": "Acting"
    },
    {
      "id": 1152083,
      "name": "Sabrina Carpenter",
      "profile_path": "/2zAdQGwdnVsKbmpktJ7VCfJbrJy.jpg",
      "popularity": 15.728,
      "adult": false,
      "known_for_department": "Acting"
    },
    {
      "id": 33336,
      "name": "Gina Holden",
      "profile_path": "/oBzSVgTkQen3Q1EGDo7ycrBTDEn.jpg",
      "popularity": 15.723,
      "adult": false,
      "known_for_department": "Acting"
    },
    {
      "id": 2090,
      "name": "Kirk Douglas",
      "profile_path": "/yvunzQgnILw6uNBFMyld5nhkBCX.jpg",
      "popularity": 15.715,
      "adult": false,
      "known_for_department": "Acting"
    },
    {
      "id": 19272,
      "name": "Joe Russo",
      "profile_path": "/ph1GRCWVKk6Mz9lMBrxKvlb6Imo.jpg",
      "popularity": 15.713,
      "adult": false,
      "known_for_department": "Directing"
    },
    {
      "id": 109708,
      "name": "Bill Burr",
      "profile_path": "/g8VqrigObjAE3QP1Xei1qgO4kfx.jpg",
      "popularity": 15.712,
      "adult": false,
      "known_for_department": "Acting"
    },
    {
      "id": 8289,
      "name": "Billy Crudup",
      "profile_path": "/pYblSarjmmIUggmOafanD2yk0Zj.jpg",
      "popularity": 15.712,
      "adult": false,
      "known_for_department": "Acting"
    },
    {
      "id": 22,
      "name": "Barry Humphries",
      "profile_path": "/gtOAbs8ZFJiDDRPPock1qmP4V18.jpg",
      "popularity": 15.703,
      "adult": false,
      "known_for_department": "Acting"
    },
    {
      "id": 21278,
      "name": "Alan Alda",
      "profile_path": "/6ccCKFhXiMmjLoiFDyJaU4eJaQO.jpg",
      "popularity": 15.7,
      "adult": false,
      "known_for_department": "Acting"
    },
    {
      "id": 28864,
      "name": "Landry Allbright",
      "profile_path": "/vTjroX0wuJlOtgSjev1mzAjSpGv.jpg",
      "popularity": 15.698,
      "adult": false,
      "known_for_department": "Acting"
    },
    {
      "id": 128628,
      "name": "Scottie Thompson",
      "profile_path": "/fx7b87WwORTZxzq8qWvPZS78phg.jpg",
      "popularity": 15.69,
      "adult": false,
      "known_for_department": "Acting"
    },
    {
      "id": 27172,
      "name": "Peter Guinness",
      "profile_path": "/pqR8SWSR9Ik8PHp5a0NkpMXsbbb.jpg",
      "popularity": 15.686,
      "adult": false,
      "known_for_department": "Acting"
    },
    {
      "id": 1831272,
      "name": "Moemi Katayama",
      "profile_path": "/nQQQhq9cjk6VgfoarD9AnUyRbK6.jpg",
      "popularity": 15.684,
      "adult": false,
      "known_for_department": "Acting"
    },
    {
      "id": 61363,
      "name": "Alex Pettyfer",
      "profile_path": "/jcejkad2OWB71Bz1RRc4Ib0961k.jpg",
      "popularity": 15.683,
      "adult": false,
      "known_for_department": "Acting"
    }
  ]
}