{
  "page": 143,
  "total_results": 10000,
  "total_pages": 500,
  "results": [
    {
      "id": 73357,
      "name": "Eleanor Tomlinson",
      "profile_path": "/A2lE5kvZE3tIpKwpAtKbjsMHpf2.jpg",
      "popularity": 15.479,
      "adult": false,
      "known_for_department": "Acting"
    },
    {
      "id": 1627812,
      "name": "Park Ha-yan",
      "profile_path": "/469yW2z5vlut2h6bSRL7sK306Bi.jpg",
      "popularity": 15.478,
      "adult": false,
      "known_for_department": "Acting"
    },
    {
      "id": 226366,
      "name": "Brian Tyree Henry",
      "profile_path": "/2MsJh0bpyzwvOUnXOltHp3j85Pb.jpg",
      "popularity": 15.478,
      "adult": false,
      "known_for_department": "Acting"
    },
    {
      "id": 24366,
      "name": "Philippe Noiret",
      "profile_path": "/mx5pGU2ZORswk0PnWnvh0dBR1qN.jpg",
      "popularity": 15.476,
      "adult": false,
      "known_for_department": "Acting"
    },
    {
      "id": 88699,
      "name": "Steven R. McQueen",
      "profile_path": "/y07CdWjGxsDU5qiukWpSEFDZT91.jpg",
      "popularity": 15.473,
      "adult": false,
      "known_for_department": "Acting"
    },
    {
      "id": 1371041,
      "name": "Callum Turner",
      "profile_path": "/hV8YXEJF2RkpOJIano3Dwn5V3dH.jpg",
      "popularity": 15.465,
      "adult": false,
      "known_for_department": "Acting"
    },
    {
      "id": 64896,
      "name": "Michael Wong",
      "profile_path": "/vZ54bIBr2OQ0d3Sy0icHFDL9ugU.jpg",
      "popularity": 15.458,
      "adult": false,
      "known_for_department": "Acting"
    },
    {
      "id": 155743,
      "name": "James Lesure",
      "profile_path": "/lJTRqM4iGE7pfOMgBmQtlJrfOh4.jpg",
      "popularity": 15.456,
      "adult": false,
      "known_for_department": "Acting"
    },
    {
      "id": 2955,
      "name": "Chris Cooper",
      "profile_path": "/sJKghcu9wRDIvKM0cI7kqNXYRfS.jpg",
      "popularity": 15.456,
      "adult": false,
      "known_for_department": "Acting"
    },
    {
      "id": 29370,
      "name": "Gregory Harrison",
      "profile_path": "/jAM849EA6rE8N6Ma6i9Ne9qw8gN.jpg",
      "popularity": 15.455,
      "adult": false,
      "known_for_department": "Acting"
    },
    {
      "id": 150954,
      "name": "Diane Farr",
      "profile_path": "/r63GxSo6qYV5Hy2YZK717fMvxYt.jpg",
      "popularity": 15.454,
      "adult": false,
      "known_for_department": "Acting"
    },
    {
      "id": 121769,
      "name": "Eva LaRue",
      "profile_path": "/y5ixiPFhB5tl38AQt7baqjOn6a7.jpg",
      "popularity": 15.452,
      "adult": false,
      "known_for_department": "Acting"
    },
    {
      "id": 4,
      "name": "Carrie Fisher",
      "profile_path": "/veakLIqGCbG0ek3YKfrlzcF72CG.jpg",
      "popularity": 15.452,
      "adult": false,
      "known_for_department": "Acting"
    },
    {
      "id": 33936,
      "name": "Barbara Nedeljakova",
      "profile_path": "/5MAgtYixlm9ULnIQOuXOmOXjVEZ.jpg",
      "popularity": 15.449,
      "adult": false,
      "known_for_department": "Acting"
    },
    {
      "id": 39125,
      "name": "Will Sasso",
      "profile_path": "/4F8p9Dg32WJl12ras7CzQzLFy2i.jpg",
      "popularity": 15.448,
      "adult": false,
      "known_for_department": "Acting"
    },
    {
      "id": 4762,
      "name": "Paul Thomas Anderson",
      "profile_path": "/29DHpRKddqTwo2NU162Y49JoQYa.jpg",
      "popularity": 15.448,
      "adult": false,
      "known_for_department": "Directing"
    },
    {
      "id": 167640,
      "name": "Mayim Bialik",
      "profile_path": "/kPsafWVc5H565iTuwS85LtDvvsf.jpg",
      "popularity": 15.447,
      "adult": false,
      "known_for_department": "Acting"
    },
    {
      "id": 5539,
      "name": "Dawn French",
      "profile_path": "/tbuyXaUMnNePjzIysUxa9isFafD.jpg",
      "popularity": 15.445,
      "adult": false,
      "known_for_department": "Acting"
    },
    {
      "id": 112693,
      "name": "Roxana Zal",
      "profile_path": "/vO1ZAdwQ5ihzTEAwbLzMQd3cCGE.jpg",
      "popularity": 15.444,
      "adult": false,
      "known_for_department": "Acting"
    },
    {
      "id": 3754,
      "name": "Mel Ferrer",
      "profile_path": "/hWYjmKZ5uk1PLxfgedTNnTa6tP9.jpg",
      "popularity": 15.438,
      "adult": false,
      "known_for_department": "Acting"
    }
  ]
}