{
  "page": 250,
  "total_results": 10000,
  "total_pages": 500,
  "results": [
    {
      "id": 1196822,
      "name": "Jessica De Gouw",
      "profile_path": "/pu09eASIUzHPJZMfHPkpFqDZ2RR.jpg",
      "popularity": 10.388,
      "adult": false,
      "known_for_department": "Acting"
    },
    {
      "id": 8872,
      "name": "Rick Moranis",
      "profile_path": "/nCIh203hALUsQW44x3dzpjSA4yf.jpg",
      "popularity": 11.988,
      "adult": false,
      "known_for_department": "Acting"
    },
    {
      "id": 89903,
      "name": "Mamiko Noto",
      "profile_path": "/raDUy21NNUHKAM24OUcQMcp6kAJ.jpg",
      "popularity": 9.588,
      "adult": false,
      "known_for_department": "Acting"
    },
    {
      "id": 20354,
      "name": "Amber Tamblyn",
      "profile_path": "/bzw0lxvtbEnYT7fZ8fn6NeSzMn9.jpg",
      "popularity": 12.788,
      "adult": false,
      "known_for_department": "Acting"
    },
    {
      "id": 1137823,
      "name": "Stacy Martin",
      "profile_path": "/2eRIvurxaDFKqC9BzAAiYhJp90Z.jpg",
      "popularity": 14.787,
      "adult": false,
      "known_for_department": "Acting"
    },
    {
      "id": 34759,
      "name": "Sterling Holloway",
      "profile_path": "/qZt4J4yj645Ted9C38DzwQiQZYc.jpg",
      "popularity": 9.587,
      "adult": false,
      "known_for_department": "Acting"
    },
    {
      "id": 24895,
      "name": "José Garcia",
      "profile_path": "/ml8JHunZl2TCBrcaseqtiEfpykm.jpg",
      "popularity": 8.387,
      "adult": false,
      "known_for_department": "Acting"
    },
    {
      "id": 20768,
      "name": "Cherie Lunghi",
      "profile_path": "/LoIGKqUw3d58MrVsLpw22goYCK.jpg",
      "popularity": 12.787,
      "adult": false,
      "known_for_department": "Acting"
    },
    {
      "id": 2125084,
      "name": "Park Ji-hu",
      "profile_path": "/bZy15WXLhOflOgtQpICbgeeqzm6.jpg",
      "popularity": 13.586,
      "adult": false,
      "known_for_department": "Acting"
    },
    {
      "id": 1252310,
      "name": "Josh McDermitt",
      "profile_path": "/ueZwswzCiJ0KgLNCKnrBNQvl0aE.jpg",
      "popularity": 9.586,
      "adult": false,
      "known_for_department": "Acting"
    },
    {
      "id": 1123505,
      "name": "Kim Jung-nan",
      "profile_path": "/3YzhO1vEURcvmlygJtrPrwNJYjZ.jpg",
      "popularity": 12.786,
      "adult": false,
      "known_for_department": "Acting"
    },
    {
      "id": 131273,
      "name": "Melissa Sue Anderson",
      "profile_path": "/vy4xBjjnAO4rGK9gxzY7gHW08LY.jpg",
      "popularity": 7.985,
      "adult": false,
      "known_for_department": "Acting"
    },
    {
      "id": 1954624,
      "name": "Sibel Taşçıoğlu",
      "profile_path": "/hIQASb24eCFba9ZO36K9s0ZWSYr.jpg",
      "popularity": 14.385,
      "adult": false,
      "known_for_department": "Acting"
    },
    {
      "id": 1803286,
      "name": "Gideon Adlon",
      "profile_path": "/l8BSlg87Mn75n28P2aXzot6G0pi.jpg",
      "popularity": 8.385,
      "adult": false,
      "known_for_department": "Acting"
    },
    {
      "id": 5299,
      "name": "Cassandra Freeman",
      "profile_path": "/qtOxf8cHwmuqO0O3Zlo6GPN04fo.jpg",
      "popularity": 11.185,
      "adult": false,
      "known_for_department": "Acting"
    },
    {
      "id": 24046,
      "name": "John Schuck",
      "profile_path": "/iDV2CsyMbOWe6x70jARVklPz9qo.jpg",
      "popularity": 7.169,
      "adult": false,
      "known_for_department": "Acting"
    },
    {
      "id": 20234,
      "name": "Fanny Ardant",
      "profile_path": "/q8Hj88E3ME5z795haGMqVDwFDjp.jpg",
      "popularity": 9.984,
      "adult": false,
      "known_for_department": "Acting"
    },
    {
      "id": 6449,
      "name": "Warren Beatty",
      "profile_path": "/4IDilrr21iRKv75QOwNKJPC3WgW.jpg",
      "popularity": 12.384,
      "adult": false,
      "known_for_department": "Acting"
    },
    {
      "id": 500427,
      "name": "Hannibal Buress",
      "profile_path": "/mcw3Orbg4vbALXTVG4hriZjH1sj.jpg",
      "popularity": 7.184,
      "adult": false,
      "known_for_department": "Acting"
    },
    {
      "id": 83686,
      "name": "May Lo Mei-Wei",
      "profile_path": "/aMYR4JYfzFnRpvNOVXQKCHepPIK.jpg",
      "popularity": 11.984,
      "adult": false,
      "known_for_department": "Acting"
    }
  ]
}