{
  "page": 75,
  "total_results": 10000,
  "total_pages": 500,
  "results": [
    {
      "id": 6941,
      "name": "Cameron Diaz",
      "profile_path": "/tIWUyvmJayu8gtbrzCWC0L3H8kH.jpg",
      "popularity": 13.497,
      "adult": false,
      "known_for_department": "Acting"
    },
    {
      "id": 221581,
      "name": "Rebel Wilson",
      "profile_path": "/6iAFqhVcOSLjeZq83mONpx99NAQ.jpg",
      "popularity": 17.896,
      "adult": false,
      "known_for_department": "Acting"
    },
    {
      "id": 210688,
      "name": "Kylee Russell",
      "profile_path": "/5drXBqivTtlHBQB1GQMaw4zvFbR.jpg",
      "popularity": 21.091,
      "adult": false,
      "known_for_department": "Acting"
    },
    {
      "id": 1276759,
      "name": "Machine Gun Kelly",
      "profile_path": "/astSdaQqoYyI4p694WEllO6q3aN.jpg",
      "popularity": 15.087,
      "adult": false,
      "known_for_department": "Acting"
    },
    {
      "id": 11024,
      "name": "Kelly Hu",
      "profile_path": "/2s8l6WvXyoDf0RbLeFGZvEclmds.jpg",
      "popularity": 15.487,
      "adult": false,
      "known_for_department": "Acting"
    },
    {
      "id": 84247,
      "name": "Emily VanCamp",
      "profile_path": "/zTl2KVglr7D7jnBLjbqe1BbbJiV.jpg",
      "popularity": 13.487,
      "adult": false,
      "known_for_department": "Acting"
    },
    {
      "id": 106836,
      "name": "Alonna Shaw",
      "profile_path": "/mgKOOY18bTKQ0N0DL9vLPbkGKiN.jpg",
      "popularity": 11.766,
      "adult": false,
      "known_for_department": "Acting"
    },
    {
      "id": 22125,
      "name": "Jimmi Simpson",
      "profile_path": "/nlTmd997MJX2y5bGSM9Msirwtld.jpg",
      "popularity": 17.082,
      "adult": false,
      "known_for_department": "Acting"
    },
    {
      "id": 6979,
      "name": "Romola Garai",
      "profile_path": "/xLNhomrHLIB5CY5lvmlsKAqBzlk.jpg",
      "popularity": 13.082,
      "adult": false,
      "known_for_department": "Acting"
    },
    {
      "id": 7055,
      "name": "Sienna Guillory",
      "profile_path": "/rpnWJT1d61GwnG9bQoGSxWbIaL4.jpg",
      "popularity": 17.082,
      "adult": false,
      "known_for_department": "Acting"
    },
    {
      "id": 6575,
      "name": "Gil Bellows",
      "profile_path": "/eCOIv2nSGnWTHdn88NoMyNOKWyR.jpg",
      "popularity": 17.082,
      "adult": false,
      "known_for_department": "Acting"
    },
    {
      "id": 690,
      "name": "Ke Huy Quan",
      "profile_path": "/12Nty7ZxuJXoANc5qDQ7U6gYhnI.jpg",
      "popularity": 27.446,
      "adult": false,
      "known_for_department": "Acting"
    },
    {
      "id": 101565,
      "name": "Madison Riley",
      "profile_path": "/v7PkhDJoNnMqraMU8prrVtlJXvJ.jpg",
      "popularity": 13.881,
      "adult": false,
      "known_for_department": "Acting"
    },
    {
      "id": 34434,
      "name": "Missy Peregrym",
      "profile_path": "/364PJwTQLpWjGfNisQm47Dler08.jpg",
      "popularity": 19.08,
      "adult": false,
      "known_for_department": "Acting"
    },
    {
      "id": 133,
      "name": "Peter Sarsgaard",
      "profile_path": "/jOc4VjxPaOkWOqnLCxd8BJy9g5i.jpg",
      "popularity": 18.278,
      "adult": false,
      "known_for_department": "Acting"
    },
    {
      "id": 128628,
      "name": "Scottie Thompson",
      "profile_path": "/fx7b87WwORTZxzq8qWvPZS78phg.jpg",
      "popularity": 13.877,
      "adult": false,
      "known_for_department": "Acting"
    },
    {
      "id": 16856,
      "name": "Gabriel Macht",
      "profile_path": "/mc0zlgOviaVnfrIQ0igHDg4sHH0.jpg",
      "popularity": 19.476,
      "adult": false,
      "known_for_department": "Acting"
    },
    {
      "id": 972356,
      "name": "Luke Bracey",
      "profile_path": "/ot2h7IrXpC8XSnIZDSVsj2FQ5cx.jpg",
      "popularity": 14.672,
      "adult": false,
      "known_for_department": "Acting"
    },
    {
      "id": 74577,
      "name": "Elizabeth Tulloch",
      "profile_path": "/trC9dIUvgXyG2dDbofG75g4aMkK.jpg",
      "popularity": 17.071,
      "adult": false,
      "known_for_department": "Acting"
    },
    {
      "id": 11614,
      "name": "M. Night Shyamalan",
      "profile_path": "/tOhFWjauKvJgjCVLJFnhbBCZuxZ.jpg",
      "popularity": 16.268,
      "adult": false,
      "known_for_department": "Directing"
    }
  ]
}