{
  "page": 368,
  "total_results": 10000,
  "total_pages": 500,
  "results": [
    {
      "id": 2479,
      "name": "Rupert Vansittart",
      "profile_path": "/lNrqLH0ombV0PoF3KilDzX1ujI9.jpg",
      "popularity": 9.379,
      "adult": false,
      "known_for_department": "Acting"
    },
    {
      "id": 556829,
      "name": "Chrissie Chau",
      "profile_path": "/6xqULglqa6oxanRzfg4tmAr7SkB.jpg",
      "popularity": 9.378,
      "adult": false,
      "known_for_department": "Acting"
    },
    {
      "id": 237967,
      "name": "Hansika Motwani",
      "profile_path": "/3xCuu8Wwj8TCCtYjVTiXt1nGTtn.jpg",
      "popularity": 9.378,
      "adult": false,
      "known_for_department": "Acting"
    },
    {
      "id": 139044,
      "name": "Maia Brewton",
      "profile_path": "/w10sqQx1ANA2KFwYc37gS4Kl8Up.jpg",
      "popularity": 9.378,
      "adult": false,
      "known_for_department": "Acting"
    },
    {
      "id": 33684,
      "name": "Bono",
      "profile_path": "/r1jCFctRrEAHBHOyJun8rWCH0AD.jpg",
      "popularity": 9.378,
      "adult": false,
      "known_for_department": "Acting"
    },
    {
      "id": 1160576,
      "name": "Noel Chik King-Man",
      "profile_path": "/jSrDLjCuoXch3BhWmXCimppczIR.jpg",
      "popularity": 9.377,
      "adult": false,
      "known_for_department": "Acting"
    },
    {
      "id": 67230,
      "name": "Bill Thompson",
      "profile_path": "/52fphnQBVzgf9yDlcIuZRLluKsA.jpg",
      "popularity": 9.377,
      "adult": false,
      "known_for_department": "Acting"
    },
    {
      "id": 19111,
      "name": "John Anderson",
      "profile_path": "/wcliAvgKHkwUmxkMUIGETp9tk1d.jpg",
      "popularity": 9.377,
      "adult": false,
      "known_for_department": "Acting"
    },
    {
      "id": 1258448,
      "name": "Gonca Vuslateri",
      "profile_path": "/uu4260SGjvRXndhYtGXo9jpO6Gc.jpg",
      "popularity": 9.376,
      "adult": false,
      "known_for_department": "Acting"
    },
    {
      "id": 3492,
      "name": "Colin Hanks",
      "profile_path": "/xe44rLf5CbEY0ovNaOD0RIy5VCJ.jpg",
      "popularity": 9.376,
      "adult": false,
      "known_for_department": "Acting"
    },
    {
      "id": 142115,
      "name": "Kiana Madeira",
      "profile_path": "/HgCI95xnSZJaE18d15n7PykOU7.jpg",
      "popularity": 9.372,
      "adult": false,
      "known_for_department": "Acting"
    },
    {
      "id": 38583,
      "name": "Ivan Sergei",
      "profile_path": "/2UML9oX6NfJqYDALnT6U32kMOnF.jpg",
      "popularity": 9.372,
      "adult": false,
      "known_for_department": "Acting"
    },
    {
      "id": 16418,
      "name": "Casey Kasem",
      "profile_path": "/59kecPxxPIO8uwzaRZAOSDE1l80.jpg",
      "popularity": 9.372,
      "adult": false,
      "known_for_department": "Acting"
    },
    {
      "id": 42802,
      "name": "Salman Khan",
      "profile_path": "/gxKwCCcs777HzsXRpdGsBV87pXn.jpg",
      "popularity": 9.371,
      "adult": false,
      "known_for_department": "Acting"
    },
    {
      "id": 206928,
      "name": "Maxwell Perry Cotton",
      "profile_path": "/mk4x51e1a1vTF3KiOt8AtnN7jRh.jpg",
      "popularity": 9.37,
      "adult": false,
      "known_for_department": "Acting"
    },
    {
      "id": 1328338,
      "name": "Chihiro Yamamoto",
      "profile_path": "/rdrIuK5bxqJIPdolAhsAlMqn4pM.jpg",
      "popularity": 9.369,
      "adult": false,
      "known_for_department": "Acting"
    },
    {
      "id": 972671,
      "name": "William Levy",
      "profile_path": "/fi1k181dsQfV6rtK7zd8m62Wq4L.jpg",
      "popularity": 9.368,
      "adult": false,
      "known_for_department": "Acting"
    },
    {
      "id": 107701,
      "name": "Ingar Helge Gimle",
      "profile_path": "/1wNiK1L4N8u4VN8YnejHo4Mj2uW.jpg",
      "popularity": 9.367,
      "adult": false,
      "known_for_department": "Acting"
    },
    {
      "id": 30044,
      "name": "Bo Svenson",
      "profile_path": "/x3u2yAK3nQh8adEn5f3Xdchd8q5.jpg",
      "popularity": 9.367,
      "adult": false,
      "known_for_department": "Acting"
    },
    {
      "id": 11115,
      "name": "Peter Serafinowicz",
      "profile_path": "/atXOX0UQzIZkcnpNj1cluBdHwAE.jpg",
      "popularity": 9.367,
      "adult": false,
      "known_for_department": "Acting"
    }
  ]
}