{
  "page": 422,
  "total_results": 10000,
  "total_pages": 500,
  "results": [
    {
      "id": 154395,
      "name": "Jean St. James",
      "profile_path": "/8af0uTJHkkVVC4oFC6bNZsxLgfO.jpg",
      "popularity": 8.737,
      "adult": false,
      "known_for_department": "Acting"
    },
    {
      "id": 16859,
      "name": "Tammy Blanchard",
      "profile_path": "/ztbtRXEBJaOiQevIn0xNKAzu9MU.jpg",
      "popularity": 8.737,
      "adult": false,
      "known_for_department": "Acting"
    },
    {
      "id": 11276,
      "name": "Tim Pigott-Smith",
      "profile_path": "/37OZUY7cq8eoWxhKR2VD1ppusJM.jpg",
      "popularity": 8.737,
      "adult": false,
      "known_for_department": "Acting"
    },
    {
      "id": 6321,
      "name": "Valente Rodriguez",
      "profile_path": "/oXgz7Jt6BnixHDr1KDg0HVmkxrI.jpg",
      "popularity": 8.737,
      "adult": false,
      "known_for_department": "Acting"
    },
    {
      "id": 1028454,
      "name": "Emma Fuhrmann",
      "profile_path": "/g65GKrbFaAVI1i0m10hjJm0JyD1.jpg",
      "popularity": 8.736,
      "adult": false,
      "known_for_department": "Acting"
    },
    {
      "id": 157412,
      "name": "Charles Esten",
      "profile_path": "/hCCSR5Ia7KkBpN0Gvkuplq0AcfG.jpg",
      "popularity": 8.736,
      "adult": false,
      "known_for_department": "Acting"
    },
    {
      "id": 2586672,
      "name": "Karen Eng",
      "profile_path": "/rnlmLwCDTeJNa03VnNtIc9lqQzv.jpg",
      "popularity": 8.733,
      "adult": false,
      "known_for_department": "Acting"
    },
    {
      "id": 59176,
      "name": "Jenna Boyd",
      "profile_path": "/tDMgyuY9KwFHpmJdqyi51aGOkCe.jpg",
      "popularity": 8.733,
      "adult": false,
      "known_for_department": "Acting"
    },
    {
      "id": 40644,
      "name": "Chad Stahelski",
      "profile_path": "/eRCryGwKDH4XqUlrdkERmeBWPo8.jpg",
      "popularity": 8.733,
      "adult": false,
      "known_for_department": "Directing"
    },
    {
      "id": 1011102,
      "name": "Jesse Lee Soffer",
      "profile_path": "/9UUAzXCwWx8Un6XJ2z1Mh5XyEU6.jpg",
      "popularity": 8.732,
      "adult": false,
      "known_for_department": "Acting"
    },
    {
      "id": 102861,
      "name": "Brenda Benet",
      "profile_path": "/a7Mh7qsXUnge67RCggAjzbNQeiW.jpg",
      "popularity": 8.732,
      "adult": false,
      "known_for_department": "Acting"
    },
    {
      "id": 98902,
      "name": "Bebe Drake",
      "profile_path": "/pSIS3aBdOlxlTzw6MKinGqK3OC9.jpg",
      "popularity": 8.732,
      "adult": false,
      "known_for_department": "Acting"
    },
    {
      "id": 183538,
      "name": "Barry Sloane",
      "profile_path": "/u3MTyGPwfzNOWSEwA51kKzF2Q22.jpg",
      "popularity": 8.73,
      "adult": false,
      "known_for_department": "Acting"
    },
    {
      "id": 6079,
      "name": "Ivan Shvedoff",
      "profile_path": "/33k3avFGiydICwCBvF0PZoNGcIx.jpg",
      "popularity": 8.73,
      "adult": false,
      "known_for_department": "Acting"
    },
    {
      "id": 7,
      "name": "Andrew Stanton",
      "profile_path": "/gasNitCwepbqNcYBmDHpsCgZH0I.jpg",
      "popularity": 8.729,
      "adult": false,
      "known_for_department": "Writing"
    },
    {
      "id": 112824,
      "name": "Aisling Loftus",
      "profile_path": "/vV7EelEuhfXlpsitjhscuZMXbgj.jpg",
      "popularity": 8.728,
      "adult": false,
      "known_for_department": "Acting"
    },
    {
      "id": 62831,
      "name": "Will Forte",
      "profile_path": "/kphnirb7YggSVEhGI47kACxaIJQ.jpg",
      "popularity": 8.728,
      "adult": false,
      "known_for_department": "Acting"
    },
    {
      "id": 41406,
      "name": "Stuart Margolin",
      "profile_path": "/aTFeKqGovaRWLLUMjBu55hMPWm3.jpg",
      "popularity": 8.728,
      "adult": false,
      "known_for_department": "Acting"
    },
    {
      "id": 1442054,
      "name": "Alison Thornton",
      "profile_path": "/vVUrOSyn7kr6vtGUb6bY9H8OFBZ.jpg",
      "popularity": 8.722,
      "adult": false,
      "known_for_department": "Acting"
    },
    {
      "id": 178058,
      "name": "Karen Robinson",
      "profile_path": "/995Jzga6OLGjijMd1znZpOdPkWx.jpg",
      "popularity": 8.722,
      "adult": false,
      "known_for_department": "Acting"
    }
  ]
}