{
  "page": 299,
  "total_results": 10000,
  "total_pages": 500,
  "results": [
    {
      "id": 1332971,
      "name": "Dean-Charles Chapman",
      "profile_path": "/xIVxI2ECxxN5J2XNkHPjRax0IHc.jpg",
      "popularity": 10.385,
      "adult": false,
      "known_for_department": "Acting"
    },
    {
      "id": 1115068,
      "name": "Mei Nagano",
      "profile_path": "/zI30FzyetpAENTcADmswChoKZlz.jpg",
      "popularity": 10.385,
      "adult": false,
      "known_for_department": "Acting"
    },
    {
      "id": 80257,
      "name": "Bernie Kopell",
      "profile_path": "/kuHi3i207f4qOcxUVTWMgETsw0u.jpg",
      "popularity": 10.385,
      "adult": false,
      "known_for_department": "Acting"
    },
    {
      "id": 48071,
      "name": "Lobo Sebastian",
      "profile_path": "/jY11dhfqwvh5BTx0cVU5ZooHcpU.jpg",
      "popularity": 10.385,
      "adult": false,
      "known_for_department": "Acting"
    },
    {
      "id": 1475091,
      "name": "Darla Taylor",
      "profile_path": "/26Et5SxOcHh3juiMfJBHeVYvrgz.jpg",
      "popularity": 10.384,
      "adult": false,
      "known_for_department": "Acting"
    },
    {
      "id": 928581,
      "name": "Hugo Eric Louis van Lawick",
      "profile_path": "/8AH0pXEWZNHzQ7ESkpwzvnFdvhu.jpg",
      "popularity": 10.384,
      "adult": false,
      "known_for_department": "Acting"
    },
    {
      "id": 53688,
      "name": "Lily Cole",
      "profile_path": "/3FMhejoBwtmfkkoS9vgJAxYa7fy.jpg",
      "popularity": 10.384,
      "adult": false,
      "known_for_department": "Acting"
    },
    {
      "id": 26760,
      "name": "Tsui Hark",
      "profile_path": "/9WTG1Feva6S7n09dxON40KHBsuk.jpg",
      "popularity": 10.381,
      "adult": false,
      "known_for_department": "Directing"
    },
    {
      "id": 139310,
      "name": "Lucy DeVito",
      "profile_path": "/jlLyxmuAe56QuOL02D8zfqpl1Bn.jpg",
      "popularity": 10.38,
      "adult": false,
      "known_for_department": "Acting"
    },
    {
      "id": 115128,
      "name": "Bo Burnham",
      "profile_path": "/xMAatohXadCfz9ipvqvIaTLwOmV.jpg",
      "popularity": 10.38,
      "adult": false,
      "known_for_department": "Acting"
    },
    {
      "id": 75066,
      "name": "Tom Brooke",
      "profile_path": "/pUQ3KyfTLPLkBP8KvCcwEyHUMB7.jpg",
      "popularity": 10.38,
      "adult": false,
      "known_for_department": "Acting"
    },
    {
      "id": 2260418,
      "name": "Kim Young-dae",
      "profile_path": "/zvNIxcJA0ACKOjrAUaHE6hHxtYm.jpg",
      "popularity": 10.378,
      "adult": false,
      "known_for_department": "Acting"
    },
    {
      "id": 1237976,
      "name": "Kim Tae-hee",
      "profile_path": "/vFZZ2Gsu416CCD4QkYyVocgOa7C.jpg",
      "popularity": 10.377,
      "adult": false,
      "known_for_department": "Acting"
    },
    {
      "id": 70839,
      "name": "Emilia Schüle",
      "profile_path": "/em77YMVTapnvCSq44Bs99OcDdLv.jpg",
      "popularity": 10.377,
      "adult": false,
      "known_for_department": "Acting"
    },
    {
      "id": 9896,
      "name": "Daniela Bianchi",
      "profile_path": "/iLBCTCXd9moMN6RuKZ0Ys3v12hD.jpg",
      "popularity": 10.377,
      "adult": false,
      "known_for_department": "Acting"
    },
    {
      "id": 145633,
      "name": "Noémie Lenoir",
      "profile_path": "/6qUNl0kczXHMN4yHrsDYEcEjw3O.jpg",
      "popularity": 10.376,
      "adult": false,
      "known_for_department": "Acting"
    },
    {
      "id": 1276,
      "name": "Patricia Clarkson",
      "profile_path": "/rHHM9G83fpBAcFathbSyV4Tot5j.jpg",
      "popularity": 10.374,
      "adult": false,
      "known_for_department": "Acting"
    },
    {
      "id": 10584,
      "name": "Heidi Klum",
      "profile_path": "/UZiPxAUSkXJsXaHTJDnlW9lqnX.jpg",
      "popularity": 10.371,
      "adult": false,
      "known_for_department": "Acting"
    },
    {
      "id": 2124,
      "name": "Iman",
      "profile_path": "/xhJ7gUVUP1TzkC4RuNStV1Bzng1.jpg",
      "popularity": 10.371,
      "adult": false,
      "known_for_department": "Acting"
    },
    {
      "id": 120138,
      "name": "Francesca Chillemi",
      "profile_path": "/gNXvjq01gFpsz3pER2BOc29SqDh.jpg",
      "popularity": 10.368,
      "adult": false,
      "known_for_department": "Acting"
    }
  ]
}