{
  "page": 399,
  "total_results": 10000,
  "total_pages": 500,
  "results": [
    {
      "id": 119589,
      "name": "Donald Glover",
      "profile_path": "/nilV7NtnML6PDa9VrvxD79F85K9.jpg",
      "popularity": 8.618,
      "adult": false,
      "known_for_department": "Acting"
    },
    {
      "id": 21368,
      "name": "Peter Strauss",
      "profile_path": "/nu2QWP09Ju0eMabE0hEmYjm1c6V.jpg",
      "popularity": 8.618,
      "adult": false,
      "known_for_department": "Acting"
    },
    {
      "id": 523,
      "name": "Tom Jones",
      "profile_path": "/A88iOPpDT6In8tWvl9LWyxLPHzR.jpg",
      "popularity": 8.618,
      "adult": false,
      "known_for_department": "Acting"
    },
    {
      "id": 148360,
      "name": "Ajith Kumar",
      "profile_path": "/bCS0pp7YNHoXJvHObBLoOJRUUYs.jpg",
      "popularity": 8.617,
      "adult": false,
      "known_for_department": "Acting"
    },
    {
      "id": 112278,
      "name": "Wataru Takagi",
      "profile_path": "/amccLvyTl5JP7T9F05BojgQedNw.jpg",
      "popularity": 8.617,
      "adult": false,
      "known_for_department": "Acting"
    },
    {
      "id": 1855300,
      "name": "Liang Jie",
      "profile_path": "/pYYvBkKizMO8vulvZNNdqEkEYPL.jpg",
      "popularity": 8.616,
      "adult": false,
      "known_for_department": "Acting"
    },
    {
      "id": 556959,
      "name": "Kirstin Dorn",
      "profile_path": "/wkjOxE7CtSAxIsrcFyXGM4Tflp7.jpg",
      "popularity": 8.615,
      "adult": false,
      "known_for_department": "Acting"
    },
    {
      "id": 2209661,
      "name": "Mayuu Yokota",
      "profile_path": "/exFfh2bBDBEMbUWAkvgmJfwk7i6.jpg",
      "popularity": 8.614,
      "adult": false,
      "known_for_department": "Acting"
    },
    {
      "id": 52806,
      "name": "Erika Sawajiri",
      "profile_path": "/iTbOYimZDSgsDFOQEzFwIcevnpD.jpg",
      "popularity": 8.613,
      "adult": false,
      "known_for_department": "Acting"
    },
    {
      "id": 10510,
      "name": "Kabir Bedi",
      "profile_path": "/69kagqAmZuKE9vwuUwBER9TNbpv.jpg",
      "popularity": 8.613,
      "adult": false,
      "known_for_department": "Acting"
    },
    {
      "id": 3294,
      "name": "Sharon Small",
      "profile_path": "/yRlVnUrp7yDJet6UGsugQ7EblhD.jpg",
      "popularity": 8.612,
      "adult": false,
      "known_for_department": "Acting"
    },
    {
      "id": 762,
      "name": "Ali Soliman",
      "profile_path": "/fG9V68oshqkuDSSRkLZdCci6z1Q.jpg",
      "popularity": 8.611,
      "adult": false,
      "known_for_department": "Acting"
    },
    {
      "id": 1668475,
      "name": "Sun Yihan",
      "profile_path": "/bk8y8pE9xssy3BG2OGD1SgfU4cm.jpg",
      "popularity": 8.61,
      "adult": false,
      "known_for_department": "Acting"
    },
    {
      "id": 1253783,
      "name": "Ryoko Yonekura",
      "profile_path": "/ia388U4HEvnpQ5ATYkIMqdiAqgV.jpg",
      "popularity": 8.61,
      "adult": false,
      "known_for_department": "Acting"
    },
    {
      "id": 11520,
      "name": "Michael C. Maronna",
      "profile_path": "/vLmaPosdi7sLutyg5QkJHceRY5F.jpg",
      "popularity": 8.609,
      "adult": false,
      "known_for_department": "Acting"
    },
    {
      "id": 1255907,
      "name": "Echo Kellum",
      "profile_path": "/dI8sugd93NwhdlRWWL7HidG49xO.jpg",
      "popularity": 8.607,
      "adult": false,
      "known_for_department": "Acting"
    },
    {
      "id": 90596,
      "name": "Katie Featherston",
      "profile_path": "/zfoprDirNsWxvxDKvRzUyPXKGR6.jpg",
      "popularity": 8.607,
      "adult": false,
      "known_for_department": "Acting"
    },
    {
      "id": 64731,
      "name": "Tiffany Paulsen",
      "profile_path": "/8xJqAYlky3Fht5OuJP802i2TYGB.jpg",
      "popularity": 8.607,
      "adult": false,
      "known_for_department": "Writing"
    },
    {
      "id": 25838,
      "name": "Caroline Cellier",
      "profile_path": "/1DBAyevHlLg91aqo7bIqEh32GUE.jpg",
      "popularity": 8.607,
      "adult": false,
      "known_for_department": "Acting"
    },
    {
      "id": 18472,
      "name": "Kevin Corrigan",
      "profile_path": "/cAU4b3tV02YwFiikfZ0OkckBUmP.jpg",
      "popularity": 8.607,
      "adult": false,
      "known_for_department": "Acting"
    }
  ]
}