{
  "page": 318,
  "total_results": 10000,
  "total_pages": 500,
  "results": [
    {
      "id": 4753,
      "name": "Brian Bloom",
      "profile_path": "/9mZKhI3aVbzZ5Xq43n7fGzWAqi0.jpg",
      "popularity": 8.925,
      "adult": false,
      "known_for_department": "Acting"
    },
    {
      "id": 29479,
      "name": "Jennifer O'Dell",
      "profile_path": "/fQ3nLCHfxj5hVsYQWSEA1ZeVzo7.jpg",
      "popularity": 8.924,
      "adult": false,
      "known_for_department": "Acting"
    },
    {
      "id": 2692493,
      "name": "Abbie Hern",
      "profile_path": "/duZ7DxzjMxOeFPB7VyIFuHtczAM.jpg",
      "popularity": 8.923,
      "adult": false,
      "known_for_department": "Acting"
    },
    {
      "id": 1439699,
      "name": "Sus Wilkins",
      "profile_path": "/t6qtKdcqI3EpsxnhDIIsHUjCSCE.jpg",
      "popularity": 8.923,
      "adult": false,
      "known_for_department": "Acting"
    },
    {
      "id": 1281250,
      "name": "Rob Morgan",
      "profile_path": "/yIQd0L0kn1HyZGeEMkUREzMslP0.jpg",
      "popularity": 8.923,
      "adult": false,
      "known_for_department": "Acting"
    },
    {
      "id": 5203,
      "name": "Alicja Bachleda-Curuś",
      "profile_path": "/ojL25lx4zeHccDDdM6r78L5Vnxw.jpg",
      "popularity": 8.921,
      "adult": false,
      "known_for_department": "Acting"
    },
    {
      "id": 21532,
      "name": "Sam Ball",
      "profile_path": "/cjwDBnmlRTy2sVsplXGOIHC5ldM.jpg",
      "popularity": 8.92,
      "adult": false,
      "known_for_department": "Acting"
    },
    {
      "id": 10437,
      "name": "Lily Tomlin",
      "profile_path": "/zp2DDnaUenDDeoRJjrSCSDtYtxH.jpg",
      "popularity": 8.92,
      "adult": false,
      "known_for_department": "Acting"
    },
    {
      "id": 3515419,
      "name": "Frankie Corio",
      "profile_path": "/4NtcQooPhDYOr5lzkk5mgtSVZcl.jpg",
      "popularity": 8.918,
      "adult": false,
      "known_for_department": "Acting"
    },
    {
      "id": 65471,
      "name": "Mimi Kuzyk",
      "profile_path": "/ok0F4XKdoA0fna2ILz656PLo1Yr.jpg",
      "popularity": 8.918,
      "adult": false,
      "known_for_department": "Acting"
    },
    {
      "id": 53285,
      "name": "Earl Hindman",
      "profile_path": "/pn5NlRAfwSN7Pbn9TlZleXYRGUs.jpg",
      "popularity": 8.918,
      "adult": false,
      "known_for_department": "Acting"
    },
    {
      "id": 1499555,
      "name": "Sarah Brooks",
      "profile_path": "/lgBpDA2xlhtdWToZ1udvXPQPjJh.jpg",
      "popularity": 8.914,
      "adult": false,
      "known_for_department": "Acting"
    },
    {
      "id": 2359492,
      "name": "Fairouz Ai",
      "profile_path": "/coFu6WOVBZvqd1fw89vbHkiC0zB.jpg",
      "popularity": 8.913,
      "adult": false,
      "known_for_department": "Acting"
    },
    {
      "id": 144773,
      "name": "Show Hayami",
      "profile_path": "/w4D18qqd1GLgJZW0TfimDGiUCi2.jpg",
      "popularity": 8.913,
      "adult": false,
      "known_for_department": "Acting"
    },
    {
      "id": 1173231,
      "name": "Ben Lamb",
      "profile_path": "/mxbN5DgsT1YMFaEo7FZ4uMAJ14b.jpg",
      "popularity": 8.912,
      "adult": false,
      "known_for_department": "Acting"
    },
    {
      "id": 1674830,
      "name": "John Reynolds",
      "profile_path": "/1yzDTZqIeFQaI4i8eGC0TB1UfZg.jpg",
      "popularity": 8.911,
      "adult": false,
      "known_for_department": "Acting"
    },
    {
      "id": 1134097,
      "name": "Amy Pemberton",
      "profile_path": "/kQ2PuLv1a3wRgjWZOCTAyo5ULsK.jpg",
      "popularity": 8.911,
      "adult": false,
      "known_for_department": "Acting"
    },
    {
      "id": 82537,
      "name": "Søren Malling",
      "profile_path": "/5jmNDae49UgMGMOKTdjIqb8klUg.jpg",
      "popularity": 8.911,
      "adult": false,
      "known_for_department": "Acting"
    },
    {
      "id": 94864,
      "name": "Max Martini",
      "profile_path": "/3J9qjWkft7LsmHuQ0GHPnPIToOF.jpg",
      "popularity": 8.91,
      "adult": false,
      "known_for_department": "Acting"
    },
    {
      "id": 30112,
      "name": "Glenn Strange",
      "profile_path": "/ytGlk7eVUkAm2JSF2fZbddjFIjV.jpg",
      "popularity": 8.909,
      "adult": false,
      "known_for_department": "Acting"
    }
  ]
}