{
  "page": 238,
  "total_results": 10000,
  "total_pages": 500,
  "results": [
    {
      "id": 1123401,
      "name": "Yu Kobayashi",
      "profile_path": "/q98lvBNhHvxGYfIvfB3YRczsTeE.jpg",
      "popularity": 11.688,
      "adult": false,
      "known_for_department": "Acting"
    },
    {
      "id": 45453,
      "name": "Eleanor Bron",
      "profile_path": "/jQbsHbeh9AdMyeLf8sS3UkGGHl.jpg",
      "popularity": 11.686,
      "adult": false,
      "known_for_department": "Acting"
    },
    {
      "id": 20584,
      "name": "Lucy Lawless",
      "profile_path": "/s3FqnfsjIEkWibx8QFtbyq5VnZL.jpg",
      "popularity": 11.684,
      "adult": false,
      "known_for_department": "Acting"
    },
    {
      "id": 84457,
      "name": "Marisol Nichols",
      "profile_path": "/9vSFX3NqyjhKLT6EBVwuzrt9eDS.jpg",
      "popularity": 11.683,
      "adult": false,
      "known_for_department": "Acting"
    },
    {
      "id": 11109,
      "name": "Nick Frost",
      "profile_path": "/2CHS4t6miNGLgMQAjhFqb4fFuKS.jpg",
      "popularity": 11.681,
      "adult": false,
      "known_for_department": "Acting"
    },
    {
      "id": 1902690,
      "name": "Michelle Randolph",
      "profile_path": "/fLXXKLjhbMigNiiAoQIx7l2Fsht.jpg",
      "popularity": 11.673,
      "adult": false,
      "known_for_department": "Acting"
    },
    {
      "id": 6979,
      "name": "Romola Garai",
      "profile_path": "/xLNhomrHLIB5CY5lvmlsKAqBzlk.jpg",
      "popularity": 11.673,
      "adult": false,
      "known_for_department": "Acting"
    },
    {
      "id": 1515230,
      "name": "Violett Beane",
      "profile_path": "/5Y8WJoSXQzOivv3juWEyGFwfLJ4.jpg",
      "popularity": 11.672,
      "adult": false,
      "known_for_department": "Acting"
    },
    {
      "id": 210824,
      "name": "Kristen Connolly",
      "profile_path": "/zPXAK1KoQ78lYyBS7nmzbQNVxpl.jpg",
      "popularity": 11.672,
      "adult": false,
      "known_for_department": "Acting"
    },
    {
      "id": 117296,
      "name": "Claudia Koll",
      "profile_path": "/eciHuBo18R1CebFlOtQLONDOGxL.jpg",
      "popularity": 11.671,
      "adult": false,
      "known_for_department": "Acting"
    },
    {
      "id": 10461,
      "name": "Caroline Munro",
      "profile_path": "/CroSsO59Xc1ZddNDxRIH2qaj2I.jpg",
      "popularity": 11.671,
      "adult": false,
      "known_for_department": "Acting"
    },
    {
      "id": 56358,
      "name": "Patricia Belcher",
      "profile_path": "/8h5cLajSjv3fLIeAyuYyNxj7gte.jpg",
      "popularity": 11.67,
      "adult": false,
      "known_for_department": "Acting"
    },
    {
      "id": 70303,
      "name": "Zach Gilford",
      "profile_path": "/z7PA2poYtjl9KSy4S0IgW6d5Y9.jpg",
      "popularity": 11.669,
      "adult": false,
      "known_for_department": "Acting"
    },
    {
      "id": 128629,
      "name": "Crystal Reed",
      "profile_path": "/ydU1CRWTHVnF8Q45LJPktMuXa74.jpg",
      "popularity": 11.667,
      "adult": false,
      "known_for_department": "Acting"
    },
    {
      "id": 1472783,
      "name": "Grace Van Patten",
      "profile_path": "/oXTngLiWFxOsXjSlOel6vYAwWQ0.jpg",
      "popularity": 11.666,
      "adult": false,
      "known_for_department": "Acting"
    },
    {
      "id": 93996,
      "name": "Jang Young-nam",
      "profile_path": "/u0hl8WSswFhKVaKwaMAERU0xUJk.jpg",
      "popularity": 11.666,
      "adult": false,
      "known_for_department": "Acting"
    },
    {
      "id": 20187,
      "name": "Camryn Manheim",
      "profile_path": "/eI42MrAyzJ3vbiGSIQB0FCwecba.jpg",
      "popularity": 11.666,
      "adult": false,
      "known_for_department": "Acting"
    },
    {
      "id": 239927,
      "name": "Im Ha-ryong",
      "profile_path": "/u3GvkCflbBNEwFHnuQqWrVGppM2.jpg",
      "popularity": 11.664,
      "adult": false,
      "known_for_department": "Acting"
    },
    {
      "id": 99841,
      "name": "Paula Shaw",
      "profile_path": "/ywZYgoqdKEoi84xlYoZhEms1vJU.jpg",
      "popularity": 11.663,
      "adult": false,
      "known_for_department": "Acting"
    },
    {
      "id": 25626,
      "name": "Robert Ridgely",
      "profile_path": "",
      "popularity": 11.663,
      "adult": false,
      "known_for_department": "Acting"
    }
  ]
}