{
  "page": 231,
  "total_results": 10000,
  "total_pages": 500,
  "results": [
    {
      "id": 47536,
      "name": "Cheryl Campbell",
      "profile_path": "/67bBGkpbuZQtepdba4z3wmROYwv.jpg",
      "popularity": 11.776,
      "adult": false,
      "known_for_department": "Acting"
    },
    {
      "id": 164094,
      "name": "Marin Ireland",
      "profile_path": "/jAIOQNraHjvIAdqk81QDV5Phupp.jpg",
      "popularity": 11.774,
      "adult": false,
      "known_for_department": "Acting"
    },
    {
      "id": 1491344,
      "name": "Renata Notni",
      "profile_path": "/9K3ciInRuT5BiJ03HD4YTnRsunY.jpg",
      "popularity": 11.773,
      "adult": false,
      "known_for_department": "Acting"
    },
    {
      "id": 227638,
      "name": "Ryu Seung-ryong",
      "profile_path": "/p0LjCRqVqgTyvlZScMmsVFCnTIt.jpg",
      "popularity": 11.773,
      "adult": false,
      "known_for_department": "Acting"
    },
    {
      "id": 101367,
      "name": "Yuki Uchida",
      "profile_path": "/y6de9FCwdsUGvAsNcamicxovins.jpg",
      "popularity": 11.772,
      "adult": false,
      "known_for_department": "Acting"
    },
    {
      "id": 59283,
      "name": "Dan Byrd",
      "profile_path": "/qP4ZWjKyxQdtdWRPAWlB2W5NPEB.jpg",
      "popularity": 11.772,
      "adult": false,
      "known_for_department": "Acting"
    },
    {
      "id": 97943,
      "name": "Raphael Sbarge",
      "profile_path": "/jOm9Yd5VKiCA2RX2q16fPXwCMAs.jpg",
      "popularity": 11.771,
      "adult": false,
      "known_for_department": "Acting"
    },
    {
      "id": 29092,
      "name": "Bryan Brown",
      "profile_path": "/x0NqVqpJSET0oVdJxbbwwd7hrFA.jpg",
      "popularity": 11.771,
      "adult": false,
      "known_for_department": "Acting"
    },
    {
      "id": 151432,
      "name": "Boris McGiver",
      "profile_path": "/mwVp5Pt7gMhEHPsijU8niPRljiW.jpg",
      "popularity": 11.77,
      "adult": false,
      "known_for_department": "Acting"
    },
    {
      "id": 115916,
      "name": "Angela Mao Ying",
      "profile_path": "/1Hr9U3OdecQny9xiRDAhbx256pi.jpg",
      "popularity": 11.77,
      "adult": false,
      "known_for_department": "Acting"
    },
    {
      "id": 99841,
      "name": "Paula Shaw",
      "profile_path": "/ywZYgoqdKEoi84xlYoZhEms1vJU.jpg",
      "popularity": 11.77,
      "adult": false,
      "known_for_department": "Acting"
    },
    {
      "id": 55469,
      "name": "Russell Tovey",
      "profile_path": "/ofIylBGO4zyonQJQrghOvLOtt9W.jpg",
      "popularity": 11.77,
      "adult": false,
      "known_for_department": "Acting"
    },
    {
      "id": 93177,
      "name": "Lee Ross",
      "profile_path": "/sQNOXntZ677YC9686kUl1NWGP18.jpg",
      "popularity": 11.768,
      "adult": false,
      "known_for_department": "Acting"
    },
    {
      "id": 56057,
      "name": "Malachi Pearson",
      "profile_path": "/7AvzsokeNuvefXIWTUQ9fQITCB6.jpg",
      "popularity": 11.767,
      "adult": false,
      "known_for_department": "Acting"
    },
    {
      "id": 65239,
      "name": "Susan Ward",
      "profile_path": "/twyHi3L6BcAzpPkjEoYVP4pYMCM.jpg",
      "popularity": 11.766,
      "adult": false,
      "known_for_department": "Acting"
    },
    {
      "id": 12931,
      "name": "Rita Wilson",
      "profile_path": "/3c22ZCpoXjLbxA6NZerxIbQXDpu.jpg",
      "popularity": 11.766,
      "adult": false,
      "known_for_department": "Acting"
    },
    {
      "id": 1219226,
      "name": "Matthew Glave",
      "profile_path": "/lXtmDEZlLEF6Hvp8arN0lC96Wqe.jpg",
      "popularity": 11.764,
      "adult": false,
      "known_for_department": "Acting"
    },
    {
      "id": 31211,
      "name": "Clive Barker",
      "profile_path": "/h6JebwvNTpOquhJGrmDh8zCYjQZ.jpg",
      "popularity": 11.761,
      "adult": false,
      "known_for_department": "Writing"
    },
    {
      "id": 29273,
      "name": "Gilbert Roland",
      "profile_path": "/lKqHWWnAhRXncCzGaR97YVXRBgq.jpg",
      "popularity": 11.761,
      "adult": false,
      "known_for_department": "Acting"
    },
    {
      "id": 67580,
      "name": "Nick Damici",
      "profile_path": "/cyuulFTdzMSegCsJqopVDlfgKtv.jpg",
      "popularity": 11.76,
      "adult": false,
      "known_for_department": "Acting"
    }
  ]
}