{
  "page": 477,
  "total_results": 10000,
  "total_pages": 500,
  "results": [
    {
      "id": 126547,
      "name": "Hildy Brooks",
      "profile_path": "/1mAHmVVfnVsEVyEK3RkpnqMRXVL.jpg",
      "popularity": 7.531,
      "adult": false,
      "known_for_department": "Acting"
    },
    {
      "id": 126421,
      "name": "Aleksandr Petrov",
      "profile_path": "/hm96YHRxGmb4Lokozzc06MsfsbG.jpg",
      "popularity": 7.531,
      "adult": false,
      "known_for_department": "Directing"
    },
    {
      "id": 116509,
      "name": "Bertil Norström",
      "profile_path": "/xW6LH00nlT4caCfG7DghzBXqM4G.jpg",
      "popularity": 7.531,
      "adult": false,
      "known_for_department": "Acting"
    },
    {
      "id": 76377,
      "name": "Maj Sjöwall",
      "profile_path": "/kweisP7OgcpTsxHxYl3cHZNpbSM.jpg",
      "popularity": 7.531,
      "adult": false,
      "known_for_department": "Writing"
    },
    {
      "id": 30409,
      "name": "Edward T. Lowe Jr.",
      "profile_path": "",
      "popularity": 7.531,
      "adult": false,
      "known_for_department": "Writing"
    },
    {
      "id": 30406,
      "name": "Vladimir Bogdanov",
      "profile_path": "/mTwzgUMF67SI00Ebnr5C0NBC6KV.jpg",
      "popularity": 7.531,
      "adult": false,
      "known_for_department": "Acting"
    },
    {
      "id": 25315,
      "name": "Henryk Sienkiewicz",
      "profile_path": "",
      "popularity": 7.531,
      "adult": false,
      "known_for_department": "Writing"
    },
    {
      "id": 25260,
      "name": "Emiliano Redondo",
      "profile_path": "/wjAl3nEXhDsu7lDq78KleoSejOL.jpg",
      "popularity": 7.531,
      "adult": false,
      "known_for_department": "Acting"
    },
    {
      "id": 12533,
      "name": "José Antonio García",
      "profile_path": "",
      "popularity": 7.531,
      "adult": false,
      "known_for_department": "Sound"
    },
    {
      "id": 2432,
      "name": "Samson Raphaelson",
      "profile_path": "",
      "popularity": 7.531,
      "adult": false,
      "known_for_department": "Writing"
    },
    {
      "id": 104195,
      "name": "Bailey Chase",
      "profile_path": "/9SA9jLFPek6vwiSEJEqnP633GWy.jpg",
      "popularity": 7.53,
      "adult": false,
      "known_for_department": "Acting"
    },
    {
      "id": 1462923,
      "name": "Eleanor Worthington-Cox",
      "profile_path": "/jc3Dtrxff8huEkeXnntitCDaJWa.jpg",
      "popularity": 7.529,
      "adult": false,
      "known_for_department": "Acting"
    },
    {
      "id": 158833,
      "name": "Sydney Penny",
      "profile_path": "/ycGcpBnk0OkBebo8nPN1wb8F05t.jpg",
      "popularity": 7.529,
      "adult": false,
      "known_for_department": "Acting"
    },
    {
      "id": 56367,
      "name": "Naomi Campbell",
      "profile_path": "/szSm9TgGVS8clzNQFGyWDfaq6OG.jpg",
      "popularity": 7.529,
      "adult": false,
      "known_for_department": "Acting"
    },
    {
      "id": 1051305,
      "name": "Oriol Paulo",
      "profile_path": "/mzX2gRv33Yo2T6Nq5iLgBWurlXw.jpg",
      "popularity": 7.528,
      "adult": false,
      "known_for_department": "Writing"
    },
    {
      "id": 190961,
      "name": "Patrick Garrow",
      "profile_path": "/gWu8E3zYnwBVa5zTZzQP3JO1uLI.jpg",
      "popularity": 7.528,
      "adult": false,
      "known_for_department": "Acting"
    },
    {
      "id": 19592,
      "name": "Tatsuya Gashûin",
      "profile_path": "/fLqIdkShknsJmZy4EfBWuWyHN4C.jpg",
      "popularity": 7.528,
      "adult": false,
      "known_for_department": "Acting"
    },
    {
      "id": 36628,
      "name": "Kate del Castillo",
      "profile_path": "/7m4oa23hAsqW3cE8cDF72QhIv9t.jpg",
      "popularity": 7.526,
      "adult": false,
      "known_for_department": "Acting"
    },
    {
      "id": 8498,
      "name": "James Anderson",
      "profile_path": "/NI33Uwfs6AeW0ypduqK8npm2C7.jpg",
      "popularity": 7.526,
      "adult": false,
      "known_for_department": "Acting"
    },
    {
      "id": 1391561,
      "name": "Olga Zaytseva",
      "profile_path": "/pKrqr8iw2XVV2WCV8ebtos0WaAV.jpg",
      "popularity": 7.525,
      "adult": false,
      "known_for_department": "Acting"
    }
  ]
}