{
  "page": 338,
  "total_results": 10000,
  "total_pages": 500,
  "results": [
    {
      "id": 948351,
      "name": "Roger Black",
      "profile_path": "/zdULjOQbsCLmKVelMWmo6CnCyza.jpg",
      "popularity": 9.754,
      "adult": false,
      "known_for_department": "Acting"
    },
    {
      "id": 208296,
      "name": "Callan Mulvey",
      "profile_path": "/dSTWVK03Ajl1mWViJxMPypQUgqB.jpg",
      "popularity": 9.754,
      "adult": false,
      "known_for_department": "Acting"
    },
    {
      "id": 41249,
      "name": "Tess Harper",
      "profile_path": "/8Z770Kk13MK1NP7skWmTxvRGx3V.jpg",
      "popularity": 9.753,
      "adult": false,
      "known_for_department": "Acting"
    },
    {
      "id": 1201637,
      "name": "Yuko Sanpei",
      "profile_path": "/l8yY22FkFhjYahlblGsLbNu0Hcn.jpg",
      "popularity": 9.752,
      "adult": false,
      "known_for_department": "Acting"
    },
    {
      "id": 237237,
      "name": "Hikaru Wakana",
      "profile_path": "/fEMbnqEgjSPdRgNAHiayUde3OJ3.jpg",
      "popularity": 9.752,
      "adult": false,
      "known_for_department": "Acting"
    },
    {
      "id": 1835130,
      "name": "Carl Malapa",
      "profile_path": "/sMavnd5U6ZlZYf4h3gW6T7JinZm.jpg",
      "popularity": 9.751,
      "adult": false,
      "known_for_department": "Acting"
    },
    {
      "id": 1791945,
      "name": "Bek Hyun-jin",
      "profile_path": "/alli4mgPgBUlQc3eXozFVIlUR2I.jpg",
      "popularity": 9.751,
      "adult": false,
      "known_for_department": "Acting"
    },
    {
      "id": 1598773,
      "name": "Paras Patel",
      "profile_path": "/vDgwrSU4TplIaGA2MRr4CJDFOJd.jpg",
      "popularity": 9.751,
      "adult": false,
      "known_for_department": "Acting"
    },
    {
      "id": 123727,
      "name": "Kirsten Vangsness",
      "profile_path": "/mZvRWbF0JBUAZpguLRxMyrkfKno.jpg",
      "popularity": 9.751,
      "adult": false,
      "known_for_department": "Acting"
    },
    {
      "id": 40333,
      "name": "Satoshi Kon",
      "profile_path": "/b7Oqg1bjS0e2iEzEjYWnsyVVagt.jpg",
      "popularity": 9.75,
      "adult": false,
      "known_for_department": "Writing"
    },
    {
      "id": 240373,
      "name": "Aleksandr Vokach",
      "profile_path": "/GRmz9dXkz0zsYeSP4EevwEvFYE.jpg",
      "popularity": 9.749,
      "adult": false,
      "known_for_department": "Acting"
    },
    {
      "id": 9126,
      "name": "Edward Fox",
      "profile_path": "/mRAgZvRscftn6roAKdLQwrrrWrS.jpg",
      "popularity": 9.749,
      "adult": false,
      "known_for_department": "Acting"
    },
    {
      "id": 44033,
      "name": "Barbara Alyn Woods",
      "profile_path": "/9mEaXMGP03gsCkqW3svWxTk2lXi.jpg",
      "popularity": 9.748,
      "adult": false,
      "known_for_department": "Acting"
    },
    {
      "id": 20811,
      "name": "Lisa Brenner",
      "profile_path": "/2tc86AD6LOemR6UP2B0LsRWJB8u.jpg",
      "popularity": 9.748,
      "adult": false,
      "known_for_department": "Acting"
    },
    {
      "id": 4347,
      "name": "Frank Sinatra",
      "profile_path": "/dafKPsivu50RdChBSrgGmMRenYt.jpg",
      "popularity": 9.748,
      "adult": false,
      "known_for_department": "Acting"
    },
    {
      "id": 52925,
      "name": "Donna W. Scott",
      "profile_path": "/65ENWORUp7n0cRY1GY8eA5w5JaD.jpg",
      "popularity": 9.747,
      "adult": false,
      "known_for_department": "Acting"
    },
    {
      "id": 1532837,
      "name": "Natalia Sumska",
      "profile_path": "/vgCFjUeec2Wx8rfDqqtN9miYfIT.jpg",
      "popularity": 9.744,
      "adult": false,
      "known_for_department": "Acting"
    },
    {
      "id": 1250842,
      "name": "Lee Seung-gi",
      "profile_path": "/urz7CEh9rpC9GFqh5ht8R65dY9w.jpg",
      "popularity": 9.744,
      "adult": false,
      "known_for_department": "Acting"
    },
    {
      "id": 96321,
      "name": "Tego Calderon",
      "profile_path": "/oFb02nyMg9Jv34BpQGCYvnDer7b.jpg",
      "popularity": 9.744,
      "adult": false,
      "known_for_department": "Acting"
    },
    {
      "id": 1389383,
      "name": "Medalion Rahimi",
      "profile_path": "/v282V5NixzGwGE9rEZKZ2XxhOoO.jpg",
      "popularity": 9.743,
      "adult": false,
      "known_for_department": "Acting"
    }
  ]
}