{
  "page": 397,
  "total_results": 10000,
  "total_pages": 500,
  "results": [
    {
      "id": 920,
      "name": "Jürgen Prochnow",
      "profile_path": "/xjakZgQRw4NXefazNuvQEaGhT1U.jpg",
      "popularity": 8.228,
      "adult": false,
      "known_for_department": "Acting"
    },
    {
      "id": 1456334,
      "name": "Chelsea Zhang",
      "profile_path": "/vIXZwRDV9AsQ2KSpBPnIU2baRu0.jpg",
      "popularity": 8.227,
      "adult": false,
      "known_for_department": "Acting"
    },
    {
      "id": 9612,
      "name": "Ed Solomon",
      "profile_path": "/5uvmBGQn0bPjQmfh5dTCkEnOVWZ.jpg",
      "popularity": 8.227,
      "adult": false,
      "known_for_department": "Writing"
    },
    {
      "id": 2349063,
      "name": "Nicole Brydon Bloom",
      "profile_path": "/ixQ6PRu1RveKX3dNKeNMG32Y8ft.jpg",
      "popularity": 8.226,
      "adult": false,
      "known_for_department": "Acting"
    },
    {
      "id": 26862,
      "name": "Neil Morrissey",
      "profile_path": "/n6tmVzGXEFoT3TcJ15lYdyxqzFN.jpg",
      "popularity": 8.226,
      "adult": false,
      "known_for_department": "Acting"
    },
    {
      "id": 1313564,
      "name": "Aurora Perrineau",
      "profile_path": "/5zgJaU4N1uc3fyTz9JbYYMNOeX7.jpg",
      "popularity": 8.224,
      "adult": false,
      "known_for_department": "Acting"
    },
    {
      "id": 1252003,
      "name": "Stefania LaVie Owen",
      "profile_path": "/lsiSY1COte7weDsXBTgZpZ7rTyk.jpg",
      "popularity": 8.224,
      "adult": false,
      "known_for_department": "Acting"
    },
    {
      "id": 554020,
      "name": "Minako Ogawa",
      "profile_path": "/tbC2if972ApJMkXZfMArBIliFrc.jpg",
      "popularity": 8.224,
      "adult": false,
      "known_for_department": "Acting"
    },
    {
      "id": 63992,
      "name": "Brett Kelly",
      "profile_path": "/kHPBsKWF4Cap70LVy41vL5ADyLW.jpg",
      "popularity": 8.224,
      "adult": false,
      "known_for_department": "Acting"
    },
    {
      "id": 19138,
      "name": "Bill Bixby",
      "profile_path": "/eKcpqTutiVxQeAPbwupjSV5DXE.jpg",
      "popularity": 8.223,
      "adult": false,
      "known_for_department": "Acting"
    },
    {
      "id": 97635,
      "name": "Diana Lorys",
      "profile_path": "/mlI4ZY40gR6Fq3EQqrSdDVVetyd.jpg",
      "popularity": 8.222,
      "adult": false,
      "known_for_department": "Acting"
    },
    {
      "id": 67979,
      "name": "Michael Eklund",
      "profile_path": "/la3J6E12pbZHe0sE73EipKkzQOp.jpg",
      "popularity": 8.222,
      "adult": false,
      "known_for_department": "Acting"
    },
    {
      "id": 7904,
      "name": "Billy Crystal",
      "profile_path": "/6QNyXn8NPQDEctSuDLgg5AHmsiR.jpg",
      "popularity": 8.222,
      "adult": false,
      "known_for_department": "Acting"
    },
    {
      "id": 2449,
      "name": "Kevin McNally",
      "profile_path": "/1QvG7MbfeWxb4LlZrlR4OtwvB8v.jpg",
      "popularity": 8.222,
      "adult": false,
      "known_for_department": "Acting"
    },
    {
      "id": 33923,
      "name": "Mel Blanc",
      "profile_path": "/8fevv4K06TmHsYom2XfmxgKrTcd.jpg",
      "popularity": 8.221,
      "adult": false,
      "known_for_department": "Acting"
    },
    {
      "id": 999605,
      "name": "Ahna O'Reilly",
      "profile_path": "/jjBVwF7Rtt7sutuFaaXzXb0tE1h.jpg",
      "popularity": 8.22,
      "adult": false,
      "known_for_department": "Acting"
    },
    {
      "id": 203639,
      "name": "Elfina Luk",
      "profile_path": "/azTaHchTZeeS8In7grYkXSDFMXl.jpg",
      "popularity": 8.22,
      "adult": false,
      "known_for_department": "Acting"
    },
    {
      "id": 1161369,
      "name": "Amy Wren",
      "profile_path": "/mTHXHg4F5NPEA5bLzOBE5cm5v3Q.jpg",
      "popularity": 8.219,
      "adult": false,
      "known_for_department": "Acting"
    },
    {
      "id": 1228352,
      "name": "Luke Bilyk",
      "profile_path": "/mSxRScZtKb8IYOHd9fsBVJXIXek.jpg",
      "popularity": 8.218,
      "adult": false,
      "known_for_department": "Acting"
    },
    {
      "id": 1767463,
      "name": "Shazi Raja",
      "profile_path": "/y7SJkf86HM8TM5dlytFvz1pHoJ3.jpg",
      "popularity": 8.217,
      "adult": false,
      "known_for_department": "Acting"
    }
  ]
}