{
  "page": 274,
  "total_results": 10000,
  "total_pages": 500,
  "results": [
    {
      "id": 1986576,
      "name": "Aleksandr Kuznetsov",
      "profile_path": "/ejfeqNpYh2tOt2KkyBTluLyHjx2.jpg",
      "popularity": 10.109,
      "adult": false,
      "known_for_department": "Acting"
    },
    {
      "id": 1335392,
      "name": "Mugi Kadowaki",
      "profile_path": "/iDaLuetWYMjCbvug0oDKqf4dJTl.jpg",
      "popularity": 10.108,
      "adult": false,
      "known_for_department": "Acting"
    },
    {
      "id": 1061053,
      "name": "Ana Villafañe",
      "profile_path": "/3NFFgQljlBkf5UjDhHIDtlW3DvK.jpg",
      "popularity": 10.107,
      "adult": false,
      "known_for_department": "Acting"
    },
    {
      "id": 187565,
      "name": "Audra McDonald",
      "profile_path": "/3YpPMKnhljAJwgcaFfHGNkL0rcv.jpg",
      "popularity": 10.107,
      "adult": false,
      "known_for_department": "Acting"
    },
    {
      "id": 42297,
      "name": "Brooke D'Orsay",
      "profile_path": "/8lBeEbyKz8KWz6XDdbymRpKoM9N.jpg",
      "popularity": 10.107,
      "adult": false,
      "known_for_department": "Acting"
    },
    {
      "id": 8318,
      "name": "Brian Blessed",
      "profile_path": "/3mLIr94V5IOA5ndY6GyqKKcyrX6.jpg",
      "popularity": 10.107,
      "adult": false,
      "known_for_department": "Acting"
    },
    {
      "id": 2034,
      "name": "Danny Boyle",
      "profile_path": "/v6Vi1REbXp02pMoaBWziqXnvzKp.jpg",
      "popularity": 10.107,
      "adult": false,
      "known_for_department": "Directing"
    },
    {
      "id": 65640,
      "name": "Khary Payton",
      "profile_path": "/4PgEGuAb2KkaRb7P9PdK40pPeVH.jpg",
      "popularity": 10.106,
      "adult": false,
      "known_for_department": "Acting"
    },
    {
      "id": 27397,
      "name": "Anton Lesser",
      "profile_path": "/rKDn8ZHuIxl4Z3LLbUxvHdCOk0U.jpg",
      "popularity": 10.103,
      "adult": false,
      "known_for_department": "Acting"
    },
    {
      "id": 15374,
      "name": "Leon Rippy",
      "profile_path": "/55GaqeKzIwbKBDW9RT1CYIZaUKO.jpg",
      "popularity": 10.103,
      "adult": false,
      "known_for_department": "Acting"
    },
    {
      "id": 1535973,
      "name": "Cindy Miranda",
      "profile_path": "/pn7w0Dgui0EMCkLj0NfqhkfkCyY.jpg",
      "popularity": 10.101,
      "adult": false,
      "known_for_department": "Acting"
    },
    {
      "id": 550869,
      "name": "Megumi Kagurazaka",
      "profile_path": "/jhHsyQTLmzdsd7cJSIHUYLxFsiy.jpg",
      "popularity": 10.101,
      "adult": false,
      "known_for_department": "Acting"
    },
    {
      "id": 1851165,
      "name": "J.P. Groeninger",
      "profile_path": "/uwJz5ovxnPvTDvxHTUiEsqwyfXI.jpg",
      "popularity": 10.1,
      "adult": false,
      "known_for_department": "Acting"
    },
    {
      "id": 98102,
      "name": "William Smith",
      "profile_path": "/gFtKkMnReK7qTgVnToqP8VqbEFb.jpg",
      "popularity": 10.1,
      "adult": false,
      "known_for_department": "Acting"
    },
    {
      "id": 2501396,
      "name": "Hutrimas Wimapiguna Sumarjan",
      "profile_path": "/r4HiFENa5yOwRBx3NNXKryXimM3.jpg",
      "popularity": 10.098,
      "adult": false,
      "known_for_department": "Acting"
    },
    {
      "id": 115128,
      "name": "Bo Burnham",
      "profile_path": "/xMAatohXadCfz9ipvqvIaTLwOmV.jpg",
      "popularity": 10.098,
      "adult": false,
      "known_for_department": "Acting"
    },
    {
      "id": 26996,
      "name": "Patricia Heaton",
      "profile_path": "/1iQoh3R98mC16WzMMZCru9ZcssK.jpg",
      "popularity": 10.098,
      "adult": false,
      "known_for_department": "Acting"
    },
    {
      "id": 1475808,
      "name": "Maddie Phillips",
      "profile_path": "/uuQBuEdkhgDSJ2wnE5N4tyryl4t.jpg",
      "popularity": 10.096,
      "adult": false,
      "known_for_department": "Acting"
    },
    {
      "id": 23459,
      "name": "Sienna Miller",
      "profile_path": "/wCYir8b8BLwDBtphjIgsrKBM0Ju.jpg",
      "popularity": 10.096,
      "adult": false,
      "known_for_department": "Acting"
    },
    {
      "id": 71763,
      "name": "Susan Hogan",
      "profile_path": "/9gwOXpJOCPd6cGh4vKd2C9H7njl.jpg",
      "popularity": 10.095,
      "adult": false,
      "known_for_department": "Acting"
    }
  ]
}