{
  "page": 447,
  "total_results": 10000,
  "total_pages": 500,
  "results": [
    {
      "id": 151975,
      "name": "Christopher Russell",
      "profile_path": "/6lqQsR2Ot7nYthCGxfKBzmPzyV3.jpg",
      "popularity": 8.03,
      "adult": false,
      "known_for_department": "Acting"
    },
    {
      "id": 19148,
      "name": "Brian Austin Green",
      "profile_path": "/8KGhmSEmxwn6oJBN5NCpeYDJ2hx.jpg",
      "popularity": 8.03,
      "adult": false,
      "known_for_department": "Acting"
    },
    {
      "id": 1796473,
      "name": "Pirapat Watthanasetsiri",
      "profile_path": "/c8BdFQhaV6O7JUfrD3l5W3VA7CW.jpg",
      "popularity": 8.029,
      "adult": false,
      "known_for_department": "Acting"
    },
    {
      "id": 32300,
      "name": "Johnny Harris",
      "profile_path": "/bcoVPfOSXwFbq9yfPac7BO0Y0AF.jpg",
      "popularity": 8.029,
      "adult": false,
      "known_for_department": "Acting"
    },
    {
      "id": 1955,
      "name": "Darlene Vogel",
      "profile_path": "/efc3GpGELVhaDE1os6MSy0R3EfH.jpg",
      "popularity": 8.029,
      "adult": false,
      "known_for_department": "Acting"
    },
    {
      "id": 1521888,
      "name": "Paris Warner",
      "profile_path": "/ueXEGsMUf1JFZQeZeBG33sPiNgI.jpg",
      "popularity": 8.028,
      "adult": false,
      "known_for_department": "Acting"
    },
    {
      "id": 58924,
      "name": "Clifton Powell",
      "profile_path": "/9wGVqDcrjpZnwjlnwB45LMbsJSj.jpg",
      "popularity": 8.028,
      "adult": false,
      "known_for_department": "Acting"
    },
    {
      "id": 49326,
      "name": "Jonathan LaPaglia",
      "profile_path": "/75dsk5vK59ESagPhquplHNNkdmn.jpg",
      "popularity": 8.027,
      "adult": false,
      "known_for_department": "Acting"
    },
    {
      "id": 3095905,
      "name": "Elma Mbadiwe",
      "profile_path": "",
      "popularity": 8.026,
      "adult": false,
      "known_for_department": "Acting"
    },
    {
      "id": 1269910,
      "name": "Wai Ching Ho",
      "profile_path": "/sbEwwkKVcLJRi02ZCqx8JymmbTm.jpg",
      "popularity": 8.026,
      "adult": false,
      "known_for_department": "Acting"
    },
    {
      "id": 78322,
      "name": "Akira Toriyama",
      "profile_path": "/9YorJMvF6DgfJcpATHbGyivZpS5.jpg",
      "popularity": 8.026,
      "adult": false,
      "known_for_department": "Writing"
    },
    {
      "id": 592574,
      "name": "Andrea Bræin Hovig",
      "profile_path": "/fYD7J2bK0FpR7DKtWsUVsu5ZRpN.jpg",
      "popularity": 8.025,
      "adult": false,
      "known_for_department": "Acting"
    },
    {
      "id": 1713025,
      "name": "Jang Dong-yoon",
      "profile_path": "/OuICJebfAG2tZdWgJn97eq7jhK.jpg",
      "popularity": 8.024,
      "adult": false,
      "known_for_department": "Acting"
    },
    {
      "id": 27109,
      "name": "Felicity Waterman",
      "profile_path": "/dgZ7T792OPn92lFTASO1j8hRCOu.jpg",
      "popularity": 8.024,
      "adult": false,
      "known_for_department": "Acting"
    },
    {
      "id": 6929,
      "name": "Tippi Hedren",
      "profile_path": "/uMhXwLMUlTQk0N8g3FaVil0qxEq.jpg",
      "popularity": 8.024,
      "adult": false,
      "known_for_department": "Acting"
    },
    {
      "id": 3247772,
      "name": "Lizeth Selene",
      "profile_path": "/o8BNtreaGlVJkSlsYjGtFzwkXpG.jpg",
      "popularity": 8.023,
      "adult": false,
      "known_for_department": "Acting"
    },
    {
      "id": 1540602,
      "name": "Alexa Nisenson",
      "profile_path": "/bHB5NZw9W5BgggAcDPZP8FTpgeh.jpg",
      "popularity": 8.023,
      "adult": false,
      "known_for_department": "Acting"
    },
    {
      "id": 1337746,
      "name": "Anna Adamovych",
      "profile_path": "/m5YHr63CZhmJml6yWDo9cg12k8r.jpg",
      "popularity": 8.022,
      "adult": false,
      "known_for_department": "Acting"
    },
    {
      "id": 935701,
      "name": "Rohan Chand",
      "profile_path": "/iRTuKSi45rdhM6lbM8XCyAo2OkI.jpg",
      "popularity": 8.022,
      "adult": false,
      "known_for_department": "Acting"
    },
    {
      "id": 1238593,
      "name": "Minori Matsushima",
      "profile_path": "/rhCXXKA6pkExIV63U3IBR73QSqT.jpg",
      "popularity": 8.021,
      "adult": false,
      "known_for_department": "Acting"
    }
  ]
}