{
  "page": 140,
  "total_results": 10000,
  "total_pages": 500,
  "results": [
    {
      "id": 1399228,
      "name": "Sabrina Qiu",
      "profile_path": "/cXuhzwtSqPpWPCUW3tJW9J6oHGP.jpg",
      "popularity": 14.862,
      "adult": false,
      "known_for_department": "Acting"
    },
    {
      "id": 55541,
      "name": "Eddie Cibrian",
      "profile_path": "/swcAPvqyUlcn1SfVwcEBzhlFqVP.jpg",
      "popularity": 14.856,
      "adult": false,
      "known_for_department": "Acting"
    },
    {
      "id": 1494834,
      "name": "Tae In-ho",
      "profile_path": "/tQJuRcrWe9QUsHikSO6Ga2XIKcS.jpg",
      "popularity": 14.853,
      "adult": false,
      "known_for_department": "Acting"
    },
    {
      "id": 1254174,
      "name": "Gökçe Özyol",
      "profile_path": "/yRXfbhmOKmNPhd21GvEntC9FhBn.jpg",
      "popularity": 14.853,
      "adult": false,
      "known_for_department": "Acting"
    },
    {
      "id": 559195,
      "name": "Tobias Santelmann",
      "profile_path": "/wDsLQNsG4WWvwE6pwtV0FhL5JZt.jpg",
      "popularity": 14.843,
      "adult": false,
      "known_for_department": "Acting"
    },
    {
      "id": 327,
      "name": "Mekhi Phifer",
      "profile_path": "/b9qbdKiuJdNROpIdZCuUdN5Smam.jpg",
      "popularity": 14.838,
      "adult": false,
      "known_for_department": "Acting"
    },
    {
      "id": 1474123,
      "name": "Caleb McLaughlin",
      "profile_path": "/xKXJtSOcgGmzSXExU6kz2FXAysC.jpg",
      "popularity": 14.823,
      "adult": false,
      "known_for_department": "Acting"
    },
    {
      "id": 45863,
      "name": "Doris Roberts",
      "profile_path": "/bfJjsAKKRqUhm1lh2QC8u2atrov.jpg",
      "popularity": 14.818,
      "adult": false,
      "known_for_department": "Acting"
    },
    {
      "id": 37233,
      "name": "Kareena Kapoor Khan",
      "profile_path": "/pJZJJ93NwJq3kb3RWtaZBYVga1x.jpg",
      "popularity": 14.816,
      "adult": false,
      "known_for_department": "Acting"
    },
    {
      "id": 1928187,
      "name": "Paula Usero",
      "profile_path": "/j632HcbVgMvUSzbiK8r6JwMKwXD.jpg",
      "popularity": 14.813,
      "adult": false,
      "known_for_department": "Acting"
    },
    {
      "id": 21818,
      "name": "Lesley Ann Warren",
      "profile_path": "/lNzHL38hPCAC4ZqI0mVFVgXrLsM.jpg",
      "popularity": 14.812,
      "adult": false,
      "known_for_department": "Acting"
    },
    {
      "id": 1379386,
      "name": "Max Mittelman",
      "profile_path": "/zQqiIgestpxssPrUXQXkY2Sq0y8.jpg",
      "popularity": 14.806,
      "adult": false,
      "known_for_department": "Acting"
    },
    {
      "id": 2717,
      "name": "Rick Rossovich",
      "profile_path": "/uShNdPWbDHMejpMxuoNsqaaDbuc.jpg",
      "popularity": 14.802,
      "adult": false,
      "known_for_department": "Acting"
    },
    {
      "id": 14965,
      "name": "Claire Trevor",
      "profile_path": "/3o8iUONi5qCt6z1x6Y43rSMB0hC.jpg",
      "popularity": 14.801,
      "adult": false,
      "known_for_department": "Acting"
    },
    {
      "id": 5149,
      "name": "Bonnie Hunt",
      "profile_path": "/tT9C6uLztgN8OxJULq6F9iEzqlA.jpg",
      "popularity": 14.801,
      "adult": false,
      "known_for_department": "Acting"
    },
    {
      "id": 5892,
      "name": "David Hewlett",
      "profile_path": "/hUcYyssAPCqnZ4GjolhOWXHTWSa.jpg",
      "popularity": 14.799,
      "adult": false,
      "known_for_department": "Acting"
    },
    {
      "id": 58224,
      "name": "Jason Sudeikis",
      "profile_path": "/smNK3CLjZYC6wAcgHeMqf90qU0O.jpg",
      "popularity": 14.797,
      "adult": false,
      "known_for_department": "Acting"
    },
    {
      "id": 229932,
      "name": "Golshifteh Farahani",
      "profile_path": "/DuAPmZxZlX25m57pJy16WbIyKM.jpg",
      "popularity": 14.795,
      "adult": false,
      "known_for_department": "Acting"
    },
    {
      "id": 993774,
      "name": "Rachel Brosnahan",
      "profile_path": "/6kFrUqfHy3PYNxKtTWAu8F54xB8.jpg",
      "popularity": 14.792,
      "adult": false,
      "known_for_department": "Acting"
    },
    {
      "id": 146133,
      "name": "Line Verndal",
      "profile_path": "/kZSQyDXIdS41ACkFX4tf1GzQYNu.jpg",
      "popularity": 14.79,
      "adult": false,
      "known_for_department": "Acting"
    }
  ]
}