{
  "page": 101,
  "total_results": 10000,
  "total_pages": 500,
  "results": [
    {
      "id": 2055,
      "name": "Robert Davi",
      "profile_path": "/yizOUAKs59CwKM6pU30gIP9gTup.jpg",
      "popularity": 16.636,
      "adult": false,
      "known_for_department": "Acting"
    },
    {
      "id": 7624,
      "name": "Stan Lee",
      "profile_path": "/kKeyWoFtTqOPsbmwylNHmuB3En9.jpg",
      "popularity": 16.628,
      "adult": false,
      "known_for_department": "Writing"
    },
    {
      "id": 17941,
      "name": "Domenick Lombardozzi",
      "profile_path": "/IKNcS1KQqICetjCZSZ8IYqGl7h.jpg",
      "popularity": 16.626,
      "adult": false,
      "known_for_department": "Acting"
    },
    {
      "id": 13363,
      "name": "Saskia Reeves",
      "profile_path": "/dTzb4BHZ9T9O2kNgNgTuMtGQ8rB.jpg",
      "popularity": 16.615,
      "adult": false,
      "known_for_department": "Acting"
    },
    {
      "id": 1427680,
      "name": "Jessica Rothe",
      "profile_path": "/oItPXy56W0Y5taqIMZilRtnPDMn.jpg",
      "popularity": 16.612,
      "adult": false,
      "known_for_department": "Acting"
    },
    {
      "id": 453272,
      "name": "Nora Arnezeder",
      "profile_path": "/6I1x7HVeUtHKXNSLikIOhBWqViG.jpg",
      "popularity": 16.609,
      "adult": false,
      "known_for_department": "Acting"
    },
    {
      "id": 1151657,
      "name": "Jing Tian",
      "profile_path": "/TvongBGWA6Q4g6KcdRwc4sYBwD.jpg",
      "popularity": 16.601,
      "adult": false,
      "known_for_department": "Acting"
    },
    {
      "id": 59231,
      "name": "Joel David Moore",
      "profile_path": "/pZQ4un6v0EANFMAiJYEaGRsCFWE.jpg",
      "popularity": 16.589,
      "adult": false,
      "known_for_department": "Acting"
    },
    {
      "id": 6108,
      "name": "Emily Procter",
      "profile_path": "/mJTjXGaitlDygbAecPy3PsQxplR.jpg",
      "popularity": 16.581,
      "adult": false,
      "known_for_department": "Acting"
    },
    {
      "id": 1196041,
      "name": "Rohan Campbell",
      "profile_path": "/upa8zUnXNSYOLtivLLKwRw8Gi4z.jpg",
      "popularity": 16.58,
      "adult": false,
      "known_for_department": "Acting"
    },
    {
      "id": 10695,
      "name": "Izabella Scorupco",
      "profile_path": "/Av7fykzXL701au42sTbhufHpwwv.jpg",
      "popularity": 16.579,
      "adult": false,
      "known_for_department": "Acting"
    },
    {
      "id": 258,
      "name": "Gael García Bernal",
      "profile_path": "/7mq3EQN1oJfYNXkv9xKXKu6Ccw5.jpg",
      "popularity": 16.576,
      "adult": false,
      "known_for_department": "Acting"
    },
    {
      "id": 1912381,
      "name": "Xochitl Gomez",
      "profile_path": "/rkJdAasSVZRvMsYc0fDb5RuHRDF.jpg",
      "popularity": 16.575,
      "adult": false,
      "known_for_department": "Acting"
    },
    {
      "id": 1364004,
      "name": "Tom Bateman",
      "profile_path": "/xD8dL5f5DyxchvGFi9ScKDnf45e.jpg",
      "popularity": 16.56,
      "adult": false,
      "known_for_department": "Acting"
    },
    {
      "id": 2127,
      "name": "James Wan",
      "profile_path": "/bNJccMIKzCtYnndcOKniSKCzo5Y.jpg",
      "popularity": 16.555,
      "adult": false,
      "known_for_department": "Production"
    },
    {
      "id": 118178,
      "name": "Virginie Efira",
      "profile_path": "/sJFBDkZ2AMAkQBsSZricrUnZv50.jpg",
      "popularity": 16.554,
      "adult": false,
      "known_for_department": "Acting"
    },
    {
      "id": 40039,
      "name": "Josh Stewart",
      "profile_path": "/gdA3hddSlk6caULKjlFsrZ1ZbQp.jpg",
      "popularity": 16.553,
      "adult": false,
      "known_for_department": "Acting"
    },
    {
      "id": 5577,
      "name": "Chris O'Donnell",
      "profile_path": "/KvWBFg1aMBdu4X2PihXYL8xcFD.jpg",
      "popularity": 16.533,
      "adult": false,
      "known_for_department": "Acting"
    },
    {
      "id": 53485,
      "name": "Rose McIver",
      "profile_path": "/946O3AHk8HsG2NiVcYhHMxesLTu.jpg",
      "popularity": 16.532,
      "adult": false,
      "known_for_department": "Acting"
    },
    {
      "id": 16901,
      "name": "Eva Birthistle",
      "profile_path": "/sGprPTt1JDeDIyNKggElYlHCPxc.jpg",
      "popularity": 16.531,
      "adult": false,
      "known_for_department": "Acting"
    }
  ]
}