{
  "page": 469,
  "total_results": 10000,
  "total_pages": 500,
  "results": [
    {
      "id": 1252521,
      "name": "Hannah Walters",
      "profile_path": "/84cYtsksvJiDNKRgotBQKu8pY40.jpg",
      "popularity": 7.826,
      "adult": false,
      "known_for_department": "Acting"
    },
    {
      "id": 1036681,
      "name": "Caitlin Thompson",
      "profile_path": "/wunvutvuRxLraluyTB5m6Ih2el8.jpg",
      "popularity": 7.826,
      "adult": false,
      "known_for_department": "Acting"
    },
    {
      "id": 1119506,
      "name": "Izumi Shima",
      "profile_path": "/8tEJ689F51bE6BeB7KOdBPDPtpO.jpg",
      "popularity": 7.825,
      "adult": false,
      "known_for_department": "Acting"
    },
    {
      "id": 1098601,
      "name": "Gen Hoshino",
      "profile_path": "/3DBWEx7MXbtesEvBcfpzyZF42OL.jpg",
      "popularity": 7.825,
      "adult": false,
      "known_for_department": "Acting"
    },
    {
      "id": 59076,
      "name": "Perry Benson",
      "profile_path": "/3tK0sIa0vmMXCBzlBWvMmcjYxro.jpg",
      "popularity": 7.825,
      "adult": false,
      "known_for_department": "Acting"
    },
    {
      "id": 7504,
      "name": "Carol Lynley",
      "profile_path": "/9dxF0lP9OOKXZjSaidxIXXvKT4p.jpg",
      "popularity": 7.825,
      "adult": false,
      "known_for_department": "Acting"
    },
    {
      "id": 1038625,
      "name": "Kacey Rohl",
      "profile_path": "/bhHoECJMImwXSi27WqHsipq349m.jpg",
      "popularity": 7.824,
      "adult": false,
      "known_for_department": "Acting"
    },
    {
      "id": 3796,
      "name": "Michael Gough",
      "profile_path": "/owcwnV6dymBd9YIQKDPzVA5EtZX.jpg",
      "popularity": 7.824,
      "adult": false,
      "known_for_department": "Acting"
    },
    {
      "id": 38703,
      "name": "Kay Panabaker",
      "profile_path": "/f9CpmrB7SukIaUHMeoXVqDS8AG2.jpg",
      "popularity": 7.823,
      "adult": false,
      "known_for_department": "Acting"
    },
    {
      "id": 1753977,
      "name": "Cameron Gellman",
      "profile_path": "/9L36KWKAHAXFiRXziYamLLfZNci.jpg",
      "popularity": 7.822,
      "adult": false,
      "known_for_department": "Acting"
    },
    {
      "id": 1493223,
      "name": "Taylor Hickson",
      "profile_path": "/qYc16SYLGSwm31MklUP42oKeTmO.jpg",
      "popularity": 7.822,
      "adult": false,
      "known_for_department": "Acting"
    },
    {
      "id": 136853,
      "name": "Elva Josephson",
      "profile_path": "",
      "popularity": 7.822,
      "adult": false,
      "known_for_department": "Acting"
    },
    {
      "id": 70556,
      "name": "Ken Olandt",
      "profile_path": "/tnoElWWF9Oi39LYYEkvD2bk8qNm.jpg",
      "popularity": 7.822,
      "adult": false,
      "known_for_department": "Acting"
    },
    {
      "id": 1800792,
      "name": "Wu Yue",
      "profile_path": "/hRePA3mh9mfAqX7SJ4rGxrNrxT7.jpg",
      "popularity": 7.821,
      "adult": false,
      "known_for_department": "Acting"
    },
    {
      "id": 1365670,
      "name": "Jin Hye-Kyung",
      "profile_path": "/lqf3Vmqfvw77QgsDS26OXaLET8v.jpg",
      "popularity": 7.821,
      "adult": false,
      "known_for_department": "Acting"
    },
    {
      "id": 4275,
      "name": "Alain Chabat",
      "profile_path": "/xRjymE6LIJd0useKWN2R1WgKDRy.jpg",
      "popularity": 7.82,
      "adult": false,
      "known_for_department": "Acting"
    },
    {
      "id": 1442955,
      "name": "Keith Powers",
      "profile_path": "/weKSlGfDRU3RR883Tv6L22Gg4SE.jpg",
      "popularity": 7.819,
      "adult": false,
      "known_for_department": "Acting"
    },
    {
      "id": 115305,
      "name": "Ryusei Nakao",
      "profile_path": "/mStyRuTHrJlvPbWamnJHLwRmSOG.jpg",
      "popularity": 7.819,
      "adult": false,
      "known_for_department": "Acting"
    },
    {
      "id": 57167,
      "name": "Jere Burns",
      "profile_path": "/nAWNCtD4DDOIAR63zVA4XZ4C8eg.jpg",
      "popularity": 7.819,
      "adult": false,
      "known_for_department": "Acting"
    },
    {
      "id": 33012,
      "name": "David Mendenhall",
      "profile_path": "/kb98wapVxmqdlMMiHodP29q3qB7.jpg",
      "popularity": 7.819,
      "adult": false,
      "known_for_department": "Acting"
    }
  ]
}