{
  "page": 342,
  "total_results": 10000,
  "total_pages": 500,
  "results": [
    {
      "id": 1443420,
      "name": "Claudia Doumit",
      "profile_path": "/klx1j0mceCxyamucN1vm2Cp8FAG.jpg",
      "popularity": 7.802,
      "adult": false,
      "known_for_department": "Acting"
    },
    {
      "id": 1193602,
      "name": "Gia Coppola",
      "profile_path": "/uJaDmVIZgbXpGkZtQ1QH6XPHXYD.jpg",
      "popularity": 7.801,
      "adult": false,
      "known_for_department": "Directing"
    },
    {
      "id": 224413,
      "name": "Satoshi Hino",
      "profile_path": "/8ZJIiwIVF2zDyyFr7oXewj0eEuu.jpg",
      "popularity": 7.801,
      "adult": false,
      "known_for_department": "Acting"
    },
    {
      "id": 84046,
      "name": "Riko Narumi",
      "profile_path": "/ui95qu4LvvUgvM05cleNE1tsEvf.jpg",
      "popularity": 7.801,
      "adult": false,
      "known_for_department": "Acting"
    },
    {
      "id": 31549,
      "name": "Phil LaMarr",
      "profile_path": "/l5w0qABfsFBxjfWNnpFiaXnh4Nm.jpg",
      "popularity": 7.801,
      "adult": false,
      "known_for_department": "Acting"
    },
    {
      "id": 1070,
      "name": "Frances Lee McCain",
      "profile_path": "/cpG16FA90mQ4xC6xxTsUu1p2yRr.jpg",
      "popularity": 7.801,
      "adult": false,
      "known_for_department": "Acting"
    },
    {
      "id": 1539733,
      "name": "Jung Hye-sung",
      "profile_path": "/wRoXA2VQS3e8zBUtyagnJobxy3P.jpg",
      "popularity": 7.799,
      "adult": false,
      "known_for_department": "Acting"
    },
    {
      "id": 99196,
      "name": "Eva Robin's",
      "profile_path": "/pRy5gyJRbmRsA2sNhukkWpyn5zh.jpg",
      "popularity": 7.799,
      "adult": false,
      "known_for_department": "Acting"
    },
    {
      "id": 82622,
      "name": "Charlotte Ross",
      "profile_path": "/aVPRnnTPWRhuylqQcivFBhNvXSv.jpg",
      "popularity": 7.799,
      "adult": false,
      "known_for_department": "Acting"
    },
    {
      "id": 54348,
      "name": "Kate McGregor-Stewart",
      "profile_path": "/vsvdAmMZgX85AvnVFd4jigOUipZ.jpg",
      "popularity": 7.799,
      "adult": false,
      "known_for_department": "Acting"
    },
    {
      "id": 1224269,
      "name": "Aimee-Ffion Edwards",
      "profile_path": "/iwk8yjyWd46R5BFAYQLImFUvlHh.jpg",
      "popularity": 7.798,
      "adult": false,
      "known_for_department": "Acting"
    },
    {
      "id": 1796129,
      "name": "Anastasia Marinina",
      "profile_path": "/kUDNJ4XYLaJXfjjk7M0eQgvD9gv.jpg",
      "popularity": 7.796,
      "adult": false,
      "known_for_department": "Acting"
    },
    {
      "id": 1780950,
      "name": "Thomas Elms",
      "profile_path": "/chbeyxCZ0ReI4NIE1keApI75rlj.jpg",
      "popularity": 7.796,
      "adult": false,
      "known_for_department": "Acting"
    },
    {
      "id": 226370,
      "name": "Bradley Steven Perry",
      "profile_path": "/n62ZTaV7xFfOICwcSa6l2hC1K8v.jpg",
      "popularity": 7.796,
      "adult": false,
      "known_for_department": "Acting"
    },
    {
      "id": 17304,
      "name": "Adrian Pasdar",
      "profile_path": "/4KdM69ljovbLumGoVe8ct9s6GJm.jpg",
      "popularity": 7.796,
      "adult": false,
      "known_for_department": "Acting"
    },
    {
      "id": 59206,
      "name": "Becky Ann Baker",
      "profile_path": "/84fEZMqVMlcl9EaBeCLbrYhHn0x.jpg",
      "popularity": 7.795,
      "adult": false,
      "known_for_department": "Acting"
    },
    {
      "id": 56871,
      "name": "Blair Underwood",
      "profile_path": "/2aDLa2bU2PevNmnCK3IOBYlh3BY.jpg",
      "popularity": 7.795,
      "adult": false,
      "known_for_department": "Acting"
    },
    {
      "id": 50948,
      "name": "Stephanie Beacham",
      "profile_path": "/sA16kZgXAa5KTkPv1FcbNNcHkmq.jpg",
      "popularity": 7.795,
      "adult": false,
      "known_for_department": "Acting"
    },
    {
      "id": 16962,
      "name": "Jang Dong-gun",
      "profile_path": "/otbTFpdLWAkjVqtvxFUtlHQjPMQ.jpg",
      "popularity": 7.795,
      "adult": false,
      "known_for_department": "Acting"
    },
    {
      "id": 11435,
      "name": "Howard Hawks",
      "profile_path": "/hG2oF9wZlqwGqP6EhG0qaN9Afg7.jpg",
      "popularity": 7.795,
      "adult": false,
      "known_for_department": "Directing"
    }
  ]
}