{
  "page": 328,
  "total_results": 10000,
  "total_pages": 500,
  "results": [
    {
      "id": 77667,
      "name": "Oksana Akinshina",
      "profile_path": "/1j05cOkkSvoTHp6vOOLbSzGHKr1.jpg",
      "popularity": 9.019,
      "adult": false,
      "known_for_department": "Acting"
    },
    {
      "id": 76886,
      "name": "Betsy Rue",
      "profile_path": "/wSRDoq5JIsKo4RkYaOwXu2Tla0h.jpg",
      "popularity": 9.019,
      "adult": false,
      "known_for_department": "Acting"
    },
    {
      "id": 52951,
      "name": "Jane Leeves",
      "profile_path": "/8IruLH6FPT4YPvlaivZbtYupWCb.jpg",
      "popularity": 9.019,
      "adult": false,
      "known_for_department": "Acting"
    },
    {
      "id": 4496,
      "name": "Nora Dunn",
      "profile_path": "/x9NAUBciKKxDaYRcntc4vKjqilG.jpg",
      "popularity": 9.018,
      "adult": false,
      "known_for_department": "Acting"
    },
    {
      "id": 153591,
      "name": "Joy Harmon",
      "profile_path": "/8QNg1B9K5DujwaoDK9yWWNVRinz.jpg",
      "popularity": 9.015,
      "adult": false,
      "known_for_department": "Acting"
    },
    {
      "id": 1856377,
      "name": "Oh Dae-hwan",
      "profile_path": "/d3ThGdnujocRKLHrwHbJqHlXpWC.jpg",
      "popularity": 9.013,
      "adult": false,
      "known_for_department": "Acting"
    },
    {
      "id": 46898,
      "name": "Peter Graham-Gaudreau",
      "profile_path": "/uxUN4vj7ioO8Oh3m2YW8ZJHh915.jpg",
      "popularity": 9.013,
      "adult": false,
      "known_for_department": "Acting"
    },
    {
      "id": 1445027,
      "name": "Özge Gürel",
      "profile_path": "/wG3yehWuT6e1JYJTQ9D0NXIHUoO.jpg",
      "popularity": 9.012,
      "adult": false,
      "known_for_department": "Acting"
    },
    {
      "id": 1438688,
      "name": "Ella Rumpf",
      "profile_path": "/9vTUmCrB0GK6SPwes99UHdMBsBe.jpg",
      "popularity": 9.01,
      "adult": false,
      "known_for_department": "Acting"
    },
    {
      "id": 20187,
      "name": "Camryn Manheim",
      "profile_path": "/eI42MrAyzJ3vbiGSIQB0FCwecba.jpg",
      "popularity": 9.01,
      "adult": false,
      "known_for_department": "Acting"
    },
    {
      "id": 188311,
      "name": "Eric Ladin",
      "profile_path": "/7uX4JUqMmPdrC550BeJWalMv72Y.jpg",
      "popularity": 9.008,
      "adult": false,
      "known_for_department": "Acting"
    },
    {
      "id": 154000,
      "name": "Essence Atkins",
      "profile_path": "/5cBdIVRJmy7IntOk3E3yyqGk2fJ.jpg",
      "popularity": 9.008,
      "adult": false,
      "known_for_department": "Acting"
    },
    {
      "id": 1225592,
      "name": "Jim Pirri",
      "profile_path": "/NwiYr74p08v6WOrZIatyZppAgI.jpg",
      "popularity": 9.006,
      "adult": false,
      "known_for_department": "Acting"
    },
    {
      "id": 780,
      "name": "Ronny Cox",
      "profile_path": "/cKkVkqft2RacSDhsKxO8nMFgeAd.jpg",
      "popularity": 9.006,
      "adult": false,
      "known_for_department": "Acting"
    },
    {
      "id": 6178,
      "name": "Roy Thinnes",
      "profile_path": "/581qcQkgDkbifnYLIsVoxGCNdU9.jpg",
      "popularity": 9.005,
      "adult": false,
      "known_for_department": "Acting"
    },
    {
      "id": 72494,
      "name": "Rie Miyazawa",
      "profile_path": "/s8z4HKhkPBT80UF1DxVDpzgGPPg.jpg",
      "popularity": 9.004,
      "adult": false,
      "known_for_department": "Acting"
    },
    {
      "id": 59241,
      "name": "P. Lynn Johnson",
      "profile_path": "",
      "popularity": 9.004,
      "adult": false,
      "known_for_department": "Acting"
    },
    {
      "id": 11786,
      "name": "Charles Cyphers",
      "profile_path": "/cfDwWOFY9xOGiRxUwjIHhZ7U6lh.jpg",
      "popularity": 9.004,
      "adult": false,
      "known_for_department": "Acting"
    },
    {
      "id": 1471280,
      "name": "Gizem Emre",
      "profile_path": "/pfcQ9wfADOvaRselgeku0bfKlWS.jpg",
      "popularity": 9.003,
      "adult": false,
      "known_for_department": "Acting"
    },
    {
      "id": 1192274,
      "name": "Jordan Fisher",
      "profile_path": "/un93GYC6nqUBhfkisMGsdefj8Oe.jpg",
      "popularity": 9.003,
      "adult": false,
      "known_for_department": "Acting"
    }
  ]
}