{
  "page": 380,
  "total_results": 10000,
  "total_pages": 500,
  "results": [
    {
      "id": 1394758,
      "name": "Ine Marie Wilmann",
      "profile_path": "/bu9JEeHHOl9kHGXzxVsNf8B4FDm.jpg",
      "popularity": 7.816,
      "adult": false,
      "known_for_department": "Acting"
    },
    {
      "id": 135944,
      "name": "Alexandre Willaume",
      "profile_path": "/9idbbstYInVyKSpbDaLMjwwRFns.jpg",
      "popularity": 7.816,
      "adult": false,
      "known_for_department": "Acting"
    },
    {
      "id": 52697,
      "name": "Georgia Engel",
      "profile_path": "/r3IvaTUWvjGduj4ifikrzEOrKOM.jpg",
      "popularity": 7.816,
      "adult": false,
      "known_for_department": "Acting"
    },
    {
      "id": 10487,
      "name": "Dorothy Malone",
      "profile_path": "/2uP4r2lDSAMcTp0HFjeciqoz7qp.jpg",
      "popularity": 7.816,
      "adult": false,
      "known_for_department": "Acting"
    },
    {
      "id": 702,
      "name": "Philip Tan",
      "profile_path": "/6cXDkOsHPbdsgiUUM7UIz6s8cXX.jpg",
      "popularity": 7.816,
      "adult": false,
      "known_for_department": "Acting"
    },
    {
      "id": 95263,
      "name": "Isobel Elsom",
      "profile_path": "/qJR2LoiQziyso5Ezzqnt4Oe3gjE.jpg",
      "popularity": 7.815,
      "adult": false,
      "known_for_department": "Acting"
    },
    {
      "id": 44714,
      "name": "Eva Gabor",
      "profile_path": "/7AGOoUGvGlMcBKD0nM7Quo4lYAq.jpg",
      "popularity": 7.815,
      "adult": false,
      "known_for_department": "Acting"
    },
    {
      "id": 1296084,
      "name": "Mallory Jansen",
      "profile_path": "/lWHRZnUXAHiciJedimMU8tw0ewl.jpg",
      "popularity": 7.814,
      "adult": false,
      "known_for_department": "Acting"
    },
    {
      "id": 91725,
      "name": "Clayton Rohner",
      "profile_path": "/fFxWE9DpMvOAdegkWiT6ylwMkvF.jpg",
      "popularity": 7.814,
      "adult": false,
      "known_for_department": "Acting"
    },
    {
      "id": 37936,
      "name": "Christina Milian",
      "profile_path": "/8gjuOvjQytPC5BygAToJgBIctpN.jpg",
      "popularity": 7.814,
      "adult": false,
      "known_for_department": "Acting"
    },
    {
      "id": 92509,
      "name": "Lori Loughlin",
      "profile_path": "/uelwtzItSLYEgaSjfzxfQ1AE1YK.jpg",
      "popularity": 7.813,
      "adult": false,
      "known_for_department": "Acting"
    },
    {
      "id": 230365,
      "name": "Kumi Imura",
      "profile_path": "",
      "popularity": 7.812,
      "adult": false,
      "known_for_department": "Acting"
    },
    {
      "id": 1203792,
      "name": "Jo Han-chul",
      "profile_path": "/sk0pVWe5wOAX6dVRzPkxMysfVWr.jpg",
      "popularity": 7.811,
      "adult": false,
      "known_for_department": "Acting"
    },
    {
      "id": 134658,
      "name": "Genevieve Hannelius",
      "profile_path": "/3gC07vpqu1YkdA2yw2NZY3cffyg.jpg",
      "popularity": 7.811,
      "adult": false,
      "known_for_department": "Acting"
    },
    {
      "id": 123862,
      "name": "Hairi Katagiri",
      "profile_path": "/lkjjI2IxaKC1UngsJqxMHi8XKbx.jpg",
      "popularity": 7.811,
      "adult": false,
      "known_for_department": "Acting"
    },
    {
      "id": 20285,
      "name": "Féodor Atkine",
      "profile_path": "/qCpSPJyM7v9p3fGBJV8ZqGETBr0.jpg",
      "popularity": 7.811,
      "adult": false,
      "known_for_department": "Acting"
    },
    {
      "id": 2069635,
      "name": "Jordana Lajoie",
      "profile_path": "/yZBYN3UpmpPoQPe77wzxADq3L2i.jpg",
      "popularity": 7.81,
      "adult": false,
      "known_for_department": "Acting"
    },
    {
      "id": 77109,
      "name": "Corey Large",
      "profile_path": "/a5fUescZlSJ8xbMdSk2BQ7a1onU.jpg",
      "popularity": 7.81,
      "adult": false,
      "known_for_department": "Production"
    },
    {
      "id": 42224,
      "name": "Gabriella Hall",
      "profile_path": "/lGGyIeLKtiufiUcBAXuOS9T6ZAH.jpg",
      "popularity": 7.81,
      "adult": false,
      "known_for_department": "Acting"
    },
    {
      "id": 560247,
      "name": "Miren Ibarguren",
      "profile_path": "/ndusbJn7YggtKhz37dIla81c72p.jpg",
      "popularity": 7.809,
      "adult": false,
      "known_for_department": "Acting"
    }
  ]
}