{
  "page": 291,
  "total_results": 10000,
  "total_pages": 500,
  "results": [
    {
      "id": 88496,
      "name": "Charlie Ray",
      "profile_path": "/z1CwJ823pIHO9UQihGmWi6v7w4j.jpg",
      "popularity": 9.453,
      "adult": false,
      "known_for_department": "Acting"
    },
    {
      "id": 6200,
      "name": "Diane Venora",
      "profile_path": "/8GLq0qdpLzNKjPRxBf3NQMEqafx.jpg",
      "popularity": 9.453,
      "adult": false,
      "known_for_department": "Acting"
    },
    {
      "id": 4457,
      "name": "Thomas Bo Larsen",
      "profile_path": "/3j2Iq6wkpgNwKz1H2kkywKB6go.jpg",
      "popularity": 9.451,
      "adult": false,
      "known_for_department": "Acting"
    },
    {
      "id": 1770528,
      "name": "Ella-Rae Smith",
      "profile_path": "/29rqXgz64ZPbzVfLIBiM7yG0vwz.jpg",
      "popularity": 9.45,
      "adult": false,
      "known_for_department": "Acting"
    },
    {
      "id": 139577,
      "name": "Valentín Trujillo",
      "profile_path": "/75EZ1smqiI2WmHmJ6zOSlCUkY0M.jpg",
      "popularity": 9.449,
      "adult": false,
      "known_for_department": "Acting"
    },
    {
      "id": 977543,
      "name": "Carl J. Matusovich",
      "profile_path": "/2HkLgKM58cgp5ysmYPleZiCsRhi.jpg",
      "popularity": 9.448,
      "adult": false,
      "known_for_department": "Acting"
    },
    {
      "id": 33337,
      "name": "Eric Johnson",
      "profile_path": "/xBifjKXfvZhYYx6P6dDaIvYIzVq.jpg",
      "popularity": 9.448,
      "adult": false,
      "known_for_department": "Acting"
    },
    {
      "id": 71083,
      "name": "Kate Dickie",
      "profile_path": "/mlFYUmZycpRa7TGgDTfP0xanE1Q.jpg",
      "popularity": 9.447,
      "adult": false,
      "known_for_department": "Acting"
    },
    {
      "id": 1344344,
      "name": "Storm Reid",
      "profile_path": "/wA8cntFil1AuwusEZXLH9o898m1.jpg",
      "popularity": 9.446,
      "adult": false,
      "known_for_department": "Acting"
    },
    {
      "id": 2067860,
      "name": "Jeon Yeo-been",
      "profile_path": "/l28uxiGDMyZjQMRvhfNCtkydmpK.jpg",
      "popularity": 9.444,
      "adult": false,
      "known_for_department": "Acting"
    },
    {
      "id": 1261727,
      "name": "Julie de Bona",
      "profile_path": "/t4lIM96f4CAKpT8ouk5j4VlQgCU.jpg",
      "popularity": 9.444,
      "adult": false,
      "known_for_department": "Acting"
    },
    {
      "id": 119232,
      "name": "Tom Noonan",
      "profile_path": "/8cwl9gaCr0F0yJ518nc6baebPLL.jpg",
      "popularity": 9.444,
      "adult": false,
      "known_for_department": "Acting"
    },
    {
      "id": 17243,
      "name": "Jonathan Tucker",
      "profile_path": "/w5R10n4Fsb1OsgEVxtppXHIgesc.jpg",
      "popularity": 9.443,
      "adult": false,
      "known_for_department": "Acting"
    },
    {
      "id": 1964704,
      "name": "Elli Rhiannon Müller Osborne",
      "profile_path": "/2BDD5ruypc9TaNbwlq5b5UCqTah.jpg",
      "popularity": 9.442,
      "adult": false,
      "known_for_department": "Acting"
    },
    {
      "id": 1168704,
      "name": "Amy Johnston",
      "profile_path": "/mZ35eWr4m2I4ufswUAwx7v0D8ZF.jpg",
      "popularity": 9.442,
      "adult": false,
      "known_for_department": "Acting"
    },
    {
      "id": 83701,
      "name": "Alex Kingston",
      "profile_path": "/ql1s3xla8hkYQl3dQNjENes9WHM.jpg",
      "popularity": 9.442,
      "adult": false,
      "known_for_department": "Acting"
    },
    {
      "id": 1253794,
      "name": "Kim Eun-sook",
      "profile_path": "/8GTTodrfCfLkPLJolU4sZV9HDK7.jpg",
      "popularity": 9.44,
      "adult": false,
      "known_for_department": "Writing"
    },
    {
      "id": 237756,
      "name": "Atticus Mitchell",
      "profile_path": "/7LOKQtrqdjkzujhpzq21HMnVq6D.jpg",
      "popularity": 9.439,
      "adult": false,
      "known_for_department": "Acting"
    },
    {
      "id": 61364,
      "name": "Ashley Walters",
      "profile_path": "/nVHxwibsSNIQsc1GkafMbceF1Uq.jpg",
      "popularity": 9.439,
      "adult": false,
      "known_for_department": "Acting"
    },
    {
      "id": 2454083,
      "name": "Lea Drinda",
      "profile_path": "/5EnghzLoKlVhfaoJ2oxWH5M7DrH.jpg",
      "popularity": 9.436,
      "adult": false,
      "known_for_department": "Acting"
    }
  ]
}