{
  "page": 83,
  "total_results": 10000,
  "total_pages": 500,
  "results": [
    {
      "id": 1575028,
      "name": "Hazal Filiz Küçükköse",
      "profile_path": "/uLRFiox5Xch4SVdfatHTNfzx0kH.jpg",
      "popularity": 15.342,
      "adult": false,
      "known_for_department": "Acting"
    },
    {
      "id": 1117,
      "name": "Dennis Farina",
      "profile_path": "/4hEWe0ZcDpGlB3nRizLkVMcG13B.jpg",
      "popularity": 15.342,
      "adult": false,
      "known_for_department": "Acting"
    },
    {
      "id": 141354,
      "name": "Nicola Walker",
      "profile_path": "/gZNT3kN254dASL2MZ6S2MpP6Nk2.jpg",
      "popularity": 15.336,
      "adult": false,
      "known_for_department": "Acting"
    },
    {
      "id": 7062,
      "name": "Andrew Lincoln",
      "profile_path": "/gR4RzQTDsMfVv8oEh2VRbO8LkFz.jpg",
      "popularity": 15.334,
      "adult": false,
      "known_for_department": "Acting"
    },
    {
      "id": 36662,
      "name": "Carey Mulligan",
      "profile_path": "/6x31pMOFprcRhApmDnJ9yl0HeDT.jpg",
      "popularity": 15.332,
      "adult": false,
      "known_for_department": "Acting"
    },
    {
      "id": 1513376,
      "name": "Cristy Guo",
      "profile_path": "/7WxuPxzNh3ePechSFAM8aauJYkS.jpg",
      "popularity": 15.325,
      "adult": false,
      "known_for_department": "Acting"
    },
    {
      "id": 15737,
      "name": "Helen McCrory",
      "profile_path": "/3FyO7Z8WigeCQsUpW4B1x3qfmFx.jpg",
      "popularity": 15.324,
      "adult": false,
      "known_for_department": "Acting"
    },
    {
      "id": 64141,
      "name": "David Gordon Green",
      "profile_path": "/iLNt8WmQmlVJHO5N5V7EmvXoXxQ.jpg",
      "popularity": 15.319,
      "adult": false,
      "known_for_department": "Directing"
    },
    {
      "id": 80591,
      "name": "Rashida Jones",
      "profile_path": "/cgWGm9eYCretBWeljPVtpRV7n6V.jpg",
      "popularity": 15.318,
      "adult": false,
      "known_for_department": "Acting"
    },
    {
      "id": 8260,
      "name": "Strother Martin",
      "profile_path": "/kriWi94NlAg2Nff1FOMhDf7AOEA.jpg",
      "popularity": 15.315,
      "adult": false,
      "known_for_department": "Acting"
    },
    {
      "id": 51037,
      "name": "Athena Karkanis",
      "profile_path": "/bxKJJWXfnTfWVpsD5Y5H8g4vFUq.jpg",
      "popularity": 15.314,
      "adult": false,
      "known_for_department": "Acting"
    },
    {
      "id": 2128468,
      "name": "Meng Ziyi",
      "profile_path": "/iaeFGqQ3JwpOh4uHPcFuCSdgSnm.jpg",
      "popularity": 15.305,
      "adult": false,
      "known_for_department": "Acting"
    },
    {
      "id": 2157,
      "name": "Robin Williams",
      "profile_path": "/iYdeP6K0qz44Wg2Nw9LPJGMBkQ5.jpg",
      "popularity": 15.301,
      "adult": false,
      "known_for_department": "Acting"
    },
    {
      "id": 10168,
      "name": "Diana Rigg",
      "profile_path": "/Ak0V4XwKNNqPOXhByCUa85jXkKu.jpg",
      "popularity": 15.299,
      "adult": false,
      "known_for_department": "Acting"
    },
    {
      "id": 12899,
      "name": "Jim Varney",
      "profile_path": "/yrhgPWGOc36GN0P9kuJ48sU4fVa.jpg",
      "popularity": 15.297,
      "adult": false,
      "known_for_department": "Acting"
    },
    {
      "id": 1425004,
      "name": "Elango Kumaravel",
      "profile_path": "/8LtXDdacaCA7Gk4B8ACxTs430EO.jpg",
      "popularity": 15.289,
      "adult": false,
      "known_for_department": "Acting"
    },
    {
      "id": 53807,
      "name": "Armie Hammer",
      "profile_path": "/dacZbbnheEhejYbkDgz7WhhSBJp.jpg",
      "popularity": 15.288,
      "adult": false,
      "known_for_department": "Acting"
    },
    {
      "id": 56100,
      "name": "Alistair Petrie",
      "profile_path": "/byHbMDmqhh0C0yGSOgvx978PiCI.jpg",
      "popularity": 15.287,
      "adult": false,
      "known_for_department": "Acting"
    },
    {
      "id": 94185,
      "name": "Shailene Woodley",
      "profile_path": "/y283nMcCx0BTcZ8rNZKLNpeq3UY.jpg",
      "popularity": 15.286,
      "adult": false,
      "known_for_department": "Acting"
    },
    {
      "id": 2187124,
      "name": "Wan Peng",
      "profile_path": "/q6vKHvMGqDiUnKX1vZNnRYhezAJ.jpg",
      "popularity": 15.278,
      "adult": false,
      "known_for_department": "Acting"
    }
  ]
}