{
  "page": 426,
  "total_results": 10000,
  "total_pages": 500,
  "results": [
    {
      "id": 7053,
      "name": "Gregor Fisher",
      "profile_path": "/Dcn4zDxFbU4eFw4i5M6KUepmnu.jpg",
      "popularity": 8.379,
      "adult": false,
      "known_for_department": "Acting"
    },
    {
      "id": 2340180,
      "name": "Hunter Schafer",
      "profile_path": "/npAsOblFIk6vCyWaymt8rDmJXNK.jpg",
      "popularity": 8.378,
      "adult": false,
      "known_for_department": "Acting"
    },
    {
      "id": 2166026,
      "name": "Park Hoon",
      "profile_path": "/1fVcI5O31gu3SlQKyocZ5fGPSdg.jpg",
      "popularity": 8.378,
      "adult": false,
      "known_for_department": "Acting"
    },
    {
      "id": 33807,
      "name": "George Eastman",
      "profile_path": "/aE8C5uGqystShl13VcrZSjcraJ5.jpg",
      "popularity": 8.378,
      "adult": false,
      "known_for_department": "Acting"
    },
    {
      "id": 1963088,
      "name": "Rose Reid",
      "profile_path": "/7TJ0sA4riqaSxBuviATKI2tT1PZ.jpg",
      "popularity": 8.377,
      "adult": false,
      "known_for_department": "Acting"
    },
    {
      "id": 1423520,
      "name": "Mike Faist",
      "profile_path": "/fk7zMd0PAPyhUbEMVH0zzyzzDM7.jpg",
      "popularity": 8.376,
      "adult": false,
      "known_for_department": "Acting"
    },
    {
      "id": 8778,
      "name": "Rosalinda Celentano",
      "profile_path": "/3rNTkYVSUlgAkUvk5nazkiQI20u.jpg",
      "popularity": 8.376,
      "adult": false,
      "known_for_department": "Acting"
    },
    {
      "id": 74678,
      "name": "Chad Rook",
      "profile_path": "/ingigcFjpB56O4WpOMADH1pwk8k.jpg",
      "popularity": 8.375,
      "adult": false,
      "known_for_department": "Acting"
    },
    {
      "id": 33515,
      "name": "Kazunari Ninomiya",
      "profile_path": "/4mxogZeEPZiVrnJ4L8ICvOJONfs.jpg",
      "popularity": 8.375,
      "adult": false,
      "known_for_department": "Acting"
    },
    {
      "id": 11544,
      "name": "Jean Gabin",
      "profile_path": "/pmFuOVTQvYdgmN7cYOuyJHPfMRt.jpg",
      "popularity": 8.374,
      "adult": false,
      "known_for_department": "Acting"
    },
    {
      "id": 62332,
      "name": "Choi Sung-kook",
      "profile_path": "/cJABnA1fl25MkDtKro5ZyWIjurY.jpg",
      "popularity": 8.373,
      "adult": false,
      "known_for_department": "Acting"
    },
    {
      "id": 29862,
      "name": "Jim Beaver",
      "profile_path": "/c3Cqp1XAdcyeUZKkcrdQsPwb010.jpg",
      "popularity": 8.373,
      "adult": false,
      "known_for_department": "Acting"
    },
    {
      "id": 158014,
      "name": "Joe Lara",
      "profile_path": "/roS4HzTih6QeZYwtWvIDTlqXke4.jpg",
      "popularity": 8.371,
      "adult": false,
      "known_for_department": "Acting"
    },
    {
      "id": 150440,
      "name": "Gülçin Santırcıoğlu",
      "profile_path": "/aY8Ct67J2bz9rmTLsMQE1Dy9MFs.jpg",
      "popularity": 8.371,
      "adult": false,
      "known_for_department": "Acting"
    },
    {
      "id": 144288,
      "name": "Maiara Walsh",
      "profile_path": "/n5qik3XnpPEwa76SrQQJVgei7RP.jpg",
      "popularity": 8.371,
      "adult": false,
      "known_for_department": "Acting"
    },
    {
      "id": 57736,
      "name": "Keiko Toda",
      "profile_path": "/jRJIfQLmMyHaNnvlBnnNp3kPx6I.jpg",
      "popularity": 8.371,
      "adult": false,
      "known_for_department": "Acting"
    },
    {
      "id": 17187,
      "name": "Trini Alvarado",
      "profile_path": "/mBXnTuUlllTWiGbJfbkw63WxV2U.jpg",
      "popularity": 8.371,
      "adult": false,
      "known_for_department": "Acting"
    },
    {
      "id": 1292258,
      "name": "Jack Kesy",
      "profile_path": "/lQ8nUYK6InbCFk2TWNnXjjvG9IY.jpg",
      "popularity": 8.369,
      "adult": false,
      "known_for_department": "Acting"
    },
    {
      "id": 64932,
      "name": "Tammy Lauren",
      "profile_path": "/ejgmvThwZwQBJ6QCIvrWCkTjjOJ.jpg",
      "popularity": 8.369,
      "adult": false,
      "known_for_department": "Acting"
    },
    {
      "id": 1268846,
      "name": "Daniel Padilla",
      "profile_path": "/rOXqdSjuxGGXJbZ8hNM8qrMZqPZ.jpg",
      "popularity": 8.368,
      "adult": false,
      "known_for_department": "Acting"
    }
  ]
}