{
  "page": 130,
  "total_results": 10000,
  "total_pages": 500,
  "results": [
    {
      "id": 206905,
      "name": "Jeremy Allen White",
      "profile_path": "/8XXSfvmOX2ux0niV2uvzaD92ywm.jpg",
      "popularity": 12.646,
      "adult": false,
      "known_for_department": "Acting"
    },
    {
      "id": 1182929,
      "name": "Freema Agyeman",
      "profile_path": "/qL741lSB4GJIzBRCMz2xzrO7C45.jpg",
      "popularity": 12.645,
      "adult": false,
      "known_for_department": "Acting"
    },
    {
      "id": 1040321,
      "name": "Erica Wessels",
      "profile_path": "",
      "popularity": 12.644,
      "adult": false,
      "known_for_department": "Acting"
    },
    {
      "id": 525,
      "name": "Christopher Nolan",
      "profile_path": "/xuAIuYSmsUzKlUMBFGVZaWsY3DZ.jpg",
      "popularity": 12.641,
      "adult": false,
      "known_for_department": "Directing"
    },
    {
      "id": 34408,
      "name": "Stana Katic",
      "profile_path": "/4Kw0xJTzRc4VPfOVlaMr7OTfvN2.jpg",
      "popularity": 12.63,
      "adult": false,
      "known_for_department": "Acting"
    },
    {
      "id": 1894,
      "name": "Scott Caan",
      "profile_path": "/67V8YrMglGzvuTOZGpqygDhNK1z.jpg",
      "popularity": 12.628,
      "adult": false,
      "known_for_department": "Acting"
    },
    {
      "id": 1686977,
      "name": "Guan Xiaotong",
      "profile_path": "/am9PTj15viRYmYGJaOxxbUDiHIT.jpg",
      "popularity": 12.624,
      "adult": false,
      "known_for_department": "Acting"
    },
    {
      "id": 11366,
      "name": "Lorenzo Lamas",
      "profile_path": "/40H8ed5hKkapzRNVFo2UWPGmK3w.jpg",
      "popularity": 12.614,
      "adult": false,
      "known_for_department": "Acting"
    },
    {
      "id": 6450,
      "name": "Faye Dunaway",
      "profile_path": "/bwHJPkiDOjTslgrl0mri1Ndvx2V.jpg",
      "popularity": 12.613,
      "adult": false,
      "known_for_department": "Acting"
    },
    {
      "id": 2478,
      "name": "Tommy Flanagan",
      "profile_path": "/5OnvT1KpEk3juZavqOCSAEYOtwl.jpg",
      "popularity": 12.613,
      "adult": false,
      "known_for_department": "Acting"
    },
    {
      "id": 11702,
      "name": "Adam Brody",
      "profile_path": "/jeMhuu9Q81XJLIef1OU7NlcxRW0.jpg",
      "popularity": 12.611,
      "adult": false,
      "known_for_department": "Acting"
    },
    {
      "id": 51894,
      "name": "J. A. Bayona",
      "profile_path": "/cnbbnS7K8Uu6yohAfSRHv5Kxc7r.jpg",
      "popularity": 12.605,
      "adult": false,
      "known_for_department": "Directing"
    },
    {
      "id": 214556,
      "name": "Indiana Evans",
      "profile_path": "/rZHqKjXYPFndiri2rVTzHfYSVBc.jpg",
      "popularity": 12.6,
      "adult": false,
      "known_for_department": "Acting"
    },
    {
      "id": 6408,
      "name": "Nick Stahl",
      "profile_path": "/mKJoI60NHS5xMc7HUrZjpSVfghK.jpg",
      "popularity": 12.598,
      "adult": false,
      "known_for_department": "Acting"
    },
    {
      "id": 4512,
      "name": "James Woods",
      "profile_path": "/tLH7mpH4KqkWL5VgjueTbewGsfK.jpg",
      "popularity": 12.598,
      "adult": false,
      "known_for_department": "Acting"
    },
    {
      "id": 57449,
      "name": "Jodhi May",
      "profile_path": "/iqVk4bZyBkIOOWxaYxiezcApwRG.jpg",
      "popularity": 12.596,
      "adult": false,
      "known_for_department": "Acting"
    },
    {
      "id": 1563169,
      "name": "Henry Zaga",
      "profile_path": "/lGOcJ4UT13PfWgRSj7Gno00oAIc.jpg",
      "popularity": 12.595,
      "adult": false,
      "known_for_department": "Acting"
    },
    {
      "id": 15903,
      "name": "George Carlin",
      "profile_path": "/6YKQHJzml6XviUADpSC6kfF56W9.jpg",
      "popularity": 12.591,
      "adult": false,
      "known_for_department": "Acting"
    },
    {
      "id": 973385,
      "name": "Ross Lynch",
      "profile_path": "/tpcszNyTefPVH19DMOgpxJ2VHO3.jpg",
      "popularity": 12.59,
      "adult": false,
      "known_for_department": "Acting"
    },
    {
      "id": 963429,
      "name": "Iris Apatow",
      "profile_path": "/12hYdiBlxXLh98oDjvyOrGAqoEN.jpg",
      "popularity": 12.588,
      "adult": false,
      "known_for_department": "Acting"
    }
  ]
}