{
  "page": 94,
  "total_results": 10000,
  "total_pages": 500,
  "results": [
    {
      "id": 1465528,
      "name": "Angela White",
      "profile_path": "/sWI6etyiCVOToC3WLG5XELmeLvM.jpg",
      "popularity": 20.657,
      "adult": false,
      "known_for_department": "Acting"
    },
    {
      "id": 1350,
      "name": "Irène Jacob",
      "profile_path": "/yDpLjFtglSDlq3pvITr7O5AQfvg.jpg",
      "popularity": 20.65,
      "adult": false,
      "known_for_department": "Acting"
    },
    {
      "id": 31837,
      "name": "Dane Cook",
      "profile_path": "/4UGHKnDOf75GZR5z0QHjrhjfpIu.jpg",
      "popularity": 20.635,
      "adult": false,
      "known_for_department": "Acting"
    },
    {
      "id": 15232,
      "name": "Ty Burrell",
      "profile_path": "/1bO1J5d1WbwTXWmGeRthfZVDfjN.jpg",
      "popularity": 20.62,
      "adult": false,
      "known_for_department": "Acting"
    },
    {
      "id": 1252801,
      "name": "Emma Kenney",
      "profile_path": "/AvcM57XKunQCFGsu5cZZHkNre4z.jpg",
      "popularity": 20.619,
      "adult": false,
      "known_for_department": "Acting"
    },
    {
      "id": 1299287,
      "name": "Jin Goo",
      "profile_path": "/jL0bhHE8vIEomP1Zdz3a0ryXXgk.jpg",
      "popularity": 20.616,
      "adult": false,
      "known_for_department": "Acting"
    },
    {
      "id": 82104,
      "name": "Danai Gurira",
      "profile_path": "/gjTMEc5bl5iA1aO9KweIQ1vcuWp.jpg",
      "popularity": 20.606,
      "adult": false,
      "known_for_department": "Acting"
    },
    {
      "id": 24203,
      "name": "Rhea Perlman",
      "profile_path": "/utg7mKbhNvxRWfWBwSb27tQTaOE.jpg",
      "popularity": 20.606,
      "adult": false,
      "known_for_department": "Acting"
    },
    {
      "id": 234009,
      "name": "Joséphine Jobert",
      "profile_path": "/s8nWAU7YOcYptzBMuZd4HsIJja4.jpg",
      "popularity": 20.597,
      "adult": false,
      "known_for_department": "Acting"
    },
    {
      "id": 17881,
      "name": "Jason Schwartzman",
      "profile_path": "/gCjMdmW1DiPAClHVl4zHEIffIsE.jpg",
      "popularity": 20.596,
      "adult": false,
      "known_for_department": "Acting"
    },
    {
      "id": 154856,
      "name": "Sarah Rafferty",
      "profile_path": "/nmoQeAVnRkTL4YS26gQcjeuvMcM.jpg",
      "popularity": 20.594,
      "adult": false,
      "known_for_department": "Acting"
    },
    {
      "id": 24695,
      "name": "Olivia Hussey",
      "profile_path": "/n5j2kzrktNoTzyn3TiHvrHgW0g3.jpg",
      "popularity": 20.589,
      "adult": false,
      "known_for_department": "Acting"
    },
    {
      "id": 35769,
      "name": "Christopher Masterson",
      "profile_path": "/vDpW40I1UMul7j4ZwGylPuWHteC.jpg",
      "popularity": 20.587,
      "adult": false,
      "known_for_department": "Acting"
    },
    {
      "id": 53252,
      "name": "Noel Gugliemi",
      "profile_path": "/ndm0GtwFegozqIDb5qd376OJU3J.jpg",
      "popularity": 20.586,
      "adult": false,
      "known_for_department": "Acting"
    },
    {
      "id": 11702,
      "name": "Adam Brody",
      "profile_path": "/jeMhuu9Q81XJLIef1OU7NlcxRW0.jpg",
      "popularity": 20.586,
      "adult": false,
      "known_for_department": "Acting"
    },
    {
      "id": 63681,
      "name": "Julie Warner",
      "profile_path": "/zsuQf2FhJB4vER6xcNJVXemn4i4.jpg",
      "popularity": 20.584,
      "adult": false,
      "known_for_department": "Acting"
    },
    {
      "id": 10966,
      "name": "J.K. Rowling",
      "profile_path": "/8VDx3K8NBGJDEWr4KdsGsuT8wuj.jpg",
      "popularity": 20.584,
      "adult": false,
      "known_for_department": "Writing"
    },
    {
      "id": 16856,
      "name": "Gabriel Macht",
      "profile_path": "/mc0zlgOviaVnfrIQ0igHDg4sHH0.jpg",
      "popularity": 20.582,
      "adult": false,
      "known_for_department": "Acting"
    },
    {
      "id": 10988,
      "name": "Geraldine Somerville",
      "profile_path": "/vyLIquF45MpN6OOPmk8L7gnmKrY.jpg",
      "popularity": 20.581,
      "adult": false,
      "known_for_department": "Acting"
    },
    {
      "id": 28238,
      "name": "David Hasselhoff",
      "profile_path": "/d2tUPhLNlS6xZcPLEIvcnpGOUpe.jpg",
      "popularity": 20.572,
      "adult": false,
      "known_for_department": "Acting"
    }
  ]
}