{
  "page": 409,
  "total_results": 10000,
  "total_pages": 500,
  "results": [
    {
      "id": 1625156,
      "name": "Douggie McMeekin",
      "profile_path": "/mPqhmMPosUfEYCrkrGaqQ01wcYf.jpg",
      "popularity": 8.161,
      "adult": false,
      "known_for_department": "Acting"
    },
    {
      "id": 113928,
      "name": "Michael Trevino",
      "profile_path": "/oeiwIwNVk2yRpndp8gxtSFMEfDO.jpg",
      "popularity": 8.161,
      "adult": false,
      "known_for_department": "Acting"
    },
    {
      "id": 8963,
      "name": "Karen Black",
      "profile_path": "/2FUHvpCZ8A3we7yaEvIK8r06fCL.jpg",
      "popularity": 8.161,
      "adult": false,
      "known_for_department": "Acting"
    },
    {
      "id": 1900234,
      "name": "Margot Nuccetelli",
      "profile_path": "/wfeZWzVPTRLbMXZLqXII8stzWyT.jpg",
      "popularity": 8.16,
      "adult": false,
      "known_for_department": "Acting"
    },
    {
      "id": 1223084,
      "name": "Mary Mouser",
      "profile_path": "/A5AMjqFB5SqWdZh4gOBGQNXK8vf.jpg",
      "popularity": 8.16,
      "adult": false,
      "known_for_department": "Acting"
    },
    {
      "id": 562279,
      "name": "Liz Gallardo",
      "profile_path": "/pfVzRK4ILlMLwcoq8MQwLlcToTa.jpg",
      "popularity": 8.159,
      "adult": false,
      "known_for_department": "Acting"
    },
    {
      "id": 84463,
      "name": "Daniela Bobadilla",
      "profile_path": "/nib6rQZdMrZu44uxsKfZlg2ZC13.jpg",
      "popularity": 8.159,
      "adult": false,
      "known_for_department": "Acting"
    },
    {
      "id": 2241218,
      "name": "Jahzir Bruno",
      "profile_path": "/bGyQQmbOaW4h8gAELkb8unCsPj8.jpg",
      "popularity": 8.156,
      "adult": false,
      "known_for_department": "Acting"
    },
    {
      "id": 1973077,
      "name": "Ananya Pandey",
      "profile_path": "/kM33DKHC0rAEaLzAmFMlDQBxCtq.jpg",
      "popularity": 8.156,
      "adult": false,
      "known_for_department": "Acting"
    },
    {
      "id": 179896,
      "name": "Jeff Bergman",
      "profile_path": "/qeCpFCrmocsMvI7pZ1vqCCo6cPZ.jpg",
      "popularity": 8.156,
      "adult": false,
      "known_for_department": "Acting"
    },
    {
      "id": 82791,
      "name": "Valerie Tian",
      "profile_path": "/znUa1enmheF0mvHPIw8upy54ay.jpg",
      "popularity": 8.156,
      "adult": false,
      "known_for_department": "Acting"
    },
    {
      "id": 236639,
      "name": "Françoise Lebrun",
      "profile_path": "/djbPgHqOI1J7thLTTnJIEQNfnZj.jpg",
      "popularity": 8.155,
      "adult": false,
      "known_for_department": "Acting"
    },
    {
      "id": 47137,
      "name": "Milo O’Shea",
      "profile_path": "/wLcWVAw2REUJMT9JjbQbVXLqQkZ.jpg",
      "popularity": 8.155,
      "adult": false,
      "known_for_department": "Acting"
    },
    {
      "id": 87384,
      "name": "Chyna",
      "profile_path": "/lEClFawi9DXjJr71jc3WMGWmlVz.jpg",
      "popularity": 8.154,
      "adult": false,
      "known_for_department": "Acting"
    },
    {
      "id": 18197,
      "name": "Anna Karina",
      "profile_path": "/aKOamm8rUA4zWGud5CwM6szCHoo.jpg",
      "popularity": 8.154,
      "adult": false,
      "known_for_department": "Acting"
    },
    {
      "id": 84433,
      "name": "Lannick Gautry",
      "profile_path": "/h94QUkKrwUncYhJ1eMz23kBAJuc.jpg",
      "popularity": 8.152,
      "adult": false,
      "known_for_department": "Acting"
    },
    {
      "id": 17305,
      "name": "Greg Grunberg",
      "profile_path": "/ir2QunLf6aTaowpEygbIcjiZLDB.jpg",
      "popularity": 8.152,
      "adult": false,
      "known_for_department": "Acting"
    },
    {
      "id": 1948895,
      "name": "Alican Aytekin",
      "profile_path": "/mthrIRQyRO4yC47z1fOAwIUEhR6.jpg",
      "popularity": 8.151,
      "adult": false,
      "known_for_department": "Acting"
    },
    {
      "id": 34923,
      "name": "Atsuko Tanaka",
      "profile_path": "/pXcJZCWA9uzZLH7vqU8M6KpAP3Z.jpg",
      "popularity": 8.151,
      "adult": false,
      "known_for_department": "Acting"
    },
    {
      "id": 113563,
      "name": "Rhys Coiro",
      "profile_path": "/pjPbrZHU0kJUiMOPYfxK8FeBwWQ.jpg",
      "popularity": 8.15,
      "adult": false,
      "known_for_department": "Acting"
    }
  ]
}