{
  "page": 461,
  "total_results": 10000,
  "total_pages": 500,
  "results": [
    {
      "id": 387,
      "name": "Kim Greist",
      "profile_path": "/zYMORBHyCcXbbchiKGhhrnJyoix.jpg",
      "popularity": 7.336,
      "adult": false,
      "known_for_department": "Acting"
    },
    {
      "id": 2001084,
      "name": "Recep Usta",
      "profile_path": "/24lAAj8FUxy46Zve0D25E234Z3Y.jpg",
      "popularity": 7.335,
      "adult": false,
      "known_for_department": "Acting"
    },
    {
      "id": 1251160,
      "name": "Michael Eric Reid",
      "profile_path": "/idWpVtKwQ4ubCBAGlW0b3jM5Mk0.jpg",
      "popularity": 7.335,
      "adult": false,
      "known_for_department": "Acting"
    },
    {
      "id": 577478,
      "name": "Hannah Ware",
      "profile_path": "/alyHyAh2xfEkHGYEgmMBMDjrbPq.jpg",
      "popularity": 7.335,
      "adult": false,
      "known_for_department": "Acting"
    },
    {
      "id": 92619,
      "name": "Drew Seeley",
      "profile_path": "/2wFCQ5yX29VMdHuLPFvp9qXNI2G.jpg",
      "popularity": 7.335,
      "adult": false,
      "known_for_department": "Acting"
    },
    {
      "id": 1915027,
      "name": "Iván Pellicer",
      "profile_path": "/dQzs3Gx9NpIZClLTSGvvtSMTHnl.jpg",
      "popularity": 7.334,
      "adult": false,
      "known_for_department": "Acting"
    },
    {
      "id": 1710835,
      "name": "Thais Melchior",
      "profile_path": "/eOeu51fsmX4DvfCVzCdcPFJY0vo.jpg",
      "popularity": 7.334,
      "adult": false,
      "known_for_department": "Acting"
    },
    {
      "id": 1259880,
      "name": "Lior Raz",
      "profile_path": "/bl3KLFUQ4Q0zC9lCU4qP1Jf4qHS.jpg",
      "popularity": 7.334,
      "adult": false,
      "known_for_department": "Acting"
    },
    {
      "id": 175583,
      "name": "Charlene Amoia",
      "profile_path": "/8hJNPw3XCErifcZZPOfd20JmiTC.jpg",
      "popularity": 7.334,
      "adult": false,
      "known_for_department": "Acting"
    },
    {
      "id": 15414,
      "name": "Charles Hallahan",
      "profile_path": "/zQr2ytNB23Dy3uzbGkxfIsANw3y.jpg",
      "popularity": 7.334,
      "adult": false,
      "known_for_department": "Acting"
    },
    {
      "id": 13786,
      "name": "Whit Bissell",
      "profile_path": "/utFxx3j5J4zg7YMZ5Y0Bp4RBBFO.jpg",
      "popularity": 7.334,
      "adult": false,
      "known_for_department": "Acting"
    },
    {
      "id": 2075054,
      "name": "Jun Amaki",
      "profile_path": "/zv1jgUAYlGUmxEsmBgxadMOO34o.jpg",
      "popularity": 7.333,
      "adult": false,
      "known_for_department": "Acting"
    },
    {
      "id": 1434487,
      "name": "Anna Sawai",
      "profile_path": "/8FBwyZGogA4yvvqy3sISuEROpA2.jpg",
      "popularity": 7.333,
      "adult": false,
      "known_for_department": "Acting"
    },
    {
      "id": 584542,
      "name": "Julia Sarah Stone",
      "profile_path": "/6PV9ZU6Xv7w1N2Pb8R9t9V9pIIa.jpg",
      "popularity": 7.333,
      "adult": false,
      "known_for_department": "Acting"
    },
    {
      "id": 140267,
      "name": "Osita Iheme",
      "profile_path": "",
      "popularity": 7.333,
      "adult": false,
      "known_for_department": "Acting"
    },
    {
      "id": 89251,
      "name": "Melinda Clarke",
      "profile_path": "/4drY26vTehdf9KjFmthf4xK05DB.jpg",
      "popularity": 7.333,
      "adult": false,
      "known_for_department": "Acting"
    },
    {
      "id": 83633,
      "name": "Vanness Wu",
      "profile_path": "/9dwsdvRcMnXzCO3Oj0zQNnBEZH4.jpg",
      "popularity": 7.333,
      "adult": false,
      "known_for_department": "Acting"
    },
    {
      "id": 77225,
      "name": "Barbara Rhoades",
      "profile_path": "/73MpFvk2YELp13jr6F4cPSx4S4B.jpg",
      "popularity": 7.333,
      "adult": false,
      "known_for_department": "Acting"
    },
    {
      "id": 98902,
      "name": "Bebe Drake",
      "profile_path": "/pSIS3aBdOlxlTzw6MKinGqK3OC9.jpg",
      "popularity": 7.332,
      "adult": false,
      "known_for_department": "Acting"
    },
    {
      "id": 68816,
      "name": "Adèle Haenel",
      "profile_path": "/uf2BVprWBZB7hxv0lj1RO48EDEZ.jpg",
      "popularity": 7.332,
      "adult": false,
      "known_for_department": "Acting"
    }
  ]
}