{
  "page": 313,
  "total_results": 10000,
  "total_pages": 500,
  "results": [
    {
      "id": 17078,
      "name": "Michael Smiley",
      "profile_path": "/eWfpVJs6nnvWlzz85LRDEXHsyOJ.jpg",
      "popularity": 8.132,
      "adult": false,
      "known_for_department": "Acting"
    },
    {
      "id": 158037,
      "name": "Jessica Wesson",
      "profile_path": "/l1EWbPzBxT6OoZLdXpOQEQGKT3O.jpg",
      "popularity": 8.131,
      "adult": false,
      "known_for_department": "Acting"
    },
    {
      "id": 125026,
      "name": "Patty McCormack",
      "profile_path": "/5cSH6fIpcEfIrTkX0LaVfidEiJu.jpg",
      "popularity": 8.13,
      "adult": false,
      "known_for_department": "Acting"
    },
    {
      "id": 37934,
      "name": "André 3000",
      "profile_path": "/uk5l9JajYAlCJomZWFHnz7XZ5bP.jpg",
      "popularity": 8.13,
      "adult": false,
      "known_for_department": "Acting"
    },
    {
      "id": 104644,
      "name": "Dan Povenmire",
      "profile_path": "/cBtHTwRebIIHhD215MJ6bZTJN2s.jpg",
      "popularity": 8.128,
      "adult": false,
      "known_for_department": "Acting"
    },
    {
      "id": 33668,
      "name": "Noam Jenkins",
      "profile_path": "/6cGnnTzHgvl4aEpD98gtcQ9DDU7.jpg",
      "popularity": 8.128,
      "adult": false,
      "known_for_department": "Acting"
    },
    {
      "id": 117690,
      "name": "Prithviraj Sukumaran",
      "profile_path": "/oxLS80XtmMJVHbTfFCfXMJvE5i9.jpg",
      "popularity": 8.127,
      "adult": false,
      "known_for_department": "Acting"
    },
    {
      "id": 102012,
      "name": "Ania Pieroni",
      "profile_path": "/mmYRXxLMfdWYvWc9o3GhVhGFnWV.jpg",
      "popularity": 8.127,
      "adult": false,
      "known_for_department": "Acting"
    },
    {
      "id": 8452,
      "name": "Andrei Tarkovsky",
      "profile_path": "/j0toVLrgLNuyGnUxGPnSfnPiSf5.jpg",
      "popularity": 8.127,
      "adult": false,
      "known_for_department": "Directing"
    },
    {
      "id": 544666,
      "name": "Roxane Duran",
      "profile_path": "/2FbKGEBnFkbD5vQoIaxahxBLIKD.jpg",
      "popularity": 8.125,
      "adult": false,
      "known_for_department": "Acting"
    },
    {
      "id": 11680,
      "name": "Pauley Perrette",
      "profile_path": "/scb8cQt9u6AdhEHg7RJDUtdhHkg.jpg",
      "popularity": 8.125,
      "adult": false,
      "known_for_department": "Acting"
    },
    {
      "id": 41557,
      "name": "Ever Carradine",
      "profile_path": "/fL23W2vjdaVS91s9c6AKjvB94aW.jpg",
      "popularity": 8.124,
      "adult": false,
      "known_for_department": "Acting"
    },
    {
      "id": 5698,
      "name": "Jessica Tandy",
      "profile_path": "/4qgLUP4sFC3xnzzcpyQcv8UKZAv.jpg",
      "popularity": 8.123,
      "adult": false,
      "known_for_department": "Acting"
    },
    {
      "id": 1488952,
      "name": "Mary Holland",
      "profile_path": "/iwEK2fIrU1q7aijjD8FI9hCUMEL.jpg",
      "popularity": 8.122,
      "adult": false,
      "known_for_department": "Acting"
    },
    {
      "id": 1379122,
      "name": "Zackary Arthur",
      "profile_path": "/bHNxWDhEsxvEHWhh8oA9ArIo3AI.jpg",
      "popularity": 8.122,
      "adult": false,
      "known_for_department": "Acting"
    },
    {
      "id": 62081,
      "name": "Michael Damian",
      "profile_path": "/Tvnu4oEV7RInI7RiyAoGQMb75H.jpg",
      "popularity": 8.121,
      "adult": false,
      "known_for_department": "Directing"
    },
    {
      "id": 1907002,
      "name": "Charles Melton",
      "profile_path": "/wTVbROEoe3zN7oz8EcXBIHUesn.jpg",
      "popularity": 8.12,
      "adult": false,
      "known_for_department": "Acting"
    },
    {
      "id": 1173214,
      "name": "Tong Liya",
      "profile_path": "/9FkK9VgNFspdp1PLYDZTrVIjNv6.jpg",
      "popularity": 8.119,
      "adult": false,
      "known_for_department": "Acting"
    },
    {
      "id": 11401,
      "name": "John Woo",
      "profile_path": "/s7sDmQq8cegHnsTmD0u2eZ4ArYZ.jpg",
      "popularity": 8.117,
      "adult": false,
      "known_for_department": "Directing"
    },
    {
      "id": 8269,
      "name": "Suzanne Cryer",
      "profile_path": "/2l8WjcbjE64mPI1OftJHI07mJmf.jpg",
      "popularity": 8.117,
      "adult": false,
      "known_for_department": "Acting"
    }
  ]
}