{
  "page": 239,
  "total_results": 10000,
  "total_pages": 500,
  "results": [
    {
      "id": 240183,
      "name": "Lily Ho",
      "profile_path": "/eH8T3Un5Ii5iPjaUkmLInG9u1uT.jpg",
      "popularity": 12.03,
      "adult": false,
      "known_for_department": "Acting"
    },
    {
      "id": 188013,
      "name": "Taylor Spreitler",
      "profile_path": "/5sAmpcNJiNeRV77CXJ2SWPsStkP.jpg",
      "popularity": 12.03,
      "adult": false,
      "known_for_department": "Acting"
    },
    {
      "id": 2022,
      "name": "Catherine Hicks",
      "profile_path": "/eGgCeUbtsq69nCPG1w7vU7DzJpO.jpg",
      "popularity": 12.03,
      "adult": false,
      "known_for_department": "Acting"
    },
    {
      "id": 15812,
      "name": "Roger Allers",
      "profile_path": "/sdFyM5FNcJuMv7knrz6swaIHXIJ.jpg",
      "popularity": 12.029,
      "adult": false,
      "known_for_department": "Writing"
    },
    {
      "id": 15244,
      "name": "Ehren Kruger",
      "profile_path": "",
      "popularity": 12.027,
      "adult": false,
      "known_for_department": "Writing"
    },
    {
      "id": 1335527,
      "name": "Michelle Mylett",
      "profile_path": "/zwoAG9AA9QtyAUWnZzRcL6W74t8.jpg",
      "popularity": 12.025,
      "adult": false,
      "known_for_department": "Acting"
    },
    {
      "id": 27753,
      "name": "Colin Friels",
      "profile_path": "/9ubzrtBT98thY80stfycCGRUEe3.jpg",
      "popularity": 12.025,
      "adult": false,
      "known_for_department": "Acting"
    },
    {
      "id": 1540185,
      "name": "Hannah van der Westhuysen",
      "profile_path": "/v1pWVLqNDSLUjvuH2yCtsxA6OxT.jpg",
      "popularity": 12.023,
      "adult": false,
      "known_for_department": "Acting"
    },
    {
      "id": 1650301,
      "name": "Trevante Rhodes",
      "profile_path": "/w5mqvAJ4FQAO5iZbO5Q5vv0MJ5s.jpg",
      "popularity": 12.021,
      "adult": false,
      "known_for_department": "Acting"
    },
    {
      "id": 148360,
      "name": "Ajith Kumar",
      "profile_path": "/bCS0pp7YNHoXJvHObBLoOJRUUYs.jpg",
      "popularity": 12.019,
      "adult": false,
      "known_for_department": "Acting"
    },
    {
      "id": 1009,
      "name": "Randolph Scott",
      "profile_path": "/qM2DNQ7kI9oZqAYfhzgKaGURCnm.jpg",
      "popularity": 12.019,
      "adult": false,
      "known_for_department": "Acting"
    },
    {
      "id": 1255055,
      "name": "Jessica Green",
      "profile_path": "/fIo9WCfnEQAK36Lrg5WWy77LS3K.jpg",
      "popularity": 12.018,
      "adult": false,
      "known_for_department": "Acting"
    },
    {
      "id": 127849,
      "name": "Choo Ja-hyun",
      "profile_path": "/iyDFZehw7cbQLZc2MHRxzJdgLZZ.jpg",
      "popularity": 12.017,
      "adult": false,
      "known_for_department": "Acting"
    },
    {
      "id": 33053,
      "name": "Chiara Zanni",
      "profile_path": "/dq1rqHIpRV9F5guFupyxglIix4a.jpg",
      "popularity": 12.017,
      "adult": false,
      "known_for_department": "Acting"
    },
    {
      "id": 6474,
      "name": "James Le Gros",
      "profile_path": "/rI6wK1WHBTYF9dYC04kUO0kr8oX.jpg",
      "popularity": 12.016,
      "adult": false,
      "known_for_department": "Acting"
    },
    {
      "id": 1702823,
      "name": "Rowan Smyth",
      "profile_path": "/wTZnjBMXAMwlNvkUKSaX828lASW.jpg",
      "popularity": 12.011,
      "adult": false,
      "known_for_department": "Acting"
    },
    {
      "id": 58501,
      "name": "Stephen Greif",
      "profile_path": "/xoxpKI8Y6EK0EC5o1uMvAguzsU3.jpg",
      "popularity": 12.011,
      "adult": false,
      "known_for_department": "Acting"
    },
    {
      "id": 15832,
      "name": "Gilbert Gottfried",
      "profile_path": "/hkkAgJD0HKcuyd8EuvhyN5vHcDQ.jpg",
      "popularity": 12.007,
      "adult": false,
      "known_for_department": "Acting"
    },
    {
      "id": 31892,
      "name": "Ruggero Maccari",
      "profile_path": "/rZV9FWHYpGXXBMUZwTVcj605bA3.jpg",
      "popularity": 12.005,
      "adult": false,
      "known_for_department": "Writing"
    },
    {
      "id": 29224,
      "name": "Nikki Blonsky",
      "profile_path": "/dTsVd4Mlt78S7sc7Wev10TWqrzq.jpg",
      "popularity": 12.005,
      "adult": false,
      "known_for_department": "Acting"
    }
  ]
}