{
  "page": 287,
  "total_results": 10000,
  "total_pages": 500,
  "results": [
    {
      "id": 47005,
      "name": "Alan Taylor",
      "profile_path": "/sXC2wNRo7lshghNnNaPdWQ9sqKe.jpg",
      "popularity": 10.155,
      "adult": false,
      "known_for_department": "Directing"
    },
    {
      "id": 139065,
      "name": "Tania Gunadi",
      "profile_path": "/wrMb0ca8398ZrojtU6R0Qc3N8u7.jpg",
      "popularity": 10.154,
      "adult": false,
      "known_for_department": "Acting"
    },
    {
      "id": 1310902,
      "name": "Bárbara de Regil",
      "profile_path": "/70TU7lNXo7AOY1zpe44OPpWb0it.jpg",
      "popularity": 10.153,
      "adult": false,
      "known_for_department": "Acting"
    },
    {
      "id": 51583,
      "name": "Mitchel Musso",
      "profile_path": "/4jEUc7CxKj5URwl6lRGFVCS8MDW.jpg",
      "popularity": 10.152,
      "adult": false,
      "known_for_department": "Acting"
    },
    {
      "id": 211800,
      "name": "Colton Haynes",
      "profile_path": "/gBWDLczwlKDrWcgI8MY126GehEt.jpg",
      "popularity": 10.151,
      "adult": false,
      "known_for_department": "Acting"
    },
    {
      "id": 52947,
      "name": "Tim Kang",
      "profile_path": "/Ae7qMN6fJTut145qpeSn1NOu8yx.jpg",
      "popularity": 10.15,
      "adult": false,
      "known_for_department": "Acting"
    },
    {
      "id": 83735,
      "name": "Maimie McCoy",
      "profile_path": "/41Ia0Sj8tcS0iYbqzmDVGZe4wtk.jpg",
      "popularity": 10.149,
      "adult": false,
      "known_for_department": "Acting"
    },
    {
      "id": 1449596,
      "name": "Jaz Sinclair",
      "profile_path": "/eReY9KBXXFpcEyTg7M882AE9qiZ.jpg",
      "popularity": 10.147,
      "adult": false,
      "known_for_department": "Acting"
    },
    {
      "id": 106725,
      "name": "Kathryn Davis",
      "profile_path": "/hs3fjziV9U4cmw4Px92KRbfE1Ea.jpg",
      "popularity": 10.147,
      "adult": false,
      "known_for_department": "Acting"
    },
    {
      "id": 29508,
      "name": "Barret Oliver",
      "profile_path": "/vOeWhBtVkfdCwIU0wyaJEQktwvU.jpg",
      "popularity": 10.146,
      "adult": false,
      "known_for_department": "Acting"
    },
    {
      "id": 12453,
      "name": "Wong Kar-wai",
      "profile_path": "/gWfo3lseDx5h9YzsfnaVblG3S6c.jpg",
      "popularity": 10.146,
      "adult": false,
      "known_for_department": "Directing"
    },
    {
      "id": 1381186,
      "name": "Stephanie Hsu",
      "profile_path": "/8gb3lfIHKQAGOQyeC4ynQPsCiHr.jpg",
      "popularity": 10.145,
      "adult": false,
      "known_for_department": "Acting"
    },
    {
      "id": 1776040,
      "name": "Asia Kate Dillon",
      "profile_path": "/jJutYe9XAaCrHyKGi3nIpCOwwkR.jpg",
      "popularity": 10.142,
      "adult": false,
      "known_for_department": "Acting"
    },
    {
      "id": 7520,
      "name": "Jeanette Nolan",
      "profile_path": "/qKldTH1vE5FYRDWmpSMqy1OSd5e.jpg",
      "popularity": 10.142,
      "adult": false,
      "known_for_department": "Acting"
    },
    {
      "id": 5847,
      "name": "David Kross",
      "profile_path": "/jRFxrLwiroTbGedG9uyXZghgxlX.jpg",
      "popularity": 10.142,
      "adult": false,
      "known_for_department": "Acting"
    },
    {
      "id": 1258530,
      "name": "Kadir Doğulu",
      "profile_path": "/3CGKCJajmO7TUcDN1fqW0XkLbHV.jpg",
      "popularity": 10.14,
      "adult": false,
      "known_for_department": "Acting"
    },
    {
      "id": 1222751,
      "name": "Gillian Alexy",
      "profile_path": "/j02m4gz3AWe9vLwsy4h2hVSBwXF.jpg",
      "popularity": 10.14,
      "adult": false,
      "known_for_department": "Acting"
    },
    {
      "id": 100567,
      "name": "Kerry O'Malley",
      "profile_path": "/8a1wpq7lC8S3XiokACHkJOqJv5v.jpg",
      "popularity": 10.14,
      "adult": false,
      "known_for_department": "Acting"
    },
    {
      "id": 24357,
      "name": "Alex Borstein",
      "profile_path": "/evbCnRe5Yfuy0B41PONLTIcvbem.jpg",
      "popularity": 10.14,
      "adult": false,
      "known_for_department": "Acting"
    },
    {
      "id": 12431,
      "name": "Carey Loftin",
      "profile_path": "/wpQnSduMm2iCtVrNT9kHo8c8aMH.jpg",
      "popularity": 10.14,
      "adult": false,
      "known_for_department": "Acting"
    }
  ]
}