{
  "page": 32,
  "total_results": 10000,
  "total_pages": 500,
  "results": [
    {
      "id": 11701,
      "name": "Angelina Jolie",
      "profile_path": "/k3W1XXddDOH2zibPkNotIh5amHo.jpg",
      "popularity": 27.379,
      "adult": false,
      "known_for_department": "Acting"
    },
    {
      "id": 53650,
      "name": "Anthony Mackie",
      "profile_path": "/kfTwOYr3iUucmYz8kPjhYy07G2Z.jpg",
      "popularity": 27.365,
      "adult": false,
      "known_for_department": "Acting"
    },
    {
      "id": 20212,
      "name": "Dermot Mulroney",
      "profile_path": "/5gJszOF45KMPB5tmAbKdK0qgQBx.jpg",
      "popularity": 27.348,
      "adult": false,
      "known_for_department": "Acting"
    },
    {
      "id": 935,
      "name": "Connie Nielsen",
      "profile_path": "/lvQypTfeH2Gn2PTbzq6XkT2PLmn.jpg",
      "popularity": 27.322,
      "adult": false,
      "known_for_department": "Acting"
    },
    {
      "id": 2,
      "name": "Mark Hamill",
      "profile_path": "/9Wws35pCsT0KoZpiV4Gk5nbn9ZD.jpg",
      "popularity": 27.316,
      "adult": false,
      "known_for_department": "Acting"
    },
    {
      "id": 1290466,
      "name": "Barry Keoghan",
      "profile_path": "/15xPjrzSbtXlbQUhmLpQUil4tCN.jpg",
      "popularity": 27.305,
      "adult": false,
      "known_for_department": "Acting"
    },
    {
      "id": 9195,
      "name": "Hiroyuki Sanada",
      "profile_path": "/x6QHfdTvuuOclypoPqtdqQmlaGW.jpg",
      "popularity": 27.292,
      "adult": false,
      "known_for_department": "Acting"
    },
    {
      "id": 439765,
      "name": "Christina Moore",
      "profile_path": "/t3pceZxbDAiBL4nxTZ6kQLjt9Wz.jpg",
      "popularity": 27.288,
      "adult": false,
      "known_for_department": "Acting"
    },
    {
      "id": 11684,
      "name": "Libuše Šafránková",
      "profile_path": "/ylfmsG8AZu65PXnDlvNyOn02Tfv.jpg",
      "popularity": 27.287,
      "adult": false,
      "known_for_department": "Acting"
    },
    {
      "id": 563643,
      "name": "Kaitlyn Leeb",
      "profile_path": "/cvvRNlbgFlEvorYDoVqBXGcQFaC.jpg",
      "popularity": 27.276,
      "adult": false,
      "known_for_department": "Acting"
    },
    {
      "id": 8891,
      "name": "John Travolta",
      "profile_path": "/sHjkE7GZbKAa9aZeiKrEBhMDT14.jpg",
      "popularity": 27.263,
      "adult": false,
      "known_for_department": "Acting"
    },
    {
      "id": 27260,
      "name": "Laila Robins",
      "profile_path": "/6ihD0IVKKKBqPO3gG3fXSiP8GMy.jpg",
      "popularity": 27.26,
      "adult": false,
      "known_for_department": "Acting"
    },
    {
      "id": 13445,
      "name": "Tia Carrere",
      "profile_path": "/rnHioNQkSmBAMgEBseu9bu6vw9l.jpg",
      "popularity": 27.258,
      "adult": false,
      "known_for_department": "Acting"
    },
    {
      "id": 74688,
      "name": "Keke Palmer",
      "profile_path": "/yoVqXwbTM8ckiWA1hV3LtMCzJyc.jpg",
      "popularity": 27.236,
      "adult": false,
      "known_for_department": "Acting"
    },
    {
      "id": 190895,
      "name": "Sarah Gadon",
      "profile_path": "/lNTuaaBaSxBHYcezJUGuH4lxq9w.jpg",
      "popularity": 27.2,
      "adult": false,
      "known_for_department": "Acting"
    },
    {
      "id": 113830,
      "name": "Chad Rosen",
      "profile_path": "",
      "popularity": 27.195,
      "adult": false,
      "known_for_department": "Directing"
    },
    {
      "id": 6587,
      "name": "Diane Ladd",
      "profile_path": "/2fmurzpgqZFYc8JzS64PHt0amon.jpg",
      "popularity": 27.177,
      "adult": false,
      "known_for_department": "Acting"
    },
    {
      "id": 78871,
      "name": "Wu Jing",
      "profile_path": "/s7DOAkkBII5JuS7CcjaifGnJZlG.jpg",
      "popularity": 27.156,
      "adult": false,
      "known_for_department": "Acting"
    },
    {
      "id": 237455,
      "name": "Sam Claflin",
      "profile_path": "/e5CU4tjCNZFfm7ITmZfzjZse2Bb.jpg",
      "popularity": 27.138,
      "adult": false,
      "known_for_department": "Acting"
    },
    {
      "id": 1537686,
      "name": "Naomi Ackie",
      "profile_path": "/vVHuadobY2lFRSYFJJK91T0WbZ9.jpg",
      "popularity": 27.118,
      "adult": false,
      "known_for_department": "Acting"
    }
  ]
}