{
  "page": 163,
  "total_results": 10000,
  "total_pages": 500,
  "results": [
    {
      "id": 8212,
      "name": "Peter Gallagher",
      "profile_path": "/paHKF5w1Yr0fIL1eKVMDQOmZB1n.jpg",
      "popularity": 11.407,
      "adult": false,
      "known_for_department": "Acting"
    },
    {
      "id": 52365,
      "name": "Cerina Vincent",
      "profile_path": "/cHo9jVK5zvGKf6EEHclV5hjj9WM.jpg",
      "popularity": 11.405,
      "adult": false,
      "known_for_department": "Acting"
    },
    {
      "id": 1057485,
      "name": "Tess Haubrich",
      "profile_path": "/pNvjKa3Rl2q681EM6kQrwbEfJeg.jpg",
      "popularity": 11.403,
      "adult": false,
      "known_for_department": "Acting"
    },
    {
      "id": 1400939,
      "name": "Jacqueline Byers",
      "profile_path": "/vgj4zlU5sqJ1EzRgUP3ikRwK4lW.jpg",
      "popularity": 11.4,
      "adult": false,
      "known_for_department": "Acting"
    },
    {
      "id": 34027,
      "name": "Stefania Sandrelli",
      "profile_path": "/aPmAstwHeEyN17UDKcSJf4OGBEQ.jpg",
      "popularity": 11.397,
      "adult": false,
      "known_for_department": "Acting"
    },
    {
      "id": 8442,
      "name": "Lyndsey Marshal",
      "profile_path": "/rhgtb80RXEIwL2LFw9L1nMxoRxd.jpg",
      "popularity": 11.397,
      "adult": false,
      "known_for_department": "Acting"
    },
    {
      "id": 18847,
      "name": "Irene Papas",
      "profile_path": "/ql3alLBiMWv6AkV0izHbXfpgcau.jpg",
      "popularity": 11.396,
      "adult": false,
      "known_for_department": "Acting"
    },
    {
      "id": 236696,
      "name": "Terry Notary",
      "profile_path": "/65ejJ9UI032VBb6t1qXuPjdkCbq.jpg",
      "popularity": 11.392,
      "adult": false,
      "known_for_department": "Acting"
    },
    {
      "id": 1281250,
      "name": "Rob Morgan",
      "profile_path": "/7akOKUKDYD7DAvQcQEt2cLPd57f.jpg",
      "popularity": 11.39,
      "adult": false,
      "known_for_department": "Acting"
    },
    {
      "id": 35472,
      "name": "Hilarie Burton",
      "profile_path": "/9tTERtp2F8uoeRGLDLpbhLuIYE9.jpg",
      "popularity": 11.39,
      "adult": false,
      "known_for_department": "Acting"
    },
    {
      "id": 115974,
      "name": "Adam Pally",
      "profile_path": "/yY13PEaVbPoXT5MkitVxTfdAZnU.jpg",
      "popularity": 11.389,
      "adult": false,
      "known_for_department": "Acting"
    },
    {
      "id": 13636,
      "name": "Jane Krakowski",
      "profile_path": "/hT9IGSgsE8VoWllOTtxR9JAoiK.jpg",
      "popularity": 11.388,
      "adult": false,
      "known_for_department": "Acting"
    },
    {
      "id": 30485,
      "name": "CCH Pounder",
      "profile_path": "/8IBLs1BkLZpOTVREt5yDusW1nim.jpg",
      "popularity": 11.387,
      "adult": false,
      "known_for_department": "Acting"
    },
    {
      "id": 1492992,
      "name": "Yuma Uchida",
      "profile_path": "/tfOQOXhENBO5VFgwl8xiJNZb0pE.jpg",
      "popularity": 11.386,
      "adult": false,
      "known_for_department": "Acting"
    },
    {
      "id": 109869,
      "name": "Kristen Schaal",
      "profile_path": "/s3LSHVTx8gxHP2twYsXEGa8JbLl.jpg",
      "popularity": 11.386,
      "adult": false,
      "known_for_department": "Acting"
    },
    {
      "id": 1175759,
      "name": "Jennifer Birmingham Lee",
      "profile_path": "/5jv9AsM2LstosQgIPfyvnb7i4zr.jpg",
      "popularity": 11.385,
      "adult": false,
      "known_for_department": "Acting"
    },
    {
      "id": 14408,
      "name": "Matthew Perry",
      "profile_path": "/ecDzkLWPV1z0x31I1GTjNmLxAHk.jpg",
      "popularity": 11.384,
      "adult": false,
      "known_for_department": "Acting"
    },
    {
      "id": 145025,
      "name": "Julieta Zylberberg",
      "profile_path": "/5U0DhTO4N9Vg2c7QMGDcqrtcsW6.jpg",
      "popularity": 11.383,
      "adult": false,
      "known_for_department": "Acting"
    },
    {
      "id": 1534,
      "name": "Chris Elliott",
      "profile_path": "/t8sdwz8iV7dQWQlYb2rPMKepT8h.jpg",
      "popularity": 11.383,
      "adult": false,
      "known_for_department": "Acting"
    },
    {
      "id": 4,
      "name": "Carrie Fisher",
      "profile_path": "/rfJtncHewKVnHjqpIZvjn24ESeC.jpg",
      "popularity": 11.381,
      "adult": false,
      "known_for_department": "Acting"
    }
  ]
}