{
  "page": 212,
  "total_results": 10000,
  "total_pages": 500,
  "results": [
    {
      "id": 120689,
      "name": "Yuriko Yoshitaka",
      "profile_path": "/Zqd3qjiVAfNtBcMAAUNPtvYDV8.jpg",
      "popularity": 12.894,
      "adult": false,
      "known_for_department": "Acting"
    },
    {
      "id": 99461,
      "name": "Cedric Hardwicke",
      "profile_path": "/4nKaHppmOSS958pXNuGiYQYT6b0.jpg",
      "popularity": 11.563,
      "adult": false,
      "known_for_department": "Acting"
    },
    {
      "id": 19899,
      "name": "Dennis Storhøi",
      "profile_path": "/oKIPuT0L0jiXfqXIBRzpqrojsPv.jpg",
      "popularity": 12.893,
      "adult": false,
      "known_for_department": "Acting"
    },
    {
      "id": 2071764,
      "name": "Jacqi Vene",
      "profile_path": "/7TBG8oXKs8dn14oCSf1enqoFRVU.jpg",
      "popularity": 9.208,
      "adult": false,
      "known_for_department": "Acting"
    },
    {
      "id": 17678,
      "name": "Rudy Youngblood",
      "profile_path": "/64HlxkHjgZ8oBxyosonWnSw2e9k.jpg",
      "popularity": 7.162,
      "adult": false,
      "known_for_department": "Acting"
    },
    {
      "id": 238609,
      "name": "Maya Stojan",
      "profile_path": "/nxHQa6syD3xqjnnlKNwOie6zp5G.jpg",
      "popularity": 9.162,
      "adult": false,
      "known_for_department": "Acting"
    },
    {
      "id": 1187106,
      "name": "Amber Stevens West",
      "profile_path": "/qETv9tHhB28ErtioBQWw7HaS352.jpg",
      "popularity": 12.362,
      "adult": false,
      "known_for_department": "Acting"
    },
    {
      "id": 1221085,
      "name": "Jessica Sula",
      "profile_path": "/rP0MExBh1CnsaO4HhOIog8ju7S7.jpg",
      "popularity": 12.886,
      "adult": false,
      "known_for_department": "Acting"
    },
    {
      "id": 1165384,
      "name": "Gaia Weiss",
      "profile_path": "/oGOA33Sj0i8WlVUGO6fE0jg0ZgV.jpg",
      "popularity": 12.761,
      "adult": false,
      "known_for_department": "Acting"
    },
    {
      "id": 6859,
      "name": "Mía Maestro",
      "profile_path": "/qRbV2yIrviokWENK7yhzNGGiWrr.jpg",
      "popularity": 5.961,
      "adult": false,
      "known_for_department": "Acting"
    },
    {
      "id": 1677354,
      "name": "Roan Curtis",
      "profile_path": "/zCr1NzKboownfvi1BQpHPCB5OlW.jpg",
      "popularity": 9.202,
      "adult": false,
      "known_for_department": "Acting"
    },
    {
      "id": 99854,
      "name": "John LaMotta",
      "profile_path": "/bBWjpmT920RgHx8wmPWMK4KaD0E.jpg",
      "popularity": 6.761,
      "adult": false,
      "known_for_department": "Acting"
    },
    {
      "id": 7907,
      "name": "John Ratzenberger",
      "profile_path": "/oRtDEOuIO1yDhTz5dORBdxXuLMO.jpg",
      "popularity": 11.961,
      "adult": false,
      "known_for_department": "Acting"
    },
    {
      "id": 90060,
      "name": "Pilou Asbæk",
      "profile_path": "/dslpTvB0HkPq1EYtzO0XiTiU7HL.jpg",
      "popularity": 12.881,
      "adult": false,
      "known_for_department": "Acting"
    },
    {
      "id": 154689,
      "name": "Bradley James",
      "profile_path": "/djYjl9kE2VPSO3qLnC8Jo3aD8d2.jpg",
      "popularity": 8.76,
      "adult": false,
      "known_for_department": "Acting"
    },
    {
      "id": 992869,
      "name": "Ayane Sakura",
      "profile_path": "/yPbTmntASE9psPIMhNGU5oo6vIH.jpg",
      "popularity": 12.879,
      "adult": false,
      "known_for_department": "Acting"
    },
    {
      "id": 912632,
      "name": "Jella Haase",
      "profile_path": "/uOfKMmIY0AruxUeeroESXTT9C74.jpg",
      "popularity": 9.959,
      "adult": false,
      "known_for_department": "Acting"
    },
    {
      "id": 1338902,
      "name": "Jaina Lee Ortiz",
      "profile_path": "/ikGhIZ1vXkkr2ocZO2xWjWEex5D.jpg",
      "popularity": 9.197,
      "adult": false,
      "known_for_department": "Acting"
    },
    {
      "id": 208539,
      "name": "Anna Hopkins",
      "profile_path": "/uL44Lc0ql6y3bmuGz9r7NvhBSKR.jpg",
      "popularity": 10.359,
      "adult": false,
      "known_for_department": "Acting"
    },
    {
      "id": 225039,
      "name": "Shunya Shiraishi",
      "profile_path": "/m2KYJ6DLItCvLjN8PAcPmqVfC29.jpg",
      "popularity": 7.159,
      "adult": false,
      "known_for_department": "Acting"
    }
  ]
}