{
  "page": 479,
  "total_results": 10000,
  "total_pages": 500,
  "results": [
    {
      "id": 92326,
      "name": "Constance Marie",
      "profile_path": "/4s5IKXj9gKHwNWjm8o5LgAkBVal.jpg",
      "popularity": 11.857,
      "adult": false,
      "known_for_department": "Acting"
    },
    {
      "id": 1254540,
      "name": "Fatih Artman",
      "profile_path": "/5XD3NAfCbqDGKFFVTE9QIRuFkjs.jpg",
      "popularity": 10.656,
      "adult": false,
      "known_for_department": "Acting"
    },
    {
      "id": 1228278,
      "name": "Dalmar Abuzeid",
      "profile_path": "/5n6O1B8UDNapDf5EqsRm8SLPMnF.jpg",
      "popularity": 10.656,
      "adult": false,
      "known_for_department": "Acting"
    },
    {
      "id": 1180003,
      "name": "Camille Mitchell",
      "profile_path": "/9DrBkwsqaqkhF8jiZdCsi5UPFZo.jpg",
      "popularity": 6.256,
      "adult": false,
      "known_for_department": "Acting"
    },
    {
      "id": 30664,
      "name": "Rosalba Neri",
      "profile_path": "/8Zc0qRbQw3Fo6VOWGmInYlPeAD2.jpg",
      "popularity": 7.056,
      "adult": false,
      "known_for_department": "Acting"
    },
    {
      "id": 19877,
      "name": "Dick York",
      "profile_path": "/jLN1mMJUEwuEKTkVuAptNhPMp6R.jpg",
      "popularity": 9.456,
      "adult": false,
      "known_for_department": "Acting"
    },
    {
      "id": 134991,
      "name": "Joey Yung",
      "profile_path": "/pfWDN1PYTJEWFwCh4NABfnfukCD.jpg",
      "popularity": 6.256,
      "adult": false,
      "known_for_department": "Acting"
    },
    {
      "id": 132300,
      "name": "Edith Diaz",
      "profile_path": "/8ZPoNnXBIir5Etjdwr8oWkuDn6b.jpg",
      "popularity": 5.312,
      "adult": false,
      "known_for_department": "Acting"
    },
    {
      "id": 116351,
      "name": "Lydia Shum Tin-Ha",
      "profile_path": "/kBBSrBpD9NcrQJ6AR8gxAqZIvk9.jpg",
      "popularity": 6.656,
      "adult": false,
      "known_for_department": "Acting"
    },
    {
      "id": 566796,
      "name": "Alexis Kendra",
      "profile_path": "/hygpp2m8QNckBkfuozhpI7qZnSg.jpg",
      "popularity": 5.311,
      "adult": false,
      "known_for_department": "Acting"
    },
    {
      "id": 2174283,
      "name": "Sin-Yi Yip",
      "profile_path": "/7w24Hzl7tCKFXv4VYc6PNwQvTPW.jpg",
      "popularity": 11.455,
      "adult": false,
      "known_for_department": "Acting"
    },
    {
      "id": 1240323,
      "name": "Sabine Moussier",
      "profile_path": "/A3hsfEIqtAOrv2UGhjoYU9AB5ON.jpg",
      "popularity": 6.255,
      "adult": false,
      "known_for_department": "Acting"
    },
    {
      "id": 220232,
      "name": "Luke Pasqualino",
      "profile_path": "/egwyqohJ3KLag4GUyTzXGngwTc1.jpg",
      "popularity": 8.255,
      "adult": false,
      "known_for_department": "Acting"
    },
    {
      "id": 166566,
      "name": "Marguerite MacIntyre",
      "profile_path": "/ignfCe6NuP6aioyDACoaRX1WryO.jpg",
      "popularity": 9.055,
      "adult": false,
      "known_for_department": "Acting"
    },
    {
      "id": 78685,
      "name": "Cameron Bancroft",
      "profile_path": "/6NB6mTfuFRmebqyI6srbEIB0iOV.jpg",
      "popularity": 11.055,
      "adult": false,
      "known_for_department": "Acting"
    },
    {
      "id": 35468,
      "name": "Amber Benson",
      "profile_path": "/kjTTZsimC54A4F4pQnimqy1DdOr.jpg",
      "popularity": 7.055,
      "adult": false,
      "known_for_department": "Acting"
    },
    {
      "id": 4040,
      "name": "Robert Wuhl",
      "profile_path": "/e01JiHVW5cdBkLu7aVDhRilfCvY.jpg",
      "popularity": 5.455,
      "adult": false,
      "known_for_department": "Acting"
    },
    {
      "id": 3218480,
      "name": "Roh Yoon-seo",
      "profile_path": "/A67wGhTozfav5saZ1Umi5f98Ezb.jpg",
      "popularity": 5.309,
      "adult": false,
      "known_for_department": "Acting"
    },
    {
      "id": 1409052,
      "name": "Natalie Eva Marie",
      "profile_path": "/tev8rynNDR9IVr8pxIOTovwhoZV.jpg",
      "popularity": 9.054,
      "adult": false,
      "known_for_department": "Acting"
    },
    {
      "id": 115874,
      "name": "Carlos Gómez",
      "profile_path": "/4uCM3Y4QS2uaRJBYf7Yi67VvPHl.jpg",
      "popularity": 7.454,
      "adult": false,
      "known_for_department": "Acting"
    }
  ]
}