{
  "page": 78,
  "total_results": 10000,
  "total_pages": 500,
  "results": [
    {
      "id": 510,
      "name": "Tim Burton",
      "profile_path": "/oWZDgLRr4zgRiJEsOAtgntPd5bI.jpg",
      "popularity": 17.961,
      "adult": false,
      "known_for_department": "Directing"
    },
    {
      "id": 26495,
      "name": "Jean Louisa Kelly",
      "profile_path": "/hUaXI2x27HNIKc4WXcnvNkl4wF9.jpg",
      "popularity": 17.952,
      "adult": false,
      "known_for_department": "Acting"
    },
    {
      "id": 15758,
      "name": "Queen Latifah",
      "profile_path": "/AeNoPcSWTsl1mOxiyXAKjVnzrwl.jpg",
      "popularity": 17.952,
      "adult": false,
      "known_for_department": "Acting"
    },
    {
      "id": 62562,
      "name": "David Denman",
      "profile_path": "/4I06ZD8SQ6pU1QYShiUXb711fJW.jpg",
      "popularity": 17.947,
      "adult": false,
      "known_for_department": "Acting"
    },
    {
      "id": 1907,
      "name": "Kathy Baker",
      "profile_path": "/c5MAs0tvUg9pdxbayxRAFLm0Qz5.jpg",
      "popularity": 17.941,
      "adult": false,
      "known_for_department": "Acting"
    },
    {
      "id": 56128,
      "name": "Kristy Swanson",
      "profile_path": "/8gPVElKDCBllmfIP0pjZL9zISKv.jpg",
      "popularity": 17.936,
      "adult": false,
      "known_for_department": "Acting"
    },
    {
      "id": 3381,
      "name": "Glenn Ford",
      "profile_path": "/sfxVbuqKvMn9Xw1TSEkEhM52Lz9.jpg",
      "popularity": 17.932,
      "adult": false,
      "known_for_department": "Acting"
    },
    {
      "id": 478,
      "name": "Jamie Bell",
      "profile_path": "/xAfNYOJYOy5ee9PHbBF8Y6xzZ9I.jpg",
      "popularity": 17.932,
      "adult": false,
      "known_for_department": "Acting"
    },
    {
      "id": 62001,
      "name": "Dee Wallace",
      "profile_path": "/z4IALJKVQhxBqzI5ayUnvUMYaEG.jpg",
      "popularity": 17.922,
      "adult": false,
      "known_for_department": "Acting"
    },
    {
      "id": 122616,
      "name": "Grant Gustin",
      "profile_path": "/kEGU1gGySIe63lyL7AnwXEw4rQn.jpg",
      "popularity": 17.917,
      "adult": false,
      "known_for_department": "Acting"
    },
    {
      "id": 13848,
      "name": "Charlie Chaplin",
      "profile_path": "/lRI9Ky1SMOehn04OqhYJ5hQfgIK.jpg",
      "popularity": 17.909,
      "adult": false,
      "known_for_department": "Acting"
    },
    {
      "id": 66,
      "name": "Chris Tucker",
      "profile_path": "/xtAK4hFyDjSYhZ9oRhppuVcLi80.jpg",
      "popularity": 17.906,
      "adult": false,
      "known_for_department": "Acting"
    },
    {
      "id": 1488952,
      "name": "Mary Holland",
      "profile_path": "/iwEK2fIrU1q7aijjD8FI9hCUMEL.jpg",
      "popularity": 17.886,
      "adult": false,
      "known_for_department": "Acting"
    },
    {
      "id": 21029,
      "name": "Billy Burke",
      "profile_path": "/cpr1dS5eiKChNNlQbNiaHGo4Dks.jpg",
      "popularity": 17.868,
      "adult": false,
      "known_for_department": "Acting"
    },
    {
      "id": 26042,
      "name": "Jerry Stiller",
      "profile_path": "/eGymLHTpIyxKyBjACsNTpEof6y4.jpg",
      "popularity": 17.862,
      "adult": false,
      "known_for_department": "Acting"
    },
    {
      "id": 1224072,
      "name": "Emy Coligado",
      "profile_path": "/fwbuK9EevdeUxwuL0QGf3MUdZZt.jpg",
      "popularity": 17.858,
      "adult": false,
      "known_for_department": "Acting"
    },
    {
      "id": 1613836,
      "name": "Rowoon",
      "profile_path": "/sOTYcl8SGmtxpWq0EQKJhX8dztr.jpg",
      "popularity": 17.854,
      "adult": false,
      "known_for_department": "Acting"
    },
    {
      "id": 53256,
      "name": "Terry Crews",
      "profile_path": "/pxTY4SglLo5hFcMH00MxPeC5u55.jpg",
      "popularity": 17.854,
      "adult": false,
      "known_for_department": "Acting"
    },
    {
      "id": 59153,
      "name": "Robin Givens",
      "profile_path": "/iF7JVhxEcDqXEVBKNdSK9Bfwz6W.jpg",
      "popularity": 17.853,
      "adult": false,
      "known_for_department": "Acting"
    },
    {
      "id": 3124,
      "name": "Valeria Golino",
      "profile_path": "/k7LQlRNI2YU3u6QGlvAMNbhq3AA.jpg",
      "popularity": 17.85,
      "adult": false,
      "known_for_department": "Acting"
    }
  ]
}