{
  "page": 428,
  "total_results": 10000,
  "total_pages": 500,
  "results": [
    {
      "id": 58317,
      "name": "Chris Kattan",
      "profile_path": "/oOu6buxGUSakpxDrm1V9WOfbhcP.jpg",
      "popularity": 8.313,
      "adult": false,
      "known_for_department": "Acting"
    },
    {
      "id": 495384,
      "name": "Jeany Spark",
      "profile_path": "/bPCssX8FURXC4IzZKa4mnnELYBH.jpg",
      "popularity": 8.312,
      "adult": false,
      "known_for_department": "Acting"
    },
    {
      "id": 27568,
      "name": "Jennifer Rhodes",
      "profile_path": "/dwEd76KplNjpu1Z6eHVPOpsZ9JG.jpg",
      "popularity": 8.312,
      "adult": false,
      "known_for_department": "Acting"
    },
    {
      "id": 1532457,
      "name": "Debora Calì",
      "profile_path": "/exVpFAQcfOqztCL3xTGcFMpOCRE.jpg",
      "popularity": 8.311,
      "adult": false,
      "known_for_department": "Acting"
    },
    {
      "id": 105303,
      "name": "Fred Melamed",
      "profile_path": "/cb5HSNuu6n4OVuxxQCDd5CfEocb.jpg",
      "popularity": 8.311,
      "adult": false,
      "known_for_department": "Acting"
    },
    {
      "id": 1584425,
      "name": "Deniz Hamzaoğlu",
      "profile_path": "/dCNOuJeu8IPJGmseGWmlWquOPUb.jpg",
      "popularity": 8.31,
      "adult": false,
      "known_for_department": "Acting"
    },
    {
      "id": 209769,
      "name": "Chad Connell",
      "profile_path": "/fZGUfNyyaZK5nSdFTZYzqmbBI1g.jpg",
      "popularity": 8.31,
      "adult": false,
      "known_for_department": "Acting"
    },
    {
      "id": 19111,
      "name": "John Anderson",
      "profile_path": "/wcliAvgKHkwUmxkMUIGETp9tk1d.jpg",
      "popularity": 8.31,
      "adult": false,
      "known_for_department": "Acting"
    },
    {
      "id": 12299,
      "name": "Richard Bakalyan",
      "profile_path": "/a9dYf0sOQ2Eh3WydfkDxW3e2Tl4.jpg",
      "popularity": 8.31,
      "adult": false,
      "known_for_department": "Acting"
    },
    {
      "id": 58014,
      "name": "Rossif Sutherland",
      "profile_path": "/25N7FFIGuPxSTCMqe0vrywzPwnv.jpg",
      "popularity": 8.309,
      "adult": false,
      "known_for_department": "Acting"
    },
    {
      "id": 14773,
      "name": "Don Siegel",
      "profile_path": "/wjhr8oJr3fVfOphN7lIlr0R6nF9.jpg",
      "popularity": 8.309,
      "adult": false,
      "known_for_department": "Directing"
    },
    {
      "id": 76094,
      "name": "Oscar Nunez",
      "profile_path": "/UBILHiRphJdlshvsyH920QSAhk.jpg",
      "popularity": 8.308,
      "adult": false,
      "known_for_department": "Acting"
    },
    {
      "id": 49056,
      "name": "Martin Wuttke",
      "profile_path": "/dwfIFtkMSgbvDEzRf0l6JuoD9YI.jpg",
      "popularity": 8.308,
      "adult": false,
      "known_for_department": "Acting"
    },
    {
      "id": 26714,
      "name": "John R. Leonetti",
      "profile_path": "/uksq1bamaA4MfpBPaP4Vv8BvLpu.jpg",
      "popularity": 8.308,
      "adult": false,
      "known_for_department": "Camera"
    },
    {
      "id": 1894876,
      "name": "Sarah McDaniel",
      "profile_path": "/rwGNaIcFdqJRZd285YQwA4Kfsg3.jpg",
      "popularity": 8.307,
      "adult": false,
      "known_for_department": "Acting"
    },
    {
      "id": 1267122,
      "name": "Rory Fleck-Byrne",
      "profile_path": "/iwPrSa41IxD5jy3Fb7IVF0O5DQ2.jpg",
      "popularity": 8.307,
      "adult": false,
      "known_for_department": "Acting"
    },
    {
      "id": 1098756,
      "name": "Brittany Ishibashi",
      "profile_path": "/uTXo3K7aRmosxQO3iLfSr3PDmbB.jpg",
      "popularity": 8.306,
      "adult": false,
      "known_for_department": "Acting"
    },
    {
      "id": 551171,
      "name": "Cho Seong-ha",
      "profile_path": "/rVJRXGHjDSWkC58SgBYfMbeAm1t.jpg",
      "popularity": 8.306,
      "adult": false,
      "known_for_department": "Acting"
    },
    {
      "id": 80595,
      "name": "Rob Huebel",
      "profile_path": "/uHz2fiBMRz2E6GmAH5sRJNvKHWI.jpg",
      "popularity": 8.306,
      "adult": false,
      "known_for_department": "Acting"
    },
    {
      "id": 4789,
      "name": "Bob Peck",
      "profile_path": "/fkGw728ZherxOwfa2uPMOoYPX6h.jpg",
      "popularity": 8.306,
      "adult": false,
      "known_for_department": "Acting"
    }
  ]
}