{
  "page": 166,
  "total_results": 10000,
  "total_pages": 500,
  "results": [
    {
      "id": 2308574,
      "name": "Vinessa Vidotto",
      "profile_path": "/koxSlGHIICDuAZV0tuZD5VPm0Sn.jpg",
      "popularity": 13.74,
      "adult": false,
      "known_for_department": "Acting"
    },
    {
      "id": 10991,
      "name": "Bonnie Wright",
      "profile_path": "/eCDdCvGYYlUM3neNJ1dwaPEgzqG.jpg",
      "popularity": 13.739,
      "adult": false,
      "known_for_department": "Acting"
    },
    {
      "id": 208296,
      "name": "Callan Mulvey",
      "profile_path": "/dSTWVK03Ajl1mWViJxMPypQUgqB.jpg",
      "popularity": 13.738,
      "adult": false,
      "known_for_department": "Acting"
    },
    {
      "id": 1701963,
      "name": "Vin Zhang",
      "profile_path": "/vrij0eAMVJcN9TPSgZpI10TKclz.jpg",
      "popularity": 13.734,
      "adult": false,
      "known_for_department": "Acting"
    },
    {
      "id": 1398499,
      "name": "Ludwig Simon",
      "profile_path": "/w39LU1NZ1PSJIO8OA30kYTnRf0F.jpg",
      "popularity": 13.732,
      "adult": false,
      "known_for_department": "Acting"
    },
    {
      "id": 15740,
      "name": "Tim McMullan",
      "profile_path": "/7RaL5N5riQlgdjEvgK4hWJie4mc.jpg",
      "popularity": 13.731,
      "adult": false,
      "known_for_department": "Acting"
    },
    {
      "id": 1111158,
      "name": "Albrecht Schuch",
      "profile_path": "/bYqsnHVbaLTnffo4Dj5UiyPBm4U.jpg",
      "popularity": 13.73,
      "adult": false,
      "known_for_department": "Acting"
    },
    {
      "id": 1078608,
      "name": "Lorenza Izzo",
      "profile_path": "/cGjEIwvt4YUOqX0twIMcnzjMKmZ.jpg",
      "popularity": 13.727,
      "adult": false,
      "known_for_department": "Acting"
    },
    {
      "id": 1982522,
      "name": "Song Weilong",
      "profile_path": "/kpW26ZAwRLLqiS0cgjBEFAlgnUk.jpg",
      "popularity": 13.726,
      "adult": false,
      "known_for_department": "Acting"
    },
    {
      "id": 87287,
      "name": "Bonnie Aarons",
      "profile_path": "/iEtWuoXKx4ZKbIWwJp1V76Heavy.jpg",
      "popularity": 13.723,
      "adult": false,
      "known_for_department": "Acting"
    },
    {
      "id": 26716,
      "name": "Heather Burns",
      "profile_path": "/h9FejPeZ5n8U5rYB5Yqd73l2ZID.jpg",
      "popularity": 13.721,
      "adult": false,
      "known_for_department": "Acting"
    },
    {
      "id": 582512,
      "name": "Anna Chipovskaya",
      "profile_path": "/sEvuuclZdZ8wP8quzclCQrzud7Z.jpg",
      "popularity": 13.719,
      "adult": false,
      "known_for_department": "Acting"
    },
    {
      "id": 951643,
      "name": "Tobias Jelinek",
      "profile_path": "/rGHghEJ13ez2uvTQ3SNPB7LoW75.jpg",
      "popularity": 13.716,
      "adult": false,
      "known_for_department": "Acting"
    },
    {
      "id": 53755,
      "name": "Elizabeth Reaser",
      "profile_path": "/tx2shpuofbAmmIoUXpXxqQ9exZM.jpg",
      "popularity": 13.71,
      "adult": false,
      "known_for_department": "Acting"
    },
    {
      "id": 1103,
      "name": "Bill Duke",
      "profile_path": "/3g2ggBB7hGq1gnQwiJtHgfX2AbF.jpg",
      "popularity": 13.706,
      "adult": false,
      "known_for_department": "Acting"
    },
    {
      "id": 71815,
      "name": "Emily Meade",
      "profile_path": "/dFYKyYUxjpfWHT4830CE3uTtLJY.jpg",
      "popularity": 13.699,
      "adult": false,
      "known_for_department": "Acting"
    },
    {
      "id": 1529426,
      "name": "Graham Verchere",
      "profile_path": "/hrbWtaERuDQsBQVArA3nJhPO8dC.jpg",
      "popularity": 13.696,
      "adult": false,
      "known_for_department": "Acting"
    },
    {
      "id": 37233,
      "name": "Kareena Kapoor Khan",
      "profile_path": "/pJZJJ93NwJq3kb3RWtaZBYVga1x.jpg",
      "popularity": 13.696,
      "adult": false,
      "known_for_department": "Acting"
    },
    {
      "id": 25834,
      "name": "Leslie Hope",
      "profile_path": "/pLvZqTqyAh0YmC7egk460I5py42.jpg",
      "popularity": 13.695,
      "adult": false,
      "known_for_department": "Acting"
    },
    {
      "id": 9144,
      "name": "Sally Phillips",
      "profile_path": "/xLEMZhksdCEO8HUhQLNetkETLdr.jpg",
      "popularity": 13.689,
      "adult": false,
      "known_for_department": "Acting"
    }
  ]
}