{
  "page": 310,
  "total_results": 10000,
  "total_pages": 500,
  "results": [
    {
      "id": 1462923,
      "name": "Eleanor Worthington-Cox",
      "profile_path": "/jc3Dtrxff8huEkeXnntitCDaJWa.jpg",
      "popularity": 9.838,
      "adult": false,
      "known_for_department": "Acting"
    },
    {
      "id": 110421,
      "name": "Hanna Mangan Lawrence",
      "profile_path": "/mVvrN5zYrMbIMiBv8bgpfp0YSC6.jpg",
      "popularity": 9.838,
      "adult": false,
      "known_for_department": "Acting"
    },
    {
      "id": 95939,
      "name": "Brittney Powell",
      "profile_path": "/xDnCZiA9t38obKj48owSd2xGX1w.jpg",
      "popularity": 9.838,
      "adult": false,
      "known_for_department": "Acting"
    },
    {
      "id": 29384,
      "name": "Sheila McCarthy",
      "profile_path": "/wIe1srcx1lllkE66Jx5j9mV2BEc.jpg",
      "popularity": 9.838,
      "adult": false,
      "known_for_department": "Acting"
    },
    {
      "id": 28010,
      "name": "David Ogden Stiers",
      "profile_path": "/cgCTQt3RZVkhkusG77l4HwHEH6A.jpg",
      "popularity": 9.838,
      "adult": false,
      "known_for_department": "Acting"
    },
    {
      "id": 39481,
      "name": "Jordana Spiro",
      "profile_path": "/lYWTKhlMG9B2gEoCOCABqeRMbx3.jpg",
      "popularity": 9.837,
      "adult": false,
      "known_for_department": "Acting"
    },
    {
      "id": 59237,
      "name": "Margarita Levieva",
      "profile_path": "/7rSf7C5oKuvjgEBfe2GVv064Le.jpg",
      "popularity": 9.836,
      "adult": false,
      "known_for_department": "Acting"
    },
    {
      "id": 33741,
      "name": "Rita Hayworth",
      "profile_path": "/16JLreCJfJqCNYJO8fWkqkaPWlb.jpg",
      "popularity": 9.836,
      "adult": false,
      "known_for_department": "Acting"
    },
    {
      "id": 142953,
      "name": "Mini Anden",
      "profile_path": "/rcj3F06hSX47Xui11KEfGSPuBgF.jpg",
      "popularity": 9.834,
      "adult": false,
      "known_for_department": "Acting"
    },
    {
      "id": 81083,
      "name": "Max Burkholder",
      "profile_path": "/8uNNDZPSxLsNetHPl1zxMwKULTC.jpg",
      "popularity": 9.834,
      "adult": false,
      "known_for_department": "Acting"
    },
    {
      "id": 1976054,
      "name": "Rachel Sennott",
      "profile_path": "/fI9Fu7s5KHkdcYWQMAZW4PMY7h2.jpg",
      "popularity": 9.831,
      "adult": false,
      "known_for_department": "Acting"
    },
    {
      "id": 934289,
      "name": "Kiernan Shipka",
      "profile_path": "/aZeL5x1QfJ9LVpXfpTzyQilJTjN.jpg",
      "popularity": 9.831,
      "adult": false,
      "known_for_department": "Acting"
    },
    {
      "id": 31715,
      "name": "Azura Skye",
      "profile_path": "/xy1wzIxo8RHGbwhlA8LseFt1pjm.jpg",
      "popularity": 9.831,
      "adult": false,
      "known_for_department": "Acting"
    },
    {
      "id": 16433,
      "name": "James Gammon",
      "profile_path": "/ars75g9cpq6fqOSLDo3voNkZcak.jpg",
      "popularity": 9.831,
      "adult": false,
      "known_for_department": "Acting"
    },
    {
      "id": 1165923,
      "name": "Adrienne Warren",
      "profile_path": "/63mdRoeaM2svLAL1t2d6anwE1ZB.jpg",
      "popularity": 9.83,
      "adult": false,
      "known_for_department": "Acting"
    },
    {
      "id": 1155473,
      "name": "Emma Greenwell",
      "profile_path": "/3c7zvchL0X6i3ptUgQk7WnJnZQQ.jpg",
      "popularity": 9.83,
      "adult": false,
      "known_for_department": "Acting"
    },
    {
      "id": 83735,
      "name": "Maimie McCoy",
      "profile_path": "/41Ia0Sj8tcS0iYbqzmDVGZe4wtk.jpg",
      "popularity": 9.829,
      "adult": false,
      "known_for_department": "Acting"
    },
    {
      "id": 82725,
      "name": "Álex Pina",
      "profile_path": "/hMKcFPRKo0I4WLBvkvppyBFDGr8.jpg",
      "popularity": 9.829,
      "adult": false,
      "known_for_department": "Creator"
    },
    {
      "id": 9998,
      "name": "Joey Slotnick",
      "profile_path": "/AbQMBdomzhuqKC27LVWkurWfIms.jpg",
      "popularity": 9.826,
      "adult": false,
      "known_for_department": "Acting"
    },
    {
      "id": 28637,
      "name": "Andy Richter",
      "profile_path": "/qazhLkyKOsPmdOQSaUWWbbUjs9q.jpg",
      "popularity": 9.825,
      "adult": false,
      "known_for_department": "Acting"
    }
  ]
}