{
  "page": 210,
  "total_results": 10000,
  "total_pages": 500,
  "results": [
    {
      "id": 71610,
      "name": "Anders Danielsen Lie",
      "profile_path": "/7qdJdzFFXhoSVvBCi53ryF1wkCn.jpg",
      "popularity": 12.67,
      "adult": false,
      "known_for_department": "Acting"
    },
    {
      "id": 44185,
      "name": "Judith Scott",
      "profile_path": "/h1oDVb4GuihdB1hgrr8Zqm9kagm.jpg",
      "popularity": 12.663,
      "adult": false,
      "known_for_department": "Acting"
    },
    {
      "id": 50304,
      "name": "James Arness",
      "profile_path": "/hLz1Lo6sfoLfFVlwnOSKMS2c1gY.jpg",
      "popularity": 12.658,
      "adult": false,
      "known_for_department": "Acting"
    },
    {
      "id": 70093,
      "name": "Rebecka Liljeberg",
      "profile_path": "/r9R0aaIgZ35cwbyJYbKpxOJlIYJ.jpg",
      "popularity": 12.655,
      "adult": false,
      "known_for_department": "Acting"
    },
    {
      "id": 65831,
      "name": "Robert LaSardo",
      "profile_path": "/maezwGo8JUbjECLB6VZJPtGvn1B.jpg",
      "popularity": 12.655,
      "adult": false,
      "known_for_department": "Acting"
    },
    {
      "id": 1210485,
      "name": "Alyson Bath",
      "profile_path": "/b0W87Tlaj7w4Gz66XUfSQKCkQ51.jpg",
      "popularity": 12.653,
      "adult": false,
      "known_for_department": "Acting"
    },
    {
      "id": 115792,
      "name": "Masako Katsuki",
      "profile_path": "/szBdXm77jVvvHLaDoxEs9Nl9dtF.jpg",
      "popularity": 12.653,
      "adult": false,
      "known_for_department": "Acting"
    },
    {
      "id": 20519,
      "name": "Simon Yam",
      "profile_path": "/uuLDU1eebQ2eBFtzUrk1mWvNB2m.jpg",
      "popularity": 12.65,
      "adult": false,
      "known_for_department": "Acting"
    },
    {
      "id": 1223084,
      "name": "Mary Mouser",
      "profile_path": "/A5AMjqFB5SqWdZh4gOBGQNXK8vf.jpg",
      "popularity": 12.649,
      "adult": false,
      "known_for_department": "Acting"
    },
    {
      "id": 1298489,
      "name": "Megan Montaner",
      "profile_path": "/e765CPp0w9L1lo9081U5bBMr0pq.jpg",
      "popularity": 12.646,
      "adult": false,
      "known_for_department": "Acting"
    },
    {
      "id": 78501,
      "name": "Melissa Joan Hart",
      "profile_path": "/t0Cb1l7owqKE7Aj3cNlnS94lXUV.jpg",
      "popularity": 12.645,
      "adult": false,
      "known_for_department": "Acting"
    },
    {
      "id": 8516,
      "name": "John Carradine",
      "profile_path": "/hv2AAXNlTHVmGgXn8q7025S0g2b.jpg",
      "popularity": 12.645,
      "adult": false,
      "known_for_department": "Acting"
    },
    {
      "id": 1577369,
      "name": "Elisha Applebaum",
      "profile_path": "/62OOS8AHSXfxJ5nxmLVrMdJtq2i.jpg",
      "popularity": 12.644,
      "adult": false,
      "known_for_department": "Acting"
    },
    {
      "id": 16850,
      "name": "Rose McGowan",
      "profile_path": "/38zwwYnEWfATlVTSZ2tOSHtCd3k.jpg",
      "popularity": 12.643,
      "adult": false,
      "known_for_department": "Acting"
    },
    {
      "id": 3283,
      "name": "Margaret Travolta",
      "profile_path": "/r9bQhcoB7iBbUu4NF5JWLopjSnj.jpg",
      "popularity": 12.638,
      "adult": false,
      "known_for_department": "Acting"
    },
    {
      "id": 67247,
      "name": "Atanas Srebrev",
      "profile_path": "/aW9keIvjMkH9YAMQDEyJayAs7oy.jpg",
      "popularity": 12.637,
      "adult": false,
      "known_for_department": "Acting"
    },
    {
      "id": 57167,
      "name": "Jere Burns",
      "profile_path": "/nAWNCtD4DDOIAR63zVA4XZ4C8eg.jpg",
      "popularity": 12.636,
      "adult": false,
      "known_for_department": "Acting"
    },
    {
      "id": 94864,
      "name": "Max Martini",
      "profile_path": "/3J9qjWkft7LsmHuQ0GHPnPIToOF.jpg",
      "popularity": 12.634,
      "adult": false,
      "known_for_department": "Acting"
    },
    {
      "id": 58866,
      "name": "Dana Wheeler-Nicholson",
      "profile_path": "/o0K0IcFTpcl8TwTEziXmW2fX4Wv.jpg",
      "popularity": 12.634,
      "adult": false,
      "known_for_department": "Acting"
    },
    {
      "id": 20811,
      "name": "Lisa Brenner",
      "profile_path": "/2tc86AD6LOemR6UP2B0LsRWJB8u.jpg",
      "popularity": 12.632,
      "adult": false,
      "known_for_department": "Acting"
    }
  ]
}