{
  "page": 203,
  "total_results": 10000,
  "total_pages": 500,
  "results": [
    {
      "id": 1988801,
      "name": "Lillian Doucet-Roche",
      "profile_path": "/nspOpe1oXYpqSjEFd6Gebe5UKAl.jpg",
      "popularity": 11.567,
      "adult": false,
      "known_for_department": "Acting"
    },
    {
      "id": 9126,
      "name": "Edward Fox",
      "profile_path": "/mRAgZvRscftn6roAKdLQwrrrWrS.jpg",
      "popularity": 11.567,
      "adult": false,
      "known_for_department": "Acting"
    },
    {
      "id": 2417582,
      "name": "Johnny Sibilly",
      "profile_path": "/vjxgDxdhemq7slm2U9PnfRJXaJh.jpg",
      "popularity": 11.563,
      "adult": false,
      "known_for_department": "Acting"
    },
    {
      "id": 17487,
      "name": "John Gallagher Jr.",
      "profile_path": "/e4eEg5lH6Yk0OkpieUoUYdzl2Ui.jpg",
      "popularity": 11.563,
      "adult": false,
      "known_for_department": "Acting"
    },
    {
      "id": 6692,
      "name": "Caroline Goodall",
      "profile_path": "/4cagGtMqACvkuw6Llq8Li8UJ1AR.jpg",
      "popularity": 11.561,
      "adult": false,
      "known_for_department": "Acting"
    },
    {
      "id": 17380,
      "name": "Jay Chou",
      "profile_path": "/9wkudnDDSHC0fSTRIrsoEphGuOM.jpg",
      "popularity": 11.555,
      "adult": false,
      "known_for_department": "Acting"
    },
    {
      "id": 183812,
      "name": "Jason O'Mara",
      "profile_path": "/hYylPvwMALoQU09r7tvCU24thh0.jpg",
      "popularity": 11.554,
      "adult": false,
      "known_for_department": "Acting"
    },
    {
      "id": 96066,
      "name": "Liam Hemsworth",
      "profile_path": "/As5ujeSSJRQN4TE3odg3kDk0b5o.jpg",
      "popularity": 11.554,
      "adult": false,
      "known_for_department": "Acting"
    },
    {
      "id": 54649,
      "name": "Louis Mandylor",
      "profile_path": "/tnNxkjimfJQ6rY87Ryr5R72KMRH.jpg",
      "popularity": 11.553,
      "adult": false,
      "known_for_department": "Acting"
    },
    {
      "id": 117508,
      "name": "Kim So-eun",
      "profile_path": "/xqqnT9Sgvm9sTufg5jTEdGQnv0z.jpg",
      "popularity": 11.552,
      "adult": false,
      "known_for_department": "Acting"
    },
    {
      "id": 1511997,
      "name": "Andi Matichak",
      "profile_path": "/8XGIcVo5flyPKIbaEQiw8cMXgBj.jpg",
      "popularity": 11.548,
      "adult": false,
      "known_for_department": "Acting"
    },
    {
      "id": 56614,
      "name": "Ray Stevenson",
      "profile_path": "/msafbswGI6uisRuNvQ8a1wMF5Ca.jpg",
      "popularity": 11.548,
      "adult": false,
      "known_for_department": "Acting"
    },
    {
      "id": 104795,
      "name": "Bill Paterson",
      "profile_path": "/mk5vpYLmER7asqOhEwVKXD3P3YE.jpg",
      "popularity": 11.545,
      "adult": false,
      "known_for_department": "Acting"
    },
    {
      "id": 36055,
      "name": "Costas Mandylor",
      "profile_path": "/2A4RYVm07NZCzOUKx6FaRisRfen.jpg",
      "popularity": 11.545,
      "adult": false,
      "known_for_department": "Acting"
    },
    {
      "id": 4970,
      "name": "Ruth Gordon",
      "profile_path": "/pkdm26bbDy1iJPsjbseJogMl1mQ.jpg",
      "popularity": 11.543,
      "adult": false,
      "known_for_department": "Acting"
    },
    {
      "id": 2117890,
      "name": "Byeon Woo-seok",
      "profile_path": "/zncWneej0zzw340EimyM39EWVvj.jpg",
      "popularity": 11.54,
      "adult": false,
      "known_for_department": "Acting"
    },
    {
      "id": 16165,
      "name": "Jon Lovitz",
      "profile_path": "/jBXSLoDEVwYkNqSVWHV9yDo8whA.jpg",
      "popularity": 11.538,
      "adult": false,
      "known_for_department": "Acting"
    },
    {
      "id": 133451,
      "name": "Aya Cash",
      "profile_path": "/kanvrW5ZdAS2MFmS0Pj9pSdR7p9.jpg",
      "popularity": 11.536,
      "adult": false,
      "known_for_department": "Acting"
    },
    {
      "id": 15397,
      "name": "Lino Ventura",
      "profile_path": "/j8D4ox5jSavrB7G8KrlxEIxivEq.jpg",
      "popularity": 11.532,
      "adult": false,
      "known_for_department": "Acting"
    },
    {
      "id": 76999,
      "name": "Jess Weixler",
      "profile_path": "/2X0PjIXMLPjm7opUGEq8X5lvqjV.jpg",
      "popularity": 11.528,
      "adult": false,
      "known_for_department": "Acting"
    }
  ]
}