{
  "page": 475,
  "total_results": 10000,
  "total_pages": 500,
  "results": [
    {
      "id": 2293954,
      "name": "Gordon Maeda",
      "profile_path": "/bJlMMUDaMrLSSGvpfcIkS3yApa9.jpg",
      "popularity": 7.592,
      "adult": false,
      "known_for_department": "Acting"
    },
    {
      "id": 1222751,
      "name": "Gillian Alexy",
      "profile_path": "/j02m4gz3AWe9vLwsy4h2hVSBwXF.jpg",
      "popularity": 7.591,
      "adult": false,
      "known_for_department": "Acting"
    },
    {
      "id": 65054,
      "name": "Rainer Bock",
      "profile_path": "/wLn46JXsZDt0pVnheUEWJZ8IvHo.jpg",
      "popularity": 7.591,
      "adult": false,
      "known_for_department": "Acting"
    },
    {
      "id": 120130,
      "name": "Giulia Michelini",
      "profile_path": "/kC3k7N3YCTXUKMioGr4oLtrqwYl.jpg",
      "popularity": 7.59,
      "adult": false,
      "known_for_department": "Acting"
    },
    {
      "id": 76095,
      "name": "Jennifer Finnigan",
      "profile_path": "/es41HztkQVSGjybkOpuNj71m34z.jpg",
      "popularity": 7.589,
      "adult": false,
      "known_for_department": "Acting"
    },
    {
      "id": 2251986,
      "name": "Aoi Koga",
      "profile_path": "/uVpwheVV4aPROyY1toYv3v5HSPD.jpg",
      "popularity": 7.588,
      "adult": false,
      "known_for_department": "Acting"
    },
    {
      "id": 1241330,
      "name": "Bashir Salahuddin",
      "profile_path": "/ZL5MRzjd6kWkvQXqh5mgPY1CKP.jpg",
      "popularity": 7.587,
      "adult": false,
      "known_for_department": "Acting"
    },
    {
      "id": 50760,
      "name": "Julie London",
      "profile_path": "/jORRCtkZ4C0Sagy4hqs0KAOG2ib.jpg",
      "popularity": 7.587,
      "adult": false,
      "known_for_department": "Acting"
    },
    {
      "id": 5713,
      "name": "Chris Wedge",
      "profile_path": "/bYiy2vcXgJq5XZdZ15uIhBhnBF8.jpg",
      "popularity": 7.587,
      "adult": false,
      "known_for_department": "Acting"
    },
    {
      "id": 200632,
      "name": "Felicity Kendal",
      "profile_path": "/8TuwT4vka66qLlnoP08pbguepPV.jpg",
      "popularity": 7.586,
      "adult": false,
      "known_for_department": "Acting"
    },
    {
      "id": 111685,
      "name": "Kim Shaw",
      "profile_path": "/6btY7SQuDKD2xXSBZRJolPErdeL.jpg",
      "popularity": 7.585,
      "adult": false,
      "known_for_department": "Acting"
    },
    {
      "id": 141956,
      "name": "Marc Evan Jackson",
      "profile_path": "/4TWP0nlhkxkZ5XzzZuz3RCoZjFX.jpg",
      "popularity": 7.584,
      "adult": false,
      "known_for_department": "Acting"
    },
    {
      "id": 14893,
      "name": "Linda Kash",
      "profile_path": "/ccPTXbfYWByydwccHjPercV2G1u.jpg",
      "popularity": 7.584,
      "adult": false,
      "known_for_department": "Acting"
    },
    {
      "id": 3279,
      "name": "Francesca De Sapio",
      "profile_path": "/rS0GiI3tx2HWvhHPNMIEw1f332s.jpg",
      "popularity": 7.584,
      "adult": false,
      "known_for_department": "Acting"
    },
    {
      "id": 1437073,
      "name": "Chloe Harris",
      "profile_path": "/xHM2WNnIrXSHYsS4wvIeIqD3Kbx.jpg",
      "popularity": 7.583,
      "adult": false,
      "known_for_department": "Acting"
    },
    {
      "id": 963429,
      "name": "Iris Apatow",
      "profile_path": "/12hYdiBlxXLh98oDjvyOrGAqoEN.jpg",
      "popularity": 7.582,
      "adult": false,
      "known_for_department": "Acting"
    },
    {
      "id": 43451,
      "name": "Iris Berben",
      "profile_path": "/pInPB6vJDaGlVQZn06pKoOCRhCN.jpg",
      "popularity": 7.582,
      "adult": false,
      "known_for_department": "Acting"
    },
    {
      "id": 35257,
      "name": "Timothy West",
      "profile_path": "/33jpCMYzJoQ9RXQzzzNhocfIAez.jpg",
      "popularity": 7.582,
      "adult": false,
      "known_for_department": "Acting"
    },
    {
      "id": 9186,
      "name": "Chad Lindberg",
      "profile_path": "/pBiIQrPTg55VOpBfdVJqVoEYqBN.jpg",
      "popularity": 7.582,
      "adult": false,
      "known_for_department": "Acting"
    },
    {
      "id": 2102052,
      "name": "Imani Lewis",
      "profile_path": "/g6yrWR9bCdrWPAl4fdHTXUltWRF.jpg",
      "popularity": 7.581,
      "adult": false,
      "known_for_department": "Acting"
    }
  ]
}