{
  "page": 327,
  "total_results": 10000,
  "total_pages": 500,
  "results": [
    {
      "id": 10681,
      "name": "Wayne Newton",
      "profile_path": "/v888Enog3fIBHXO5jYSS09BvJIj.jpg",
      "popularity": 10.288,
      "adult": false,
      "known_for_department": "Acting"
    },
    {
      "id": 10070,
      "name": "Mie Hama",
      "profile_path": "/6FcFY54cYhu0r0l5zdtYk5pNjhx.jpg",
      "popularity": 10.288,
      "adult": false,
      "known_for_department": "Acting"
    },
    {
      "id": 25146,
      "name": "Colin Ferguson",
      "profile_path": "/7SGIkq4AsacsqkrsRo95PJ9TiYI.jpg",
      "popularity": 10.286,
      "adult": false,
      "known_for_department": "Acting"
    },
    {
      "id": 68677,
      "name": "Hwang Jang-Lee",
      "profile_path": "/sG4wo8boeiNkYAh7A613ltkJGQr.jpg",
      "popularity": 10.284,
      "adult": false,
      "known_for_department": "Acting"
    },
    {
      "id": 13591,
      "name": "Richard Moll",
      "profile_path": "/p51OMBLWgsmf3qeprxszXHLmxKt.jpg",
      "popularity": 10.283,
      "adult": false,
      "known_for_department": "Acting"
    },
    {
      "id": 1578115,
      "name": "Sehun",
      "profile_path": "/hgs0LEGNE5aMZ3pYoT0NzPapFaZ.jpg",
      "popularity": 10.282,
      "adult": false,
      "known_for_department": "Acting"
    },
    {
      "id": 119520,
      "name": "Eric Close",
      "profile_path": "/njJYXuTlmCgI3VVHBFqkqrhiey3.jpg",
      "popularity": 10.282,
      "adult": false,
      "known_for_department": "Acting"
    },
    {
      "id": 80969,
      "name": "Genelle Williams",
      "profile_path": "/8bjEMbWHssGNrD8srvbISoWPc6U.jpg",
      "popularity": 10.282,
      "adult": false,
      "known_for_department": "Acting"
    },
    {
      "id": 26662,
      "name": "Jennifer O'Neill",
      "profile_path": "/vjFJFwJKa6QKqLbQnXUyeGZOl6I.jpg",
      "popularity": 10.282,
      "adult": false,
      "known_for_department": "Acting"
    },
    {
      "id": 1211,
      "name": "Larry Miller",
      "profile_path": "/ajnXlXG20LJwAwxne8G94ucVj0v.jpg",
      "popularity": 10.282,
      "adult": false,
      "known_for_department": "Acting"
    },
    {
      "id": 2034960,
      "name": "Griffin Santopietro",
      "profile_path": "/17qhVXBdsFh7AsuHGCRJGPJgsD1.jpg",
      "popularity": 10.281,
      "adult": false,
      "known_for_department": "Acting"
    },
    {
      "id": 2074237,
      "name": "Georgia Hirst",
      "profile_path": "/lnUhfcYBq1iCC5g8M6YmH4fhhTl.jpg",
      "popularity": 10.28,
      "adult": false,
      "known_for_department": "Acting"
    },
    {
      "id": 62332,
      "name": "Choi Sung-kook",
      "profile_path": "/cJABnA1fl25MkDtKro5ZyWIjurY.jpg",
      "popularity": 10.28,
      "adult": false,
      "known_for_department": "Acting"
    },
    {
      "id": 616,
      "name": "Gorō Naya",
      "profile_path": "/v5R3cjPEVeLRPWlZPziYP8ooV5w.jpg",
      "popularity": 10.28,
      "adult": false,
      "known_for_department": "Acting"
    },
    {
      "id": 185805,
      "name": "Jason Jones",
      "profile_path": "/gvvCYf3zBlJhJbVv2l0Ya2eRk5W.jpg",
      "popularity": 10.279,
      "adult": false,
      "known_for_department": "Acting"
    },
    {
      "id": 1381186,
      "name": "Stephanie Hsu",
      "profile_path": "/8gb3lfIHKQAGOQyeC4ynQPsCiHr.jpg",
      "popularity": 10.278,
      "adult": false,
      "known_for_department": "Acting"
    },
    {
      "id": 3281,
      "name": "Gastone Moschin",
      "profile_path": "/dU58seqJs1NDkNodjwCbGZg3nqT.jpg",
      "popularity": 10.278,
      "adult": false,
      "known_for_department": "Acting"
    },
    {
      "id": 112917,
      "name": "Stepfanie Kramer",
      "profile_path": "/1FvhYlcBt8aCmkoiAF3dVKy0U1a.jpg",
      "popularity": 10.277,
      "adult": false,
      "known_for_department": "Acting"
    },
    {
      "id": 1975658,
      "name": "Joshua Bassett",
      "profile_path": "/yWZFAlOUmQiQqgOH5N4wgzLaH4b.jpg",
      "popularity": 10.276,
      "adult": false,
      "known_for_department": "Acting"
    },
    {
      "id": 2599776,
      "name": "Andrew Rogers",
      "profile_path": "/oSBBuN3SWGeYIsIm1RkyK7qWPLj.jpg",
      "popularity": 10.275,
      "adult": false,
      "known_for_department": "Acting"
    }
  ]
}