{
  "page": 105,
  "total_results": 10000,
  "total_pages": 500,
  "results": [
    {
      "id": 21429,
      "name": "Sam Page",
      "profile_path": "/4eDEFtOhXFcELjAHKHJhVB6fLcc.jpg",
      "popularity": 15.716,
      "adult": false,
      "known_for_department": "Acting"
    },
    {
      "id": 100601,
      "name": "Audrey Landers",
      "profile_path": "/lydlXR8WqxVYUKe65drD2XC6X9c.jpg",
      "popularity": 15.71,
      "adult": false,
      "known_for_department": "Acting"
    },
    {
      "id": 65220,
      "name": "Danica McKellar",
      "profile_path": "/qVasJ8uKtvrntIXaPylneLW3ykf.jpg",
      "popularity": 15.709,
      "adult": false,
      "known_for_department": "Acting"
    },
    {
      "id": 824,
      "name": "Ethan Suplee",
      "profile_path": "/gGSb8P9nQdDNu0JC65zyAyMUFhS.jpg",
      "popularity": 15.7,
      "adult": false,
      "known_for_department": "Acting"
    },
    {
      "id": 72305,
      "name": "Lesley Manville",
      "profile_path": "/tioPlSoypjdME3oMu3g7XmgIIKS.jpg",
      "popularity": 15.689,
      "adult": false,
      "known_for_department": "Acting"
    },
    {
      "id": 231909,
      "name": "Amy Yip",
      "profile_path": "/8fIn0Sy9tPFmGBzyzKA5EzPrrjQ.jpg",
      "popularity": 15.686,
      "adult": false,
      "known_for_department": "Acting"
    },
    {
      "id": 148992,
      "name": "Austin Abrams",
      "profile_path": "/9pSpSAk9NsYC5puqAVsmSK3OSeu.jpg",
      "popularity": 15.686,
      "adult": false,
      "known_for_department": "Acting"
    },
    {
      "id": 29802,
      "name": "Marty Feldman",
      "profile_path": "/bNUinz6ZGp4F2ZVyuhrfD7ricXT.jpg",
      "popularity": 15.684,
      "adult": false,
      "known_for_department": "Acting"
    },
    {
      "id": 2109,
      "name": "Kim Cattrall",
      "profile_path": "/jDqSho6MUPdlaBfS56FVNSbPyIS.jpg",
      "popularity": 15.682,
      "adult": false,
      "known_for_department": "Acting"
    },
    {
      "id": 122503,
      "name": "Liu Yifei",
      "profile_path": "/cL6JccAYqiZQEAIEFObEUC9LTt7.jpg",
      "popularity": 15.68,
      "adult": false,
      "known_for_department": "Acting"
    },
    {
      "id": 221192,
      "name": "Kathryn Newton",
      "profile_path": "/26OEa0uS8552sVJakaCEHYvqOao.jpg",
      "popularity": 15.678,
      "adult": false,
      "known_for_department": "Acting"
    },
    {
      "id": 71010,
      "name": "Tom Conti",
      "profile_path": "/5wfZGnmk4tHKf5n4xVeavBpZTOM.jpg",
      "popularity": 15.668,
      "adult": false,
      "known_for_department": "Acting"
    },
    {
      "id": 62414,
      "name": "Yuen Biao",
      "profile_path": "/pgO9Im1QKPjLozvsWODLtZDTjw7.jpg",
      "popularity": 15.666,
      "adult": false,
      "known_for_department": "Acting"
    },
    {
      "id": 57207,
      "name": "Tony Jaa",
      "profile_path": "/AdN11kgJeKgjyWPRTGSHjSPzG7N.jpg",
      "popularity": 15.661,
      "adult": false,
      "known_for_department": "Acting"
    },
    {
      "id": 52639,
      "name": "Tom Wlaschiha",
      "profile_path": "/pWQEHReAOnjNF2N0s5TsQ12Qwyq.jpg",
      "popularity": 15.655,
      "adult": false,
      "known_for_department": "Acting"
    },
    {
      "id": 11505,
      "name": "John Hughes",
      "profile_path": "/1Pm0HXRXSwz5BON9HHNDLdl4HjZ.jpg",
      "popularity": 15.655,
      "adult": false,
      "known_for_department": "Writing"
    },
    {
      "id": 186448,
      "name": "Peter Tait",
      "profile_path": "/pizbLpSObBReMNDi5RyJIJdEN62.jpg",
      "popularity": 15.651,
      "adult": false,
      "known_for_department": "Acting"
    },
    {
      "id": 77096,
      "name": "Claire Lautier",
      "profile_path": "/eFhXJhon5Q9VEAvLJwrcIWFCW8j.jpg",
      "popularity": 15.649,
      "adult": false,
      "known_for_department": "Acting"
    },
    {
      "id": 1257671,
      "name": "Kim Woo-bin",
      "profile_path": "/wlhvJFDopS2XmMjKm2vVl8GT8dN.jpg",
      "popularity": 15.647,
      "adult": false,
      "known_for_department": "Acting"
    },
    {
      "id": 1151410,
      "name": "Jessica Raine",
      "profile_path": "/ciC1RRXK4mJLUbYL7hAXmdBfEtx.jpg",
      "popularity": 15.645,
      "adult": false,
      "known_for_department": "Acting"
    }
  ]
}